{"schemaVersion":"annojoin-atlas.v1","version":"V2.1_RMDB_LINE_A_20260617","atlasCaseKey":"RMDB2PDB:2K96","caseId":"2K96","routeKey":"track-routes","page":2,"pageSize":500,"totalRows":558,"pageCount":2,"rows":[{"profileId":"data-rna-structures/data-rna-structures/M2PK50_2A3_0000.rdat#34033","trackRouteId":"annojoin:track:RMDB2PDB:pairseg_2K96_sequence_000506","trackDataPath":"ANNOCONFIDENCE/assay_numeric_usability_annotation.tsv","trackSchemaId":"assay_numeric_usability_annotation","supports1d":true,"supportsTable":true,"colorPolicyId":"rmdb_reactivity_low_mid_high_v1"},{"profileId":"data-eterna/data-eterna/OK2TRN_DMS_0000.rdat#17258","trackRouteId":"annojoin:track:RMDB2PDB:pairseg_2K96_sequence_000507","trackDataPath":"ANNOCONFIDENCE/assay_numeric_usability_annotation.tsv","trackSchemaId":"assay_numeric_usability_annotation","supports1d":true,"supportsTable":true,"colorPolicyId":"rmdb_reactivity_low_mid_high_v1"},{"profileId":"data-eterna/data-eterna/OK2TRN_2A3_0000.rdat#17258","trackRouteId":"annojoin:track:RMDB2PDB:pairseg_2K96_sequence_000508","trackDataPath":"ANNOCONFIDENCE/assay_numeric_usability_annotation.tsv","trackSchemaId":"assay_numeric_usability_annotation","supports1d":true,"supportsTable":true,"colorPolicyId":"rmdb_reactivity_low_mid_high_v1"},{"profileId":"data-eterna/data-eterna/OK2TRN_DMS_0000.rdat#17203","trackRouteId":"annojoin:track:RMDB2PDB:pairseg_2K96_sequence_000509","trackDataPath":"ANNOCONFIDENCE/assay_numeric_usability_annotation.tsv","trackSchemaId":"assay_numeric_usability_annotation","supports1d":true,"supportsTable":true,"colorPolicyId":"rmdb_reactivity_low_mid_high_v1"},{"profileId":"data-eterna/data-eterna/OK2TRN_2A3_0000.rdat#17203","trackRouteId":"annojoin:track:RMDB2PDB:pairseg_2K96_sequence_000510","trackDataPath":"ANNOCONFIDENCE/assay_numeric_usability_annotation.tsv","trackSchemaId":"assay_numeric_usability_annotation","supports1d":true,"supportsTable":true,"colorPolicyId":"rmdb_reactivity_low_mid_high_v1"},{"profileId":"data-eterna/data-eterna/OK2TRN_DMS_0000.rdat#17284","trackRouteId":"annojoin:track:RMDB2PDB:pairseg_2K96_sequence_000511","trackDataPath":"ANNOCONFIDENCE/assay_numeric_usability_annotation.tsv","trackSchemaId":"assay_numeric_usability_annotation","supports1d":true,"supportsTable":true,"colorPolicyId":"rmdb_reactivity_low_mid_high_v1"},{"profileId":"data-eterna/data-eterna/OK2TRN_2A3_0000.rdat#17284","trackRouteId":"annojoin:track:RMDB2PDB:pairseg_2K96_sequence_000512","trackDataPath":"ANNOCONFIDENCE/assay_numeric_usability_annotation.tsv","trackSchemaId":"assay_numeric_usability_annotation","supports1d":true,"supportsTable":true,"colorPolicyId":"rmdb_reactivity_low_mid_high_v1"},{"profileId":"data-eterna/data-eterna/OK2TRN_2A3_0000.rdat#17283","trackRouteId":"annojoin:track:RMDB2PDB:pairseg_2K96_sequence_000513","trackDataPath":"ANNOCONFIDENCE/assay_numeric_usability_annotation.tsv","trackSchemaId":"assay_numeric_usability_annotation","supports1d":true,"supportsTable":true,"colorPolicyId":"rmdb_reactivity_low_mid_high_v1"},{"profileId":"data-eterna/data-eterna/OK2TRN_DMS_0000.rdat#17283","trackRouteId":"annojoin:track:RMDB2PDB:pairseg_2K96_sequence_000514","trackDataPath":"ANNOCONFIDENCE/assay_numeric_usability_annotation.tsv","trackSchemaId":"assay_numeric_usability_annotation","supports1d":true,"supportsTable":true,"colorPolicyId":"rmdb_reactivity_low_mid_high_v1"},{"profileId":"data-eterna/data-eterna/OK2TRN_DMS_0000.rdat#17268","trackRouteId":"annojoin:track:RMDB2PDB:pairseg_2K96_sequence_000515","trackDataPath":"ANNOCONFIDENCE/assay_numeric_usability_annotation.tsv","trackSchemaId":"assay_numeric_usability_annotation","supports1d":true,"supportsTable":true,"colorPolicyId":"rmdb_reactivity_low_mid_high_v1"},{"profileId":"data-eterna/data-eterna/OK2TRN_2A3_0000.rdat#17268","trackRouteId":"annojoin:track:RMDB2PDB:pairseg_2K96_sequence_000516","trackDataPath":"ANNOCONFIDENCE/assay_numeric_usability_annotation.tsv","trackSchemaId":"assay_numeric_usability_annotation","supports1d":true,"supportsTable":true,"colorPolicyId":"rmdb_reactivity_low_mid_high_v1"},{"profileId":"data-eterna/data-eterna/OK2TRN_DMS_0000.rdat#17270","trackRouteId":"annojoin:track:RMDB2PDB:pairseg_2K96_sequence_000517","trackDataPath":"ANNOCONFIDENCE/assay_numeric_usability_annotation.tsv","trackSchemaId":"assay_numeric_usability_annotation","supports1d":true,"supportsTable":true,"colorPolicyId":"rmdb_reactivity_low_mid_high_v1"},{"profileId":"data-eterna/data-eterna/OK2TRN_2A3_0000.rdat#17270","trackRouteId":"annojoin:track:RMDB2PDB:pairseg_2K96_sequence_000518","trackDataPath":"ANNOCONFIDENCE/assay_numeric_usability_annotation.tsv","trackSchemaId":"assay_numeric_usability_annotation","supports1d":true,"supportsTable":true,"colorPolicyId":"rmdb_reactivity_low_mid_high_v1"},{"profileId":"data-eterna/data-eterna/OK2TRN_DMS_0000.rdat#17260","trackRouteId":"annojoin:track:RMDB2PDB:pairseg_2K96_sequence_000519","trackDataPath":"ANNOCONFIDENCE/assay_numeric_usability_annotation.tsv","trackSchemaId":"assay_numeric_usability_annotation","supports1d":true,"supportsTable":true,"colorPolicyId":"rmdb_reactivity_low_mid_high_v1"},{"profileId":"data-eterna/data-eterna/OK2TRN_2A3_0000.rdat#17260","trackRouteId":"annojoin:track:RMDB2PDB:pairseg_2K96_sequence_000520","trackDataPath":"ANNOCONFIDENCE/assay_numeric_usability_annotation.tsv","trackSchemaId":"assay_numeric_usability_annotation","supports1d":true,"supportsTable":true,"colorPolicyId":"rmdb_reactivity_low_mid_high_v1"},{"profileId":"data-eterna/data-eterna/OK2TRN_DMS_0000.rdat#17277","trackRouteId":"annojoin:track:RMDB2PDB:pairseg_2K96_sequence_000521","trackDataPath":"ANNOCONFIDENCE/assay_numeric_usability_annotation.tsv","trackSchemaId":"assay_numeric_usability_annotation","supports1d":true,"supportsTable":true,"colorPolicyId":"rmdb_reactivity_low_mid_high_v1"},{"profileId":"data-eterna/data-eterna/OK2TRN_2A3_0000.rdat#17277","trackRouteId":"annojoin:track:RMDB2PDB:pairseg_2K96_sequence_000522","trackDataPath":"ANNOCONFIDENCE/assay_numeric_usability_annotation.tsv","trackSchemaId":"assay_numeric_usability_annotation","supports1d":true,"supportsTable":true,"colorPolicyId":"rmdb_reactivity_low_mid_high_v1"},{"profileId":"data-eterna/data-eterna/OK2TRN_2A3_0000.rdat#17285","trackRouteId":"annojoin:track:RMDB2PDB:pairseg_2K96_sequence_000523","trackDataPath":"ANNOCONFIDENCE/assay_numeric_usability_annotation.tsv","trackSchemaId":"assay_numeric_usability_annotation","supports1d":true,"supportsTable":true,"colorPolicyId":"rmdb_reactivity_low_mid_high_v1"},{"profileId":"data-eterna/data-eterna/OK2TRN_DMS_0000.rdat#17285","trackRouteId":"annojoin:track:RMDB2PDB:pairseg_2K96_sequence_000524","trackDataPath":"ANNOCONFIDENCE/assay_numeric_usability_annotation.tsv","trackSchemaId":"assay_numeric_usability_annotation","supports1d":true,"supportsTable":true,"colorPolicyId":"rmdb_reactivity_low_mid_high_v1"},{"profileId":"data-eterna/data-eterna/OK2TRN_2A3_0000.rdat#17211","trackRouteId":"annojoin:track:RMDB2PDB:pairseg_2K96_sequence_000525","trackDataPath":"ANNOCONFIDENCE/assay_numeric_usability_annotation.tsv","trackSchemaId":"assay_numeric_usability_annotation","supports1d":true,"supportsTable":true,"colorPolicyId":"rmdb_reactivity_low_mid_high_v1"},{"profileId":"data-eterna/data-eterna/OK2TRN_DMS_0000.rdat#17211","trackRouteId":"annojoin:track:RMDB2PDB:pairseg_2K96_sequence_000526","trackDataPath":"ANNOCONFIDENCE/assay_numeric_usability_annotation.tsv","trackSchemaId":"assay_numeric_usability_annotation","supports1d":true,"supportsTable":true,"colorPolicyId":"rmdb_reactivity_low_mid_high_v1"},{"profileId":"data-eterna/data-eterna/OK2TRN_2A3_0000.rdat#17220","trackRouteId":"annojoin:track:RMDB2PDB:pairseg_2K96_sequence_000527","trackDataPath":"ANNOCONFIDENCE/assay_numeric_usability_annotation.tsv","trackSchemaId":"assay_numeric_usability_annotation","supports1d":true,"supportsTable":true,"colorPolicyId":"rmdb_reactivity_low_mid_high_v1"},{"profileId":"data-eterna/data-eterna/OK2TRN_DMS_0000.rdat#17220","trackRouteId":"annojoin:track:RMDB2PDB:pairseg_2K96_sequence_000528","trackDataPath":"ANNOCONFIDENCE/assay_numeric_usability_annotation.tsv","trackSchemaId":"assay_numeric_usability_annotation","supports1d":true,"supportsTable":true,"colorPolicyId":"rmdb_reactivity_low_mid_high_v1"},{"profileId":"data-eterna/data-eterna/OK2TRN_DMS_0000.rdat#17204","trackRouteId":"annojoin:track:RMDB2PDB:pairseg_2K96_sequence_000529","trackDataPath":"ANNOCONFIDENCE/assay_numeric_usability_annotation.tsv","trackSchemaId":"assay_numeric_usability_annotation","supports1d":true,"supportsTable":true,"colorPolicyId":"rmdb_reactivity_low_mid_high_v1"},{"profileId":"data-eterna/data-eterna/OK2TRN_2A3_0000.rdat#17204","trackRouteId":"annojoin:track:RMDB2PDB:pairseg_2K96_sequence_000530","trackDataPath":"ANNOCONFIDENCE/assay_numeric_usability_annotation.tsv","trackSchemaId":"assay_numeric_usability_annotation","supports1d":true,"supportsTable":true,"colorPolicyId":"rmdb_reactivity_low_mid_high_v1"},{"profileId":"data-eterna/data-eterna/OK2TRN_DMS_0000.rdat#17266","trackRouteId":"annojoin:track:RMDB2PDB:pairseg_2K96_sequence_000531","trackDataPath":"ANNOCONFIDENCE/assay_numeric_usability_annotation.tsv","trackSchemaId":"assay_numeric_usability_annotation","supports1d":true,"supportsTable":true,"colorPolicyId":"rmdb_reactivity_low_mid_high_v1"},{"profileId":"data-eterna/data-eterna/OK2TRN_2A3_0000.rdat#17266","trackRouteId":"annojoin:track:RMDB2PDB:pairseg_2K96_sequence_000532","trackDataPath":"ANNOCONFIDENCE/assay_numeric_usability_annotation.tsv","trackSchemaId":"assay_numeric_usability_annotation","supports1d":true,"supportsTable":true,"colorPolicyId":"rmdb_reactivity_low_mid_high_v1"},{"profileId":"data-eterna/data-eterna/OK2TRN_DMS_0000.rdat#17255","trackRouteId":"annojoin:track:RMDB2PDB:pairseg_2K96_sequence_000533","trackDataPath":"ANNOCONFIDENCE/assay_numeric_usability_annotation.tsv","trackSchemaId":"assay_numeric_usability_annotation","supports1d":true,"supportsTable":true,"colorPolicyId":"rmdb_reactivity_low_mid_high_v1"},{"profileId":"data-eterna/data-eterna/OK2TRN_2A3_0000.rdat#17255","trackRouteId":"annojoin:track:RMDB2PDB:pairseg_2K96_sequence_000534","trackDataPath":"ANNOCONFIDENCE/assay_numeric_usability_annotation.tsv","trackSchemaId":"assay_numeric_usability_annotation","supports1d":true,"supportsTable":true,"colorPolicyId":"rmdb_reactivity_low_mid_high_v1"},{"profileId":"data-eterna/data-eterna/OK2TRN_2A3_0000.rdat#17218","trackRouteId":"annojoin:track:RMDB2PDB:pairseg_2K96_sequence_000535","trackDataPath":"ANNOCONFIDENCE/assay_numeric_usability_annotation.tsv","trackSchemaId":"assay_numeric_usability_annotation","supports1d":true,"supportsTable":true,"colorPolicyId":"rmdb_reactivity_low_mid_high_v1"},{"profileId":"data-eterna/data-eterna/OK2TRN_DMS_0000.rdat#17218","trackRouteId":"annojoin:track:RMDB2PDB:pairseg_2K96_sequence_000536","trackDataPath":"ANNOCONFIDENCE/assay_numeric_usability_annotation.tsv","trackSchemaId":"assay_numeric_usability_annotation","supports1d":true,"supportsTable":true,"colorPolicyId":"rmdb_reactivity_low_mid_high_v1"},{"profileId":"data-eterna/data-eterna/OK2TRN_DMS_0000.rdat#17209","trackRouteId":"annojoin:track:RMDB2PDB:pairseg_2K96_sequence_000537","trackDataPath":"ANNOCONFIDENCE/assay_numeric_usability_annotation.tsv","trackSchemaId":"assay_numeric_usability_annotation","supports1d":true,"supportsTable":true,"colorPolicyId":"rmdb_reactivity_low_mid_high_v1"},{"profileId":"data-eterna/data-eterna/OK2TRN_2A3_0000.rdat#17209","trackRouteId":"annojoin:track:RMDB2PDB:pairseg_2K96_sequence_000538","trackDataPath":"ANNOCONFIDENCE/assay_numeric_usability_annotation.tsv","trackSchemaId":"assay_numeric_usability_annotation","supports1d":true,"supportsTable":true,"colorPolicyId":"rmdb_reactivity_low_mid_high_v1"},{"profileId":"data-eterna/data-eterna/OK2TRN_DMS_0000.rdat#17289","trackRouteId":"annojoin:track:RMDB2PDB:pairseg_2K96_sequence_000539","trackDataPath":"ANNOCONFIDENCE/assay_numeric_usability_annotation.tsv","trackSchemaId":"assay_numeric_usability_annotation","supports1d":true,"supportsTable":true,"colorPolicyId":"rmdb_reactivity_low_mid_high_v1"},{"profileId":"data-eterna/data-eterna/OK2TRN_2A3_0000.rdat#17289","trackRouteId":"annojoin:track:RMDB2PDB:pairseg_2K96_sequence_000540","trackDataPath":"ANNOCONFIDENCE/assay_numeric_usability_annotation.tsv","trackSchemaId":"assay_numeric_usability_annotation","supports1d":true,"supportsTable":true,"colorPolicyId":"rmdb_reactivity_low_mid_high_v1"},{"profileId":"data-eterna/data-eterna/OK2TRN_DMS_0000.rdat#17262","trackRouteId":"annojoin:track:RMDB2PDB:pairseg_2K96_sequence_000541","trackDataPath":"ANNOCONFIDENCE/assay_numeric_usability_annotation.tsv","trackSchemaId":"assay_numeric_usability_annotation","supports1d":true,"supportsTable":true,"colorPolicyId":"rmdb_reactivity_low_mid_high_v1"},{"profileId":"data-eterna/data-eterna/OK2TRN_2A3_0000.rdat#17262","trackRouteId":"annojoin:track:RMDB2PDB:pairseg_2K96_sequence_000542","trackDataPath":"ANNOCONFIDENCE/assay_numeric_usability_annotation.tsv","trackSchemaId":"assay_numeric_usability_annotation","supports1d":true,"supportsTable":true,"colorPolicyId":"rmdb_reactivity_low_mid_high_v1"},{"profileId":"data-eterna/data-eterna/OK2TRN_2A3_0000.rdat#17257","trackRouteId":"annojoin:track:RMDB2PDB:pairseg_2K96_sequence_000543","trackDataPath":"ANNOCONFIDENCE/assay_numeric_usability_annotation.tsv","trackSchemaId":"assay_numeric_usability_annotation","supports1d":true,"supportsTable":true,"colorPolicyId":"rmdb_reactivity_low_mid_high_v1"},{"profileId":"data-eterna/data-eterna/OK2TRN_DMS_0000.rdat#17257","trackRouteId":"annojoin:track:RMDB2PDB:pairseg_2K96_sequence_000544","trackDataPath":"ANNOCONFIDENCE/assay_numeric_usability_annotation.tsv","trackSchemaId":"assay_numeric_usability_annotation","supports1d":true,"supportsTable":true,"colorPolicyId":"rmdb_reactivity_low_mid_high_v1"},{"profileId":"data-eterna/data-eterna/OK2TRN_2A3_0000.rdat#17292","trackRouteId":"annojoin:track:RMDB2PDB:pairseg_2K96_sequence_000545","trackDataPath":"ANNOCONFIDENCE/assay_numeric_usability_annotation.tsv","trackSchemaId":"assay_numeric_usability_annotation","supports1d":true,"supportsTable":true,"colorPolicyId":"rmdb_reactivity_low_mid_high_v1"},{"profileId":"data-eterna/data-eterna/OK2TRN_DMS_0000.rdat#17292","trackRouteId":"annojoin:track:RMDB2PDB:pairseg_2K96_sequence_000546","trackDataPath":"ANNOCONFIDENCE/assay_numeric_usability_annotation.tsv","trackSchemaId":"assay_numeric_usability_annotation","supports1d":true,"supportsTable":true,"colorPolicyId":"rmdb_reactivity_low_mid_high_v1"},{"profileId":"data-eterna/data-eterna/OK2TRN_DMS_0000.rdat#17281","trackRouteId":"annojoin:track:RMDB2PDB:pairseg_2K96_sequence_000547","trackDataPath":"ANNOCONFIDENCE/assay_numeric_usability_annotation.tsv","trackSchemaId":"assay_numeric_usability_annotation","supports1d":true,"supportsTable":true,"colorPolicyId":"rmdb_reactivity_low_mid_high_v1"},{"profileId":"data-eterna/data-eterna/OK2TRN_2A3_0000.rdat#17281","trackRouteId":"annojoin:track:RMDB2PDB:pairseg_2K96_sequence_000548","trackDataPath":"ANNOCONFIDENCE/assay_numeric_usability_annotation.tsv","trackSchemaId":"assay_numeric_usability_annotation","supports1d":true,"supportsTable":true,"colorPolicyId":"rmdb_reactivity_low_mid_high_v1"},{"profileId":"data-eterna/data-eterna/OK2TRN_DMS_0000.rdat#17202","trackRouteId":"annojoin:track:RMDB2PDB:pairseg_2K96_sequence_000549","trackDataPath":"ANNOCONFIDENCE/assay_numeric_usability_annotation.tsv","trackSchemaId":"assay_numeric_usability_annotation","supports1d":true,"supportsTable":true,"colorPolicyId":"rmdb_reactivity_low_mid_high_v1"},{"profileId":"data-eterna/data-eterna/OK2TRN_2A3_0000.rdat#17202","trackRouteId":"annojoin:track:RMDB2PDB:pairseg_2K96_sequence_000550","trackDataPath":"ANNOCONFIDENCE/assay_numeric_usability_annotation.tsv","trackSchemaId":"assay_numeric_usability_annotation","supports1d":true,"supportsTable":true,"colorPolicyId":"rmdb_reactivity_low_mid_high_v1"},{"profileId":"data-eterna/data-eterna/OK2TRN_2A3_0000.rdat#17261","trackRouteId":"annojoin:track:RMDB2PDB:pairseg_2K96_sequence_000551","trackDataPath":"ANNOCONFIDENCE/assay_numeric_usability_annotation.tsv","trackSchemaId":"assay_numeric_usability_annotation","supports1d":true,"supportsTable":true,"colorPolicyId":"rmdb_reactivity_low_mid_high_v1"},{"profileId":"data-eterna/data-eterna/OK2TRN_DMS_0000.rdat#17261","trackRouteId":"annojoin:track:RMDB2PDB:pairseg_2K96_sequence_000552","trackDataPath":"ANNOCONFIDENCE/assay_numeric_usability_annotation.tsv","trackSchemaId":"assay_numeric_usability_annotation","supports1d":true,"supportsTable":true,"colorPolicyId":"rmdb_reactivity_low_mid_high_v1"},{"profileId":"data-eterna/data-eterna/OK2TRN_2A3_0000.rdat#17279","trackRouteId":"annojoin:track:RMDB2PDB:pairseg_2K96_sequence_000553","trackDataPath":"ANNOCONFIDENCE/assay_numeric_usability_annotation.tsv","trackSchemaId":"assay_numeric_usability_annotation","supports1d":true,"supportsTable":true,"colorPolicyId":"rmdb_reactivity_low_mid_high_v1"},{"profileId":"data-eterna/data-eterna/OK2TRN_DMS_0000.rdat#17279","trackRouteId":"annojoin:track:RMDB2PDB:pairseg_2K96_sequence_000554","trackDataPath":"ANNOCONFIDENCE/assay_numeric_usability_annotation.tsv","trackSchemaId":"assay_numeric_usability_annotation","supports1d":true,"supportsTable":true,"colorPolicyId":"rmdb_reactivity_low_mid_high_v1"},{"profileId":"data-eterna/data-eterna/OK2TRN_2A3_0000.rdat#17219","trackRouteId":"annojoin:track:RMDB2PDB:pairseg_2K96_sequence_000555","trackDataPath":"ANNOCONFIDENCE/assay_numeric_usability_annotation.tsv","trackSchemaId":"assay_numeric_usability_annotation","supports1d":true,"supportsTable":true,"colorPolicyId":"rmdb_reactivity_low_mid_high_v1"},{"profileId":"data-eterna/data-eterna/OK2TRN_DMS_0000.rdat#17219","trackRouteId":"annojoin:track:RMDB2PDB:pairseg_2K96_sequence_000556","trackDataPath":"ANNOCONFIDENCE/assay_numeric_usability_annotation.tsv","trackSchemaId":"assay_numeric_usability_annotation","supports1d":true,"supportsTable":true,"colorPolicyId":"rmdb_reactivity_low_mid_high_v1"},{"profileId":"data-eterna/data-eterna/OK2TRN_2A3_0000.rdat#17207","trackRouteId":"annojoin:track:RMDB2PDB:pairseg_2K96_sequence_000557","trackDataPath":"ANNOCONFIDENCE/assay_numeric_usability_annotation.tsv","trackSchemaId":"assay_numeric_usability_annotation","supports1d":true,"supportsTable":true,"colorPolicyId":"rmdb_reactivity_low_mid_high_v1"},{"profileId":"data-eterna/data-eterna/OK2TRN_DMS_0000.rdat#17207","trackRouteId":"annojoin:track:RMDB2PDB:pairseg_2K96_sequence_000558","trackDataPath":"ANNOCONFIDENCE/assay_numeric_usability_annotation.tsv","trackSchemaId":"assay_numeric_usability_annotation","supports1d":true,"supportsTable":true,"colorPolicyId":"rmdb_reactivity_low_mid_high_v1"},{"profileId":"data-eterna/data-eterna/OK2TRN_DMS_0000.rdat#17290","trackRouteId":"annojoin:track:RMDB2PDB:pairseg_2K96_sequence_000559","trackDataPath":"ANNOCONFIDENCE/assay_numeric_usability_annotation.tsv","trackSchemaId":"assay_numeric_usability_annotation","supports1d":true,"supportsTable":true,"colorPolicyId":"rmdb_reactivity_low_mid_high_v1"},{"profileId":"data-eterna/data-eterna/OK2TRN_2A3_0000.rdat#17290","trackRouteId":"annojoin:track:RMDB2PDB:pairseg_2K96_sequence_000560","trackDataPath":"ANNOCONFIDENCE/assay_numeric_usability_annotation.tsv","trackSchemaId":"assay_numeric_usability_annotation","supports1d":true,"supportsTable":true,"colorPolicyId":"rmdb_reactivity_low_mid_high_v1"},{"profileId":"data-general/data-general/P90LIB_DMS_0001.rdat#2033","trackRouteId":"annojoin:track:RMDB2PDB:pairseg_2K96_sequence_000561","trackDataPath":"ANNOCONFIDENCE/assay_numeric_usability_annotation.tsv","trackSchemaId":"assay_numeric_usability_annotation","supports1d":true,"supportsTable":true,"colorPolicyId":"rmdb_reactivity_low_mid_high_v1"},{"profileId":"data-general/data-general/P90LIB_2A3_0001.rdat#2033","trackRouteId":"annojoin:track:RMDB2PDB:pairseg_2K96_sequence_000565","trackDataPath":"ANNOCONFIDENCE/assay_numeric_usability_annotation.tsv","trackSchemaId":"assay_numeric_usability_annotation","supports1d":true,"supportsTable":true,"colorPolicyId":"rmdb_reactivity_low_mid_high_v1"},{"profileId":"data-general/data-general/P90LIB_2A3_0002.rdat#2033","trackRouteId":"annojoin:track:RMDB2PDB:pairseg_2K96_sequence_000566","trackDataPath":"ANNOCONFIDENCE/assay_numeric_usability_annotation.tsv","trackSchemaId":"assay_numeric_usability_annotation","supports1d":true,"supportsTable":true,"colorPolicyId":"rmdb_reactivity_low_mid_high_v1"}]}
