{"schemaVersion":"annojoin-atlas.v1","version":"V2.1_RMDB_LINE_A_20260617","atlasCaseKey":"RMDB2PDB:9FBV","caseId":"9FBV","routeKey":"conflicts","page":3,"pageSize":500,"totalRows":1004,"pageCount":3,"rows":[{"id":"RMDB2PDB|conflict|pairseg_9FBV_sequence_001155","routeId":"annojoin:conflict:RMDB2PDB:pairseg_9FBV_sequence_001155","type":"structure_signal_discordance_candidate","status":"none_detected","fecClaimCeiling":"","claimScope":"","lssStatus":"LSS_NOT_EVALUABLE","reviewPriorityHint":"no_conflict_review_priority"},{"id":"RMDB2PDB|conflict|pairseg_9FBV_sequence_001156","routeId":"annojoin:conflict:RMDB2PDB:pairseg_9FBV_sequence_001156","type":"structure_signal_discordance_candidate","status":"none_detected","fecClaimCeiling":"","claimScope":"","lssStatus":"LSS_NOT_EVALUABLE","reviewPriorityHint":"no_conflict_review_priority"},{"id":"RMDB2PDB|conflict|pairseg_9FBV_sequence_001157","routeId":"annojoin:conflict:RMDB2PDB:pairseg_9FBV_sequence_001157","type":"structure_signal_discordance_candidate","status":"none_detected","fecClaimCeiling":"","claimScope":"","lssStatus":"LSS_NOT_EVALUABLE","reviewPriorityHint":"no_conflict_review_priority"},{"id":"RMDB2PDB|conflict|pairseg_9FBV_sequence_001158","routeId":"annojoin:conflict:RMDB2PDB:pairseg_9FBV_sequence_001158","type":"structure_signal_discordance_candidate","status":"none_detected","fecClaimCeiling":"","claimScope":"","lssStatus":"LSS_NOT_EVALUABLE","reviewPriorityHint":"no_conflict_review_priority"}]}
