{"schemaVersion":"annojoin-atlas.v1","version":"V2.1_RMDB_LINE_A_20260617","atlasCaseKey":"RMDB2PDB:7UVV","caseId":"7UVV","routeKey":"pair-context-routes","page":2,"pageSize":500,"totalRows":502,"pageCount":2,"rows":[{"contextRouteId":"annojoin:2d:RMDB2PDB:pairseg_7UVV_sequence_000567","pairContextDataPath":"ANNOCONFIDENCE/lss_structure_context_annotation.tsv","pairContextSchemaId":"lss_structure_context_annotation","contextEngine":"FEC_V0_4_BETA_LSS","supportsPairArcView":true,"supportsDotBracketView":false,"supportsResidueHover":true,"routeAvailabilityStatus":"","blockerCode":"","blockerReason":""},{"contextRouteId":"annojoin:2d:RMDB2PDB:pairseg_7UVV_sequence_000568","pairContextDataPath":"ANNOCONFIDENCE/lss_structure_context_annotation.tsv","pairContextSchemaId":"lss_structure_context_annotation","contextEngine":"FEC_V0_4_BETA_LSS","supportsPairArcView":true,"supportsDotBracketView":false,"supportsResidueHover":true,"routeAvailabilityStatus":"","blockerCode":"","blockerReason":""}]}
