{"schemaVersion":"annojoin-atlas.v1","version":"V2.1_RMDB_LINE_A_20260617","atlasCaseKey":"RMDB2PDB:7UVV","caseId":"7UVV","routeKey":"conflicts","page":2,"pageSize":500,"totalRows":502,"pageCount":2,"rows":[{"id":"RMDB2PDB|conflict|pairseg_7UVV_sequence_000567","routeId":"annojoin:conflict:RMDB2PDB:pairseg_7UVV_sequence_000567","type":"structure_signal_discordance_candidate","status":"none_detected","fecClaimCeiling":"","claimScope":"","lssStatus":"LSS_NOT_EVALUABLE","reviewPriorityHint":"no_conflict_review_priority"},{"id":"RMDB2PDB|conflict|pairseg_7UVV_sequence_000568","routeId":"annojoin:conflict:RMDB2PDB:pairseg_7UVV_sequence_000568","type":"structure_signal_discordance_candidate","status":"none_detected","fecClaimCeiling":"","claimScope":"","lssStatus":"LSS_NOT_EVALUABLE","reviewPriorityHint":"no_conflict_review_priority"}]}
