{"schemaVersion":"annojoin-atlas.v1","version":"V2.1_RMDB_LINE_A_20260617","atlasCaseKey":"RMDB2PDB:6CU1","caseId":"6CU1","routeKey":"memberships","page":2,"pageSize":500,"totalRows":520,"pageCount":2,"rows":[{"pairId":"6CU1:sequence_000603","profileId":"rmdbv3_exact_1a279c09cc00e2bd994644c1919109f93bdf9b41|top_x_279::seq_b8be369c4a235a33|6CU1_A","routeId":"annojoin:profiles:RMDB2PDB:6CU1"},{"pairId":"6CU1:sequence_000604","profileId":"rmdbv3_exact_1a279c09cc00e2bd994644c1919109f93bdf9b41|top_x_279::seq_b9a4f2b7284428e7|6CU1_A","routeId":"annojoin:profiles:RMDB2PDB:6CU1"},{"pairId":"6CU1:sequence_000605","profileId":"rmdbv3_exact_1fd1c4d18edf3c360e59435defe0085cd6bb6e7c|top_x_279::seq_7b162efc4c202d59|6CU1_A","routeId":"annojoin:profiles:RMDB2PDB:6CU1"},{"pairId":"6CU1:sequence_000606","profileId":"rmdbv3_exact_1fd1c4d18edf3c360e59435defe0085cd6bb6e7c|top_x_279::seq_a7922813aec9ca5e|6CU1_A","routeId":"annojoin:profiles:RMDB2PDB:6CU1"},{"pairId":"6CU1:sequence_000609","profileId":"rmdbv3_exact_478bdde2129286f1319092899f2356737ac9e13e|top_x_279::seq_184468bb80156b81|6CU1_A","routeId":"annojoin:profiles:RMDB2PDB:6CU1"},{"pairId":"6CU1:sequence_000611","profileId":"rmdbv3_exact_6e0803291a1c16e6ecb787f134e3f350977ae375|top_x_279::seq_b1cd902260ff4d2d|6CU1_A","routeId":"annojoin:profiles:RMDB2PDB:6CU1"},{"pairId":"6CU1:sequence_000612","profileId":"rmdbv3_exact_6e0803291a1c16e6ecb787f134e3f350977ae375|top_x_279::seq_bcb1c50acf38adc8|6CU1_A","routeId":"annojoin:profiles:RMDB2PDB:6CU1"},{"pairId":"6CU1:sequence_000613","profileId":"rmdbv3_exact_6e378cfd1a709bbdf32d107c77c6e282a1a56c6b|top_x_279::seq_b94475790cdfc64c|6CU1_A","routeId":"annojoin:profiles:RMDB2PDB:6CU1"},{"pairId":"6CU1:sequence_000615","profileId":"rmdbv3_exact_7c70c2aaac74d2b3252789b814997a79999404dc|top_x_279::seq_1b5d18db90c98158|6CU1_A","routeId":"annojoin:profiles:RMDB2PDB:6CU1"},{"pairId":"6CU1:sequence_000616","profileId":"rmdbv3_exact_7c70c2aaac74d2b3252789b814997a79999404dc|top_x_279::seq_b1bbc235b07fb5cb|6CU1_A","routeId":"annojoin:profiles:RMDB2PDB:6CU1"},{"pairId":"6CU1:sequence_000617","profileId":"rmdbv3_exact_7c7cb71b0e432a5d5087ebfd919c890447fdef96|top_x_279::seq_a7a169c8ee6ea1ef|6CU1_A","routeId":"annojoin:profiles:RMDB2PDB:6CU1"},{"pairId":"6CU1:sequence_000618","profileId":"rmdbv3_exact_7c7cb71b0e432a5d5087ebfd919c890447fdef96|top_x_279::seq_fec17b38c09810c8|6CU1_A","routeId":"annojoin:profiles:RMDB2PDB:6CU1"},{"pairId":"6CU1:sequence_000619","profileId":"rmdbv3_exact_7d2b7946ac40473ca0dcae5e88a2a82559c790d9|top_x_279::seq_cf350262500c2e72|6CU1_A","routeId":"annojoin:profiles:RMDB2PDB:6CU1"},{"pairId":"6CU1:sequence_000620","profileId":"rmdbv3_exact_7d2b7946ac40473ca0dcae5e88a2a82559c790d9|top_x_279::seq_f99abbed4052e4e1|6CU1_A","routeId":"annojoin:profiles:RMDB2PDB:6CU1"},{"pairId":"6CU1:sequence_000621","profileId":"rmdbv3_exact_d1b142bf1422dffdb2c1fafda892e236f10f2d72|top_x_279::seq_0c366acff728e3a0|6CU1_A","routeId":"annojoin:profiles:RMDB2PDB:6CU1"},{"pairId":"6CU1:sequence_000622","profileId":"rmdbv3_exact_d1b142bf1422dffdb2c1fafda892e236f10f2d72|top_x_279::seq_401cd1a55181f613|6CU1_A","routeId":"annojoin:profiles:RMDB2PDB:6CU1"},{"pairId":"6CU1:sequence_000623","profileId":"rmdbv3_exact_d769d722af801fcdaaef3ceab98576af8ea87444|top_x_279::seq_3f6defee82e9d987|6CU1_A","routeId":"annojoin:profiles:RMDB2PDB:6CU1"},{"pairId":"6CU1:sequence_000624","profileId":"rmdbv3_exact_d769d722af801fcdaaef3ceab98576af8ea87444|top_x_279::seq_972fff3fc52a934b|6CU1_A","routeId":"annojoin:profiles:RMDB2PDB:6CU1"},{"pairId":"6CU1:sequence_000625","profileId":"rmdbv3_exact_de3b4f66a779f9d921104d9779d70eef832ab8ac|top_x_279::seq_1ce1ce2aac1851f8|6CU1_A","routeId":"annojoin:profiles:RMDB2PDB:6CU1"},{"pairId":"6CU1:sequence_000626","profileId":"rmdbv3_exact_de3b4f66a779f9d921104d9779d70eef832ab8ac|top_x_279::seq_a88cb931aa1f037e|6CU1_A","routeId":"annojoin:profiles:RMDB2PDB:6CU1"}]}
