{"schemaVersion":"annojoin-atlas.v1","version":"V2.1_RMDB_LINE_A_20260617","atlasCaseKey":"RMDB2PDB:8T2P","caseId":"8T2P","routeKey":"track-routes","page":2,"pageSize":500,"totalRows":546,"pageCount":2,"rows":[{"profileId":"data-eterna/data-eterna/ETERNA_R77_0000.rdat#1362","trackRouteId":"annojoin:track:RMDB2PDB:pairseg_8T2P_sequence_000501","trackDataPath":"ANNOCONFIDENCE/assay_numeric_usability_annotation.tsv","trackSchemaId":"assay_numeric_usability_annotation","supports1d":true,"supportsTable":true,"colorPolicyId":"rmdb_reactivity_low_mid_high_v1"},{"profileId":"data-eterna/data-eterna/ETERNA_R77_0002.rdat#1362","trackRouteId":"annojoin:track:RMDB2PDB:pairseg_8T2P_sequence_000502","trackDataPath":"ANNOCONFIDENCE/assay_numeric_usability_annotation.tsv","trackSchemaId":"assay_numeric_usability_annotation","supports1d":true,"supportsTable":true,"colorPolicyId":"rmdb_reactivity_low_mid_high_v1"},{"profileId":"data-eterna/data-eterna/ETERNA_R77_0002.rdat#3012","trackRouteId":"annojoin:track:RMDB2PDB:pairseg_8T2P_sequence_000503","trackDataPath":"ANNOCONFIDENCE/assay_numeric_usability_annotation.tsv","trackSchemaId":"assay_numeric_usability_annotation","supports1d":true,"supportsTable":true,"colorPolicyId":"rmdb_reactivity_low_mid_high_v1"},{"profileId":"data-eterna/data-eterna/ETERNA_R77_0000.rdat#3012","trackRouteId":"annojoin:track:RMDB2PDB:pairseg_8T2P_sequence_000504","trackDataPath":"ANNOCONFIDENCE/assay_numeric_usability_annotation.tsv","trackSchemaId":"assay_numeric_usability_annotation","supports1d":true,"supportsTable":true,"colorPolicyId":"rmdb_reactivity_low_mid_high_v1"},{"profileId":"data-eterna/data-eterna/ETERNA_R77_0002.rdat#3010","trackRouteId":"annojoin:track:RMDB2PDB:pairseg_8T2P_sequence_000505","trackDataPath":"ANNOCONFIDENCE/assay_numeric_usability_annotation.tsv","trackSchemaId":"assay_numeric_usability_annotation","supports1d":true,"supportsTable":true,"colorPolicyId":"rmdb_reactivity_low_mid_high_v1"},{"profileId":"data-eterna/data-eterna/ETERNA_R77_0000.rdat#3010","trackRouteId":"annojoin:track:RMDB2PDB:pairseg_8T2P_sequence_000506","trackDataPath":"ANNOCONFIDENCE/assay_numeric_usability_annotation.tsv","trackSchemaId":"assay_numeric_usability_annotation","supports1d":true,"supportsTable":true,"colorPolicyId":"rmdb_reactivity_low_mid_high_v1"},{"profileId":"data-eterna/data-eterna/ETERNA_R77_0000.rdat#1360","trackRouteId":"annojoin:track:RMDB2PDB:pairseg_8T2P_sequence_000507","trackDataPath":"ANNOCONFIDENCE/assay_numeric_usability_annotation.tsv","trackSchemaId":"assay_numeric_usability_annotation","supports1d":true,"supportsTable":true,"colorPolicyId":"rmdb_reactivity_low_mid_high_v1"},{"profileId":"data-eterna/data-eterna/ETERNA_R77_0002.rdat#1360","trackRouteId":"annojoin:track:RMDB2PDB:pairseg_8T2P_sequence_000508","trackDataPath":"ANNOCONFIDENCE/assay_numeric_usability_annotation.tsv","trackSchemaId":"assay_numeric_usability_annotation","supports1d":true,"supportsTable":true,"colorPolicyId":"rmdb_reactivity_low_mid_high_v1"},{"profileId":"data-eterna/data-eterna/ETERNA_R77_0002.rdat#3076","trackRouteId":"annojoin:track:RMDB2PDB:pairseg_8T2P_sequence_000509","trackDataPath":"ANNOCONFIDENCE/assay_numeric_usability_annotation.tsv","trackSchemaId":"assay_numeric_usability_annotation","supports1d":true,"supportsTable":true,"colorPolicyId":"rmdb_reactivity_low_mid_high_v1"},{"profileId":"data-eterna/data-eterna/ETERNA_R77_0000.rdat#3076","trackRouteId":"annojoin:track:RMDB2PDB:pairseg_8T2P_sequence_000510","trackDataPath":"ANNOCONFIDENCE/assay_numeric_usability_annotation.tsv","trackSchemaId":"assay_numeric_usability_annotation","supports1d":true,"supportsTable":true,"colorPolicyId":"rmdb_reactivity_low_mid_high_v1"},{"profileId":"data-eterna/data-eterna/ETERNA_R77_0002.rdat#1332","trackRouteId":"annojoin:track:RMDB2PDB:pairseg_8T2P_sequence_000511","trackDataPath":"ANNOCONFIDENCE/assay_numeric_usability_annotation.tsv","trackSchemaId":"assay_numeric_usability_annotation","supports1d":true,"supportsTable":true,"colorPolicyId":"rmdb_reactivity_low_mid_high_v1"},{"profileId":"data-eterna/data-eterna/ETERNA_R77_0000.rdat#1332","trackRouteId":"annojoin:track:RMDB2PDB:pairseg_8T2P_sequence_000512","trackDataPath":"ANNOCONFIDENCE/assay_numeric_usability_annotation.tsv","trackSchemaId":"assay_numeric_usability_annotation","supports1d":true,"supportsTable":true,"colorPolicyId":"rmdb_reactivity_low_mid_high_v1"},{"profileId":"data-eterna/data-eterna/ETERNA_R77_0000.rdat#3024","trackRouteId":"annojoin:track:RMDB2PDB:pairseg_8T2P_sequence_000513","trackDataPath":"ANNOCONFIDENCE/assay_numeric_usability_annotation.tsv","trackSchemaId":"assay_numeric_usability_annotation","supports1d":true,"supportsTable":true,"colorPolicyId":"rmdb_reactivity_low_mid_high_v1"},{"profileId":"data-eterna/data-eterna/ETERNA_R77_0002.rdat#3024","trackRouteId":"annojoin:track:RMDB2PDB:pairseg_8T2P_sequence_000514","trackDataPath":"ANNOCONFIDENCE/assay_numeric_usability_annotation.tsv","trackSchemaId":"assay_numeric_usability_annotation","supports1d":true,"supportsTable":true,"colorPolicyId":"rmdb_reactivity_low_mid_high_v1"},{"profileId":"data-eterna/data-eterna/ETERNA_R77_0000.rdat#3008","trackRouteId":"annojoin:track:RMDB2PDB:pairseg_8T2P_sequence_000515","trackDataPath":"ANNOCONFIDENCE/assay_numeric_usability_annotation.tsv","trackSchemaId":"assay_numeric_usability_annotation","supports1d":true,"supportsTable":true,"colorPolicyId":"rmdb_reactivity_low_mid_high_v1"},{"profileId":"data-eterna/data-eterna/ETERNA_R77_0002.rdat#3008","trackRouteId":"annojoin:track:RMDB2PDB:pairseg_8T2P_sequence_000516","trackDataPath":"ANNOCONFIDENCE/assay_numeric_usability_annotation.tsv","trackSchemaId":"assay_numeric_usability_annotation","supports1d":true,"supportsTable":true,"colorPolicyId":"rmdb_reactivity_low_mid_high_v1"},{"profileId":"data-eterna/data-eterna/ETERNA_R77_0002.rdat#3026","trackRouteId":"annojoin:track:RMDB2PDB:pairseg_8T2P_sequence_000517","trackDataPath":"ANNOCONFIDENCE/assay_numeric_usability_annotation.tsv","trackSchemaId":"assay_numeric_usability_annotation","supports1d":true,"supportsTable":true,"colorPolicyId":"rmdb_reactivity_low_mid_high_v1"},{"profileId":"data-eterna/data-eterna/ETERNA_R77_0000.rdat#3026","trackRouteId":"annojoin:track:RMDB2PDB:pairseg_8T2P_sequence_000518","trackDataPath":"ANNOCONFIDENCE/assay_numeric_usability_annotation.tsv","trackSchemaId":"assay_numeric_usability_annotation","supports1d":true,"supportsTable":true,"colorPolicyId":"rmdb_reactivity_low_mid_high_v1"},{"profileId":"data-eterna/data-eterna/ETERNA_R77_0000.rdat#1372","trackRouteId":"annojoin:track:RMDB2PDB:pairseg_8T2P_sequence_000519","trackDataPath":"ANNOCONFIDENCE/assay_numeric_usability_annotation.tsv","trackSchemaId":"assay_numeric_usability_annotation","supports1d":true,"supportsTable":true,"colorPolicyId":"rmdb_reactivity_low_mid_high_v1"},{"profileId":"data-eterna/data-eterna/ETERNA_R77_0002.rdat#1372","trackRouteId":"annojoin:track:RMDB2PDB:pairseg_8T2P_sequence_000520","trackDataPath":"ANNOCONFIDENCE/assay_numeric_usability_annotation.tsv","trackSchemaId":"assay_numeric_usability_annotation","supports1d":true,"supportsTable":true,"colorPolicyId":"rmdb_reactivity_low_mid_high_v1"},{"profileId":"data-eterna/data-eterna/ETERNA_R77_0002.rdat#1374","trackRouteId":"annojoin:track:RMDB2PDB:pairseg_8T2P_sequence_000521","trackDataPath":"ANNOCONFIDENCE/assay_numeric_usability_annotation.tsv","trackSchemaId":"assay_numeric_usability_annotation","supports1d":true,"supportsTable":true,"colorPolicyId":"rmdb_reactivity_low_mid_high_v1"},{"profileId":"data-eterna/data-eterna/ETERNA_R77_0000.rdat#1374","trackRouteId":"annojoin:track:RMDB2PDB:pairseg_8T2P_sequence_000522","trackDataPath":"ANNOCONFIDENCE/assay_numeric_usability_annotation.tsv","trackSchemaId":"assay_numeric_usability_annotation","supports1d":true,"supportsTable":true,"colorPolicyId":"rmdb_reactivity_low_mid_high_v1"},{"profileId":"data-eterna/data-eterna/ETERNA_R77_0002.rdat#3035","trackRouteId":"annojoin:track:RMDB2PDB:pairseg_8T2P_sequence_000523","trackDataPath":"ANNOCONFIDENCE/assay_numeric_usability_annotation.tsv","trackSchemaId":"assay_numeric_usability_annotation","supports1d":true,"supportsTable":true,"colorPolicyId":"rmdb_reactivity_low_mid_high_v1"},{"profileId":"data-eterna/data-eterna/ETERNA_R77_0000.rdat#3035","trackRouteId":"annojoin:track:RMDB2PDB:pairseg_8T2P_sequence_000524","trackDataPath":"ANNOCONFIDENCE/assay_numeric_usability_annotation.tsv","trackSchemaId":"assay_numeric_usability_annotation","supports1d":true,"supportsTable":true,"colorPolicyId":"rmdb_reactivity_low_mid_high_v1"},{"profileId":"data-eterna/data-eterna/ETERNA_R77_0000.rdat#1328","trackRouteId":"annojoin:track:RMDB2PDB:pairseg_8T2P_sequence_000525","trackDataPath":"ANNOCONFIDENCE/assay_numeric_usability_annotation.tsv","trackSchemaId":"assay_numeric_usability_annotation","supports1d":true,"supportsTable":true,"colorPolicyId":"rmdb_reactivity_low_mid_high_v1"},{"profileId":"data-eterna/data-eterna/ETERNA_R77_0002.rdat#1328","trackRouteId":"annojoin:track:RMDB2PDB:pairseg_8T2P_sequence_000526","trackDataPath":"ANNOCONFIDENCE/assay_numeric_usability_annotation.tsv","trackSchemaId":"assay_numeric_usability_annotation","supports1d":true,"supportsTable":true,"colorPolicyId":"rmdb_reactivity_low_mid_high_v1"},{"profileId":"data-eterna/data-eterna/ETERNA_R77_0002.rdat#3013","trackRouteId":"annojoin:track:RMDB2PDB:pairseg_8T2P_sequence_000527","trackDataPath":"ANNOCONFIDENCE/assay_numeric_usability_annotation.tsv","trackSchemaId":"assay_numeric_usability_annotation","supports1d":true,"supportsTable":true,"colorPolicyId":"rmdb_reactivity_low_mid_high_v1"},{"profileId":"data-eterna/data-eterna/ETERNA_R77_0000.rdat#3013","trackRouteId":"annojoin:track:RMDB2PDB:pairseg_8T2P_sequence_000528","trackDataPath":"ANNOCONFIDENCE/assay_numeric_usability_annotation.tsv","trackSchemaId":"assay_numeric_usability_annotation","supports1d":true,"supportsTable":true,"colorPolicyId":"rmdb_reactivity_low_mid_high_v1"},{"profileId":"data-eterna/data-eterna/ETERNA_R77_0000.rdat#1319","trackRouteId":"annojoin:track:RMDB2PDB:pairseg_8T2P_sequence_000529","trackDataPath":"ANNOCONFIDENCE/assay_numeric_usability_annotation.tsv","trackSchemaId":"assay_numeric_usability_annotation","supports1d":true,"supportsTable":true,"colorPolicyId":"rmdb_reactivity_low_mid_high_v1"},{"profileId":"data-eterna/data-eterna/ETERNA_R77_0002.rdat#1319","trackRouteId":"annojoin:track:RMDB2PDB:pairseg_8T2P_sequence_000530","trackDataPath":"ANNOCONFIDENCE/assay_numeric_usability_annotation.tsv","trackSchemaId":"assay_numeric_usability_annotation","supports1d":true,"supportsTable":true,"colorPolicyId":"rmdb_reactivity_low_mid_high_v1"},{"profileId":"data-eterna/data-eterna/ETERNA_R77_0002.rdat#3042","trackRouteId":"annojoin:track:RMDB2PDB:pairseg_8T2P_sequence_000531","trackDataPath":"ANNOCONFIDENCE/assay_numeric_usability_annotation.tsv","trackSchemaId":"assay_numeric_usability_annotation","supports1d":true,"supportsTable":true,"colorPolicyId":"rmdb_reactivity_low_mid_high_v1"},{"profileId":"data-eterna/data-eterna/ETERNA_R77_0000.rdat#3042","trackRouteId":"annojoin:track:RMDB2PDB:pairseg_8T2P_sequence_000532","trackDataPath":"ANNOCONFIDENCE/assay_numeric_usability_annotation.tsv","trackSchemaId":"assay_numeric_usability_annotation","supports1d":true,"supportsTable":true,"colorPolicyId":"rmdb_reactivity_low_mid_high_v1"},{"profileId":"data-eterna/data-eterna/ETERNA_R77_0000.rdat#3029","trackRouteId":"annojoin:track:RMDB2PDB:pairseg_8T2P_sequence_000533","trackDataPath":"ANNOCONFIDENCE/assay_numeric_usability_annotation.tsv","trackSchemaId":"assay_numeric_usability_annotation","supports1d":true,"supportsTable":true,"colorPolicyId":"rmdb_reactivity_low_mid_high_v1"},{"profileId":"data-eterna/data-eterna/ETERNA_R77_0002.rdat#3029","trackRouteId":"annojoin:track:RMDB2PDB:pairseg_8T2P_sequence_000534","trackDataPath":"ANNOCONFIDENCE/assay_numeric_usability_annotation.tsv","trackSchemaId":"assay_numeric_usability_annotation","supports1d":true,"supportsTable":true,"colorPolicyId":"rmdb_reactivity_low_mid_high_v1"},{"profileId":"data-eterna/data-eterna/ETERNA_R77_0000.rdat#1340","trackRouteId":"annojoin:track:RMDB2PDB:pairseg_8T2P_sequence_000535","trackDataPath":"ANNOCONFIDENCE/assay_numeric_usability_annotation.tsv","trackSchemaId":"assay_numeric_usability_annotation","supports1d":true,"supportsTable":true,"colorPolicyId":"rmdb_reactivity_low_mid_high_v1"},{"profileId":"data-eterna/data-eterna/ETERNA_R77_0002.rdat#1340","trackRouteId":"annojoin:track:RMDB2PDB:pairseg_8T2P_sequence_000536","trackDataPath":"ANNOCONFIDENCE/assay_numeric_usability_annotation.tsv","trackSchemaId":"assay_numeric_usability_annotation","supports1d":true,"supportsTable":true,"colorPolicyId":"rmdb_reactivity_low_mid_high_v1"},{"profileId":"data-eterna/data-eterna/ETERNA_R77_0002.rdat#3047","trackRouteId":"annojoin:track:RMDB2PDB:pairseg_8T2P_sequence_000537","trackDataPath":"ANNOCONFIDENCE/assay_numeric_usability_annotation.tsv","trackSchemaId":"assay_numeric_usability_annotation","supports1d":true,"supportsTable":true,"colorPolicyId":"rmdb_reactivity_low_mid_high_v1"},{"profileId":"data-eterna/data-eterna/ETERNA_R77_0000.rdat#3047","trackRouteId":"annojoin:track:RMDB2PDB:pairseg_8T2P_sequence_000538","trackDataPath":"ANNOCONFIDENCE/assay_numeric_usability_annotation.tsv","trackSchemaId":"assay_numeric_usability_annotation","supports1d":true,"supportsTable":true,"colorPolicyId":"rmdb_reactivity_low_mid_high_v1"},{"profileId":"data-eterna/data-eterna/ETERNA_R77_0000.rdat#1339","trackRouteId":"annojoin:track:RMDB2PDB:pairseg_8T2P_sequence_000539","trackDataPath":"ANNOCONFIDENCE/assay_numeric_usability_annotation.tsv","trackSchemaId":"assay_numeric_usability_annotation","supports1d":true,"supportsTable":true,"colorPolicyId":"rmdb_reactivity_low_mid_high_v1"},{"profileId":"data-eterna/data-eterna/ETERNA_R77_0002.rdat#1339","trackRouteId":"annojoin:track:RMDB2PDB:pairseg_8T2P_sequence_000540","trackDataPath":"ANNOCONFIDENCE/assay_numeric_usability_annotation.tsv","trackSchemaId":"assay_numeric_usability_annotation","supports1d":true,"supportsTable":true,"colorPolicyId":"rmdb_reactivity_low_mid_high_v1"},{"profileId":"data-eterna/data-eterna/ETERNA_R77_0000.rdat#3068","trackRouteId":"annojoin:track:RMDB2PDB:pairseg_8T2P_sequence_000541","trackDataPath":"ANNOCONFIDENCE/assay_numeric_usability_annotation.tsv","trackSchemaId":"assay_numeric_usability_annotation","supports1d":true,"supportsTable":true,"colorPolicyId":"rmdb_reactivity_low_mid_high_v1"},{"profileId":"data-eterna/data-eterna/ETERNA_R77_0002.rdat#3068","trackRouteId":"annojoin:track:RMDB2PDB:pairseg_8T2P_sequence_000542","trackDataPath":"ANNOCONFIDENCE/assay_numeric_usability_annotation.tsv","trackSchemaId":"assay_numeric_usability_annotation","supports1d":true,"supportsTable":true,"colorPolicyId":"rmdb_reactivity_low_mid_high_v1"},{"profileId":"data-eterna/data-eterna/ETERNA_R77_0000.rdat#3037","trackRouteId":"annojoin:track:RMDB2PDB:pairseg_8T2P_sequence_000543","trackDataPath":"ANNOCONFIDENCE/assay_numeric_usability_annotation.tsv","trackSchemaId":"assay_numeric_usability_annotation","supports1d":true,"supportsTable":true,"colorPolicyId":"rmdb_reactivity_low_mid_high_v1"},{"profileId":"data-eterna/data-eterna/ETERNA_R77_0002.rdat#3037","trackRouteId":"annojoin:track:RMDB2PDB:pairseg_8T2P_sequence_000544","trackDataPath":"ANNOCONFIDENCE/assay_numeric_usability_annotation.tsv","trackSchemaId":"assay_numeric_usability_annotation","supports1d":true,"supportsTable":true,"colorPolicyId":"rmdb_reactivity_low_mid_high_v1"},{"profileId":"data-eterna/data-eterna/ETERNA_R77_0000.rdat#3074","trackRouteId":"annojoin:track:RMDB2PDB:pairseg_8T2P_sequence_000545","trackDataPath":"ANNOCONFIDENCE/assay_numeric_usability_annotation.tsv","trackSchemaId":"assay_numeric_usability_annotation","supports1d":true,"supportsTable":true,"colorPolicyId":"rmdb_reactivity_low_mid_high_v1"},{"profileId":"data-eterna/data-eterna/ETERNA_R77_0002.rdat#3074","trackRouteId":"annojoin:track:RMDB2PDB:pairseg_8T2P_sequence_000546","trackDataPath":"ANNOCONFIDENCE/assay_numeric_usability_annotation.tsv","trackSchemaId":"assay_numeric_usability_annotation","supports1d":true,"supportsTable":true,"colorPolicyId":"rmdb_reactivity_low_mid_high_v1"}]}
