{"schemaVersion":"annojoin-atlas.v1","version":"V2.1_RMDB_LINE_A_20260617","atlasCaseKey":"RMDB2PDB:7ANE","caseId":"7ANE","routeKey":"pair-context-routes","page":3,"pageSize":500,"totalRows":1039,"pageCount":3,"rows":[{"contextRouteId":"annojoin:2d:RMDB2PDB:pairseg_7ANE_sequence_003955","pairContextDataPath":"ANNOCONFIDENCE/lss_structure_context_annotation.tsv","pairContextSchemaId":"lss_structure_context_annotation","contextEngine":"FEC_V0_4_BETA_LSS","supportsPairArcView":true,"supportsDotBracketView":false,"supportsResidueHover":true,"routeAvailabilityStatus":"","blockerCode":"","blockerReason":""},{"contextRouteId":"annojoin:2d:RMDB2PDB:pairseg_7ANE_sequence_003956","pairContextDataPath":"ANNOCONFIDENCE/lss_structure_context_annotation.tsv","pairContextSchemaId":"lss_structure_context_annotation","contextEngine":"FEC_V0_4_BETA_LSS","supportsPairArcView":true,"supportsDotBracketView":false,"supportsResidueHover":true,"routeAvailabilityStatus":"","blockerCode":"","blockerReason":""},{"contextRouteId":"annojoin:2d:RMDB2PDB:pairseg_7ANE_sequence_003957","pairContextDataPath":"ANNOCONFIDENCE/lss_structure_context_annotation.tsv","pairContextSchemaId":"lss_structure_context_annotation","contextEngine":"FEC_V0_4_BETA_LSS","supportsPairArcView":true,"supportsDotBracketView":false,"supportsResidueHover":true,"routeAvailabilityStatus":"","blockerCode":"","blockerReason":""},{"contextRouteId":"annojoin:2d:RMDB2PDB:pairseg_7ANE_sequence_003958","pairContextDataPath":"ANNOCONFIDENCE/lss_structure_context_annotation.tsv","pairContextSchemaId":"lss_structure_context_annotation","contextEngine":"FEC_V0_4_BETA_LSS","supportsPairArcView":true,"supportsDotBracketView":false,"supportsResidueHover":true,"routeAvailabilityStatus":"","blockerCode":"","blockerReason":""},{"contextRouteId":"annojoin:2d:RMDB2PDB:pairseg_7ANE_sequence_003961","pairContextDataPath":"ANNOCONFIDENCE/lss_structure_context_annotation.tsv","pairContextSchemaId":"lss_structure_context_annotation","contextEngine":"FEC_V0_4_BETA_LSS","supportsPairArcView":true,"supportsDotBracketView":false,"supportsResidueHover":true,"routeAvailabilityStatus":"","blockerCode":"","blockerReason":""},{"contextRouteId":"annojoin:2d:RMDB2PDB:pairseg_7ANE_sequence_003962","pairContextDataPath":"ANNOCONFIDENCE/lss_structure_context_annotation.tsv","pairContextSchemaId":"lss_structure_context_annotation","contextEngine":"FEC_V0_4_BETA_LSS","supportsPairArcView":true,"supportsDotBracketView":false,"supportsResidueHover":true,"routeAvailabilityStatus":"","blockerCode":"","blockerReason":""},{"contextRouteId":"annojoin:2d:RMDB2PDB:pairseg_7ANE_sequence_003963","pairContextDataPath":"ANNOCONFIDENCE/lss_structure_context_annotation.tsv","pairContextSchemaId":"lss_structure_context_annotation","contextEngine":"FEC_V0_4_BETA_LSS","supportsPairArcView":true,"supportsDotBracketView":false,"supportsResidueHover":true,"routeAvailabilityStatus":"","blockerCode":"","blockerReason":""},{"contextRouteId":"annojoin:2d:RMDB2PDB:pairseg_7ANE_sequence_003965","pairContextDataPath":"ANNOCONFIDENCE/lss_structure_context_annotation.tsv","pairContextSchemaId":"lss_structure_context_annotation","contextEngine":"FEC_V0_4_BETA_LSS","supportsPairArcView":true,"supportsDotBracketView":false,"supportsResidueHover":true,"routeAvailabilityStatus":"","blockerCode":"","blockerReason":""},{"contextRouteId":"annojoin:2d:RMDB2PDB:pairseg_7ANE_sequence_003969","pairContextDataPath":"ANNOCONFIDENCE/lss_structure_context_annotation.tsv","pairContextSchemaId":"lss_structure_context_annotation","contextEngine":"FEC_V0_4_BETA_LSS","supportsPairArcView":true,"supportsDotBracketView":false,"supportsResidueHover":true,"routeAvailabilityStatus":"","blockerCode":"","blockerReason":""},{"contextRouteId":"annojoin:2d:RMDB2PDB:pairseg_7ANE_sequence_003970","pairContextDataPath":"ANNOCONFIDENCE/lss_structure_context_annotation.tsv","pairContextSchemaId":"lss_structure_context_annotation","contextEngine":"FEC_V0_4_BETA_LSS","supportsPairArcView":true,"supportsDotBracketView":false,"supportsResidueHover":true,"routeAvailabilityStatus":"","blockerCode":"","blockerReason":""},{"contextRouteId":"annojoin:2d:RMDB2PDB:pairseg_7ANE_sequence_003973","pairContextDataPath":"ANNOCONFIDENCE/lss_structure_context_annotation.tsv","pairContextSchemaId":"lss_structure_context_annotation","contextEngine":"FEC_V0_4_BETA_LSS","supportsPairArcView":true,"supportsDotBracketView":false,"supportsResidueHover":true,"routeAvailabilityStatus":"","blockerCode":"","blockerReason":""},{"contextRouteId":"annojoin:2d:RMDB2PDB:pairseg_7ANE_sequence_003974","pairContextDataPath":"ANNOCONFIDENCE/lss_structure_context_annotation.tsv","pairContextSchemaId":"lss_structure_context_annotation","contextEngine":"FEC_V0_4_BETA_LSS","supportsPairArcView":true,"supportsDotBracketView":false,"supportsResidueHover":true,"routeAvailabilityStatus":"","blockerCode":"","blockerReason":""},{"contextRouteId":"annojoin:2d:RMDB2PDB:pairseg_7ANE_sequence_003987","pairContextDataPath":"ANNOCONFIDENCE/lss_structure_context_annotation.tsv","pairContextSchemaId":"lss_structure_context_annotation","contextEngine":"FEC_V0_4_BETA_LSS","supportsPairArcView":true,"supportsDotBracketView":false,"supportsResidueHover":true,"routeAvailabilityStatus":"","blockerCode":"","blockerReason":""},{"contextRouteId":"annojoin:2d:RMDB2PDB:pairseg_7ANE_sequence_003988","pairContextDataPath":"ANNOCONFIDENCE/lss_structure_context_annotation.tsv","pairContextSchemaId":"lss_structure_context_annotation","contextEngine":"FEC_V0_4_BETA_LSS","supportsPairArcView":true,"supportsDotBracketView":false,"supportsResidueHover":true,"routeAvailabilityStatus":"","blockerCode":"","blockerReason":""},{"contextRouteId":"annojoin:2d:RMDB2PDB:pairseg_7ANE_sequence_003989","pairContextDataPath":"ANNOCONFIDENCE/lss_structure_context_annotation.tsv","pairContextSchemaId":"lss_structure_context_annotation","contextEngine":"FEC_V0_4_BETA_LSS","supportsPairArcView":true,"supportsDotBracketView":false,"supportsResidueHover":true,"routeAvailabilityStatus":"","blockerCode":"","blockerReason":""},{"contextRouteId":"annojoin:2d:RMDB2PDB:pairseg_7ANE_sequence_003990","pairContextDataPath":"ANNOCONFIDENCE/lss_structure_context_annotation.tsv","pairContextSchemaId":"lss_structure_context_annotation","contextEngine":"FEC_V0_4_BETA_LSS","supportsPairArcView":true,"supportsDotBracketView":false,"supportsResidueHover":true,"routeAvailabilityStatus":"","blockerCode":"","blockerReason":""},{"contextRouteId":"annojoin:2d:RMDB2PDB:pairseg_7ANE_sequence_003991","pairContextDataPath":"ANNOCONFIDENCE/lss_structure_context_annotation.tsv","pairContextSchemaId":"lss_structure_context_annotation","contextEngine":"FEC_V0_4_BETA_LSS","supportsPairArcView":true,"supportsDotBracketView":false,"supportsResidueHover":true,"routeAvailabilityStatus":"","blockerCode":"","blockerReason":""},{"contextRouteId":"annojoin:2d:RMDB2PDB:pairseg_7ANE_sequence_003992","pairContextDataPath":"ANNOCONFIDENCE/lss_structure_context_annotation.tsv","pairContextSchemaId":"lss_structure_context_annotation","contextEngine":"FEC_V0_4_BETA_LSS","supportsPairArcView":true,"supportsDotBracketView":false,"supportsResidueHover":true,"routeAvailabilityStatus":"","blockerCode":"","blockerReason":""},{"contextRouteId":"annojoin:2d:RMDB2PDB:pairseg_7ANE_sequence_003993","pairContextDataPath":"ANNOCONFIDENCE/lss_structure_context_annotation.tsv","pairContextSchemaId":"lss_structure_context_annotation","contextEngine":"FEC_V0_4_BETA_LSS","supportsPairArcView":true,"supportsDotBracketView":false,"supportsResidueHover":true,"routeAvailabilityStatus":"","blockerCode":"","blockerReason":""},{"contextRouteId":"annojoin:2d:RMDB2PDB:pairseg_7ANE_sequence_003994","pairContextDataPath":"ANNOCONFIDENCE/lss_structure_context_annotation.tsv","pairContextSchemaId":"lss_structure_context_annotation","contextEngine":"FEC_V0_4_BETA_LSS","supportsPairArcView":true,"supportsDotBracketView":false,"supportsResidueHover":true,"routeAvailabilityStatus":"","blockerCode":"","blockerReason":""},{"contextRouteId":"annojoin:2d:RMDB2PDB:pairseg_7ANE_sequence_003995","pairContextDataPath":"ANNOCONFIDENCE/lss_structure_context_annotation.tsv","pairContextSchemaId":"lss_structure_context_annotation","contextEngine":"FEC_V0_4_BETA_LSS","supportsPairArcView":true,"supportsDotBracketView":false,"supportsResidueHover":true,"routeAvailabilityStatus":"","blockerCode":"","blockerReason":""},{"contextRouteId":"annojoin:2d:RMDB2PDB:pairseg_7ANE_sequence_003996","pairContextDataPath":"ANNOCONFIDENCE/lss_structure_context_annotation.tsv","pairContextSchemaId":"lss_structure_context_annotation","contextEngine":"FEC_V0_4_BETA_LSS","supportsPairArcView":true,"supportsDotBracketView":false,"supportsResidueHover":true,"routeAvailabilityStatus":"","blockerCode":"","blockerReason":""},{"contextRouteId":"annojoin:2d:RMDB2PDB:pairseg_7ANE_sequence_003997","pairContextDataPath":"ANNOCONFIDENCE/lss_structure_context_annotation.tsv","pairContextSchemaId":"lss_structure_context_annotation","contextEngine":"FEC_V0_4_BETA_LSS","supportsPairArcView":true,"supportsDotBracketView":false,"supportsResidueHover":true,"routeAvailabilityStatus":"","blockerCode":"","blockerReason":""},{"contextRouteId":"annojoin:2d:RMDB2PDB:pairseg_7ANE_sequence_003998","pairContextDataPath":"ANNOCONFIDENCE/lss_structure_context_annotation.tsv","pairContextSchemaId":"lss_structure_context_annotation","contextEngine":"FEC_V0_4_BETA_LSS","supportsPairArcView":true,"supportsDotBracketView":false,"supportsResidueHover":true,"routeAvailabilityStatus":"","blockerCode":"","blockerReason":""},{"contextRouteId":"annojoin:2d:RMDB2PDB:pairseg_7ANE_sequence_003999","pairContextDataPath":"ANNOCONFIDENCE/lss_structure_context_annotation.tsv","pairContextSchemaId":"lss_structure_context_annotation","contextEngine":"FEC_V0_4_BETA_LSS","supportsPairArcView":true,"supportsDotBracketView":false,"supportsResidueHover":true,"routeAvailabilityStatus":"","blockerCode":"","blockerReason":""},{"contextRouteId":"annojoin:2d:RMDB2PDB:pairseg_7ANE_sequence_004000","pairContextDataPath":"ANNOCONFIDENCE/lss_structure_context_annotation.tsv","pairContextSchemaId":"lss_structure_context_annotation","contextEngine":"FEC_V0_4_BETA_LSS","supportsPairArcView":true,"supportsDotBracketView":false,"supportsResidueHover":true,"routeAvailabilityStatus":"","blockerCode":"","blockerReason":""},{"contextRouteId":"annojoin:2d:RMDB2PDB:pairseg_7ANE_sequence_004001","pairContextDataPath":"ANNOCONFIDENCE/lss_structure_context_annotation.tsv","pairContextSchemaId":"lss_structure_context_annotation","contextEngine":"FEC_V0_4_BETA_LSS","supportsPairArcView":true,"supportsDotBracketView":false,"supportsResidueHover":true,"routeAvailabilityStatus":"","blockerCode":"","blockerReason":""},{"contextRouteId":"annojoin:2d:RMDB2PDB:pairseg_7ANE_sequence_004002","pairContextDataPath":"ANNOCONFIDENCE/lss_structure_context_annotation.tsv","pairContextSchemaId":"lss_structure_context_annotation","contextEngine":"FEC_V0_4_BETA_LSS","supportsPairArcView":true,"supportsDotBracketView":false,"supportsResidueHover":true,"routeAvailabilityStatus":"","blockerCode":"","blockerReason":""},{"contextRouteId":"annojoin:2d:RMDB2PDB:pairseg_7ANE_sequence_004007","pairContextDataPath":"ANNOCONFIDENCE/lss_structure_context_annotation.tsv","pairContextSchemaId":"lss_structure_context_annotation","contextEngine":"FEC_V0_4_BETA_LSS","supportsPairArcView":true,"supportsDotBracketView":false,"supportsResidueHover":true,"routeAvailabilityStatus":"","blockerCode":"","blockerReason":""},{"contextRouteId":"annojoin:2d:RMDB2PDB:pairseg_7ANE_sequence_004008","pairContextDataPath":"ANNOCONFIDENCE/lss_structure_context_annotation.tsv","pairContextSchemaId":"lss_structure_context_annotation","contextEngine":"FEC_V0_4_BETA_LSS","supportsPairArcView":true,"supportsDotBracketView":false,"supportsResidueHover":true,"routeAvailabilityStatus":"","blockerCode":"","blockerReason":""},{"contextRouteId":"annojoin:2d:RMDB2PDB:pairseg_7ANE_sequence_004009","pairContextDataPath":"ANNOCONFIDENCE/lss_structure_context_annotation.tsv","pairContextSchemaId":"lss_structure_context_annotation","contextEngine":"FEC_V0_4_BETA_LSS","supportsPairArcView":true,"supportsDotBracketView":false,"supportsResidueHover":true,"routeAvailabilityStatus":"","blockerCode":"","blockerReason":""},{"contextRouteId":"annojoin:2d:RMDB2PDB:pairseg_7ANE_sequence_004010","pairContextDataPath":"ANNOCONFIDENCE/lss_structure_context_annotation.tsv","pairContextSchemaId":"lss_structure_context_annotation","contextEngine":"FEC_V0_4_BETA_LSS","supportsPairArcView":true,"supportsDotBracketView":false,"supportsResidueHover":true,"routeAvailabilityStatus":"","blockerCode":"","blockerReason":""},{"contextRouteId":"annojoin:2d:RMDB2PDB:pairseg_7ANE_sequence_004011","pairContextDataPath":"ANNOCONFIDENCE/lss_structure_context_annotation.tsv","pairContextSchemaId":"lss_structure_context_annotation","contextEngine":"FEC_V0_4_BETA_LSS","supportsPairArcView":true,"supportsDotBracketView":false,"supportsResidueHover":true,"routeAvailabilityStatus":"","blockerCode":"","blockerReason":""},{"contextRouteId":"annojoin:2d:RMDB2PDB:pairseg_7ANE_sequence_004012","pairContextDataPath":"ANNOCONFIDENCE/lss_structure_context_annotation.tsv","pairContextSchemaId":"lss_structure_context_annotation","contextEngine":"FEC_V0_4_BETA_LSS","supportsPairArcView":true,"supportsDotBracketView":false,"supportsResidueHover":true,"routeAvailabilityStatus":"","blockerCode":"","blockerReason":""},{"contextRouteId":"annojoin:2d:RMDB2PDB:pairseg_7ANE_sequence_004013","pairContextDataPath":"ANNOCONFIDENCE/lss_structure_context_annotation.tsv","pairContextSchemaId":"lss_structure_context_annotation","contextEngine":"FEC_V0_4_BETA_LSS","supportsPairArcView":true,"supportsDotBracketView":false,"supportsResidueHover":true,"routeAvailabilityStatus":"","blockerCode":"","blockerReason":""},{"contextRouteId":"annojoin:2d:RMDB2PDB:pairseg_7ANE_sequence_004022","pairContextDataPath":"ANNOCONFIDENCE/lss_structure_context_annotation.tsv","pairContextSchemaId":"lss_structure_context_annotation","contextEngine":"FEC_V0_4_BETA_LSS","supportsPairArcView":true,"supportsDotBracketView":false,"supportsResidueHover":true,"routeAvailabilityStatus":"","blockerCode":"","blockerReason":""},{"contextRouteId":"annojoin:2d:RMDB2PDB:pairseg_7ANE_sequence_004023","pairContextDataPath":"ANNOCONFIDENCE/lss_structure_context_annotation.tsv","pairContextSchemaId":"lss_structure_context_annotation","contextEngine":"FEC_V0_4_BETA_LSS","supportsPairArcView":true,"supportsDotBracketView":false,"supportsResidueHover":true,"routeAvailabilityStatus":"","blockerCode":"","blockerReason":""},{"contextRouteId":"annojoin:2d:RMDB2PDB:pairseg_7ANE_sequence_004024","pairContextDataPath":"ANNOCONFIDENCE/lss_structure_context_annotation.tsv","pairContextSchemaId":"lss_structure_context_annotation","contextEngine":"FEC_V0_4_BETA_LSS","supportsPairArcView":true,"supportsDotBracketView":false,"supportsResidueHover":true,"routeAvailabilityStatus":"","blockerCode":"","blockerReason":""},{"contextRouteId":"annojoin:2d:RMDB2PDB:pairseg_7ANE_sequence_004025","pairContextDataPath":"ANNOCONFIDENCE/lss_structure_context_annotation.tsv","pairContextSchemaId":"lss_structure_context_annotation","contextEngine":"FEC_V0_4_BETA_LSS","supportsPairArcView":true,"supportsDotBracketView":false,"supportsResidueHover":true,"routeAvailabilityStatus":"","blockerCode":"","blockerReason":""}]}
