{"schemaVersion":"annojoin-atlas.v1","version":"V2.1_RMDB_LINE_A_20260617","atlasCaseKey":"RMDB2PDB:8T2P","caseId":"8T2P","routeKey":"conflicts","page":2,"pageSize":500,"totalRows":546,"pageCount":2,"rows":[{"id":"RMDB2PDB|conflict|pairseg_8T2P_sequence_000501","routeId":"annojoin:conflict:RMDB2PDB:pairseg_8T2P_sequence_000501","type":"structure_signal_discordance_candidate","status":"none_detected","fecClaimCeiling":"","claimScope":"","lssStatus":"LSS_NOT_EVALUABLE","reviewPriorityHint":"no_conflict_review_priority"},{"id":"RMDB2PDB|conflict|pairseg_8T2P_sequence_000502","routeId":"annojoin:conflict:RMDB2PDB:pairseg_8T2P_sequence_000502","type":"structure_signal_discordance_candidate","status":"none_detected","fecClaimCeiling":"","claimScope":"","lssStatus":"LSS_NOT_EVALUABLE","reviewPriorityHint":"no_conflict_review_priority"},{"id":"RMDB2PDB|conflict|pairseg_8T2P_sequence_000503","routeId":"annojoin:conflict:RMDB2PDB:pairseg_8T2P_sequence_000503","type":"structure_signal_discordance_candidate","status":"none_detected","fecClaimCeiling":"","claimScope":"","lssStatus":"LSS_NOT_EVALUABLE","reviewPriorityHint":"no_conflict_review_priority"},{"id":"RMDB2PDB|conflict|pairseg_8T2P_sequence_000504","routeId":"annojoin:conflict:RMDB2PDB:pairseg_8T2P_sequence_000504","type":"structure_signal_discordance_candidate","status":"none_detected","fecClaimCeiling":"","claimScope":"","lssStatus":"LSS_NOT_EVALUABLE","reviewPriorityHint":"no_conflict_review_priority"},{"id":"RMDB2PDB|conflict|pairseg_8T2P_sequence_000505","routeId":"annojoin:conflict:RMDB2PDB:pairseg_8T2P_sequence_000505","type":"structure_signal_discordance_candidate","status":"none_detected","fecClaimCeiling":"","claimScope":"","lssStatus":"LSS_NOT_EVALUABLE","reviewPriorityHint":"no_conflict_review_priority"},{"id":"RMDB2PDB|conflict|pairseg_8T2P_sequence_000506","routeId":"annojoin:conflict:RMDB2PDB:pairseg_8T2P_sequence_000506","type":"structure_signal_discordance_candidate","status":"none_detected","fecClaimCeiling":"","claimScope":"","lssStatus":"LSS_NOT_EVALUABLE","reviewPriorityHint":"no_conflict_review_priority"},{"id":"RMDB2PDB|conflict|pairseg_8T2P_sequence_000507","routeId":"annojoin:conflict:RMDB2PDB:pairseg_8T2P_sequence_000507","type":"structure_signal_discordance_candidate","status":"none_detected","fecClaimCeiling":"","claimScope":"","lssStatus":"LSS_NOT_EVALUABLE","reviewPriorityHint":"no_conflict_review_priority"},{"id":"RMDB2PDB|conflict|pairseg_8T2P_sequence_000508","routeId":"annojoin:conflict:RMDB2PDB:pairseg_8T2P_sequence_000508","type":"structure_signal_discordance_candidate","status":"none_detected","fecClaimCeiling":"","claimScope":"","lssStatus":"LSS_NOT_EVALUABLE","reviewPriorityHint":"no_conflict_review_priority"},{"id":"RMDB2PDB|conflict|pairseg_8T2P_sequence_000509","routeId":"annojoin:conflict:RMDB2PDB:pairseg_8T2P_sequence_000509","type":"structure_signal_discordance_candidate","status":"none_detected","fecClaimCeiling":"","claimScope":"","lssStatus":"LSS_NOT_EVALUABLE","reviewPriorityHint":"no_conflict_review_priority"},{"id":"RMDB2PDB|conflict|pairseg_8T2P_sequence_000510","routeId":"annojoin:conflict:RMDB2PDB:pairseg_8T2P_sequence_000510","type":"structure_signal_discordance_candidate","status":"none_detected","fecClaimCeiling":"","claimScope":"","lssStatus":"LSS_NOT_EVALUABLE","reviewPriorityHint":"no_conflict_review_priority"},{"id":"RMDB2PDB|conflict|pairseg_8T2P_sequence_000511","routeId":"annojoin:conflict:RMDB2PDB:pairseg_8T2P_sequence_000511","type":"structure_signal_discordance_candidate","status":"none_detected","fecClaimCeiling":"","claimScope":"","lssStatus":"LSS_NOT_EVALUABLE","reviewPriorityHint":"no_conflict_review_priority"},{"id":"RMDB2PDB|conflict|pairseg_8T2P_sequence_000512","routeId":"annojoin:conflict:RMDB2PDB:pairseg_8T2P_sequence_000512","type":"structure_signal_discordance_candidate","status":"none_detected","fecClaimCeiling":"","claimScope":"","lssStatus":"LSS_NOT_EVALUABLE","reviewPriorityHint":"no_conflict_review_priority"},{"id":"RMDB2PDB|conflict|pairseg_8T2P_sequence_000513","routeId":"annojoin:conflict:RMDB2PDB:pairseg_8T2P_sequence_000513","type":"structure_signal_discordance_candidate","status":"none_detected","fecClaimCeiling":"","claimScope":"","lssStatus":"LSS_NOT_EVALUABLE","reviewPriorityHint":"no_conflict_review_priority"},{"id":"RMDB2PDB|conflict|pairseg_8T2P_sequence_000514","routeId":"annojoin:conflict:RMDB2PDB:pairseg_8T2P_sequence_000514","type":"structure_signal_discordance_candidate","status":"none_detected","fecClaimCeiling":"","claimScope":"","lssStatus":"LSS_NOT_EVALUABLE","reviewPriorityHint":"no_conflict_review_priority"},{"id":"RMDB2PDB|conflict|pairseg_8T2P_sequence_000515","routeId":"annojoin:conflict:RMDB2PDB:pairseg_8T2P_sequence_000515","type":"structure_signal_discordance_candidate","status":"none_detected","fecClaimCeiling":"","claimScope":"","lssStatus":"LSS_NOT_EVALUABLE","reviewPriorityHint":"no_conflict_review_priority"},{"id":"RMDB2PDB|conflict|pairseg_8T2P_sequence_000516","routeId":"annojoin:conflict:RMDB2PDB:pairseg_8T2P_sequence_000516","type":"structure_signal_discordance_candidate","status":"none_detected","fecClaimCeiling":"","claimScope":"","lssStatus":"LSS_NOT_EVALUABLE","reviewPriorityHint":"no_conflict_review_priority"},{"id":"RMDB2PDB|conflict|pairseg_8T2P_sequence_000517","routeId":"annojoin:conflict:RMDB2PDB:pairseg_8T2P_sequence_000517","type":"structure_signal_discordance_candidate","status":"none_detected","fecClaimCeiling":"","claimScope":"","lssStatus":"LSS_NOT_EVALUABLE","reviewPriorityHint":"no_conflict_review_priority"},{"id":"RMDB2PDB|conflict|pairseg_8T2P_sequence_000518","routeId":"annojoin:conflict:RMDB2PDB:pairseg_8T2P_sequence_000518","type":"structure_signal_discordance_candidate","status":"none_detected","fecClaimCeiling":"","claimScope":"","lssStatus":"LSS_NOT_EVALUABLE","reviewPriorityHint":"no_conflict_review_priority"},{"id":"RMDB2PDB|conflict|pairseg_8T2P_sequence_000519","routeId":"annojoin:conflict:RMDB2PDB:pairseg_8T2P_sequence_000519","type":"structure_signal_discordance_candidate","status":"none_detected","fecClaimCeiling":"","claimScope":"","lssStatus":"LSS_NOT_EVALUABLE","reviewPriorityHint":"no_conflict_review_priority"},{"id":"RMDB2PDB|conflict|pairseg_8T2P_sequence_000520","routeId":"annojoin:conflict:RMDB2PDB:pairseg_8T2P_sequence_000520","type":"structure_signal_discordance_candidate","status":"none_detected","fecClaimCeiling":"","claimScope":"","lssStatus":"LSS_NOT_EVALUABLE","reviewPriorityHint":"no_conflict_review_priority"},{"id":"RMDB2PDB|conflict|pairseg_8T2P_sequence_000521","routeId":"annojoin:conflict:RMDB2PDB:pairseg_8T2P_sequence_000521","type":"structure_signal_discordance_candidate","status":"none_detected","fecClaimCeiling":"","claimScope":"","lssStatus":"LSS_NOT_EVALUABLE","reviewPriorityHint":"no_conflict_review_priority"},{"id":"RMDB2PDB|conflict|pairseg_8T2P_sequence_000522","routeId":"annojoin:conflict:RMDB2PDB:pairseg_8T2P_sequence_000522","type":"structure_signal_discordance_candidate","status":"none_detected","fecClaimCeiling":"","claimScope":"","lssStatus":"LSS_NOT_EVALUABLE","reviewPriorityHint":"no_conflict_review_priority"},{"id":"RMDB2PDB|conflict|pairseg_8T2P_sequence_000523","routeId":"annojoin:conflict:RMDB2PDB:pairseg_8T2P_sequence_000523","type":"structure_signal_discordance_candidate","status":"none_detected","fecClaimCeiling":"","claimScope":"","lssStatus":"LSS_NOT_EVALUABLE","reviewPriorityHint":"no_conflict_review_priority"},{"id":"RMDB2PDB|conflict|pairseg_8T2P_sequence_000524","routeId":"annojoin:conflict:RMDB2PDB:pairseg_8T2P_sequence_000524","type":"structure_signal_discordance_candidate","status":"none_detected","fecClaimCeiling":"","claimScope":"","lssStatus":"LSS_NOT_EVALUABLE","reviewPriorityHint":"no_conflict_review_priority"},{"id":"RMDB2PDB|conflict|pairseg_8T2P_sequence_000525","routeId":"annojoin:conflict:RMDB2PDB:pairseg_8T2P_sequence_000525","type":"structure_signal_discordance_candidate","status":"none_detected","fecClaimCeiling":"","claimScope":"","lssStatus":"LSS_NOT_EVALUABLE","reviewPriorityHint":"no_conflict_review_priority"},{"id":"RMDB2PDB|conflict|pairseg_8T2P_sequence_000526","routeId":"annojoin:conflict:RMDB2PDB:pairseg_8T2P_sequence_000526","type":"structure_signal_discordance_candidate","status":"none_detected","fecClaimCeiling":"","claimScope":"","lssStatus":"LSS_NOT_EVALUABLE","reviewPriorityHint":"no_conflict_review_priority"},{"id":"RMDB2PDB|conflict|pairseg_8T2P_sequence_000527","routeId":"annojoin:conflict:RMDB2PDB:pairseg_8T2P_sequence_000527","type":"structure_signal_discordance_candidate","status":"none_detected","fecClaimCeiling":"","claimScope":"","lssStatus":"LSS_NOT_EVALUABLE","reviewPriorityHint":"no_conflict_review_priority"},{"id":"RMDB2PDB|conflict|pairseg_8T2P_sequence_000528","routeId":"annojoin:conflict:RMDB2PDB:pairseg_8T2P_sequence_000528","type":"structure_signal_discordance_candidate","status":"none_detected","fecClaimCeiling":"","claimScope":"","lssStatus":"LSS_NOT_EVALUABLE","reviewPriorityHint":"no_conflict_review_priority"},{"id":"RMDB2PDB|conflict|pairseg_8T2P_sequence_000529","routeId":"annojoin:conflict:RMDB2PDB:pairseg_8T2P_sequence_000529","type":"structure_signal_discordance_candidate","status":"none_detected","fecClaimCeiling":"","claimScope":"","lssStatus":"LSS_NOT_EVALUABLE","reviewPriorityHint":"no_conflict_review_priority"},{"id":"RMDB2PDB|conflict|pairseg_8T2P_sequence_000530","routeId":"annojoin:conflict:RMDB2PDB:pairseg_8T2P_sequence_000530","type":"structure_signal_discordance_candidate","status":"none_detected","fecClaimCeiling":"","claimScope":"","lssStatus":"LSS_NOT_EVALUABLE","reviewPriorityHint":"no_conflict_review_priority"},{"id":"RMDB2PDB|conflict|pairseg_8T2P_sequence_000531","routeId":"annojoin:conflict:RMDB2PDB:pairseg_8T2P_sequence_000531","type":"structure_signal_discordance_candidate","status":"none_detected","fecClaimCeiling":"","claimScope":"","lssStatus":"LSS_NOT_EVALUABLE","reviewPriorityHint":"no_conflict_review_priority"},{"id":"RMDB2PDB|conflict|pairseg_8T2P_sequence_000532","routeId":"annojoin:conflict:RMDB2PDB:pairseg_8T2P_sequence_000532","type":"structure_signal_discordance_candidate","status":"none_detected","fecClaimCeiling":"","claimScope":"","lssStatus":"LSS_NOT_EVALUABLE","reviewPriorityHint":"no_conflict_review_priority"},{"id":"RMDB2PDB|conflict|pairseg_8T2P_sequence_000533","routeId":"annojoin:conflict:RMDB2PDB:pairseg_8T2P_sequence_000533","type":"structure_signal_discordance_candidate","status":"none_detected","fecClaimCeiling":"","claimScope":"","lssStatus":"LSS_NOT_EVALUABLE","reviewPriorityHint":"no_conflict_review_priority"},{"id":"RMDB2PDB|conflict|pairseg_8T2P_sequence_000534","routeId":"annojoin:conflict:RMDB2PDB:pairseg_8T2P_sequence_000534","type":"structure_signal_discordance_candidate","status":"none_detected","fecClaimCeiling":"","claimScope":"","lssStatus":"LSS_NOT_EVALUABLE","reviewPriorityHint":"no_conflict_review_priority"},{"id":"RMDB2PDB|conflict|pairseg_8T2P_sequence_000535","routeId":"annojoin:conflict:RMDB2PDB:pairseg_8T2P_sequence_000535","type":"structure_signal_discordance_candidate","status":"none_detected","fecClaimCeiling":"","claimScope":"","lssStatus":"LSS_NOT_EVALUABLE","reviewPriorityHint":"no_conflict_review_priority"},{"id":"RMDB2PDB|conflict|pairseg_8T2P_sequence_000536","routeId":"annojoin:conflict:RMDB2PDB:pairseg_8T2P_sequence_000536","type":"structure_signal_discordance_candidate","status":"none_detected","fecClaimCeiling":"","claimScope":"","lssStatus":"LSS_NOT_EVALUABLE","reviewPriorityHint":"no_conflict_review_priority"},{"id":"RMDB2PDB|conflict|pairseg_8T2P_sequence_000537","routeId":"annojoin:conflict:RMDB2PDB:pairseg_8T2P_sequence_000537","type":"structure_signal_discordance_candidate","status":"none_detected","fecClaimCeiling":"","claimScope":"","lssStatus":"LSS_NOT_EVALUABLE","reviewPriorityHint":"no_conflict_review_priority"},{"id":"RMDB2PDB|conflict|pairseg_8T2P_sequence_000538","routeId":"annojoin:conflict:RMDB2PDB:pairseg_8T2P_sequence_000538","type":"structure_signal_discordance_candidate","status":"none_detected","fecClaimCeiling":"","claimScope":"","lssStatus":"LSS_NOT_EVALUABLE","reviewPriorityHint":"no_conflict_review_priority"},{"id":"RMDB2PDB|conflict|pairseg_8T2P_sequence_000539","routeId":"annojoin:conflict:RMDB2PDB:pairseg_8T2P_sequence_000539","type":"structure_signal_discordance_candidate","status":"none_detected","fecClaimCeiling":"","claimScope":"","lssStatus":"LSS_NOT_EVALUABLE","reviewPriorityHint":"no_conflict_review_priority"},{"id":"RMDB2PDB|conflict|pairseg_8T2P_sequence_000540","routeId":"annojoin:conflict:RMDB2PDB:pairseg_8T2P_sequence_000540","type":"structure_signal_discordance_candidate","status":"none_detected","fecClaimCeiling":"","claimScope":"","lssStatus":"LSS_NOT_EVALUABLE","reviewPriorityHint":"no_conflict_review_priority"},{"id":"RMDB2PDB|conflict|pairseg_8T2P_sequence_000541","routeId":"annojoin:conflict:RMDB2PDB:pairseg_8T2P_sequence_000541","type":"structure_signal_discordance_candidate","status":"none_detected","fecClaimCeiling":"","claimScope":"","lssStatus":"LSS_NOT_EVALUABLE","reviewPriorityHint":"no_conflict_review_priority"},{"id":"RMDB2PDB|conflict|pairseg_8T2P_sequence_000542","routeId":"annojoin:conflict:RMDB2PDB:pairseg_8T2P_sequence_000542","type":"structure_signal_discordance_candidate","status":"none_detected","fecClaimCeiling":"","claimScope":"","lssStatus":"LSS_NOT_EVALUABLE","reviewPriorityHint":"no_conflict_review_priority"},{"id":"RMDB2PDB|conflict|pairseg_8T2P_sequence_000543","routeId":"annojoin:conflict:RMDB2PDB:pairseg_8T2P_sequence_000543","type":"structure_signal_discordance_candidate","status":"none_detected","fecClaimCeiling":"","claimScope":"","lssStatus":"LSS_NOT_EVALUABLE","reviewPriorityHint":"no_conflict_review_priority"},{"id":"RMDB2PDB|conflict|pairseg_8T2P_sequence_000544","routeId":"annojoin:conflict:RMDB2PDB:pairseg_8T2P_sequence_000544","type":"structure_signal_discordance_candidate","status":"none_detected","fecClaimCeiling":"","claimScope":"","lssStatus":"LSS_NOT_EVALUABLE","reviewPriorityHint":"no_conflict_review_priority"},{"id":"RMDB2PDB|conflict|pairseg_8T2P_sequence_000545","routeId":"annojoin:conflict:RMDB2PDB:pairseg_8T2P_sequence_000545","type":"structure_signal_discordance_candidate","status":"none_detected","fecClaimCeiling":"","claimScope":"","lssStatus":"LSS_NOT_EVALUABLE","reviewPriorityHint":"no_conflict_review_priority"},{"id":"RMDB2PDB|conflict|pairseg_8T2P_sequence_000546","routeId":"annojoin:conflict:RMDB2PDB:pairseg_8T2P_sequence_000546","type":"structure_signal_discordance_candidate","status":"none_detected","fecClaimCeiling":"","claimScope":"","lssStatus":"LSS_NOT_EVALUABLE","reviewPriorityHint":"no_conflict_review_priority"}]}
