{"schemaVersion":"annojoin-atlas.v1","version":"V2.1_RMDB_LINE_A_20260617","atlasCaseKey":"RMDB2PDB:5ZEY","caseId":"5ZEY","routeKey":"memberships","page":2,"pageSize":500,"totalRows":513,"pageCount":2,"rows":[{"pairId":"5ZEY:sequence_000574","profileId":"rmdbv3_exact_f3c746cefd0422fd7f2b3d7da444058ed342549c|top_x_279::seq_d67d5f14765a65ee|5ZEY_A","routeId":"annojoin:profiles:RMDB2PDB:5ZEY"},{"pairId":"5ZEY:sequence_000575","profileId":"rmdbv3_exact_f4fd1c156f3f7b25869f94563ae264c720a6cb6f|top_x_279::seq_0fa6d2b9b9619604|5ZEY_A","routeId":"annojoin:profiles:RMDB2PDB:5ZEY"},{"pairId":"5ZEY:sequence_000576","profileId":"rmdbv3_exact_f4fd1c156f3f7b25869f94563ae264c720a6cb6f|top_x_279::seq_e2df0bb2c5848dc1|5ZEY_A","routeId":"annojoin:profiles:RMDB2PDB:5ZEY"},{"pairId":"5ZEY:sequence_000577","profileId":"rmdbv3_exact_f5a8ce9b67c498d7c38f8dcdd70e6702e57eed57|top_x_279::seq_011c76a8ac563e49|5ZEY_A","routeId":"annojoin:profiles:RMDB2PDB:5ZEY"},{"pairId":"5ZEY:sequence_000578","profileId":"rmdbv3_exact_f5a8ce9b67c498d7c38f8dcdd70e6702e57eed57|top_x_279::seq_f4ec74750a7acaa6|5ZEY_A","routeId":"annojoin:profiles:RMDB2PDB:5ZEY"},{"pairId":"5ZEY:sequence_000579","profileId":"rmdbv3_exact_fb8bd99a1c4f4d652b4a682bae331e928e03f3d6|top_x_279::seq_d8a60618e43b6c00|5ZEY_A","routeId":"annojoin:profiles:RMDB2PDB:5ZEY"},{"pairId":"5ZEY:sequence_000580","profileId":"rmdbv3_exact_fb8bd99a1c4f4d652b4a682bae331e928e03f3d6|top_x_279::seq_f39c01deca9b7d0d|5ZEY_A","routeId":"annojoin:profiles:RMDB2PDB:5ZEY"},{"pairId":"5ZEY:sequence_000581","profileId":"rmdbv3_exact_fc9c4bbefcbb0eb5d4073e62c45964ed2fde9c60|top_x_279::seq_0b9ea2d574c3db7f|5ZEY_A","routeId":"annojoin:profiles:RMDB2PDB:5ZEY"},{"pairId":"5ZEY:sequence_000582","profileId":"rmdbv3_exact_fc9c4bbefcbb0eb5d4073e62c45964ed2fde9c60|top_x_279::seq_325438ec96f5407b|5ZEY_A","routeId":"annojoin:profiles:RMDB2PDB:5ZEY"},{"pairId":"5ZEY:sequence_000583","profileId":"rmdbv3_exact_fd8dc95e11578b6801641dc3eb9383b7d43af64f|top_x_279::seq_9d2fa672644d6e78|5ZEY_A","routeId":"annojoin:profiles:RMDB2PDB:5ZEY"},{"pairId":"5ZEY:sequence_000584","profileId":"rmdbv3_exact_fd8dc95e11578b6801641dc3eb9383b7d43af64f|top_x_279::seq_d95cabbe53e68c13|5ZEY_A","routeId":"annojoin:profiles:RMDB2PDB:5ZEY"},{"pairId":"5ZEY:sequence_000585","profileId":"rmdbv3_exact_e6a5ddbbe02fd4cdbd906a8a3c22afcffaf189d0|top_x_279::seq_d1647149950d9157|5ZEY_A","routeId":"annojoin:profiles:RMDB2PDB:5ZEY"},{"pairId":"5ZEY:sequence_000586","profileId":"rmdbv3_exact_e6a5ddbbe02fd4cdbd906a8a3c22afcffaf189d0|top_x_279::seq_e4432a4be46c2a80|5ZEY_A","routeId":"annojoin:profiles:RMDB2PDB:5ZEY"}]}
