{"schemaVersion":"annojoin-atlas.v1","version":"V2.1_RMDB_LINE_A_20260617","atlasCaseKey":"RMDB2PDB:6FZ0","caseId":"6FZ0","routeKey":"conflicts","page":2,"pageSize":500,"totalRows":565,"pageCount":2,"rows":[{"id":"RMDB2PDB|conflict|pairseg_6FZ0_sequence_000545","routeId":"annojoin:conflict:RMDB2PDB:pairseg_6FZ0_sequence_000545","type":"structure_signal_discordance_candidate","status":"none_detected","fecClaimCeiling":"","claimScope":"","lssStatus":"LSS_WEAK","reviewPriorityHint":"no_conflict_review_priority"},{"id":"RMDB2PDB|conflict|pairseg_6FZ0_sequence_000546","routeId":"annojoin:conflict:RMDB2PDB:pairseg_6FZ0_sequence_000546","type":"structure_signal_discordance_candidate","status":"candidate","fecClaimCeiling":"","claimScope":"","lssStatus":"LSS_MODERATE_CANDIDATE","reviewPriorityHint":"review_lss_signal_context"},{"id":"RMDB2PDB|conflict|pairseg_6FZ0_sequence_000547","routeId":"annojoin:conflict:RMDB2PDB:pairseg_6FZ0_sequence_000547","type":"structure_signal_discordance_candidate","status":"candidate","fecClaimCeiling":"","claimScope":"","lssStatus":"LSS_MODERATE_CANDIDATE","reviewPriorityHint":"review_lss_signal_context"},{"id":"RMDB2PDB|conflict|pairseg_6FZ0_sequence_000548","routeId":"annojoin:conflict:RMDB2PDB:pairseg_6FZ0_sequence_000548","type":"structure_signal_discordance_candidate","status":"candidate","fecClaimCeiling":"","claimScope":"","lssStatus":"LSS_MODERATE_CANDIDATE","reviewPriorityHint":"review_lss_signal_context"},{"id":"RMDB2PDB|conflict|pairseg_6FZ0_sequence_000549","routeId":"annojoin:conflict:RMDB2PDB:pairseg_6FZ0_sequence_000549","type":"structure_signal_discordance_candidate","status":"none_detected","fecClaimCeiling":"","claimScope":"","lssStatus":"LSS_NOT_SUPPORTED","reviewPriorityHint":"no_conflict_review_priority"},{"id":"RMDB2PDB|conflict|pairseg_6FZ0_sequence_000550","routeId":"annojoin:conflict:RMDB2PDB:pairseg_6FZ0_sequence_000550","type":"structure_signal_discordance_candidate","status":"none_detected","fecClaimCeiling":"","claimScope":"","lssStatus":"LSS_UNDERPOWERED","reviewPriorityHint":"no_conflict_review_priority"},{"id":"RMDB2PDB|conflict|pairseg_6FZ0_sequence_000551","routeId":"annojoin:conflict:RMDB2PDB:pairseg_6FZ0_sequence_000551","type":"structure_signal_discordance_candidate","status":"none_detected","fecClaimCeiling":"","claimScope":"","lssStatus":"LSS_WEAK","reviewPriorityHint":"no_conflict_review_priority"},{"id":"RMDB2PDB|conflict|pairseg_6FZ0_sequence_000552","routeId":"annojoin:conflict:RMDB2PDB:pairseg_6FZ0_sequence_000552","type":"structure_signal_discordance_candidate","status":"candidate","fecClaimCeiling":"","claimScope":"","lssStatus":"LSS_MODERATE_CANDIDATE","reviewPriorityHint":"review_lss_signal_context"},{"id":"RMDB2PDB|conflict|pairseg_6FZ0_sequence_000554","routeId":"annojoin:conflict:RMDB2PDB:pairseg_6FZ0_sequence_000554","type":"structure_signal_discordance_candidate","status":"none_detected","fecClaimCeiling":"","claimScope":"","lssStatus":"LSS_NOT_SUPPORTED","reviewPriorityHint":"no_conflict_review_priority"},{"id":"RMDB2PDB|conflict|pairseg_6FZ0_sequence_000555","routeId":"annojoin:conflict:RMDB2PDB:pairseg_6FZ0_sequence_000555","type":"structure_signal_discordance_candidate","status":"none_detected","fecClaimCeiling":"","claimScope":"","lssStatus":"LSS_WEAK","reviewPriorityHint":"no_conflict_review_priority"},{"id":"RMDB2PDB|conflict|pairseg_6FZ0_sequence_000556","routeId":"annojoin:conflict:RMDB2PDB:pairseg_6FZ0_sequence_000556","type":"structure_signal_discordance_candidate","status":"none_detected","fecClaimCeiling":"","claimScope":"","lssStatus":"LSS_WEAK","reviewPriorityHint":"no_conflict_review_priority"},{"id":"RMDB2PDB|conflict|pairseg_6FZ0_sequence_000557","routeId":"annojoin:conflict:RMDB2PDB:pairseg_6FZ0_sequence_000557","type":"structure_signal_discordance_candidate","status":"none_detected","fecClaimCeiling":"","claimScope":"","lssStatus":"LSS_NOT_SUPPORTED","reviewPriorityHint":"no_conflict_review_priority"},{"id":"RMDB2PDB|conflict|pairseg_6FZ0_sequence_000558","routeId":"annojoin:conflict:RMDB2PDB:pairseg_6FZ0_sequence_000558","type":"structure_signal_discordance_candidate","status":"candidate","fecClaimCeiling":"","claimScope":"","lssStatus":"LSS_MODERATE_CANDIDATE","reviewPriorityHint":"review_lss_signal_context"},{"id":"RMDB2PDB|conflict|pairseg_6FZ0_sequence_000559","routeId":"annojoin:conflict:RMDB2PDB:pairseg_6FZ0_sequence_000559","type":"structure_signal_discordance_candidate","status":"candidate","fecClaimCeiling":"","claimScope":"","lssStatus":"LSS_MODERATE_CANDIDATE","reviewPriorityHint":"review_lss_signal_context"},{"id":"RMDB2PDB|conflict|pairseg_6FZ0_sequence_000560","routeId":"annojoin:conflict:RMDB2PDB:pairseg_6FZ0_sequence_000560","type":"structure_signal_discordance_candidate","status":"none_detected","fecClaimCeiling":"","claimScope":"","lssStatus":"LSS_DISCORDANT","reviewPriorityHint":"no_conflict_review_priority"},{"id":"RMDB2PDB|conflict|pairseg_6FZ0_sequence_000561","routeId":"annojoin:conflict:RMDB2PDB:pairseg_6FZ0_sequence_000561","type":"structure_signal_discordance_candidate","status":"none_detected","fecClaimCeiling":"","claimScope":"","lssStatus":"LSS_NOT_SUPPORTED","reviewPriorityHint":"no_conflict_review_priority"},{"id":"RMDB2PDB|conflict|pairseg_6FZ0_sequence_000562","routeId":"annojoin:conflict:RMDB2PDB:pairseg_6FZ0_sequence_000562","type":"structure_signal_discordance_candidate","status":"none_detected","fecClaimCeiling":"","claimScope":"","lssStatus":"LSS_NOT_SUPPORTED","reviewPriorityHint":"no_conflict_review_priority"},{"id":"RMDB2PDB|conflict|pairseg_6FZ0_sequence_000563","routeId":"annojoin:conflict:RMDB2PDB:pairseg_6FZ0_sequence_000563","type":"structure_signal_discordance_candidate","status":"none_detected","fecClaimCeiling":"","claimScope":"","lssStatus":"LSS_NOT_SUPPORTED","reviewPriorityHint":"no_conflict_review_priority"},{"id":"RMDB2PDB|conflict|pairseg_6FZ0_sequence_000564","routeId":"annojoin:conflict:RMDB2PDB:pairseg_6FZ0_sequence_000564","type":"structure_signal_discordance_candidate","status":"none_detected","fecClaimCeiling":"","claimScope":"","lssStatus":"LSS_NOT_SUPPORTED","reviewPriorityHint":"no_conflict_review_priority"},{"id":"RMDB2PDB|conflict|pairseg_6FZ0_sequence_000565","routeId":"annojoin:conflict:RMDB2PDB:pairseg_6FZ0_sequence_000565","type":"structure_signal_discordance_candidate","status":"none_detected","fecClaimCeiling":"","claimScope":"","lssStatus":"LSS_NOT_SUPPORTED","reviewPriorityHint":"no_conflict_review_priority"},{"id":"RMDB2PDB|conflict|pairseg_6FZ0_sequence_000566","routeId":"annojoin:conflict:RMDB2PDB:pairseg_6FZ0_sequence_000566","type":"structure_signal_discordance_candidate","status":"none_detected","fecClaimCeiling":"","claimScope":"","lssStatus":"LSS_NOT_SUPPORTED","reviewPriorityHint":"no_conflict_review_priority"},{"id":"RMDB2PDB|conflict|pairseg_6FZ0_sequence_000567","routeId":"annojoin:conflict:RMDB2PDB:pairseg_6FZ0_sequence_000567","type":"structure_signal_discordance_candidate","status":"none_detected","fecClaimCeiling":"","claimScope":"","lssStatus":"LSS_WEAK","reviewPriorityHint":"no_conflict_review_priority"},{"id":"RMDB2PDB|conflict|pairseg_6FZ0_sequence_000568","routeId":"annojoin:conflict:RMDB2PDB:pairseg_6FZ0_sequence_000568","type":"structure_signal_discordance_candidate","status":"candidate","fecClaimCeiling":"","claimScope":"","lssStatus":"LSS_MODERATE_CANDIDATE","reviewPriorityHint":"review_lss_signal_context"},{"id":"RMDB2PDB|conflict|pairseg_6FZ0_sequence_000569","routeId":"annojoin:conflict:RMDB2PDB:pairseg_6FZ0_sequence_000569","type":"structure_signal_discordance_candidate","status":"candidate","fecClaimCeiling":"","claimScope":"","lssStatus":"LSS_MODERATE_CANDIDATE","reviewPriorityHint":"review_lss_signal_context"},{"id":"RMDB2PDB|conflict|pairseg_6FZ0_sequence_000570","routeId":"annojoin:conflict:RMDB2PDB:pairseg_6FZ0_sequence_000570","type":"structure_signal_discordance_candidate","status":"none_detected","fecClaimCeiling":"","claimScope":"","lssStatus":"LSS_NOT_SUPPORTED","reviewPriorityHint":"no_conflict_review_priority"},{"id":"RMDB2PDB|conflict|pairseg_6FZ0_sequence_000571","routeId":"annojoin:conflict:RMDB2PDB:pairseg_6FZ0_sequence_000571","type":"structure_signal_discordance_candidate","status":"none_detected","fecClaimCeiling":"","claimScope":"","lssStatus":"LSS_UNDERPOWERED","reviewPriorityHint":"no_conflict_review_priority"},{"id":"RMDB2PDB|conflict|pairseg_6FZ0_sequence_000572","routeId":"annojoin:conflict:RMDB2PDB:pairseg_6FZ0_sequence_000572","type":"structure_signal_discordance_candidate","status":"none_detected","fecClaimCeiling":"","claimScope":"","lssStatus":"LSS_WEAK","reviewPriorityHint":"no_conflict_review_priority"},{"id":"RMDB2PDB|conflict|pairseg_6FZ0_sequence_000573","routeId":"annojoin:conflict:RMDB2PDB:pairseg_6FZ0_sequence_000573","type":"structure_signal_discordance_candidate","status":"none_detected","fecClaimCeiling":"","claimScope":"","lssStatus":"LSS_NOT_SUPPORTED","reviewPriorityHint":"no_conflict_review_priority"},{"id":"RMDB2PDB|conflict|pairseg_6FZ0_sequence_000574","routeId":"annojoin:conflict:RMDB2PDB:pairseg_6FZ0_sequence_000574","type":"structure_signal_discordance_candidate","status":"candidate","fecClaimCeiling":"","claimScope":"","lssStatus":"LSS_MODERATE_CANDIDATE","reviewPriorityHint":"review_lss_signal_context"},{"id":"RMDB2PDB|conflict|pairseg_6FZ0_sequence_000575","routeId":"annojoin:conflict:RMDB2PDB:pairseg_6FZ0_sequence_000575","type":"structure_signal_discordance_candidate","status":"candidate","fecClaimCeiling":"","claimScope":"","lssStatus":"LSS_MODERATE_CANDIDATE","reviewPriorityHint":"review_lss_signal_context"},{"id":"RMDB2PDB|conflict|pairseg_6FZ0_sequence_000576","routeId":"annojoin:conflict:RMDB2PDB:pairseg_6FZ0_sequence_000576","type":"structure_signal_discordance_candidate","status":"none_detected","fecClaimCeiling":"","claimScope":"","lssStatus":"LSS_WEAK","reviewPriorityHint":"no_conflict_review_priority"},{"id":"RMDB2PDB|conflict|pairseg_6FZ0_sequence_000577","routeId":"annojoin:conflict:RMDB2PDB:pairseg_6FZ0_sequence_000577","type":"structure_signal_discordance_candidate","status":"none_detected","fecClaimCeiling":"","claimScope":"","lssStatus":"LSS_NOT_SUPPORTED","reviewPriorityHint":"no_conflict_review_priority"},{"id":"RMDB2PDB|conflict|pairseg_6FZ0_sequence_000578","routeId":"annojoin:conflict:RMDB2PDB:pairseg_6FZ0_sequence_000578","type":"structure_signal_discordance_candidate","status":"none_detected","fecClaimCeiling":"","claimScope":"","lssStatus":"LSS_NOT_SUPPORTED","reviewPriorityHint":"no_conflict_review_priority"},{"id":"RMDB2PDB|conflict|pairseg_6FZ0_sequence_000579","routeId":"annojoin:conflict:RMDB2PDB:pairseg_6FZ0_sequence_000579","type":"structure_signal_discordance_candidate","status":"none_detected","fecClaimCeiling":"","claimScope":"","lssStatus":"LSS_NOT_SUPPORTED","reviewPriorityHint":"no_conflict_review_priority"},{"id":"RMDB2PDB|conflict|pairseg_6FZ0_sequence_000580","routeId":"annojoin:conflict:RMDB2PDB:pairseg_6FZ0_sequence_000580","type":"structure_signal_discordance_candidate","status":"none_detected","fecClaimCeiling":"","claimScope":"","lssStatus":"LSS_DISCORDANT","reviewPriorityHint":"no_conflict_review_priority"},{"id":"RMDB2PDB|conflict|pairseg_6FZ0_sequence_000581","routeId":"annojoin:conflict:RMDB2PDB:pairseg_6FZ0_sequence_000581","type":"structure_signal_discordance_candidate","status":"none_detected","fecClaimCeiling":"","claimScope":"","lssStatus":"LSS_WEAK","reviewPriorityHint":"no_conflict_review_priority"},{"id":"RMDB2PDB|conflict|pairseg_6FZ0_sequence_000582","routeId":"annojoin:conflict:RMDB2PDB:pairseg_6FZ0_sequence_000582","type":"structure_signal_discordance_candidate","status":"none_detected","fecClaimCeiling":"","claimScope":"","lssStatus":"LSS_DISCORDANT","reviewPriorityHint":"no_conflict_review_priority"},{"id":"RMDB2PDB|conflict|pairseg_6FZ0_sequence_000583","routeId":"annojoin:conflict:RMDB2PDB:pairseg_6FZ0_sequence_000583","type":"structure_signal_discordance_candidate","status":"none_detected","fecClaimCeiling":"","claimScope":"","lssStatus":"LSS_WEAK","reviewPriorityHint":"no_conflict_review_priority"},{"id":"RMDB2PDB|conflict|pairseg_6FZ0_sequence_000584","routeId":"annojoin:conflict:RMDB2PDB:pairseg_6FZ0_sequence_000584","type":"structure_signal_discordance_candidate","status":"none_detected","fecClaimCeiling":"","claimScope":"","lssStatus":"LSS_NOT_SUPPORTED","reviewPriorityHint":"no_conflict_review_priority"},{"id":"RMDB2PDB|conflict|pairseg_6FZ0_sequence_000587","routeId":"annojoin:conflict:RMDB2PDB:pairseg_6FZ0_sequence_000587","type":"structure_signal_discordance_candidate","status":"candidate","fecClaimCeiling":"","claimScope":"","lssStatus":"LSS_MODERATE_CANDIDATE","reviewPriorityHint":"review_lss_signal_context"},{"id":"RMDB2PDB|conflict|pairseg_6FZ0_sequence_000588","routeId":"annojoin:conflict:RMDB2PDB:pairseg_6FZ0_sequence_000588","type":"structure_signal_discordance_candidate","status":"none_detected","fecClaimCeiling":"","claimScope":"","lssStatus":"LSS_NOT_SUPPORTED","reviewPriorityHint":"no_conflict_review_priority"},{"id":"RMDB2PDB|conflict|pairseg_6FZ0_sequence_000589","routeId":"annojoin:conflict:RMDB2PDB:pairseg_6FZ0_sequence_000589","type":"structure_signal_discordance_candidate","status":"candidate","fecClaimCeiling":"","claimScope":"","lssStatus":"LSS_MODERATE_CANDIDATE","reviewPriorityHint":"review_lss_signal_context"},{"id":"RMDB2PDB|conflict|pairseg_6FZ0_sequence_000590","routeId":"annojoin:conflict:RMDB2PDB:pairseg_6FZ0_sequence_000590","type":"structure_signal_discordance_candidate","status":"none_detected","fecClaimCeiling":"","claimScope":"","lssStatus":"LSS_WEAK","reviewPriorityHint":"no_conflict_review_priority"},{"id":"RMDB2PDB|conflict|pairseg_6FZ0_sequence_000591","routeId":"annojoin:conflict:RMDB2PDB:pairseg_6FZ0_sequence_000591","type":"structure_signal_discordance_candidate","status":"none_detected","fecClaimCeiling":"","claimScope":"","lssStatus":"LSS_NOT_SUPPORTED","reviewPriorityHint":"no_conflict_review_priority"},{"id":"RMDB2PDB|conflict|pairseg_6FZ0_sequence_000592","routeId":"annojoin:conflict:RMDB2PDB:pairseg_6FZ0_sequence_000592","type":"structure_signal_discordance_candidate","status":"none_detected","fecClaimCeiling":"","claimScope":"","lssStatus":"LSS_NOT_SUPPORTED","reviewPriorityHint":"no_conflict_review_priority"},{"id":"RMDB2PDB|conflict|pairseg_6FZ0_sequence_000593","routeId":"annojoin:conflict:RMDB2PDB:pairseg_6FZ0_sequence_000593","type":"structure_signal_discordance_candidate","status":"none_detected","fecClaimCeiling":"","claimScope":"","lssStatus":"LSS_WEAK","reviewPriorityHint":"no_conflict_review_priority"},{"id":"RMDB2PDB|conflict|pairseg_6FZ0_sequence_000594","routeId":"annojoin:conflict:RMDB2PDB:pairseg_6FZ0_sequence_000594","type":"structure_signal_discordance_candidate","status":"none_detected","fecClaimCeiling":"","claimScope":"","lssStatus":"LSS_DISCORDANT","reviewPriorityHint":"no_conflict_review_priority"},{"id":"RMDB2PDB|conflict|pairseg_6FZ0_sequence_000595","routeId":"annojoin:conflict:RMDB2PDB:pairseg_6FZ0_sequence_000595","type":"structure_signal_discordance_candidate","status":"none_detected","fecClaimCeiling":"","claimScope":"","lssStatus":"LSS_NOT_SUPPORTED","reviewPriorityHint":"no_conflict_review_priority"},{"id":"RMDB2PDB|conflict|pairseg_6FZ0_sequence_000596","routeId":"annojoin:conflict:RMDB2PDB:pairseg_6FZ0_sequence_000596","type":"structure_signal_discordance_candidate","status":"none_detected","fecClaimCeiling":"","claimScope":"","lssStatus":"LSS_NOT_SUPPORTED","reviewPriorityHint":"no_conflict_review_priority"},{"id":"RMDB2PDB|conflict|pairseg_6FZ0_sequence_000597","routeId":"annojoin:conflict:RMDB2PDB:pairseg_6FZ0_sequence_000597","type":"structure_signal_discordance_candidate","status":"none_detected","fecClaimCeiling":"","claimScope":"","lssStatus":"LSS_WEAK","reviewPriorityHint":"no_conflict_review_priority"},{"id":"RMDB2PDB|conflict|pairseg_6FZ0_sequence_000598","routeId":"annojoin:conflict:RMDB2PDB:pairseg_6FZ0_sequence_000598","type":"structure_signal_discordance_candidate","status":"candidate","fecClaimCeiling":"","claimScope":"","lssStatus":"LSS_MODERATE_CANDIDATE","reviewPriorityHint":"review_lss_signal_context"},{"id":"RMDB2PDB|conflict|pairseg_6FZ0_sequence_000599","routeId":"annojoin:conflict:RMDB2PDB:pairseg_6FZ0_sequence_000599","type":"structure_signal_discordance_candidate","status":"none_detected","fecClaimCeiling":"","claimScope":"","lssStatus":"LSS_WEAK","reviewPriorityHint":"no_conflict_review_priority"},{"id":"RMDB2PDB|conflict|pairseg_6FZ0_sequence_000600","routeId":"annojoin:conflict:RMDB2PDB:pairseg_6FZ0_sequence_000600","type":"structure_signal_discordance_candidate","status":"none_detected","fecClaimCeiling":"","claimScope":"","lssStatus":"LSS_WEAK","reviewPriorityHint":"no_conflict_review_priority"},{"id":"RMDB2PDB|conflict|pairseg_6FZ0_sequence_000601","routeId":"annojoin:conflict:RMDB2PDB:pairseg_6FZ0_sequence_000601","type":"structure_signal_discordance_candidate","status":"none_detected","fecClaimCeiling":"","claimScope":"","lssStatus":"LSS_WEAK","reviewPriorityHint":"no_conflict_review_priority"},{"id":"RMDB2PDB|conflict|pairseg_6FZ0_sequence_000602","routeId":"annojoin:conflict:RMDB2PDB:pairseg_6FZ0_sequence_000602","type":"structure_signal_discordance_candidate","status":"none_detected","fecClaimCeiling":"","claimScope":"","lssStatus":"LSS_NOT_SUPPORTED","reviewPriorityHint":"no_conflict_review_priority"},{"id":"RMDB2PDB|conflict|pairseg_6FZ0_sequence_000603","routeId":"annojoin:conflict:RMDB2PDB:pairseg_6FZ0_sequence_000603","type":"structure_signal_discordance_candidate","status":"candidate","fecClaimCeiling":"","claimScope":"","lssStatus":"LSS_MODERATE_CANDIDATE","reviewPriorityHint":"review_lss_signal_context"},{"id":"RMDB2PDB|conflict|pairseg_6FZ0_sequence_000604","routeId":"annojoin:conflict:RMDB2PDB:pairseg_6FZ0_sequence_000604","type":"structure_signal_discordance_candidate","status":"candidate","fecClaimCeiling":"","claimScope":"","lssStatus":"LSS_MODERATE_CANDIDATE","reviewPriorityHint":"review_lss_signal_context"},{"id":"RMDB2PDB|conflict|pairseg_6FZ0_sequence_000605","routeId":"annojoin:conflict:RMDB2PDB:pairseg_6FZ0_sequence_000605","type":"structure_signal_discordance_candidate","status":"candidate","fecClaimCeiling":"","claimScope":"","lssStatus":"LSS_MODERATE_CANDIDATE","reviewPriorityHint":"review_lss_signal_context"},{"id":"RMDB2PDB|conflict|pairseg_6FZ0_sequence_000606","routeId":"annojoin:conflict:RMDB2PDB:pairseg_6FZ0_sequence_000606","type":"structure_signal_discordance_candidate","status":"none_detected","fecClaimCeiling":"","claimScope":"","lssStatus":"LSS_WEAK","reviewPriorityHint":"no_conflict_review_priority"},{"id":"RMDB2PDB|conflict|pairseg_6FZ0_sequence_000607","routeId":"annojoin:conflict:RMDB2PDB:pairseg_6FZ0_sequence_000607","type":"structure_signal_discordance_candidate","status":"none_detected","fecClaimCeiling":"","claimScope":"","lssStatus":"LSS_UNDERPOWERED","reviewPriorityHint":"no_conflict_review_priority"},{"id":"RMDB2PDB|conflict|pairseg_6FZ0_sequence_000608","routeId":"annojoin:conflict:RMDB2PDB:pairseg_6FZ0_sequence_000608","type":"structure_signal_discordance_candidate","status":"none_detected","fecClaimCeiling":"","claimScope":"","lssStatus":"LSS_NOT_SUPPORTED","reviewPriorityHint":"no_conflict_review_priority"},{"id":"RMDB2PDB|conflict|pairseg_6FZ0_sequence_000609","routeId":"annojoin:conflict:RMDB2PDB:pairseg_6FZ0_sequence_000609","type":"structure_signal_discordance_candidate","status":"candidate","fecClaimCeiling":"","claimScope":"","lssStatus":"LSS_MODERATE_CANDIDATE","reviewPriorityHint":"review_lss_signal_context"},{"id":"RMDB2PDB|conflict|pairseg_6FZ0_sequence_000610","routeId":"annojoin:conflict:RMDB2PDB:pairseg_6FZ0_sequence_000610","type":"structure_signal_discordance_candidate","status":"candidate","fecClaimCeiling":"","claimScope":"","lssStatus":"LSS_MODERATE_CANDIDATE","reviewPriorityHint":"review_lss_signal_context"},{"id":"RMDB2PDB|conflict|pairseg_6FZ0_sequence_000611","routeId":"annojoin:conflict:RMDB2PDB:pairseg_6FZ0_sequence_000611","type":"structure_signal_discordance_candidate","status":"none_detected","fecClaimCeiling":"","claimScope":"","lssStatus":"LSS_WEAK","reviewPriorityHint":"no_conflict_review_priority"},{"id":"RMDB2PDB|conflict|pairseg_6FZ0_sequence_000612","routeId":"annojoin:conflict:RMDB2PDB:pairseg_6FZ0_sequence_000612","type":"structure_signal_discordance_candidate","status":"candidate","fecClaimCeiling":"","claimScope":"","lssStatus":"LSS_MODERATE_CANDIDATE","reviewPriorityHint":"review_lss_signal_context"}]}
