{"schemaVersion":"annojoin-atlas.v1","version":"V2.1_RMDB_LINE_A_20260617","atlasCaseKey":"RMDB2PDB:4V9F","caseId":"4V9F","routeKey":"memberships","page":4,"pageSize":500,"totalRows":1591,"pageCount":4,"rows":[{"pairId":"4V9F:sequence_001626","profileId":"rmdbv3_exact_a13cf9df7379ee44faa09f0bbb03a4ffab6f8cc5|top_x_279::seq_a0e73d11d3c49b67|4V9F_0","routeId":"annojoin:profiles:RMDB2PDB:4V9F"},{"pairId":"4V9F:sequence_001627","profileId":"rmdbv3_exact_aeed99f2a729c3765bb9cf71fc3c24b0abf9e8f1|top_x_279::seq_3ac23c97ae7e208b|4V9F_0","routeId":"annojoin:profiles:RMDB2PDB:4V9F"},{"pairId":"4V9F:sequence_001628","profileId":"rmdbv3_exact_aeed99f2a729c3765bb9cf71fc3c24b0abf9e8f1|top_x_279::seq_8e4f8c20d6102cc1|4V9F_0","routeId":"annojoin:profiles:RMDB2PDB:4V9F"},{"pairId":"4V9F:sequence_001629","profileId":"rmdbv3_exact_aeed99f2a729c3765bb9cf71fc3c24b0abf9e8f1|top_x_279::seq_a5ed7a90c18ea76b|4V9F_0","routeId":"annojoin:profiles:RMDB2PDB:4V9F"},{"pairId":"4V9F:sequence_001630","profileId":"rmdbv3_exact_aeed99f2a729c3765bb9cf71fc3c24b0abf9e8f1|top_x_279::seq_c8683751089166ce|4V9F_0","routeId":"annojoin:profiles:RMDB2PDB:4V9F"},{"pairId":"4V9F:sequence_001631","profileId":"rmdbv3_exact_157856eac787ce5614c232cff5fb30a935c82988|top_x_279::seq_466ac8f0df433322|4V9F_0","routeId":"annojoin:profiles:RMDB2PDB:4V9F"},{"pairId":"4V9F:sequence_001632","profileId":"rmdbv3_exact_157856eac787ce5614c232cff5fb30a935c82988|top_x_279::seq_4d0fe7ea151a9001|4V9F_0","routeId":"annojoin:profiles:RMDB2PDB:4V9F"},{"pairId":"4V9F:sequence_001633","profileId":"rmdbv3_exact_157856eac787ce5614c232cff5fb30a935c82988|top_x_279::seq_8f0d4c855f7a8952|4V9F_0","routeId":"annojoin:profiles:RMDB2PDB:4V9F"},{"pairId":"4V9F:sequence_001634","profileId":"rmdbv3_exact_157856eac787ce5614c232cff5fb30a935c82988|top_x_279::seq_d8b8ac67cd4c4581|4V9F_0","routeId":"annojoin:profiles:RMDB2PDB:4V9F"},{"pairId":"4V9F:sequence_001635","profileId":"rmdbv3_exact_3d7e5ce76dc73fb25031baa56bbce2a6f1ea85fe|top_x_279::seq_13d4798ad1fecd41|4V9F_0","routeId":"annojoin:profiles:RMDB2PDB:4V9F"},{"pairId":"4V9F:sequence_001636","profileId":"rmdbv3_exact_3d7e5ce76dc73fb25031baa56bbce2a6f1ea85fe|top_x_279::seq_2833c46e5eb8939c|4V9F_0","routeId":"annojoin:profiles:RMDB2PDB:4V9F"},{"pairId":"4V9F:sequence_001637","profileId":"rmdbv3_exact_e1347dd742fb66598deb97638e4a2f9e1edee7f0|top_x_279::seq_1319140abc0553d6|4V9F_0","routeId":"annojoin:profiles:RMDB2PDB:4V9F"},{"pairId":"4V9F:sequence_001638","profileId":"rmdbv3_exact_e1347dd742fb66598deb97638e4a2f9e1edee7f0|top_x_279::seq_56093f4d34749c59|4V9F_0","routeId":"annojoin:profiles:RMDB2PDB:4V9F"},{"pairId":"4V9F:sequence_001639","profileId":"rmdbv3_exact_e1347dd742fb66598deb97638e4a2f9e1edee7f0|top_x_279::seq_738d4b33a40b75fe|4V9F_0","routeId":"annojoin:profiles:RMDB2PDB:4V9F"},{"pairId":"4V9F:sequence_001640","profileId":"rmdbv3_exact_e1347dd742fb66598deb97638e4a2f9e1edee7f0|top_x_279::seq_a0c82fc387f16fdb|4V9F_0","routeId":"annojoin:profiles:RMDB2PDB:4V9F"},{"pairId":"4V9F:sequence_001641","profileId":"rmdbv3_exact_32fca32fa0079cc4864d07b9f880380a6c9660bd|top_x_279::seq_199e959e807042f4|4V9F_0","routeId":"annojoin:profiles:RMDB2PDB:4V9F"},{"pairId":"4V9F:sequence_001642","profileId":"rmdbv3_exact_32fca32fa0079cc4864d07b9f880380a6c9660bd|top_x_279::seq_a6b1281adabd74fb|4V9F_0","routeId":"annojoin:profiles:RMDB2PDB:4V9F"},{"pairId":"4V9F:sequence_001643","profileId":"rmdbv3_exact_99b4ea0c4bff89ca93847c29490465e2a8c194bb|top_x_279::seq_2fe49841e90d8daf|4V9F_0","routeId":"annojoin:profiles:RMDB2PDB:4V9F"},{"pairId":"4V9F:sequence_001644","profileId":"rmdbv3_exact_99b4ea0c4bff89ca93847c29490465e2a8c194bb|top_x_279::seq_b05b6ae88d857262|4V9F_0","routeId":"annojoin:profiles:RMDB2PDB:4V9F"},{"pairId":"4V9F:sequence_001645","profileId":"rmdbv3_exact_99b4ea0c4bff89ca93847c29490465e2a8c194bb|top_x_279::seq_f5f91134aec7cec0|4V9F_0","routeId":"annojoin:profiles:RMDB2PDB:4V9F"},{"pairId":"4V9F:sequence_001646","profileId":"rmdbv3_exact_99b4ea0c4bff89ca93847c29490465e2a8c194bb|top_x_279::seq_ff40024863bae7d6|4V9F_0","routeId":"annojoin:profiles:RMDB2PDB:4V9F"},{"pairId":"4V9F:sequence_001647","profileId":"rmdbv3_exact_2aa1fad5f11529a00facbdc640e0b4b52ccd1742|top_x_279::seq_11631cd074f77e13|4V9F_0","routeId":"annojoin:profiles:RMDB2PDB:4V9F"},{"pairId":"4V9F:sequence_001648","profileId":"rmdbv3_exact_2aa1fad5f11529a00facbdc640e0b4b52ccd1742|top_x_279::seq_27f16c6d574f5925|4V9F_0","routeId":"annojoin:profiles:RMDB2PDB:4V9F"},{"pairId":"4V9F:sequence_001649","profileId":"rmdbv3_exact_2aa1fad5f11529a00facbdc640e0b4b52ccd1742|top_x_279::seq_d05d9eec7367c8b2|4V9F_0","routeId":"annojoin:profiles:RMDB2PDB:4V9F"},{"pairId":"4V9F:sequence_001650","profileId":"rmdbv3_exact_2aa1fad5f11529a00facbdc640e0b4b52ccd1742|top_x_279::seq_fe937f3ccc6fcb26|4V9F_0","routeId":"annojoin:profiles:RMDB2PDB:4V9F"},{"pairId":"4V9F:sequence_001651","profileId":"rmdbv3_exact_4139a35368ad4d100f936dcd37306832c7ed36c7|top_x_279::seq_2d877bafdebf57e9|4V9F_0","routeId":"annojoin:profiles:RMDB2PDB:4V9F"},{"pairId":"4V9F:sequence_001652","profileId":"rmdbv3_exact_4139a35368ad4d100f936dcd37306832c7ed36c7|top_x_279::seq_5ef2a82d61c6122c|4V9F_0","routeId":"annojoin:profiles:RMDB2PDB:4V9F"},{"pairId":"4V9F:sequence_001653","profileId":"rmdbv3_exact_3585d7337bf5f7208cb3c042a1e3d201f3a73d81|top_x_279::seq_68ec5f5942f27e76|4V9F_0","routeId":"annojoin:profiles:RMDB2PDB:4V9F"},{"pairId":"4V9F:sequence_001654","profileId":"rmdbv3_exact_3585d7337bf5f7208cb3c042a1e3d201f3a73d81|top_x_279::seq_7a52d6c4e16c0f52|4V9F_0","routeId":"annojoin:profiles:RMDB2PDB:4V9F"},{"pairId":"4V9F:sequence_001655","profileId":"rmdbv3_exact_3585d7337bf5f7208cb3c042a1e3d201f3a73d81|top_x_279::seq_b7feee51ba25d20b|4V9F_0","routeId":"annojoin:profiles:RMDB2PDB:4V9F"},{"pairId":"4V9F:sequence_001656","profileId":"rmdbv3_exact_3585d7337bf5f7208cb3c042a1e3d201f3a73d81|top_x_279::seq_b804b2e0c507703c|4V9F_0","routeId":"annojoin:profiles:RMDB2PDB:4V9F"},{"pairId":"4V9F:sequence_001657","profileId":"rmdbv3_exact_719b2799e4f421797215fc154a2e69dc75517b59|top_x_279::seq_2edc335f3617173d|4V9F_0","routeId":"annojoin:profiles:RMDB2PDB:4V9F"},{"pairId":"4V9F:sequence_001658","profileId":"rmdbv3_exact_719b2799e4f421797215fc154a2e69dc75517b59|top_x_279::seq_ad9bb46be0195150|4V9F_0","routeId":"annojoin:profiles:RMDB2PDB:4V9F"},{"pairId":"4V9F:sequence_001659","profileId":"rmdbv3_exact_719b2799e4f421797215fc154a2e69dc75517b59|top_x_279::seq_c260fc67962dae51|4V9F_0","routeId":"annojoin:profiles:RMDB2PDB:4V9F"},{"pairId":"4V9F:sequence_001660","profileId":"rmdbv3_exact_719b2799e4f421797215fc154a2e69dc75517b59|top_x_279::seq_e1967791b89dcfca|4V9F_0","routeId":"annojoin:profiles:RMDB2PDB:4V9F"},{"pairId":"4V9F:sequence_001661","profileId":"rmdbv3_exact_e31e87c8b46af9fb08d421e776a953afd54265b9|top_x_279::seq_5c70227d8ee28bf1|4V9F_0","routeId":"annojoin:profiles:RMDB2PDB:4V9F"},{"pairId":"4V9F:sequence_001662","profileId":"rmdbv3_exact_e31e87c8b46af9fb08d421e776a953afd54265b9|top_x_279::seq_ae3fa6a08b46f096|4V9F_0","routeId":"annojoin:profiles:RMDB2PDB:4V9F"},{"pairId":"4V9F:sequence_001663","profileId":"rmdbv3_exact_96027e2e0b9f30a39a7fa09dfa562bbedd074744|top_x_279::seq_43918a926cddd006|4V9F_0","routeId":"annojoin:profiles:RMDB2PDB:4V9F"},{"pairId":"4V9F:sequence_001664","profileId":"rmdbv3_exact_96027e2e0b9f30a39a7fa09dfa562bbedd074744|top_x_279::seq_63eea324d0bf45ef|4V9F_0","routeId":"annojoin:profiles:RMDB2PDB:4V9F"},{"pairId":"4V9F:sequence_001665","profileId":"rmdbv3_exact_96027e2e0b9f30a39a7fa09dfa562bbedd074744|top_x_279::seq_72c0f9b0e40ac119|4V9F_0","routeId":"annojoin:profiles:RMDB2PDB:4V9F"},{"pairId":"4V9F:sequence_001666","profileId":"rmdbv3_exact_96027e2e0b9f30a39a7fa09dfa562bbedd074744|top_x_279::seq_97ec86fb2f5ea0c3|4V9F_0","routeId":"annojoin:profiles:RMDB2PDB:4V9F"},{"pairId":"4V9F:sequence_001667","profileId":"rmdbv3_exact_4150c87261e1cfc5e66502abb2d3103dc63486b1|top_x_279::seq_5222eec86e4e7b45|4V9F_0","routeId":"annojoin:profiles:RMDB2PDB:4V9F"},{"pairId":"4V9F:sequence_001668","profileId":"rmdbv3_exact_4150c87261e1cfc5e66502abb2d3103dc63486b1|top_x_279::seq_88c4835a50987fca|4V9F_0","routeId":"annojoin:profiles:RMDB2PDB:4V9F"},{"pairId":"4V9F:sequence_001669","profileId":"rmdbv3_exact_f03f76efcbfeee9d71d0287905be329e5d934a17|top_x_279::seq_9baf1c6a69982100|4V9F_0","routeId":"annojoin:profiles:RMDB2PDB:4V9F"},{"pairId":"4V9F:sequence_001670","profileId":"rmdbv3_exact_f03f76efcbfeee9d71d0287905be329e5d934a17|top_x_279::seq_c828d249bcf6abbf|4V9F_0","routeId":"annojoin:profiles:RMDB2PDB:4V9F"},{"pairId":"4V9F:sequence_001671","profileId":"rmdbv3_exact_52bebca2f5d33fe27070bb9b9bb027b88e7d7dcf|top_x_279::seq_1c1ffef041691a14|4V9F_0","routeId":"annojoin:profiles:RMDB2PDB:4V9F"},{"pairId":"4V9F:sequence_001672","profileId":"rmdbv3_exact_52bebca2f5d33fe27070bb9b9bb027b88e7d7dcf|top_x_279::seq_747b4f08efffb8f6|4V9F_0","routeId":"annojoin:profiles:RMDB2PDB:4V9F"},{"pairId":"4V9F:sequence_001673","profileId":"rmdbv3_exact_52bebca2f5d33fe27070bb9b9bb027b88e7d7dcf|top_x_279::seq_7f26d7cf95efe013|4V9F_0","routeId":"annojoin:profiles:RMDB2PDB:4V9F"},{"pairId":"4V9F:sequence_001674","profileId":"rmdbv3_exact_52bebca2f5d33fe27070bb9b9bb027b88e7d7dcf|top_x_279::seq_f97e059eb46ccf50|4V9F_0","routeId":"annojoin:profiles:RMDB2PDB:4V9F"},{"pairId":"4V9F:sequence_001675","profileId":"rmdbv3_exact_81d02db4f7985ea14dc35ae67f9c7cfb7a047dc8|top_x_279::seq_6b89bea018159d2b|4V9F_0","routeId":"annojoin:profiles:RMDB2PDB:4V9F"},{"pairId":"4V9F:sequence_001676","profileId":"rmdbv3_exact_81d02db4f7985ea14dc35ae67f9c7cfb7a047dc8|top_x_279::seq_c5efb0234704a339|4V9F_0","routeId":"annojoin:profiles:RMDB2PDB:4V9F"},{"pairId":"4V9F:sequence_001677","profileId":"rmdbv3_exact_714db939556970b46c49bc6a3d2db70dfd71366b|top_x_279::seq_24cf9904b539e309|4V9F_0","routeId":"annojoin:profiles:RMDB2PDB:4V9F"},{"pairId":"4V9F:sequence_001678","profileId":"rmdbv3_exact_714db939556970b46c49bc6a3d2db70dfd71366b|top_x_279::seq_84f9a5dd0f754455|4V9F_0","routeId":"annojoin:profiles:RMDB2PDB:4V9F"},{"pairId":"4V9F:sequence_001679","profileId":"rmdbv3_exact_714db939556970b46c49bc6a3d2db70dfd71366b|top_x_279::seq_88ba42ecd5171950|4V9F_0","routeId":"annojoin:profiles:RMDB2PDB:4V9F"},{"pairId":"4V9F:sequence_001680","profileId":"rmdbv3_exact_714db939556970b46c49bc6a3d2db70dfd71366b|top_x_279::seq_9e40fb78ddedc1e6|4V9F_0","routeId":"annojoin:profiles:RMDB2PDB:4V9F"},{"pairId":"4V9F:sequence_001681","profileId":"rmdbv3_exact_458dbaf33209005685904578f92905a4cd12fec6|top_x_279::seq_03a3bc16558783db|4V9F_0","routeId":"annojoin:profiles:RMDB2PDB:4V9F"},{"pairId":"4V9F:sequence_001682","profileId":"rmdbv3_exact_458dbaf33209005685904578f92905a4cd12fec6|top_x_279::seq_b04d022c1b2db5cd|4V9F_0","routeId":"annojoin:profiles:RMDB2PDB:4V9F"},{"pairId":"4V9F:sequence_001683","profileId":"rmdbv3_exact_ead71553bb8b7d2ded96e7f329ab2351f290b6f6|top_x_279::seq_4bc5e14943956928|4V9F_0","routeId":"annojoin:profiles:RMDB2PDB:4V9F"},{"pairId":"4V9F:sequence_001684","profileId":"rmdbv3_exact_ead71553bb8b7d2ded96e7f329ab2351f290b6f6|top_x_279::seq_6706e1c8539d9342|4V9F_0","routeId":"annojoin:profiles:RMDB2PDB:4V9F"},{"pairId":"4V9F:sequence_001685","profileId":"rmdbv3_exact_ead71553bb8b7d2ded96e7f329ab2351f290b6f6|top_x_279::seq_9e4b15e60e17c932|4V9F_0","routeId":"annojoin:profiles:RMDB2PDB:4V9F"},{"pairId":"4V9F:sequence_001686","profileId":"rmdbv3_exact_ead71553bb8b7d2ded96e7f329ab2351f290b6f6|top_x_279::seq_d9be2a6426a5ef0e|4V9F_0","routeId":"annojoin:profiles:RMDB2PDB:4V9F"},{"pairId":"4V9F:sequence_001687","profileId":"rmdbv3_exact_8e07e90d1a22a97fd9c37f29fffed94b5e9f92c5|top_x_279::seq_22a1e68bdcda8e09|4V9F_0","routeId":"annojoin:profiles:RMDB2PDB:4V9F"},{"pairId":"4V9F:sequence_001688","profileId":"rmdbv3_exact_8e07e90d1a22a97fd9c37f29fffed94b5e9f92c5|top_x_279::seq_dce9bf9de733752c|4V9F_0","routeId":"annojoin:profiles:RMDB2PDB:4V9F"},{"pairId":"4V9F:sequence_001689","profileId":"rmdbv3_exact_915b71958d3a57085840848ac50882a523965263|top_x_279::seq_532812d69fc0e76b|4V9F_0","routeId":"annojoin:profiles:RMDB2PDB:4V9F"},{"pairId":"4V9F:sequence_001690","profileId":"rmdbv3_exact_915b71958d3a57085840848ac50882a523965263|top_x_279::seq_85da3f02a6134326|4V9F_0","routeId":"annojoin:profiles:RMDB2PDB:4V9F"},{"pairId":"4V9F:sequence_001691","profileId":"rmdbv3_exact_915b71958d3a57085840848ac50882a523965263|top_x_279::seq_aeb21f525b6ab6ff|4V9F_0","routeId":"annojoin:profiles:RMDB2PDB:4V9F"},{"pairId":"4V9F:sequence_001692","profileId":"rmdbv3_exact_915b71958d3a57085840848ac50882a523965263|top_x_279::seq_e1cd417209a77d92|4V9F_0","routeId":"annojoin:profiles:RMDB2PDB:4V9F"},{"pairId":"4V9F:sequence_001693","profileId":"rmdbv3_exact_d1235f628a99e9b2503d80aed76b561f346ba24c|top_x_279::seq_15ae611376f21a51|4V9F_0","routeId":"annojoin:profiles:RMDB2PDB:4V9F"},{"pairId":"4V9F:sequence_001694","profileId":"rmdbv3_exact_d1235f628a99e9b2503d80aed76b561f346ba24c|top_x_279::seq_316c5b3b456e20fe|4V9F_0","routeId":"annojoin:profiles:RMDB2PDB:4V9F"},{"pairId":"4V9F:sequence_001695","profileId":"rmdbv3_exact_d1235f628a99e9b2503d80aed76b561f346ba24c|top_x_279::seq_6906aa6ce3dfbb1b|4V9F_0","routeId":"annojoin:profiles:RMDB2PDB:4V9F"},{"pairId":"4V9F:sequence_001696","profileId":"rmdbv3_exact_d1235f628a99e9b2503d80aed76b561f346ba24c|top_x_279::seq_db918f22a67df7a6|4V9F_0","routeId":"annojoin:profiles:RMDB2PDB:4V9F"},{"pairId":"4V9F:sequence_001697","profileId":"rmdbv3_exact_d4e5d983ca61b843a7146bf3eb065b5f73c91794|top_x_279::seq_2aab04cb05323d75|4V9F_0","routeId":"annojoin:profiles:RMDB2PDB:4V9F"},{"pairId":"4V9F:sequence_001698","profileId":"rmdbv3_exact_d4e5d983ca61b843a7146bf3eb065b5f73c91794|top_x_279::seq_4cd4e5fb6d2c581e|4V9F_0","routeId":"annojoin:profiles:RMDB2PDB:4V9F"},{"pairId":"4V9F:sequence_001699","profileId":"rmdbv3_exact_28889f0d2cb70eb8994756ee7be66d4894ce9501|top_x_279::seq_29bfe4e6db50ec05|4V9F_0","routeId":"annojoin:profiles:RMDB2PDB:4V9F"},{"pairId":"4V9F:sequence_001700","profileId":"rmdbv3_exact_28889f0d2cb70eb8994756ee7be66d4894ce9501|top_x_279::seq_5a2f15e9073986be|4V9F_0","routeId":"annojoin:profiles:RMDB2PDB:4V9F"},{"pairId":"4V9F:sequence_001701","profileId":"rmdbv3_exact_28889f0d2cb70eb8994756ee7be66d4894ce9501|top_x_279::seq_a76da887f515def0|4V9F_0","routeId":"annojoin:profiles:RMDB2PDB:4V9F"},{"pairId":"4V9F:sequence_001702","profileId":"rmdbv3_exact_28889f0d2cb70eb8994756ee7be66d4894ce9501|top_x_279::seq_aac0b146f0b71386|4V9F_0","routeId":"annojoin:profiles:RMDB2PDB:4V9F"},{"pairId":"4V9F:sequence_001703","profileId":"rmdbv3_exact_724764d66d41fcf4a19a641b174a43b99d8dc19c|top_x_279::seq_8167b44886543a01|4V9F_0","routeId":"annojoin:profiles:RMDB2PDB:4V9F"},{"pairId":"4V9F:sequence_001704","profileId":"rmdbv3_exact_724764d66d41fcf4a19a641b174a43b99d8dc19c|top_x_279::seq_9705c6b4f64bd19a|4V9F_0","routeId":"annojoin:profiles:RMDB2PDB:4V9F"},{"pairId":"4V9F:sequence_001705","profileId":"rmdbv3_exact_20a310aab06c6d5989389c014066c4842b1493a1|top_x_279::seq_531aa6550fbe56bc|4V9F_0","routeId":"annojoin:profiles:RMDB2PDB:4V9F"},{"pairId":"4V9F:sequence_001706","profileId":"rmdbv3_exact_20a310aab06c6d5989389c014066c4842b1493a1|top_x_279::seq_f72ea524d5ad7a92|4V9F_0","routeId":"annojoin:profiles:RMDB2PDB:4V9F"},{"pairId":"4V9F:sequence_001707","profileId":"rmdbv3_exact_40c37e066afe8319bb65c521d665f6f4d9087176|top_x_279::seq_0441ffc242d0fbda|4V9F_0","routeId":"annojoin:profiles:RMDB2PDB:4V9F"},{"pairId":"4V9F:sequence_001708","profileId":"rmdbv3_exact_40c37e066afe8319bb65c521d665f6f4d9087176|top_x_279::seq_21dde0a7fec01cab|4V9F_0","routeId":"annojoin:profiles:RMDB2PDB:4V9F"},{"pairId":"4V9F:sequence_001709","profileId":"rmdbv3_exact_40c37e066afe8319bb65c521d665f6f4d9087176|top_x_279::seq_5cb407501a2c550b|4V9F_0","routeId":"annojoin:profiles:RMDB2PDB:4V9F"},{"pairId":"4V9F:sequence_001710","profileId":"rmdbv3_exact_40c37e066afe8319bb65c521d665f6f4d9087176|top_x_279::seq_bc85dd9eee4826bc|4V9F_0","routeId":"annojoin:profiles:RMDB2PDB:4V9F"},{"pairId":"4V9F:sequence_001711","profileId":"rmdbv3_exact_956d2b74139b09d9816921c4c06ed928eaeb715f|top_x_279::seq_35938c0131f338e8|4V9F_0","routeId":"annojoin:profiles:RMDB2PDB:4V9F"},{"pairId":"4V9F:sequence_001712","profileId":"rmdbv3_exact_956d2b74139b09d9816921c4c06ed928eaeb715f|top_x_279::seq_85718acf7c074d92|4V9F_0","routeId":"annojoin:profiles:RMDB2PDB:4V9F"},{"pairId":"4V9F:sequence_001713","profileId":"rmdbv3_exact_956d2b74139b09d9816921c4c06ed928eaeb715f|top_x_279::seq_8e2b9a8c5277b71a|4V9F_0","routeId":"annojoin:profiles:RMDB2PDB:4V9F"},{"pairId":"4V9F:sequence_001714","profileId":"rmdbv3_exact_956d2b74139b09d9816921c4c06ed928eaeb715f|top_x_279::seq_a984653ef08ed38b|4V9F_0","routeId":"annojoin:profiles:RMDB2PDB:4V9F"},{"pairId":"4V9F:sequence_001715","profileId":"rmdbv3_exact_a3bc6c4c6ceaa5dff1c6c65ceccede4d7f226960|top_x_279::seq_0179c8424a97075f|4V9F_0","routeId":"annojoin:profiles:RMDB2PDB:4V9F"},{"pairId":"4V9F:sequence_001716","profileId":"rmdbv3_exact_a3bc6c4c6ceaa5dff1c6c65ceccede4d7f226960|top_x_279::seq_4fbf4cf625a59a80|4V9F_0","routeId":"annojoin:profiles:RMDB2PDB:4V9F"}]}
