{"schemaVersion":"annojoin-atlas.v1","version":"V2.1_RMDB_LINE_A_20260617","atlasCaseKey":"RMDB2PDB:1XJR","caseId":"1XJR","routeKey":"memberships","page":2,"pageSize":500,"totalRows":511,"pageCount":2,"rows":[{"pairId":"1XJR:sequence_000636","profileId":"rmdbv3_exact_168196b8b1de1288460be2d82537d2d32f6a6398|nonpuzzle_fail_rescue::seq_51431a80e4baa990|1XJR_A","routeId":"annojoin:profiles:RMDB2PDB:1XJR"},{"pairId":"1XJR:sequence_000637","profileId":"rmdbv3_exact_00f6ce886917286514387c14a7e9403fd5b0e193|top_x_279::seq_aa3ed719275565d2|1XJR_A","routeId":"annojoin:profiles:RMDB2PDB:1XJR"},{"pairId":"1XJR:sequence_000638","profileId":"rmdbv3_exact_00f6ce886917286514387c14a7e9403fd5b0e193|top_x_279::seq_eaab89a373db46fa|1XJR_A","routeId":"annojoin:profiles:RMDB2PDB:1XJR"},{"pairId":"1XJR:sequence_000641","profileId":"rmdbv3_exact_4116c68faf307e1b3871aa56d5508cf822d5c853|top_x_279::seq_28ad06ea6e1ff3ab|1XJR_A","routeId":"annojoin:profiles:RMDB2PDB:1XJR"},{"pairId":"1XJR:sequence_000642","profileId":"rmdbv3_exact_4116c68faf307e1b3871aa56d5508cf822d5c853|top_x_279::seq_390feca857a74042|1XJR_A","routeId":"annojoin:profiles:RMDB2PDB:1XJR"},{"pairId":"1XJR:sequence_000643","profileId":"rmdbv3_exact_5efbb0b2d0a0741330ce43d97aa33626f921f258|top_x_279::seq_055f3c5c85571611|1XJR_A","routeId":"annojoin:profiles:RMDB2PDB:1XJR"},{"pairId":"1XJR:sequence_000644","profileId":"rmdbv3_exact_5efbb0b2d0a0741330ce43d97aa33626f921f258|top_x_279::seq_f36c001b1ff6761b|1XJR_A","routeId":"annojoin:profiles:RMDB2PDB:1XJR"},{"pairId":"1XJR:sequence_000645","profileId":"rmdbv3_exact_84506b4911450f17515d38d0ae1d1cd9939b3a06|top_x_279::seq_1bee63e7c7348fbc|1XJR_A","routeId":"annojoin:profiles:RMDB2PDB:1XJR"},{"pairId":"1XJR:sequence_000646","profileId":"rmdbv3_exact_84506b4911450f17515d38d0ae1d1cd9939b3a06|top_x_279::seq_275c7c0060205d2f|1XJR_A","routeId":"annojoin:profiles:RMDB2PDB:1XJR"},{"pairId":"1XJR:sequence_000647","profileId":"rmdbv3_exact_b73e32fb31ad1f309271f4b0a9ce95fefbc8d717|top_x_279::seq_6d82daa6a70d94e3|1XJR_A","routeId":"annojoin:profiles:RMDB2PDB:1XJR"},{"pairId":"1XJR:sequence_000648","profileId":"rmdbv3_exact_b73e32fb31ad1f309271f4b0a9ce95fefbc8d717|top_x_279::seq_bc15d4d5b8a9b744|1XJR_A","routeId":"annojoin:profiles:RMDB2PDB:1XJR"}]}
