{"schemaVersion":"annojoin-atlas.v1","version":"V2.1_RMDB_LINE_A_20260617","atlasCaseKey":"RMDB2PDB:6VVJ","caseId":"6VVJ","routeKey":"memberships","page":2,"pageSize":500,"totalRows":567,"pageCount":2,"rows":[{"pairId":"6VVJ:sequence_000603","profileId":"rmdbv3_exact_faee734844bd327099268440904b962b5f9ed77d|top_x_279::seq_c47007aca75a8803|6VVJ_A","routeId":"annojoin:profiles:RMDB2PDB:6VVJ"},{"pairId":"6VVJ:sequence_000604","profileId":"rmdbv3_exact_faee734844bd327099268440904b962b5f9ed77d|top_x_279::seq_fa48baa1dbc86689|6VVJ_A","routeId":"annojoin:profiles:RMDB2PDB:6VVJ"},{"pairId":"6VVJ:sequence_000609","profileId":"rmdbv3_exact_0bbc7f23ae1a6ba0640d245817a43b970545eb2a|top_x_279::seq_9af50367ddc76a4e|6VVJ_A","routeId":"annojoin:profiles:RMDB2PDB:6VVJ"},{"pairId":"6VVJ:sequence_000610","profileId":"rmdbv3_exact_0bbc7f23ae1a6ba0640d245817a43b970545eb2a|top_x_279::seq_b1a473539da3a6c0|6VVJ_A","routeId":"annojoin:profiles:RMDB2PDB:6VVJ"},{"pairId":"6VVJ:sequence_000611","profileId":"rmdbv3_exact_111d2056d4cc365dcb41d9cc27dce90ebd2cbfb6|top_x_279::seq_90f343456f632871|6VVJ_A","routeId":"annojoin:profiles:RMDB2PDB:6VVJ"},{"pairId":"6VVJ:sequence_000612","profileId":"rmdbv3_exact_111d2056d4cc365dcb41d9cc27dce90ebd2cbfb6|top_x_279::seq_b5af0d6e0fb61d67|6VVJ_A","routeId":"annojoin:profiles:RMDB2PDB:6VVJ"},{"pairId":"6VVJ:sequence_000617","profileId":"rmdbv3_exact_23dd79fad268dca046a1ef01ecd43f2f1843b087|top_x_279::seq_696ddba9bde937c6|6VVJ_A","routeId":"annojoin:profiles:RMDB2PDB:6VVJ"},{"pairId":"6VVJ:sequence_000618","profileId":"rmdbv3_exact_23dd79fad268dca046a1ef01ecd43f2f1843b087|top_x_279::seq_728c2feee269a79c|6VVJ_A","routeId":"annojoin:profiles:RMDB2PDB:6VVJ"},{"pairId":"6VVJ:sequence_000619","profileId":"rmdbv3_exact_2446215bbd2c3871fc82dac1eee8ebc3805044ea|top_x_279::seq_956e63002e2c0f14|6VVJ_A","routeId":"annojoin:profiles:RMDB2PDB:6VVJ"},{"pairId":"6VVJ:sequence_000620","profileId":"rmdbv3_exact_2446215bbd2c3871fc82dac1eee8ebc3805044ea|top_x_279::seq_bb96779935a6dfa6|6VVJ_A","routeId":"annojoin:profiles:RMDB2PDB:6VVJ"},{"pairId":"6VVJ:sequence_000621","profileId":"rmdbv3_exact_274e80dd89a56ef992039985cfc10cbb601d222c|top_x_279::seq_3f9c2237479c30f2|6VVJ_A","routeId":"annojoin:profiles:RMDB2PDB:6VVJ"},{"pairId":"6VVJ:sequence_000622","profileId":"rmdbv3_exact_274e80dd89a56ef992039985cfc10cbb601d222c|top_x_279::seq_5c33fc809b1ae194|6VVJ_A","routeId":"annojoin:profiles:RMDB2PDB:6VVJ"},{"pairId":"6VVJ:sequence_000625","profileId":"rmdbv3_exact_2e03207b3b69e76d9fa1e0b2447ed2c4bc42c9a7|top_x_279::seq_d67737f13603e651|6VVJ_A","routeId":"annojoin:profiles:RMDB2PDB:6VVJ"},{"pairId":"6VVJ:sequence_000626","profileId":"rmdbv3_exact_2e03207b3b69e76d9fa1e0b2447ed2c4bc42c9a7|top_x_279::seq_e4a28e0caec721e8|6VVJ_A","routeId":"annojoin:profiles:RMDB2PDB:6VVJ"},{"pairId":"6VVJ:sequence_000627","profileId":"rmdbv3_exact_332b4012675f233323a54abde737477ca80020de|top_x_279::seq_41bba87446aa9244|6VVJ_A","routeId":"annojoin:profiles:RMDB2PDB:6VVJ"},{"pairId":"6VVJ:sequence_000628","profileId":"rmdbv3_exact_332b4012675f233323a54abde737477ca80020de|top_x_279::seq_b549ce5ec2eceb14|6VVJ_A","routeId":"annojoin:profiles:RMDB2PDB:6VVJ"},{"pairId":"6VVJ:sequence_000629","profileId":"rmdbv3_exact_34c3ab0eb447f9cbf2fb39b80ab8fcbfcc6ae0e0|top_x_279::seq_a299c612458e7e13|6VVJ_A","routeId":"annojoin:profiles:RMDB2PDB:6VVJ"},{"pairId":"6VVJ:sequence_000630","profileId":"rmdbv3_exact_34c3ab0eb447f9cbf2fb39b80ab8fcbfcc6ae0e0|top_x_279::seq_e926536bfef82cae|6VVJ_A","routeId":"annojoin:profiles:RMDB2PDB:6VVJ"},{"pairId":"6VVJ:sequence_000631","profileId":"rmdbv3_exact_392cf8c07f12a865f04bb1a1531afed08ec940f7|top_x_279::seq_1d3288e8af306d84|6VVJ_A","routeId":"annojoin:profiles:RMDB2PDB:6VVJ"},{"pairId":"6VVJ:sequence_000632","profileId":"rmdbv3_exact_392cf8c07f12a865f04bb1a1531afed08ec940f7|top_x_279::seq_7ad2e15a39d1229f|6VVJ_A","routeId":"annojoin:profiles:RMDB2PDB:6VVJ"},{"pairId":"6VVJ:sequence_000633","profileId":"rmdbv3_exact_46132d25f93f9b6b1c514ac95ec6835e2f622445|top_x_279::seq_207d4c1e601077ac|6VVJ_A","routeId":"annojoin:profiles:RMDB2PDB:6VVJ"},{"pairId":"6VVJ:sequence_000634","profileId":"rmdbv3_exact_46132d25f93f9b6b1c514ac95ec6835e2f622445|top_x_279::seq_2752029efcb6d325|6VVJ_A","routeId":"annojoin:profiles:RMDB2PDB:6VVJ"},{"pairId":"6VVJ:sequence_000635","profileId":"rmdbv3_exact_522fd3b605cd323ad14a217a59599acfe36f49ce|top_x_279::seq_6a748afb7ec62722|6VVJ_A","routeId":"annojoin:profiles:RMDB2PDB:6VVJ"},{"pairId":"6VVJ:sequence_000636","profileId":"rmdbv3_exact_522fd3b605cd323ad14a217a59599acfe36f49ce|top_x_279::seq_aca78a98284d883e|6VVJ_A","routeId":"annojoin:profiles:RMDB2PDB:6VVJ"},{"pairId":"6VVJ:sequence_000637","profileId":"rmdbv3_exact_58aea0ad672ca83c7d63c1b0f5f98c4335ee1e2c|top_x_279::seq_1bd82b638975701c|6VVJ_A","routeId":"annojoin:profiles:RMDB2PDB:6VVJ"},{"pairId":"6VVJ:sequence_000638","profileId":"rmdbv3_exact_58aea0ad672ca83c7d63c1b0f5f98c4335ee1e2c|top_x_279::seq_d6e0b745a71bcbd4|6VVJ_A","routeId":"annojoin:profiles:RMDB2PDB:6VVJ"},{"pairId":"6VVJ:sequence_000642","profileId":"rmdbv3_exact_5f1dd5881764cf8f11f223f530c31da83c63104f|top_x_279::seq_813e2c0243686d31|6VVJ_A","routeId":"annojoin:profiles:RMDB2PDB:6VVJ"},{"pairId":"6VVJ:sequence_000647","profileId":"rmdbv3_exact_66651b9d76cd5d32b23f1ed92b839a3a251de42a|top_x_279::seq_93394c65c9490258|6VVJ_A","routeId":"annojoin:profiles:RMDB2PDB:6VVJ"},{"pairId":"6VVJ:sequence_000648","profileId":"rmdbv3_exact_66651b9d76cd5d32b23f1ed92b839a3a251de42a|top_x_279::seq_b03ef43ba7bcc3fd|6VVJ_A","routeId":"annojoin:profiles:RMDB2PDB:6VVJ"},{"pairId":"6VVJ:sequence_000649","profileId":"rmdbv3_exact_7027e1951d5dd5b002b4cc45f22a9134c8c556e1|top_x_279::seq_d4944a5b687d3b2a|6VVJ_A","routeId":"annojoin:profiles:RMDB2PDB:6VVJ"},{"pairId":"6VVJ:sequence_000650","profileId":"rmdbv3_exact_7027e1951d5dd5b002b4cc45f22a9134c8c556e1|top_x_279::seq_d8860201b0262ef1|6VVJ_A","routeId":"annojoin:profiles:RMDB2PDB:6VVJ"},{"pairId":"6VVJ:sequence_000651","profileId":"rmdbv3_exact_7151f582f1cd2d3c98f44003b5fa129383c5ed5b|top_x_279::seq_2a5ff5c968dcb5a9|6VVJ_A","routeId":"annojoin:profiles:RMDB2PDB:6VVJ"},{"pairId":"6VVJ:sequence_000652","profileId":"rmdbv3_exact_7151f582f1cd2d3c98f44003b5fa129383c5ed5b|top_x_279::seq_72e05ea22e6d473e|6VVJ_A","routeId":"annojoin:profiles:RMDB2PDB:6VVJ"},{"pairId":"6VVJ:sequence_000653","profileId":"rmdbv3_exact_73270fa5a363e6407e0fb17b9ed22b57cee2daa2|top_x_279::seq_6dc173a9c2f3744d|6VVJ_A","routeId":"annojoin:profiles:RMDB2PDB:6VVJ"},{"pairId":"6VVJ:sequence_000654","profileId":"rmdbv3_exact_73270fa5a363e6407e0fb17b9ed22b57cee2daa2|top_x_279::seq_db8eac0e60565b7c|6VVJ_A","routeId":"annojoin:profiles:RMDB2PDB:6VVJ"},{"pairId":"6VVJ:sequence_000655","profileId":"rmdbv3_exact_7c7d86e99e1548b21980bc36a37262863cb95584|top_x_279::seq_1a5958d92a85a836|6VVJ_A","routeId":"annojoin:profiles:RMDB2PDB:6VVJ"},{"pairId":"6VVJ:sequence_000656","profileId":"rmdbv3_exact_7c7d86e99e1548b21980bc36a37262863cb95584|top_x_279::seq_c783b8da4c30ce63|6VVJ_A","routeId":"annojoin:profiles:RMDB2PDB:6VVJ"},{"pairId":"6VVJ:sequence_000661","profileId":"rmdbv3_exact_86e06da00e0772e7bbfb7a5e15589d3f38f087f6|top_x_279::seq_c8836278919cfef9|6VVJ_A","routeId":"annojoin:profiles:RMDB2PDB:6VVJ"},{"pairId":"6VVJ:sequence_000662","profileId":"rmdbv3_exact_86e06da00e0772e7bbfb7a5e15589d3f38f087f6|top_x_279::seq_e0cfa9353a49546b|6VVJ_A","routeId":"annojoin:profiles:RMDB2PDB:6VVJ"},{"pairId":"6VVJ:sequence_000663","profileId":"rmdbv3_exact_88d06f6394d50dd54c568d107046bc2299e976bf|top_x_279::seq_1549707da82f0fed|6VVJ_A","routeId":"annojoin:profiles:RMDB2PDB:6VVJ"},{"pairId":"6VVJ:sequence_000664","profileId":"rmdbv3_exact_88d06f6394d50dd54c568d107046bc2299e976bf|top_x_279::seq_484956f410492fe8|6VVJ_A","routeId":"annojoin:profiles:RMDB2PDB:6VVJ"},{"pairId":"6VVJ:sequence_000666","profileId":"rmdbv3_exact_89e70e588693c08c450a3d71ebd915af0adfd2af|top_x_279::seq_ceffa5a1cedd3cc3|6VVJ_A","routeId":"annojoin:profiles:RMDB2PDB:6VVJ"},{"pairId":"6VVJ:sequence_000669","profileId":"rmdbv3_exact_985277e93d4a535cf8d71f3d7ece50f8521e570e|top_x_279::seq_8ab77260113dcf39|6VVJ_A","routeId":"annojoin:profiles:RMDB2PDB:6VVJ"},{"pairId":"6VVJ:sequence_000670","profileId":"rmdbv3_exact_985277e93d4a535cf8d71f3d7ece50f8521e570e|top_x_279::seq_a4b3adaef092ec70|6VVJ_A","routeId":"annojoin:profiles:RMDB2PDB:6VVJ"},{"pairId":"6VVJ:sequence_000675","profileId":"rmdbv3_exact_9e0463c250471667510def920b7de9fb6e4ecaee|top_x_279::seq_3fff222a2f92ecd5|6VVJ_A","routeId":"annojoin:profiles:RMDB2PDB:6VVJ"},{"pairId":"6VVJ:sequence_000676","profileId":"rmdbv3_exact_9e0463c250471667510def920b7de9fb6e4ecaee|top_x_279::seq_db25374c1aea3daf|6VVJ_A","routeId":"annojoin:profiles:RMDB2PDB:6VVJ"},{"pairId":"6VVJ:sequence_000677","profileId":"rmdbv3_exact_a369255950442be1b3bbb918b87cbb8de73f6d66|top_x_279::seq_4b2e3d67a9a4b613|6VVJ_A","routeId":"annojoin:profiles:RMDB2PDB:6VVJ"},{"pairId":"6VVJ:sequence_000678","profileId":"rmdbv3_exact_a369255950442be1b3bbb918b87cbb8de73f6d66|top_x_279::seq_d7fe7cc5b8ba4811|6VVJ_A","routeId":"annojoin:profiles:RMDB2PDB:6VVJ"},{"pairId":"6VVJ:sequence_000679","profileId":"rmdbv3_exact_a56993fdc55f0472e61dd4a02823a6df2489ea73|top_x_279::seq_88adf0739015f7e9|6VVJ_A","routeId":"annojoin:profiles:RMDB2PDB:6VVJ"},{"pairId":"6VVJ:sequence_000680","profileId":"rmdbv3_exact_a56993fdc55f0472e61dd4a02823a6df2489ea73|top_x_279::seq_aeae3569c6149dfb|6VVJ_A","routeId":"annojoin:profiles:RMDB2PDB:6VVJ"},{"pairId":"6VVJ:sequence_000681","profileId":"rmdbv3_exact_a80eeee930e8ee396cb59a8e7bfc0abddd8c06cd|top_x_279::seq_0995d6e858607465|6VVJ_A","routeId":"annojoin:profiles:RMDB2PDB:6VVJ"},{"pairId":"6VVJ:sequence_000682","profileId":"rmdbv3_exact_a80eeee930e8ee396cb59a8e7bfc0abddd8c06cd|top_x_279::seq_c9249b8c02b6d677|6VVJ_A","routeId":"annojoin:profiles:RMDB2PDB:6VVJ"},{"pairId":"6VVJ:sequence_000683","profileId":"rmdbv3_exact_a991e023e1daf39db6553b4941924a1488f724c2|top_x_279::seq_0eaef4770ac619d4|6VVJ_A","routeId":"annojoin:profiles:RMDB2PDB:6VVJ"},{"pairId":"6VVJ:sequence_000684","profileId":"rmdbv3_exact_a991e023e1daf39db6553b4941924a1488f724c2|top_x_279::seq_5040669195c08df5|6VVJ_A","routeId":"annojoin:profiles:RMDB2PDB:6VVJ"},{"pairId":"6VVJ:sequence_000685","profileId":"rmdbv3_exact_af3d5ed4c13b590b055d15c192d44f0996bbc2b7|top_x_279::seq_533e9f3791875e26|6VVJ_A","routeId":"annojoin:profiles:RMDB2PDB:6VVJ"},{"pairId":"6VVJ:sequence_000686","profileId":"rmdbv3_exact_af3d5ed4c13b590b055d15c192d44f0996bbc2b7|top_x_279::seq_adc64df8cb547e4c|6VVJ_A","routeId":"annojoin:profiles:RMDB2PDB:6VVJ"},{"pairId":"6VVJ:sequence_000687","profileId":"rmdbv3_exact_bbd1060f448aaf888ef410bcb2e68ea3ac4eef58|top_x_279::seq_7c6ff46c37ff2896|6VVJ_A","routeId":"annojoin:profiles:RMDB2PDB:6VVJ"},{"pairId":"6VVJ:sequence_000691","profileId":"rmdbv3_exact_cd2d642b9d0c2d7441bc1788a170f6e9f70a3593|top_x_279::seq_5d7d8dd66924dad9|6VVJ_A","routeId":"annojoin:profiles:RMDB2PDB:6VVJ"},{"pairId":"6VVJ:sequence_000692","profileId":"rmdbv3_exact_cd2d642b9d0c2d7441bc1788a170f6e9f70a3593|top_x_279::seq_c420b20e7342b59d|6VVJ_A","routeId":"annojoin:profiles:RMDB2PDB:6VVJ"},{"pairId":"6VVJ:sequence_000693","profileId":"rmdbv3_exact_d10bf35cd4a7a54d955229680ccd29fb1058adb8|top_x_279::seq_26c7b730b981578e|6VVJ_A","routeId":"annojoin:profiles:RMDB2PDB:6VVJ"},{"pairId":"6VVJ:sequence_000694","profileId":"rmdbv3_exact_d10bf35cd4a7a54d955229680ccd29fb1058adb8|top_x_279::seq_e538e073430d3e5b|6VVJ_A","routeId":"annojoin:profiles:RMDB2PDB:6VVJ"},{"pairId":"6VVJ:sequence_000695","profileId":"rmdbv3_exact_da6619baad954a5c4cd17c248bcea6cdce262593|top_x_279::seq_2aaf84f638314a28|6VVJ_A","routeId":"annojoin:profiles:RMDB2PDB:6VVJ"},{"pairId":"6VVJ:sequence_000696","profileId":"rmdbv3_exact_da6619baad954a5c4cd17c248bcea6cdce262593|top_x_279::seq_6deb0a81174868d9|6VVJ_A","routeId":"annojoin:profiles:RMDB2PDB:6VVJ"},{"pairId":"6VVJ:sequence_000697","profileId":"rmdbv3_exact_e67f7943a699800d1ba5c7f5af8fd50f5a4013f6|top_x_279::seq_8787f65c35c97f1b|6VVJ_A","routeId":"annojoin:profiles:RMDB2PDB:6VVJ"},{"pairId":"6VVJ:sequence_000698","profileId":"rmdbv3_exact_e67f7943a699800d1ba5c7f5af8fd50f5a4013f6|top_x_279::seq_99ae4400eb859078|6VVJ_A","routeId":"annojoin:profiles:RMDB2PDB:6VVJ"},{"pairId":"6VVJ:sequence_000699","profileId":"rmdbv3_exact_fb0be07d5d67660c1e68e2b2b11b64bbd26689de|top_x_279::seq_0b3025aa22c5fc83|6VVJ_A","routeId":"annojoin:profiles:RMDB2PDB:6VVJ"},{"pairId":"6VVJ:sequence_000700","profileId":"rmdbv3_exact_fb0be07d5d67660c1e68e2b2b11b64bbd26689de|top_x_279::seq_d59af05bb60665db|6VVJ_A","routeId":"annojoin:profiles:RMDB2PDB:6VVJ"}]}
