{"schemaVersion":"annojoin-atlas.v1","version":"V2.1_RMDB_LINE_A_20260617","atlasCaseKey":"RMDB2PDB:7ANE","caseId":"7ANE","routeKey":"memberships","page":3,"pageSize":500,"totalRows":1039,"pageCount":3,"rows":[{"pairId":"7ANE:sequence_003955","profileId":"rmdbv3_exact_820357c286675fa62b0a57908783af94ed3fb902|top_x_279::seq_3ed5f8875da6fed2|7ANE_1","routeId":"annojoin:profiles:RMDB2PDB:7ANE"},{"pairId":"7ANE:sequence_003956","profileId":"rmdbv3_exact_820357c286675fa62b0a57908783af94ed3fb902|top_x_279::seq_c041aed9138fa38e|7ANE_1","routeId":"annojoin:profiles:RMDB2PDB:7ANE"},{"pairId":"7ANE:sequence_003957","profileId":"rmdbv3_exact_e454e96d4f40d411a28d9afddcd7abe22f341912|top_x_279::seq_23e32d4e6a6b0e8b|7ANE_1","routeId":"annojoin:profiles:RMDB2PDB:7ANE"},{"pairId":"7ANE:sequence_003958","profileId":"rmdbv3_exact_e454e96d4f40d411a28d9afddcd7abe22f341912|top_x_279::seq_b3efea0993d7f787|7ANE_1","routeId":"annojoin:profiles:RMDB2PDB:7ANE"},{"pairId":"7ANE:sequence_003961","profileId":"rmdbv3_exact_862709565003b5950c7f4e78a30a38cdfaa08b98|top_x_279::seq_4da8174d710d6ede|7ANE_1","routeId":"annojoin:profiles:RMDB2PDB:7ANE"},{"pairId":"7ANE:sequence_003962","profileId":"rmdbv3_exact_862709565003b5950c7f4e78a30a38cdfaa08b98|top_x_279::seq_6059e8bc11cabe78|7ANE_1","routeId":"annojoin:profiles:RMDB2PDB:7ANE"},{"pairId":"7ANE:sequence_003963","profileId":"rmdbv3_exact_9790a8c434576ce06f6945057a3669c9087f9ede|top_x_279::seq_9b34568bf8322199|7ANE_1","routeId":"annojoin:profiles:RMDB2PDB:7ANE"},{"pairId":"7ANE:sequence_003965","profileId":"rmdbv3_exact_a4a96679525fdf2ea98d957c190e5c89a115596b|top_x_279::seq_3c969ac9d6ce1b72|7ANE_1","routeId":"annojoin:profiles:RMDB2PDB:7ANE"},{"pairId":"7ANE:sequence_003969","profileId":"rmdbv3_exact_c250dc9a31457e113f5e083763d312d1f07e96c3|top_x_279::seq_50a7fc939ff72755|7ANE_1","routeId":"annojoin:profiles:RMDB2PDB:7ANE"},{"pairId":"7ANE:sequence_003970","profileId":"rmdbv3_exact_c250dc9a31457e113f5e083763d312d1f07e96c3|top_x_279::seq_713a22605c1224fb|7ANE_1","routeId":"annojoin:profiles:RMDB2PDB:7ANE"},{"pairId":"7ANE:sequence_003973","profileId":"rmdbv3_exact_e8c13f6f79b7b76b04900a214430dd4c733f201c|top_x_279::seq_8f18e53970a840c8|7ANE_1","routeId":"annojoin:profiles:RMDB2PDB:7ANE"},{"pairId":"7ANE:sequence_003974","profileId":"rmdbv3_exact_e8c13f6f79b7b76b04900a214430dd4c733f201c|top_x_279::seq_f0432db22c79811b|7ANE_1","routeId":"annojoin:profiles:RMDB2PDB:7ANE"},{"pairId":"7ANE:sequence_003987","profileId":"rmdbv3_exact_1d9eccc21d6ab532cdf8a6da72c28f2f3aba7c53|nonpuzzle_fail_rescue::seq_4833def06972c809|7ANE_1","routeId":"annojoin:profiles:RMDB2PDB:7ANE"},{"pairId":"7ANE:sequence_003988","profileId":"rmdbv3_exact_1d9eccc21d6ab532cdf8a6da72c28f2f3aba7c53|nonpuzzle_fail_rescue::seq_fd6c91f2dbd9abda|7ANE_1","routeId":"annojoin:profiles:RMDB2PDB:7ANE"},{"pairId":"7ANE:sequence_003989","profileId":"rmdbv3_exact_4ddbc729fa43854d40bfcfc209be84bb63ed0851|nonpuzzle_fail_rescue::seq_cd1c15c3cc561b47|7ANE_1","routeId":"annojoin:profiles:RMDB2PDB:7ANE"},{"pairId":"7ANE:sequence_003990","profileId":"rmdbv3_exact_4ddbc729fa43854d40bfcfc209be84bb63ed0851|nonpuzzle_fail_rescue::seq_ff17c7e4689d1ffd|7ANE_1","routeId":"annojoin:profiles:RMDB2PDB:7ANE"},{"pairId":"7ANE:sequence_003991","profileId":"rmdbv3_exact_81ff980b4d9b3357e7da5ea817767d27fbfa97b9|nonpuzzle_fail_rescue::seq_691d34b3789294c8|7ANE_1","routeId":"annojoin:profiles:RMDB2PDB:7ANE"},{"pairId":"7ANE:sequence_003992","profileId":"rmdbv3_exact_81ff980b4d9b3357e7da5ea817767d27fbfa97b9|nonpuzzle_fail_rescue::seq_b8df9d6d6d2df5f5|7ANE_1","routeId":"annojoin:profiles:RMDB2PDB:7ANE"},{"pairId":"7ANE:sequence_003993","profileId":"rmdbv3_exact_b7286988e15ada10b93525f8cf455783c37f5c13|nonpuzzle_fail_rescue::seq_aa78a2dac0882560|7ANE_1","routeId":"annojoin:profiles:RMDB2PDB:7ANE"},{"pairId":"7ANE:sequence_003994","profileId":"rmdbv3_exact_b7286988e15ada10b93525f8cf455783c37f5c13|nonpuzzle_fail_rescue::seq_f3cad79e663485f2|7ANE_1","routeId":"annojoin:profiles:RMDB2PDB:7ANE"},{"pairId":"7ANE:sequence_003995","profileId":"rmdbv3_exact_c3242ade71bc81da77f9209f03c5b59228288606|nonpuzzle_fail_rescue::seq_2f69e2eb9a5491cf|7ANE_1","routeId":"annojoin:profiles:RMDB2PDB:7ANE"},{"pairId":"7ANE:sequence_003996","profileId":"rmdbv3_exact_c3242ade71bc81da77f9209f03c5b59228288606|nonpuzzle_fail_rescue::seq_9c6fa4d5432d7342|7ANE_1","routeId":"annojoin:profiles:RMDB2PDB:7ANE"},{"pairId":"7ANE:sequence_003997","profileId":"rmdbv3_exact_c7293a787b9441e2988ceadc55c3f894a208725a|nonpuzzle_fail_rescue::seq_8ae95c94aba550c5|7ANE_1","routeId":"annojoin:profiles:RMDB2PDB:7ANE"},{"pairId":"7ANE:sequence_003998","profileId":"rmdbv3_exact_c7293a787b9441e2988ceadc55c3f894a208725a|nonpuzzle_fail_rescue::seq_8be6c33eeac55280|7ANE_1","routeId":"annojoin:profiles:RMDB2PDB:7ANE"},{"pairId":"7ANE:sequence_003999","profileId":"rmdbv3_exact_f860c9271cb0e7e77445634d92938ab9dcf7d800|nonpuzzle_fail_rescue::seq_2c1864e5eba3ee95|7ANE_1","routeId":"annojoin:profiles:RMDB2PDB:7ANE"},{"pairId":"7ANE:sequence_004000","profileId":"rmdbv3_exact_f860c9271cb0e7e77445634d92938ab9dcf7d800|nonpuzzle_fail_rescue::seq_67c09944e7c06ab7|7ANE_1","routeId":"annojoin:profiles:RMDB2PDB:7ANE"},{"pairId":"7ANE:sequence_004001","profileId":"rmdbv3_exact_fe61a66fa87f7419751642570ed2e1c7ec71505d|nonpuzzle_fail_rescue::seq_586bc61b518f1ec8|7ANE_1","routeId":"annojoin:profiles:RMDB2PDB:7ANE"},{"pairId":"7ANE:sequence_004002","profileId":"rmdbv3_exact_fe61a66fa87f7419751642570ed2e1c7ec71505d|nonpuzzle_fail_rescue::seq_d784e58041d5a4d0|7ANE_1","routeId":"annojoin:profiles:RMDB2PDB:7ANE"},{"pairId":"7ANE:sequence_004007","profileId":"rmdbv3_exact_965b641dabbd71fde03c1c6b85e3922d270c8f23|top_x_279::seq_4828a6ad754f2213|7ANE_1","routeId":"annojoin:profiles:RMDB2PDB:7ANE"},{"pairId":"7ANE:sequence_004008","profileId":"rmdbv3_exact_965b641dabbd71fde03c1c6b85e3922d270c8f23|top_x_279::seq_6ff14a3324e16011|7ANE_1","routeId":"annojoin:profiles:RMDB2PDB:7ANE"},{"pairId":"7ANE:sequence_004009","profileId":"rmdbv3_exact_00fe3ca1e5e24bee33f295a2785d5b53335078aa|nonpuzzle_fail_rescue::seq_0414c9d09ae52a37|7ANE_1","routeId":"annojoin:profiles:RMDB2PDB:7ANE"},{"pairId":"7ANE:sequence_004010","profileId":"rmdbv3_exact_00fe3ca1e5e24bee33f295a2785d5b53335078aa|nonpuzzle_fail_rescue::seq_4ac2b2e1b06ad03e|7ANE_1","routeId":"annojoin:profiles:RMDB2PDB:7ANE"},{"pairId":"7ANE:sequence_004011","profileId":"rmdbv3_exact_16ab404bd638966c01fd8fb5b6800fb9703a08d5|nonpuzzle_fail_rescue::seq_b08951c7b9dd18c7|7ANE_1","routeId":"annojoin:profiles:RMDB2PDB:7ANE"},{"pairId":"7ANE:sequence_004012","profileId":"rmdbv3_exact_16ab404bd638966c01fd8fb5b6800fb9703a08d5|nonpuzzle_fail_rescue::seq_ec7429e54b237f1e|7ANE_1","routeId":"annojoin:profiles:RMDB2PDB:7ANE"},{"pairId":"7ANE:sequence_004013","profileId":"rmdbv3_exact_923761ab8aec9cd2441f587b3669a55def607f58|nonpuzzle_fail_rescue::seq_8b10247685baf4cd|7ANE_1","routeId":"annojoin:profiles:RMDB2PDB:7ANE"},{"pairId":"7ANE:sequence_004022","profileId":"rmdbv3_exact_5478dbf7346f77e4a1c06229034f63117f64940a|nonpuzzle_fail_rescue::seq_da536dea49a6f313|7ANE_1","routeId":"annojoin:profiles:RMDB2PDB:7ANE"},{"pairId":"7ANE:sequence_004023","profileId":"rmdbv3_exact_5478dbf7346f77e4a1c06229034f63117f64940a|nonpuzzle_fail_rescue::seq_f18bf5e38bcf2fb5|7ANE_1","routeId":"annojoin:profiles:RMDB2PDB:7ANE"},{"pairId":"7ANE:sequence_004024","profileId":"rmdbv3_exact_b706312420c62cfde2d560f27be6d878a41d5281|nonpuzzle_fail_rescue::seq_299b69f669b376e1|7ANE_1","routeId":"annojoin:profiles:RMDB2PDB:7ANE"},{"pairId":"7ANE:sequence_004025","profileId":"rmdbv3_exact_b706312420c62cfde2d560f27be6d878a41d5281|nonpuzzle_fail_rescue::seq_2d58808582ee3c22|7ANE_1","routeId":"annojoin:profiles:RMDB2PDB:7ANE"}]}
