{"schemaVersion":"annojoin-atlas.v1","version":"V2.1_RMDB_LINE_A_20260617","atlasCaseKey":"RMDB2PDB:6ZU5","caseId":"6ZU5","routeKey":"conflicts","page":2,"pageSize":500,"totalRows":557,"pageCount":2,"rows":[{"id":"RMDB2PDB|conflict|pairseg_6ZU5_sequence_000600","routeId":"annojoin:conflict:RMDB2PDB:pairseg_6ZU5_sequence_000600","type":"structure_signal_discordance_candidate","status":"none_detected","fecClaimCeiling":"","claimScope":"","lssStatus":"LSS_NOT_EVALUABLE","reviewPriorityHint":"no_conflict_review_priority"},{"id":"RMDB2PDB|conflict|pairseg_6ZU5_sequence_000601","routeId":"annojoin:conflict:RMDB2PDB:pairseg_6ZU5_sequence_000601","type":"structure_signal_discordance_candidate","status":"none_detected","fecClaimCeiling":"","claimScope":"","lssStatus":"LSS_NOT_EVALUABLE","reviewPriorityHint":"no_conflict_review_priority"},{"id":"RMDB2PDB|conflict|pairseg_6ZU5_sequence_000602","routeId":"annojoin:conflict:RMDB2PDB:pairseg_6ZU5_sequence_000602","type":"structure_signal_discordance_candidate","status":"none_detected","fecClaimCeiling":"","claimScope":"","lssStatus":"LSS_NOT_EVALUABLE","reviewPriorityHint":"no_conflict_review_priority"},{"id":"RMDB2PDB|conflict|pairseg_6ZU5_sequence_000603","routeId":"annojoin:conflict:RMDB2PDB:pairseg_6ZU5_sequence_000603","type":"structure_signal_discordance_candidate","status":"none_detected","fecClaimCeiling":"","claimScope":"","lssStatus":"LSS_NOT_EVALUABLE","reviewPriorityHint":"no_conflict_review_priority"},{"id":"RMDB2PDB|conflict|pairseg_6ZU5_sequence_000604","routeId":"annojoin:conflict:RMDB2PDB:pairseg_6ZU5_sequence_000604","type":"structure_signal_discordance_candidate","status":"none_detected","fecClaimCeiling":"","claimScope":"","lssStatus":"LSS_NOT_EVALUABLE","reviewPriorityHint":"no_conflict_review_priority"},{"id":"RMDB2PDB|conflict|pairseg_6ZU5_sequence_000605","routeId":"annojoin:conflict:RMDB2PDB:pairseg_6ZU5_sequence_000605","type":"structure_signal_discordance_candidate","status":"none_detected","fecClaimCeiling":"","claimScope":"","lssStatus":"LSS_NOT_EVALUABLE","reviewPriorityHint":"no_conflict_review_priority"},{"id":"RMDB2PDB|conflict|pairseg_6ZU5_sequence_000606","routeId":"annojoin:conflict:RMDB2PDB:pairseg_6ZU5_sequence_000606","type":"structure_signal_discordance_candidate","status":"none_detected","fecClaimCeiling":"","claimScope":"","lssStatus":"LSS_NOT_EVALUABLE","reviewPriorityHint":"no_conflict_review_priority"},{"id":"RMDB2PDB|conflict|pairseg_6ZU5_sequence_000607","routeId":"annojoin:conflict:RMDB2PDB:pairseg_6ZU5_sequence_000607","type":"structure_signal_discordance_candidate","status":"none_detected","fecClaimCeiling":"","claimScope":"","lssStatus":"LSS_NOT_EVALUABLE","reviewPriorityHint":"no_conflict_review_priority"},{"id":"RMDB2PDB|conflict|pairseg_6ZU5_sequence_000608","routeId":"annojoin:conflict:RMDB2PDB:pairseg_6ZU5_sequence_000608","type":"structure_signal_discordance_candidate","status":"none_detected","fecClaimCeiling":"","claimScope":"","lssStatus":"LSS_NOT_EVALUABLE","reviewPriorityHint":"no_conflict_review_priority"},{"id":"RMDB2PDB|conflict|pairseg_6ZU5_sequence_000609","routeId":"annojoin:conflict:RMDB2PDB:pairseg_6ZU5_sequence_000609","type":"structure_signal_discordance_candidate","status":"none_detected","fecClaimCeiling":"","claimScope":"","lssStatus":"LSS_NOT_EVALUABLE","reviewPriorityHint":"no_conflict_review_priority"},{"id":"RMDB2PDB|conflict|pairseg_6ZU5_sequence_000610","routeId":"annojoin:conflict:RMDB2PDB:pairseg_6ZU5_sequence_000610","type":"structure_signal_discordance_candidate","status":"none_detected","fecClaimCeiling":"","claimScope":"","lssStatus":"LSS_NOT_EVALUABLE","reviewPriorityHint":"no_conflict_review_priority"},{"id":"RMDB2PDB|conflict|pairseg_6ZU5_sequence_000611","routeId":"annojoin:conflict:RMDB2PDB:pairseg_6ZU5_sequence_000611","type":"structure_signal_discordance_candidate","status":"none_detected","fecClaimCeiling":"","claimScope":"","lssStatus":"LSS_NOT_EVALUABLE","reviewPriorityHint":"no_conflict_review_priority"},{"id":"RMDB2PDB|conflict|pairseg_6ZU5_sequence_000612","routeId":"annojoin:conflict:RMDB2PDB:pairseg_6ZU5_sequence_000612","type":"structure_signal_discordance_candidate","status":"none_detected","fecClaimCeiling":"","claimScope":"","lssStatus":"LSS_NOT_EVALUABLE","reviewPriorityHint":"no_conflict_review_priority"},{"id":"RMDB2PDB|conflict|pairseg_6ZU5_sequence_000613","routeId":"annojoin:conflict:RMDB2PDB:pairseg_6ZU5_sequence_000613","type":"structure_signal_discordance_candidate","status":"none_detected","fecClaimCeiling":"","claimScope":"","lssStatus":"LSS_NOT_EVALUABLE","reviewPriorityHint":"no_conflict_review_priority"},{"id":"RMDB2PDB|conflict|pairseg_6ZU5_sequence_000614","routeId":"annojoin:conflict:RMDB2PDB:pairseg_6ZU5_sequence_000614","type":"structure_signal_discordance_candidate","status":"none_detected","fecClaimCeiling":"","claimScope":"","lssStatus":"LSS_NOT_EVALUABLE","reviewPriorityHint":"no_conflict_review_priority"},{"id":"RMDB2PDB|conflict|pairseg_6ZU5_sequence_000615","routeId":"annojoin:conflict:RMDB2PDB:pairseg_6ZU5_sequence_000615","type":"structure_signal_discordance_candidate","status":"none_detected","fecClaimCeiling":"","claimScope":"","lssStatus":"LSS_NOT_EVALUABLE","reviewPriorityHint":"no_conflict_review_priority"},{"id":"RMDB2PDB|conflict|pairseg_6ZU5_sequence_000616","routeId":"annojoin:conflict:RMDB2PDB:pairseg_6ZU5_sequence_000616","type":"structure_signal_discordance_candidate","status":"none_detected","fecClaimCeiling":"","claimScope":"","lssStatus":"LSS_NOT_EVALUABLE","reviewPriorityHint":"no_conflict_review_priority"},{"id":"RMDB2PDB|conflict|pairseg_6ZU5_sequence_000617","routeId":"annojoin:conflict:RMDB2PDB:pairseg_6ZU5_sequence_000617","type":"structure_signal_discordance_candidate","status":"none_detected","fecClaimCeiling":"","claimScope":"","lssStatus":"LSS_NOT_EVALUABLE","reviewPriorityHint":"no_conflict_review_priority"},{"id":"RMDB2PDB|conflict|pairseg_6ZU5_sequence_000618","routeId":"annojoin:conflict:RMDB2PDB:pairseg_6ZU5_sequence_000618","type":"structure_signal_discordance_candidate","status":"none_detected","fecClaimCeiling":"","claimScope":"","lssStatus":"LSS_NOT_EVALUABLE","reviewPriorityHint":"no_conflict_review_priority"},{"id":"RMDB2PDB|conflict|pairseg_6ZU5_sequence_000619","routeId":"annojoin:conflict:RMDB2PDB:pairseg_6ZU5_sequence_000619","type":"structure_signal_discordance_candidate","status":"none_detected","fecClaimCeiling":"","claimScope":"","lssStatus":"LSS_NOT_EVALUABLE","reviewPriorityHint":"no_conflict_review_priority"},{"id":"RMDB2PDB|conflict|pairseg_6ZU5_sequence_000620","routeId":"annojoin:conflict:RMDB2PDB:pairseg_6ZU5_sequence_000620","type":"structure_signal_discordance_candidate","status":"none_detected","fecClaimCeiling":"","claimScope":"","lssStatus":"LSS_NOT_EVALUABLE","reviewPriorityHint":"no_conflict_review_priority"},{"id":"RMDB2PDB|conflict|pairseg_6ZU5_sequence_000621","routeId":"annojoin:conflict:RMDB2PDB:pairseg_6ZU5_sequence_000621","type":"structure_signal_discordance_candidate","status":"none_detected","fecClaimCeiling":"","claimScope":"","lssStatus":"LSS_NOT_EVALUABLE","reviewPriorityHint":"no_conflict_review_priority"},{"id":"RMDB2PDB|conflict|pairseg_6ZU5_sequence_000622","routeId":"annojoin:conflict:RMDB2PDB:pairseg_6ZU5_sequence_000622","type":"structure_signal_discordance_candidate","status":"none_detected","fecClaimCeiling":"","claimScope":"","lssStatus":"LSS_NOT_EVALUABLE","reviewPriorityHint":"no_conflict_review_priority"},{"id":"RMDB2PDB|conflict|pairseg_6ZU5_sequence_000623","routeId":"annojoin:conflict:RMDB2PDB:pairseg_6ZU5_sequence_000623","type":"structure_signal_discordance_candidate","status":"none_detected","fecClaimCeiling":"","claimScope":"","lssStatus":"LSS_NOT_EVALUABLE","reviewPriorityHint":"no_conflict_review_priority"},{"id":"RMDB2PDB|conflict|pairseg_6ZU5_sequence_000624","routeId":"annojoin:conflict:RMDB2PDB:pairseg_6ZU5_sequence_000624","type":"structure_signal_discordance_candidate","status":"none_detected","fecClaimCeiling":"","claimScope":"","lssStatus":"LSS_NOT_EVALUABLE","reviewPriorityHint":"no_conflict_review_priority"},{"id":"RMDB2PDB|conflict|pairseg_6ZU5_sequence_000625","routeId":"annojoin:conflict:RMDB2PDB:pairseg_6ZU5_sequence_000625","type":"structure_signal_discordance_candidate","status":"none_detected","fecClaimCeiling":"","claimScope":"","lssStatus":"LSS_NOT_EVALUABLE","reviewPriorityHint":"no_conflict_review_priority"},{"id":"RMDB2PDB|conflict|pairseg_6ZU5_sequence_000626","routeId":"annojoin:conflict:RMDB2PDB:pairseg_6ZU5_sequence_000626","type":"structure_signal_discordance_candidate","status":"none_detected","fecClaimCeiling":"","claimScope":"","lssStatus":"LSS_NOT_EVALUABLE","reviewPriorityHint":"no_conflict_review_priority"},{"id":"RMDB2PDB|conflict|pairseg_6ZU5_sequence_000627","routeId":"annojoin:conflict:RMDB2PDB:pairseg_6ZU5_sequence_000627","type":"structure_signal_discordance_candidate","status":"none_detected","fecClaimCeiling":"","claimScope":"","lssStatus":"LSS_NOT_EVALUABLE","reviewPriorityHint":"no_conflict_review_priority"},{"id":"RMDB2PDB|conflict|pairseg_6ZU5_sequence_000628","routeId":"annojoin:conflict:RMDB2PDB:pairseg_6ZU5_sequence_000628","type":"structure_signal_discordance_candidate","status":"none_detected","fecClaimCeiling":"","claimScope":"","lssStatus":"LSS_NOT_EVALUABLE","reviewPriorityHint":"no_conflict_review_priority"},{"id":"RMDB2PDB|conflict|pairseg_6ZU5_sequence_000629","routeId":"annojoin:conflict:RMDB2PDB:pairseg_6ZU5_sequence_000629","type":"structure_signal_discordance_candidate","status":"none_detected","fecClaimCeiling":"","claimScope":"","lssStatus":"LSS_NOT_EVALUABLE","reviewPriorityHint":"no_conflict_review_priority"},{"id":"RMDB2PDB|conflict|pairseg_6ZU5_sequence_000630","routeId":"annojoin:conflict:RMDB2PDB:pairseg_6ZU5_sequence_000630","type":"structure_signal_discordance_candidate","status":"none_detected","fecClaimCeiling":"","claimScope":"","lssStatus":"LSS_NOT_EVALUABLE","reviewPriorityHint":"no_conflict_review_priority"},{"id":"RMDB2PDB|conflict|pairseg_6ZU5_sequence_000631","routeId":"annojoin:conflict:RMDB2PDB:pairseg_6ZU5_sequence_000631","type":"structure_signal_discordance_candidate","status":"none_detected","fecClaimCeiling":"","claimScope":"","lssStatus":"LSS_NOT_EVALUABLE","reviewPriorityHint":"no_conflict_review_priority"},{"id":"RMDB2PDB|conflict|pairseg_6ZU5_sequence_000632","routeId":"annojoin:conflict:RMDB2PDB:pairseg_6ZU5_sequence_000632","type":"structure_signal_discordance_candidate","status":"none_detected","fecClaimCeiling":"","claimScope":"","lssStatus":"LSS_NOT_EVALUABLE","reviewPriorityHint":"no_conflict_review_priority"},{"id":"RMDB2PDB|conflict|pairseg_6ZU5_sequence_000633","routeId":"annojoin:conflict:RMDB2PDB:pairseg_6ZU5_sequence_000633","type":"structure_signal_discordance_candidate","status":"none_detected","fecClaimCeiling":"","claimScope":"","lssStatus":"LSS_NOT_EVALUABLE","reviewPriorityHint":"no_conflict_review_priority"},{"id":"RMDB2PDB|conflict|pairseg_6ZU5_sequence_000634","routeId":"annojoin:conflict:RMDB2PDB:pairseg_6ZU5_sequence_000634","type":"structure_signal_discordance_candidate","status":"none_detected","fecClaimCeiling":"","claimScope":"","lssStatus":"LSS_NOT_EVALUABLE","reviewPriorityHint":"no_conflict_review_priority"},{"id":"RMDB2PDB|conflict|pairseg_6ZU5_sequence_000635","routeId":"annojoin:conflict:RMDB2PDB:pairseg_6ZU5_sequence_000635","type":"structure_signal_discordance_candidate","status":"none_detected","fecClaimCeiling":"","claimScope":"","lssStatus":"LSS_NOT_EVALUABLE","reviewPriorityHint":"no_conflict_review_priority"},{"id":"RMDB2PDB|conflict|pairseg_6ZU5_sequence_000636","routeId":"annojoin:conflict:RMDB2PDB:pairseg_6ZU5_sequence_000636","type":"structure_signal_discordance_candidate","status":"none_detected","fecClaimCeiling":"","claimScope":"","lssStatus":"LSS_NOT_EVALUABLE","reviewPriorityHint":"no_conflict_review_priority"},{"id":"RMDB2PDB|conflict|pairseg_6ZU5_sequence_000637","routeId":"annojoin:conflict:RMDB2PDB:pairseg_6ZU5_sequence_000637","type":"structure_signal_discordance_candidate","status":"none_detected","fecClaimCeiling":"","claimScope":"","lssStatus":"LSS_NOT_EVALUABLE","reviewPriorityHint":"no_conflict_review_priority"},{"id":"RMDB2PDB|conflict|pairseg_6ZU5_sequence_000638","routeId":"annojoin:conflict:RMDB2PDB:pairseg_6ZU5_sequence_000638","type":"structure_signal_discordance_candidate","status":"none_detected","fecClaimCeiling":"","claimScope":"","lssStatus":"LSS_NOT_EVALUABLE","reviewPriorityHint":"no_conflict_review_priority"},{"id":"RMDB2PDB|conflict|pairseg_6ZU5_sequence_000639","routeId":"annojoin:conflict:RMDB2PDB:pairseg_6ZU5_sequence_000639","type":"structure_signal_discordance_candidate","status":"none_detected","fecClaimCeiling":"","claimScope":"","lssStatus":"LSS_NOT_EVALUABLE","reviewPriorityHint":"no_conflict_review_priority"},{"id":"RMDB2PDB|conflict|pairseg_6ZU5_sequence_000640","routeId":"annojoin:conflict:RMDB2PDB:pairseg_6ZU5_sequence_000640","type":"structure_signal_discordance_candidate","status":"none_detected","fecClaimCeiling":"","claimScope":"","lssStatus":"LSS_NOT_EVALUABLE","reviewPriorityHint":"no_conflict_review_priority"},{"id":"RMDB2PDB|conflict|pairseg_6ZU5_sequence_000641","routeId":"annojoin:conflict:RMDB2PDB:pairseg_6ZU5_sequence_000641","type":"structure_signal_discordance_candidate","status":"none_detected","fecClaimCeiling":"","claimScope":"","lssStatus":"LSS_NOT_EVALUABLE","reviewPriorityHint":"no_conflict_review_priority"},{"id":"RMDB2PDB|conflict|pairseg_6ZU5_sequence_000642","routeId":"annojoin:conflict:RMDB2PDB:pairseg_6ZU5_sequence_000642","type":"structure_signal_discordance_candidate","status":"none_detected","fecClaimCeiling":"","claimScope":"","lssStatus":"LSS_NOT_EVALUABLE","reviewPriorityHint":"no_conflict_review_priority"},{"id":"RMDB2PDB|conflict|pairseg_6ZU5_sequence_000643","routeId":"annojoin:conflict:RMDB2PDB:pairseg_6ZU5_sequence_000643","type":"structure_signal_discordance_candidate","status":"none_detected","fecClaimCeiling":"","claimScope":"","lssStatus":"LSS_NOT_EVALUABLE","reviewPriorityHint":"no_conflict_review_priority"},{"id":"RMDB2PDB|conflict|pairseg_6ZU5_sequence_000644","routeId":"annojoin:conflict:RMDB2PDB:pairseg_6ZU5_sequence_000644","type":"structure_signal_discordance_candidate","status":"none_detected","fecClaimCeiling":"","claimScope":"","lssStatus":"LSS_NOT_EVALUABLE","reviewPriorityHint":"no_conflict_review_priority"},{"id":"RMDB2PDB|conflict|pairseg_6ZU5_sequence_000645","routeId":"annojoin:conflict:RMDB2PDB:pairseg_6ZU5_sequence_000645","type":"structure_signal_discordance_candidate","status":"none_detected","fecClaimCeiling":"","claimScope":"","lssStatus":"LSS_NOT_EVALUABLE","reviewPriorityHint":"no_conflict_review_priority"},{"id":"RMDB2PDB|conflict|pairseg_6ZU5_sequence_000646","routeId":"annojoin:conflict:RMDB2PDB:pairseg_6ZU5_sequence_000646","type":"structure_signal_discordance_candidate","status":"none_detected","fecClaimCeiling":"","claimScope":"","lssStatus":"LSS_NOT_EVALUABLE","reviewPriorityHint":"no_conflict_review_priority"},{"id":"RMDB2PDB|conflict|pairseg_6ZU5_sequence_000647","routeId":"annojoin:conflict:RMDB2PDB:pairseg_6ZU5_sequence_000647","type":"structure_signal_discordance_candidate","status":"none_detected","fecClaimCeiling":"","claimScope":"","lssStatus":"LSS_NOT_EVALUABLE","reviewPriorityHint":"no_conflict_review_priority"},{"id":"RMDB2PDB|conflict|pairseg_6ZU5_sequence_000648","routeId":"annojoin:conflict:RMDB2PDB:pairseg_6ZU5_sequence_000648","type":"structure_signal_discordance_candidate","status":"none_detected","fecClaimCeiling":"","claimScope":"","lssStatus":"LSS_NOT_EVALUABLE","reviewPriorityHint":"no_conflict_review_priority"},{"id":"RMDB2PDB|conflict|pairseg_6ZU5_sequence_000649","routeId":"annojoin:conflict:RMDB2PDB:pairseg_6ZU5_sequence_000649","type":"structure_signal_discordance_candidate","status":"none_detected","fecClaimCeiling":"","claimScope":"","lssStatus":"LSS_NOT_EVALUABLE","reviewPriorityHint":"no_conflict_review_priority"},{"id":"RMDB2PDB|conflict|pairseg_6ZU5_sequence_000650","routeId":"annojoin:conflict:RMDB2PDB:pairseg_6ZU5_sequence_000650","type":"structure_signal_discordance_candidate","status":"none_detected","fecClaimCeiling":"","claimScope":"","lssStatus":"LSS_NOT_EVALUABLE","reviewPriorityHint":"no_conflict_review_priority"},{"id":"RMDB2PDB|conflict|pairseg_6ZU5_sequence_000651","routeId":"annojoin:conflict:RMDB2PDB:pairseg_6ZU5_sequence_000651","type":"structure_signal_discordance_candidate","status":"none_detected","fecClaimCeiling":"","claimScope":"","lssStatus":"LSS_NOT_EVALUABLE","reviewPriorityHint":"no_conflict_review_priority"},{"id":"RMDB2PDB|conflict|pairseg_6ZU5_sequence_000652","routeId":"annojoin:conflict:RMDB2PDB:pairseg_6ZU5_sequence_000652","type":"structure_signal_discordance_candidate","status":"none_detected","fecClaimCeiling":"","claimScope":"","lssStatus":"LSS_NOT_EVALUABLE","reviewPriorityHint":"no_conflict_review_priority"},{"id":"RMDB2PDB|conflict|pairseg_6ZU5_sequence_000653","routeId":"annojoin:conflict:RMDB2PDB:pairseg_6ZU5_sequence_000653","type":"structure_signal_discordance_candidate","status":"none_detected","fecClaimCeiling":"","claimScope":"","lssStatus":"LSS_NOT_EVALUABLE","reviewPriorityHint":"no_conflict_review_priority"},{"id":"RMDB2PDB|conflict|pairseg_6ZU5_sequence_000654","routeId":"annojoin:conflict:RMDB2PDB:pairseg_6ZU5_sequence_000654","type":"structure_signal_discordance_candidate","status":"none_detected","fecClaimCeiling":"","claimScope":"","lssStatus":"LSS_NOT_EVALUABLE","reviewPriorityHint":"no_conflict_review_priority"},{"id":"RMDB2PDB|conflict|pairseg_6ZU5_sequence_000655","routeId":"annojoin:conflict:RMDB2PDB:pairseg_6ZU5_sequence_000655","type":"structure_signal_discordance_candidate","status":"none_detected","fecClaimCeiling":"","claimScope":"","lssStatus":"LSS_NOT_EVALUABLE","reviewPriorityHint":"no_conflict_review_priority"},{"id":"RMDB2PDB|conflict|pairseg_6ZU5_sequence_000656","routeId":"annojoin:conflict:RMDB2PDB:pairseg_6ZU5_sequence_000656","type":"structure_signal_discordance_candidate","status":"none_detected","fecClaimCeiling":"","claimScope":"","lssStatus":"LSS_NOT_EVALUABLE","reviewPriorityHint":"no_conflict_review_priority"}]}
