{"schemaVersion":"annojoin-atlas.v1","version":"V2.1_RMDB_LINE_A_20260617","atlasCaseKey":"RMDB2PDB:8T2P","caseId":"8T2P","routeKey":"memberships","page":2,"pageSize":500,"totalRows":546,"pageCount":2,"rows":[{"pairId":"8T2P:sequence_000501","profileId":"rmdbv3_exact_d2f3c3679f1bee58d71e5bf78d30b603df7955a6|nonpuzzle_fail_rescue::seq_1cfd5361069a30c5|8T2P_A","routeId":"annojoin:profiles:RMDB2PDB:8T2P"},{"pairId":"8T2P:sequence_000502","profileId":"rmdbv3_exact_d2f3c3679f1bee58d71e5bf78d30b603df7955a6|nonpuzzle_fail_rescue::seq_9a8c2bf1360d80e8|8T2P_A","routeId":"annojoin:profiles:RMDB2PDB:8T2P"},{"pairId":"8T2P:sequence_000503","profileId":"rmdbv3_exact_d7474b487aef4bfb36fb69e276a20e5acf14fd0a|nonpuzzle_fail_rescue::seq_5e6ab651709957e9|8T2P_A","routeId":"annojoin:profiles:RMDB2PDB:8T2P"},{"pairId":"8T2P:sequence_000504","profileId":"rmdbv3_exact_d7474b487aef4bfb36fb69e276a20e5acf14fd0a|nonpuzzle_fail_rescue::seq_e313e68ae19cffe9|8T2P_A","routeId":"annojoin:profiles:RMDB2PDB:8T2P"},{"pairId":"8T2P:sequence_000505","profileId":"rmdbv3_exact_dec0d5988fb3f9117d48fa65405fb56e58d97a0d|nonpuzzle_fail_rescue::seq_13716e2c063bceaf|8T2P_A","routeId":"annojoin:profiles:RMDB2PDB:8T2P"},{"pairId":"8T2P:sequence_000506","profileId":"rmdbv3_exact_dec0d5988fb3f9117d48fa65405fb56e58d97a0d|nonpuzzle_fail_rescue::seq_a0cc9e9cb98b2d31|8T2P_A","routeId":"annojoin:profiles:RMDB2PDB:8T2P"},{"pairId":"8T2P:sequence_000507","profileId":"rmdbv3_exact_df903bb0b12aea6cc5399cff7519f330e7e590eb|nonpuzzle_fail_rescue::seq_7dcb2054895f8676|8T2P_A","routeId":"annojoin:profiles:RMDB2PDB:8T2P"},{"pairId":"8T2P:sequence_000508","profileId":"rmdbv3_exact_df903bb0b12aea6cc5399cff7519f330e7e590eb|nonpuzzle_fail_rescue::seq_8e169c9ffa20a521|8T2P_A","routeId":"annojoin:profiles:RMDB2PDB:8T2P"},{"pairId":"8T2P:sequence_000509","profileId":"rmdbv3_exact_e139e66db1c78279dab8f45e37d308c331b3bb24|nonpuzzle_fail_rescue::seq_c0fe04bce7b01707|8T2P_A","routeId":"annojoin:profiles:RMDB2PDB:8T2P"},{"pairId":"8T2P:sequence_000510","profileId":"rmdbv3_exact_e139e66db1c78279dab8f45e37d308c331b3bb24|nonpuzzle_fail_rescue::seq_c451707dd876160c|8T2P_A","routeId":"annojoin:profiles:RMDB2PDB:8T2P"},{"pairId":"8T2P:sequence_000511","profileId":"rmdbv3_exact_e24b8b77672f222fdee47c3c07fefc36603f6d70|nonpuzzle_fail_rescue::seq_bdb2faac42e7be5a|8T2P_A","routeId":"annojoin:profiles:RMDB2PDB:8T2P"},{"pairId":"8T2P:sequence_000512","profileId":"rmdbv3_exact_e24b8b77672f222fdee47c3c07fefc36603f6d70|nonpuzzle_fail_rescue::seq_f3cc115a398e1474|8T2P_A","routeId":"annojoin:profiles:RMDB2PDB:8T2P"},{"pairId":"8T2P:sequence_000513","profileId":"rmdbv3_exact_e3236310e83fa2527a0bfe04cf601c788aec6c33|nonpuzzle_fail_rescue::seq_11bf0dc4e3345bc3|8T2P_A","routeId":"annojoin:profiles:RMDB2PDB:8T2P"},{"pairId":"8T2P:sequence_000514","profileId":"rmdbv3_exact_e3236310e83fa2527a0bfe04cf601c788aec6c33|nonpuzzle_fail_rescue::seq_7ca080f747ed78fe|8T2P_A","routeId":"annojoin:profiles:RMDB2PDB:8T2P"},{"pairId":"8T2P:sequence_000515","profileId":"rmdbv3_exact_e420a7b81bd27521d9acdec58d7d0ca0b2fbb02a|nonpuzzle_fail_rescue::seq_18ea9ecc0bef2494|8T2P_A","routeId":"annojoin:profiles:RMDB2PDB:8T2P"},{"pairId":"8T2P:sequence_000516","profileId":"rmdbv3_exact_e420a7b81bd27521d9acdec58d7d0ca0b2fbb02a|nonpuzzle_fail_rescue::seq_f7edd866781540c3|8T2P_A","routeId":"annojoin:profiles:RMDB2PDB:8T2P"},{"pairId":"8T2P:sequence_000517","profileId":"rmdbv3_exact_e74a5eebd4fc34a989a639ebdf2daf791a40b49c|nonpuzzle_fail_rescue::seq_88ca6b3d546d0737|8T2P_A","routeId":"annojoin:profiles:RMDB2PDB:8T2P"},{"pairId":"8T2P:sequence_000518","profileId":"rmdbv3_exact_e74a5eebd4fc34a989a639ebdf2daf791a40b49c|nonpuzzle_fail_rescue::seq_ada927fc8c31f050|8T2P_A","routeId":"annojoin:profiles:RMDB2PDB:8T2P"},{"pairId":"8T2P:sequence_000519","profileId":"rmdbv3_exact_e7c0fb3f66782d413c94e08241ec885a23ac73d8|nonpuzzle_fail_rescue::seq_265ac57e4d7854d7|8T2P_A","routeId":"annojoin:profiles:RMDB2PDB:8T2P"},{"pairId":"8T2P:sequence_000520","profileId":"rmdbv3_exact_e7c0fb3f66782d413c94e08241ec885a23ac73d8|nonpuzzle_fail_rescue::seq_9b179a914eed4a3b|8T2P_A","routeId":"annojoin:profiles:RMDB2PDB:8T2P"},{"pairId":"8T2P:sequence_000521","profileId":"rmdbv3_exact_ec8243ac0f5448aef96b88266aaf04f532eb29f3|nonpuzzle_fail_rescue::seq_2611345463f192a7|8T2P_A","routeId":"annojoin:profiles:RMDB2PDB:8T2P"},{"pairId":"8T2P:sequence_000522","profileId":"rmdbv3_exact_ec8243ac0f5448aef96b88266aaf04f532eb29f3|nonpuzzle_fail_rescue::seq_4d146a8d3fef60bb|8T2P_A","routeId":"annojoin:profiles:RMDB2PDB:8T2P"},{"pairId":"8T2P:sequence_000523","profileId":"rmdbv3_exact_edf49a261e1c766c6aa38ad04fcd63add242ea45|nonpuzzle_fail_rescue::seq_5f50d698cab3b323|8T2P_A","routeId":"annojoin:profiles:RMDB2PDB:8T2P"},{"pairId":"8T2P:sequence_000524","profileId":"rmdbv3_exact_edf49a261e1c766c6aa38ad04fcd63add242ea45|nonpuzzle_fail_rescue::seq_8e656d11d3fe1c27|8T2P_A","routeId":"annojoin:profiles:RMDB2PDB:8T2P"},{"pairId":"8T2P:sequence_000525","profileId":"rmdbv3_exact_f132c1beda9b7608c6ef09212596fed0f9788cf6|nonpuzzle_fail_rescue::seq_f0c9e76ece8a1d9e|8T2P_A","routeId":"annojoin:profiles:RMDB2PDB:8T2P"},{"pairId":"8T2P:sequence_000526","profileId":"rmdbv3_exact_f132c1beda9b7608c6ef09212596fed0f9788cf6|nonpuzzle_fail_rescue::seq_f364f3c4cf763426|8T2P_A","routeId":"annojoin:profiles:RMDB2PDB:8T2P"},{"pairId":"8T2P:sequence_000527","profileId":"rmdbv3_exact_f24525b9e18338fc6c39e715022e58c588067a18|nonpuzzle_fail_rescue::seq_27a7952e1b8f387a|8T2P_A","routeId":"annojoin:profiles:RMDB2PDB:8T2P"},{"pairId":"8T2P:sequence_000528","profileId":"rmdbv3_exact_f24525b9e18338fc6c39e715022e58c588067a18|nonpuzzle_fail_rescue::seq_fc5ba765d4c034a6|8T2P_A","routeId":"annojoin:profiles:RMDB2PDB:8T2P"},{"pairId":"8T2P:sequence_000529","profileId":"rmdbv3_exact_f326791730283f8527d0f66f0bf952567d3cbd94|nonpuzzle_fail_rescue::seq_827e8dd51e6a8935|8T2P_A","routeId":"annojoin:profiles:RMDB2PDB:8T2P"},{"pairId":"8T2P:sequence_000530","profileId":"rmdbv3_exact_f326791730283f8527d0f66f0bf952567d3cbd94|nonpuzzle_fail_rescue::seq_dc1bb9113d827803|8T2P_A","routeId":"annojoin:profiles:RMDB2PDB:8T2P"},{"pairId":"8T2P:sequence_000531","profileId":"rmdbv3_exact_f351d62d4c0326bb0d8c331134c99096c295bdcd|nonpuzzle_fail_rescue::seq_0ac4eb5eeffc19a6|8T2P_A","routeId":"annojoin:profiles:RMDB2PDB:8T2P"},{"pairId":"8T2P:sequence_000532","profileId":"rmdbv3_exact_f351d62d4c0326bb0d8c331134c99096c295bdcd|nonpuzzle_fail_rescue::seq_99b0bf1ca0128a7b|8T2P_A","routeId":"annojoin:profiles:RMDB2PDB:8T2P"},{"pairId":"8T2P:sequence_000533","profileId":"rmdbv3_exact_f41038d1fa74aeea2867aac22e4473eed233273a|nonpuzzle_fail_rescue::seq_12386bdb888661f8|8T2P_A","routeId":"annojoin:profiles:RMDB2PDB:8T2P"},{"pairId":"8T2P:sequence_000534","profileId":"rmdbv3_exact_f41038d1fa74aeea2867aac22e4473eed233273a|nonpuzzle_fail_rescue::seq_c9d1d232f4a72e96|8T2P_A","routeId":"annojoin:profiles:RMDB2PDB:8T2P"},{"pairId":"8T2P:sequence_000535","profileId":"rmdbv3_exact_f59dd4431bd6af5d8ec75915f4e416f77e4cda75|nonpuzzle_fail_rescue::seq_2b716bb7ff1d8692|8T2P_A","routeId":"annojoin:profiles:RMDB2PDB:8T2P"},{"pairId":"8T2P:sequence_000536","profileId":"rmdbv3_exact_f59dd4431bd6af5d8ec75915f4e416f77e4cda75|nonpuzzle_fail_rescue::seq_f7ab6812948b455b|8T2P_A","routeId":"annojoin:profiles:RMDB2PDB:8T2P"},{"pairId":"8T2P:sequence_000537","profileId":"rmdbv3_exact_f7ce50e8255216034aa656f1ae387e62d6737f7e|nonpuzzle_fail_rescue::seq_3f522b9b9bcf6db0|8T2P_A","routeId":"annojoin:profiles:RMDB2PDB:8T2P"},{"pairId":"8T2P:sequence_000538","profileId":"rmdbv3_exact_f7ce50e8255216034aa656f1ae387e62d6737f7e|nonpuzzle_fail_rescue::seq_cdba47f036e080ef|8T2P_A","routeId":"annojoin:profiles:RMDB2PDB:8T2P"},{"pairId":"8T2P:sequence_000539","profileId":"rmdbv3_exact_f80a23c9681604c6c6f691f92a4e66a296188e9e|nonpuzzle_fail_rescue::seq_a35205766e361c6d|8T2P_A","routeId":"annojoin:profiles:RMDB2PDB:8T2P"},{"pairId":"8T2P:sequence_000540","profileId":"rmdbv3_exact_f80a23c9681604c6c6f691f92a4e66a296188e9e|nonpuzzle_fail_rescue::seq_bc492c8e57eca551|8T2P_A","routeId":"annojoin:profiles:RMDB2PDB:8T2P"},{"pairId":"8T2P:sequence_000541","profileId":"rmdbv3_exact_f83e63f787dce3d952f554d50a9181dacae5b0d5|nonpuzzle_fail_rescue::seq_9e788dcca75d3398|8T2P_A","routeId":"annojoin:profiles:RMDB2PDB:8T2P"},{"pairId":"8T2P:sequence_000542","profileId":"rmdbv3_exact_f83e63f787dce3d952f554d50a9181dacae5b0d5|nonpuzzle_fail_rescue::seq_c06e68a3ff0a456d|8T2P_A","routeId":"annojoin:profiles:RMDB2PDB:8T2P"},{"pairId":"8T2P:sequence_000543","profileId":"rmdbv3_exact_f97b4220a994ba856dcde8eead0f61a77f23b882|nonpuzzle_fail_rescue::seq_3e490a017226c114|8T2P_A","routeId":"annojoin:profiles:RMDB2PDB:8T2P"},{"pairId":"8T2P:sequence_000544","profileId":"rmdbv3_exact_f97b4220a994ba856dcde8eead0f61a77f23b882|nonpuzzle_fail_rescue::seq_ddac6fa26534d6a3|8T2P_A","routeId":"annojoin:profiles:RMDB2PDB:8T2P"},{"pairId":"8T2P:sequence_000545","profileId":"rmdbv3_exact_fae660653f80396c93748efbc599ccb451ff33fe|nonpuzzle_fail_rescue::seq_8b019fa83f37c4fe|8T2P_A","routeId":"annojoin:profiles:RMDB2PDB:8T2P"},{"pairId":"8T2P:sequence_000546","profileId":"rmdbv3_exact_fae660653f80396c93748efbc599ccb451ff33fe|nonpuzzle_fail_rescue::seq_b3898d0980bd63ff|8T2P_A","routeId":"annojoin:profiles:RMDB2PDB:8T2P"}]}
