{"schemaVersion":"annojoin-atlas.v1","version":"V2.1_RMDB_LINE_A_20260617","atlasCaseKey":"RMDB2PDB:6VVJ","caseId":"6VVJ","routeKey":"pair-context-routes","page":2,"pageSize":500,"totalRows":567,"pageCount":2,"rows":[{"contextRouteId":"annojoin:2d:RMDB2PDB:pairseg_6VVJ_sequence_000603","pairContextDataPath":"ANNOCONFIDENCE/lss_structure_context_annotation.tsv","pairContextSchemaId":"lss_structure_context_annotation","contextEngine":"FEC_V0_4_BETA_LSS","supportsPairArcView":true,"supportsDotBracketView":false,"supportsResidueHover":true,"routeAvailabilityStatus":"","blockerCode":"","blockerReason":""},{"contextRouteId":"annojoin:2d:RMDB2PDB:pairseg_6VVJ_sequence_000604","pairContextDataPath":"ANNOCONFIDENCE/lss_structure_context_annotation.tsv","pairContextSchemaId":"lss_structure_context_annotation","contextEngine":"FEC_V0_4_BETA_LSS","supportsPairArcView":true,"supportsDotBracketView":false,"supportsResidueHover":true,"routeAvailabilityStatus":"","blockerCode":"","blockerReason":""},{"contextRouteId":"annojoin:2d:RMDB2PDB:pairseg_6VVJ_sequence_000609","pairContextDataPath":"ANNOCONFIDENCE/lss_structure_context_annotation.tsv","pairContextSchemaId":"lss_structure_context_annotation","contextEngine":"FEC_V0_4_BETA_LSS","supportsPairArcView":true,"supportsDotBracketView":false,"supportsResidueHover":true,"routeAvailabilityStatus":"","blockerCode":"","blockerReason":""},{"contextRouteId":"annojoin:2d:RMDB2PDB:pairseg_6VVJ_sequence_000610","pairContextDataPath":"ANNOCONFIDENCE/lss_structure_context_annotation.tsv","pairContextSchemaId":"lss_structure_context_annotation","contextEngine":"FEC_V0_4_BETA_LSS","supportsPairArcView":true,"supportsDotBracketView":false,"supportsResidueHover":true,"routeAvailabilityStatus":"","blockerCode":"","blockerReason":""},{"contextRouteId":"annojoin:2d:RMDB2PDB:pairseg_6VVJ_sequence_000611","pairContextDataPath":"ANNOCONFIDENCE/lss_structure_context_annotation.tsv","pairContextSchemaId":"lss_structure_context_annotation","contextEngine":"FEC_V0_4_BETA_LSS","supportsPairArcView":true,"supportsDotBracketView":false,"supportsResidueHover":true,"routeAvailabilityStatus":"","blockerCode":"","blockerReason":""},{"contextRouteId":"annojoin:2d:RMDB2PDB:pairseg_6VVJ_sequence_000612","pairContextDataPath":"ANNOCONFIDENCE/lss_structure_context_annotation.tsv","pairContextSchemaId":"lss_structure_context_annotation","contextEngine":"FEC_V0_4_BETA_LSS","supportsPairArcView":true,"supportsDotBracketView":false,"supportsResidueHover":true,"routeAvailabilityStatus":"","blockerCode":"","blockerReason":""},{"contextRouteId":"annojoin:2d:RMDB2PDB:pairseg_6VVJ_sequence_000617","pairContextDataPath":"ANNOCONFIDENCE/lss_structure_context_annotation.tsv","pairContextSchemaId":"lss_structure_context_annotation","contextEngine":"FEC_V0_4_BETA_LSS","supportsPairArcView":true,"supportsDotBracketView":false,"supportsResidueHover":true,"routeAvailabilityStatus":"","blockerCode":"","blockerReason":""},{"contextRouteId":"annojoin:2d:RMDB2PDB:pairseg_6VVJ_sequence_000618","pairContextDataPath":"ANNOCONFIDENCE/lss_structure_context_annotation.tsv","pairContextSchemaId":"lss_structure_context_annotation","contextEngine":"FEC_V0_4_BETA_LSS","supportsPairArcView":true,"supportsDotBracketView":false,"supportsResidueHover":true,"routeAvailabilityStatus":"","blockerCode":"","blockerReason":""},{"contextRouteId":"annojoin:2d:RMDB2PDB:pairseg_6VVJ_sequence_000619","pairContextDataPath":"ANNOCONFIDENCE/lss_structure_context_annotation.tsv","pairContextSchemaId":"lss_structure_context_annotation","contextEngine":"FEC_V0_4_BETA_LSS","supportsPairArcView":true,"supportsDotBracketView":false,"supportsResidueHover":true,"routeAvailabilityStatus":"","blockerCode":"","blockerReason":""},{"contextRouteId":"annojoin:2d:RMDB2PDB:pairseg_6VVJ_sequence_000620","pairContextDataPath":"ANNOCONFIDENCE/lss_structure_context_annotation.tsv","pairContextSchemaId":"lss_structure_context_annotation","contextEngine":"FEC_V0_4_BETA_LSS","supportsPairArcView":true,"supportsDotBracketView":false,"supportsResidueHover":true,"routeAvailabilityStatus":"","blockerCode":"","blockerReason":""},{"contextRouteId":"annojoin:2d:RMDB2PDB:pairseg_6VVJ_sequence_000621","pairContextDataPath":"ANNOCONFIDENCE/lss_structure_context_annotation.tsv","pairContextSchemaId":"lss_structure_context_annotation","contextEngine":"FEC_V0_4_BETA_LSS","supportsPairArcView":true,"supportsDotBracketView":false,"supportsResidueHover":true,"routeAvailabilityStatus":"","blockerCode":"","blockerReason":""},{"contextRouteId":"annojoin:2d:RMDB2PDB:pairseg_6VVJ_sequence_000622","pairContextDataPath":"ANNOCONFIDENCE/lss_structure_context_annotation.tsv","pairContextSchemaId":"lss_structure_context_annotation","contextEngine":"FEC_V0_4_BETA_LSS","supportsPairArcView":true,"supportsDotBracketView":false,"supportsResidueHover":true,"routeAvailabilityStatus":"","blockerCode":"","blockerReason":""},{"contextRouteId":"annojoin:2d:RMDB2PDB:pairseg_6VVJ_sequence_000625","pairContextDataPath":"ANNOCONFIDENCE/lss_structure_context_annotation.tsv","pairContextSchemaId":"lss_structure_context_annotation","contextEngine":"FEC_V0_4_BETA_LSS","supportsPairArcView":true,"supportsDotBracketView":false,"supportsResidueHover":true,"routeAvailabilityStatus":"","blockerCode":"","blockerReason":""},{"contextRouteId":"annojoin:2d:RMDB2PDB:pairseg_6VVJ_sequence_000626","pairContextDataPath":"ANNOCONFIDENCE/lss_structure_context_annotation.tsv","pairContextSchemaId":"lss_structure_context_annotation","contextEngine":"FEC_V0_4_BETA_LSS","supportsPairArcView":true,"supportsDotBracketView":false,"supportsResidueHover":true,"routeAvailabilityStatus":"","blockerCode":"","blockerReason":""},{"contextRouteId":"annojoin:2d:RMDB2PDB:pairseg_6VVJ_sequence_000627","pairContextDataPath":"ANNOCONFIDENCE/lss_structure_context_annotation.tsv","pairContextSchemaId":"lss_structure_context_annotation","contextEngine":"FEC_V0_4_BETA_LSS","supportsPairArcView":true,"supportsDotBracketView":false,"supportsResidueHover":true,"routeAvailabilityStatus":"","blockerCode":"","blockerReason":""},{"contextRouteId":"annojoin:2d:RMDB2PDB:pairseg_6VVJ_sequence_000628","pairContextDataPath":"ANNOCONFIDENCE/lss_structure_context_annotation.tsv","pairContextSchemaId":"lss_structure_context_annotation","contextEngine":"FEC_V0_4_BETA_LSS","supportsPairArcView":true,"supportsDotBracketView":false,"supportsResidueHover":true,"routeAvailabilityStatus":"","blockerCode":"","blockerReason":""},{"contextRouteId":"annojoin:2d:RMDB2PDB:pairseg_6VVJ_sequence_000629","pairContextDataPath":"ANNOCONFIDENCE/lss_structure_context_annotation.tsv","pairContextSchemaId":"lss_structure_context_annotation","contextEngine":"FEC_V0_4_BETA_LSS","supportsPairArcView":true,"supportsDotBracketView":false,"supportsResidueHover":true,"routeAvailabilityStatus":"","blockerCode":"","blockerReason":""},{"contextRouteId":"annojoin:2d:RMDB2PDB:pairseg_6VVJ_sequence_000630","pairContextDataPath":"ANNOCONFIDENCE/lss_structure_context_annotation.tsv","pairContextSchemaId":"lss_structure_context_annotation","contextEngine":"FEC_V0_4_BETA_LSS","supportsPairArcView":true,"supportsDotBracketView":false,"supportsResidueHover":true,"routeAvailabilityStatus":"","blockerCode":"","blockerReason":""},{"contextRouteId":"annojoin:2d:RMDB2PDB:pairseg_6VVJ_sequence_000631","pairContextDataPath":"ANNOCONFIDENCE/lss_structure_context_annotation.tsv","pairContextSchemaId":"lss_structure_context_annotation","contextEngine":"FEC_V0_4_BETA_LSS","supportsPairArcView":true,"supportsDotBracketView":false,"supportsResidueHover":true,"routeAvailabilityStatus":"","blockerCode":"","blockerReason":""},{"contextRouteId":"annojoin:2d:RMDB2PDB:pairseg_6VVJ_sequence_000632","pairContextDataPath":"ANNOCONFIDENCE/lss_structure_context_annotation.tsv","pairContextSchemaId":"lss_structure_context_annotation","contextEngine":"FEC_V0_4_BETA_LSS","supportsPairArcView":true,"supportsDotBracketView":false,"supportsResidueHover":true,"routeAvailabilityStatus":"","blockerCode":"","blockerReason":""},{"contextRouteId":"annojoin:2d:RMDB2PDB:pairseg_6VVJ_sequence_000633","pairContextDataPath":"ANNOCONFIDENCE/lss_structure_context_annotation.tsv","pairContextSchemaId":"lss_structure_context_annotation","contextEngine":"FEC_V0_4_BETA_LSS","supportsPairArcView":true,"supportsDotBracketView":false,"supportsResidueHover":true,"routeAvailabilityStatus":"","blockerCode":"","blockerReason":""},{"contextRouteId":"annojoin:2d:RMDB2PDB:pairseg_6VVJ_sequence_000634","pairContextDataPath":"ANNOCONFIDENCE/lss_structure_context_annotation.tsv","pairContextSchemaId":"lss_structure_context_annotation","contextEngine":"FEC_V0_4_BETA_LSS","supportsPairArcView":true,"supportsDotBracketView":false,"supportsResidueHover":true,"routeAvailabilityStatus":"","blockerCode":"","blockerReason":""},{"contextRouteId":"annojoin:2d:RMDB2PDB:pairseg_6VVJ_sequence_000635","pairContextDataPath":"ANNOCONFIDENCE/lss_structure_context_annotation.tsv","pairContextSchemaId":"lss_structure_context_annotation","contextEngine":"FEC_V0_4_BETA_LSS","supportsPairArcView":true,"supportsDotBracketView":false,"supportsResidueHover":true,"routeAvailabilityStatus":"","blockerCode":"","blockerReason":""},{"contextRouteId":"annojoin:2d:RMDB2PDB:pairseg_6VVJ_sequence_000636","pairContextDataPath":"ANNOCONFIDENCE/lss_structure_context_annotation.tsv","pairContextSchemaId":"lss_structure_context_annotation","contextEngine":"FEC_V0_4_BETA_LSS","supportsPairArcView":true,"supportsDotBracketView":false,"supportsResidueHover":true,"routeAvailabilityStatus":"","blockerCode":"","blockerReason":""},{"contextRouteId":"annojoin:2d:RMDB2PDB:pairseg_6VVJ_sequence_000637","pairContextDataPath":"ANNOCONFIDENCE/lss_structure_context_annotation.tsv","pairContextSchemaId":"lss_structure_context_annotation","contextEngine":"FEC_V0_4_BETA_LSS","supportsPairArcView":true,"supportsDotBracketView":false,"supportsResidueHover":true,"routeAvailabilityStatus":"","blockerCode":"","blockerReason":""},{"contextRouteId":"annojoin:2d:RMDB2PDB:pairseg_6VVJ_sequence_000638","pairContextDataPath":"ANNOCONFIDENCE/lss_structure_context_annotation.tsv","pairContextSchemaId":"lss_structure_context_annotation","contextEngine":"FEC_V0_4_BETA_LSS","supportsPairArcView":true,"supportsDotBracketView":false,"supportsResidueHover":true,"routeAvailabilityStatus":"","blockerCode":"","blockerReason":""},{"contextRouteId":"annojoin:2d:RMDB2PDB:pairseg_6VVJ_sequence_000642","pairContextDataPath":"ANNOCONFIDENCE/lss_structure_context_annotation.tsv","pairContextSchemaId":"lss_structure_context_annotation","contextEngine":"FEC_V0_4_BETA_LSS","supportsPairArcView":true,"supportsDotBracketView":false,"supportsResidueHover":true,"routeAvailabilityStatus":"","blockerCode":"","blockerReason":""},{"contextRouteId":"annojoin:2d:RMDB2PDB:pairseg_6VVJ_sequence_000647","pairContextDataPath":"ANNOCONFIDENCE/lss_structure_context_annotation.tsv","pairContextSchemaId":"lss_structure_context_annotation","contextEngine":"FEC_V0_4_BETA_LSS","supportsPairArcView":true,"supportsDotBracketView":false,"supportsResidueHover":true,"routeAvailabilityStatus":"","blockerCode":"","blockerReason":""},{"contextRouteId":"annojoin:2d:RMDB2PDB:pairseg_6VVJ_sequence_000648","pairContextDataPath":"ANNOCONFIDENCE/lss_structure_context_annotation.tsv","pairContextSchemaId":"lss_structure_context_annotation","contextEngine":"FEC_V0_4_BETA_LSS","supportsPairArcView":true,"supportsDotBracketView":false,"supportsResidueHover":true,"routeAvailabilityStatus":"","blockerCode":"","blockerReason":""},{"contextRouteId":"annojoin:2d:RMDB2PDB:pairseg_6VVJ_sequence_000649","pairContextDataPath":"ANNOCONFIDENCE/lss_structure_context_annotation.tsv","pairContextSchemaId":"lss_structure_context_annotation","contextEngine":"FEC_V0_4_BETA_LSS","supportsPairArcView":true,"supportsDotBracketView":false,"supportsResidueHover":true,"routeAvailabilityStatus":"","blockerCode":"","blockerReason":""},{"contextRouteId":"annojoin:2d:RMDB2PDB:pairseg_6VVJ_sequence_000650","pairContextDataPath":"ANNOCONFIDENCE/lss_structure_context_annotation.tsv","pairContextSchemaId":"lss_structure_context_annotation","contextEngine":"FEC_V0_4_BETA_LSS","supportsPairArcView":true,"supportsDotBracketView":false,"supportsResidueHover":true,"routeAvailabilityStatus":"","blockerCode":"","blockerReason":""},{"contextRouteId":"annojoin:2d:RMDB2PDB:pairseg_6VVJ_sequence_000651","pairContextDataPath":"ANNOCONFIDENCE/lss_structure_context_annotation.tsv","pairContextSchemaId":"lss_structure_context_annotation","contextEngine":"FEC_V0_4_BETA_LSS","supportsPairArcView":true,"supportsDotBracketView":false,"supportsResidueHover":true,"routeAvailabilityStatus":"","blockerCode":"","blockerReason":""},{"contextRouteId":"annojoin:2d:RMDB2PDB:pairseg_6VVJ_sequence_000652","pairContextDataPath":"ANNOCONFIDENCE/lss_structure_context_annotation.tsv","pairContextSchemaId":"lss_structure_context_annotation","contextEngine":"FEC_V0_4_BETA_LSS","supportsPairArcView":true,"supportsDotBracketView":false,"supportsResidueHover":true,"routeAvailabilityStatus":"","blockerCode":"","blockerReason":""},{"contextRouteId":"annojoin:2d:RMDB2PDB:pairseg_6VVJ_sequence_000653","pairContextDataPath":"ANNOCONFIDENCE/lss_structure_context_annotation.tsv","pairContextSchemaId":"lss_structure_context_annotation","contextEngine":"FEC_V0_4_BETA_LSS","supportsPairArcView":true,"supportsDotBracketView":false,"supportsResidueHover":true,"routeAvailabilityStatus":"","blockerCode":"","blockerReason":""},{"contextRouteId":"annojoin:2d:RMDB2PDB:pairseg_6VVJ_sequence_000654","pairContextDataPath":"ANNOCONFIDENCE/lss_structure_context_annotation.tsv","pairContextSchemaId":"lss_structure_context_annotation","contextEngine":"FEC_V0_4_BETA_LSS","supportsPairArcView":true,"supportsDotBracketView":false,"supportsResidueHover":true,"routeAvailabilityStatus":"","blockerCode":"","blockerReason":""},{"contextRouteId":"annojoin:2d:RMDB2PDB:pairseg_6VVJ_sequence_000655","pairContextDataPath":"ANNOCONFIDENCE/lss_structure_context_annotation.tsv","pairContextSchemaId":"lss_structure_context_annotation","contextEngine":"FEC_V0_4_BETA_LSS","supportsPairArcView":true,"supportsDotBracketView":false,"supportsResidueHover":true,"routeAvailabilityStatus":"","blockerCode":"","blockerReason":""},{"contextRouteId":"annojoin:2d:RMDB2PDB:pairseg_6VVJ_sequence_000656","pairContextDataPath":"ANNOCONFIDENCE/lss_structure_context_annotation.tsv","pairContextSchemaId":"lss_structure_context_annotation","contextEngine":"FEC_V0_4_BETA_LSS","supportsPairArcView":true,"supportsDotBracketView":false,"supportsResidueHover":true,"routeAvailabilityStatus":"","blockerCode":"","blockerReason":""},{"contextRouteId":"annojoin:2d:RMDB2PDB:pairseg_6VVJ_sequence_000661","pairContextDataPath":"ANNOCONFIDENCE/lss_structure_context_annotation.tsv","pairContextSchemaId":"lss_structure_context_annotation","contextEngine":"FEC_V0_4_BETA_LSS","supportsPairArcView":true,"supportsDotBracketView":false,"supportsResidueHover":true,"routeAvailabilityStatus":"","blockerCode":"","blockerReason":""},{"contextRouteId":"annojoin:2d:RMDB2PDB:pairseg_6VVJ_sequence_000662","pairContextDataPath":"ANNOCONFIDENCE/lss_structure_context_annotation.tsv","pairContextSchemaId":"lss_structure_context_annotation","contextEngine":"FEC_V0_4_BETA_LSS","supportsPairArcView":true,"supportsDotBracketView":false,"supportsResidueHover":true,"routeAvailabilityStatus":"","blockerCode":"","blockerReason":""},{"contextRouteId":"annojoin:2d:RMDB2PDB:pairseg_6VVJ_sequence_000663","pairContextDataPath":"ANNOCONFIDENCE/lss_structure_context_annotation.tsv","pairContextSchemaId":"lss_structure_context_annotation","contextEngine":"FEC_V0_4_BETA_LSS","supportsPairArcView":true,"supportsDotBracketView":false,"supportsResidueHover":true,"routeAvailabilityStatus":"","blockerCode":"","blockerReason":""},{"contextRouteId":"annojoin:2d:RMDB2PDB:pairseg_6VVJ_sequence_000664","pairContextDataPath":"ANNOCONFIDENCE/lss_structure_context_annotation.tsv","pairContextSchemaId":"lss_structure_context_annotation","contextEngine":"FEC_V0_4_BETA_LSS","supportsPairArcView":true,"supportsDotBracketView":false,"supportsResidueHover":true,"routeAvailabilityStatus":"","blockerCode":"","blockerReason":""},{"contextRouteId":"annojoin:2d:RMDB2PDB:pairseg_6VVJ_sequence_000666","pairContextDataPath":"ANNOCONFIDENCE/lss_structure_context_annotation.tsv","pairContextSchemaId":"lss_structure_context_annotation","contextEngine":"FEC_V0_4_BETA_LSS","supportsPairArcView":true,"supportsDotBracketView":false,"supportsResidueHover":true,"routeAvailabilityStatus":"","blockerCode":"","blockerReason":""},{"contextRouteId":"annojoin:2d:RMDB2PDB:pairseg_6VVJ_sequence_000669","pairContextDataPath":"ANNOCONFIDENCE/lss_structure_context_annotation.tsv","pairContextSchemaId":"lss_structure_context_annotation","contextEngine":"FEC_V0_4_BETA_LSS","supportsPairArcView":true,"supportsDotBracketView":false,"supportsResidueHover":true,"routeAvailabilityStatus":"","blockerCode":"","blockerReason":""},{"contextRouteId":"annojoin:2d:RMDB2PDB:pairseg_6VVJ_sequence_000670","pairContextDataPath":"ANNOCONFIDENCE/lss_structure_context_annotation.tsv","pairContextSchemaId":"lss_structure_context_annotation","contextEngine":"FEC_V0_4_BETA_LSS","supportsPairArcView":true,"supportsDotBracketView":false,"supportsResidueHover":true,"routeAvailabilityStatus":"","blockerCode":"","blockerReason":""},{"contextRouteId":"annojoin:2d:RMDB2PDB:pairseg_6VVJ_sequence_000675","pairContextDataPath":"ANNOCONFIDENCE/lss_structure_context_annotation.tsv","pairContextSchemaId":"lss_structure_context_annotation","contextEngine":"FEC_V0_4_BETA_LSS","supportsPairArcView":true,"supportsDotBracketView":false,"supportsResidueHover":true,"routeAvailabilityStatus":"","blockerCode":"","blockerReason":""},{"contextRouteId":"annojoin:2d:RMDB2PDB:pairseg_6VVJ_sequence_000676","pairContextDataPath":"ANNOCONFIDENCE/lss_structure_context_annotation.tsv","pairContextSchemaId":"lss_structure_context_annotation","contextEngine":"FEC_V0_4_BETA_LSS","supportsPairArcView":true,"supportsDotBracketView":false,"supportsResidueHover":true,"routeAvailabilityStatus":"","blockerCode":"","blockerReason":""},{"contextRouteId":"annojoin:2d:RMDB2PDB:pairseg_6VVJ_sequence_000677","pairContextDataPath":"ANNOCONFIDENCE/lss_structure_context_annotation.tsv","pairContextSchemaId":"lss_structure_context_annotation","contextEngine":"FEC_V0_4_BETA_LSS","supportsPairArcView":true,"supportsDotBracketView":false,"supportsResidueHover":true,"routeAvailabilityStatus":"","blockerCode":"","blockerReason":""},{"contextRouteId":"annojoin:2d:RMDB2PDB:pairseg_6VVJ_sequence_000678","pairContextDataPath":"ANNOCONFIDENCE/lss_structure_context_annotation.tsv","pairContextSchemaId":"lss_structure_context_annotation","contextEngine":"FEC_V0_4_BETA_LSS","supportsPairArcView":true,"supportsDotBracketView":false,"supportsResidueHover":true,"routeAvailabilityStatus":"","blockerCode":"","blockerReason":""},{"contextRouteId":"annojoin:2d:RMDB2PDB:pairseg_6VVJ_sequence_000679","pairContextDataPath":"ANNOCONFIDENCE/lss_structure_context_annotation.tsv","pairContextSchemaId":"lss_structure_context_annotation","contextEngine":"FEC_V0_4_BETA_LSS","supportsPairArcView":true,"supportsDotBracketView":false,"supportsResidueHover":true,"routeAvailabilityStatus":"","blockerCode":"","blockerReason":""},{"contextRouteId":"annojoin:2d:RMDB2PDB:pairseg_6VVJ_sequence_000680","pairContextDataPath":"ANNOCONFIDENCE/lss_structure_context_annotation.tsv","pairContextSchemaId":"lss_structure_context_annotation","contextEngine":"FEC_V0_4_BETA_LSS","supportsPairArcView":true,"supportsDotBracketView":false,"supportsResidueHover":true,"routeAvailabilityStatus":"","blockerCode":"","blockerReason":""},{"contextRouteId":"annojoin:2d:RMDB2PDB:pairseg_6VVJ_sequence_000681","pairContextDataPath":"ANNOCONFIDENCE/lss_structure_context_annotation.tsv","pairContextSchemaId":"lss_structure_context_annotation","contextEngine":"FEC_V0_4_BETA_LSS","supportsPairArcView":true,"supportsDotBracketView":false,"supportsResidueHover":true,"routeAvailabilityStatus":"","blockerCode":"","blockerReason":""},{"contextRouteId":"annojoin:2d:RMDB2PDB:pairseg_6VVJ_sequence_000682","pairContextDataPath":"ANNOCONFIDENCE/lss_structure_context_annotation.tsv","pairContextSchemaId":"lss_structure_context_annotation","contextEngine":"FEC_V0_4_BETA_LSS","supportsPairArcView":true,"supportsDotBracketView":false,"supportsResidueHover":true,"routeAvailabilityStatus":"","blockerCode":"","blockerReason":""},{"contextRouteId":"annojoin:2d:RMDB2PDB:pairseg_6VVJ_sequence_000683","pairContextDataPath":"ANNOCONFIDENCE/lss_structure_context_annotation.tsv","pairContextSchemaId":"lss_structure_context_annotation","contextEngine":"FEC_V0_4_BETA_LSS","supportsPairArcView":true,"supportsDotBracketView":false,"supportsResidueHover":true,"routeAvailabilityStatus":"","blockerCode":"","blockerReason":""},{"contextRouteId":"annojoin:2d:RMDB2PDB:pairseg_6VVJ_sequence_000684","pairContextDataPath":"ANNOCONFIDENCE/lss_structure_context_annotation.tsv","pairContextSchemaId":"lss_structure_context_annotation","contextEngine":"FEC_V0_4_BETA_LSS","supportsPairArcView":true,"supportsDotBracketView":false,"supportsResidueHover":true,"routeAvailabilityStatus":"","blockerCode":"","blockerReason":""},{"contextRouteId":"annojoin:2d:RMDB2PDB:pairseg_6VVJ_sequence_000685","pairContextDataPath":"ANNOCONFIDENCE/lss_structure_context_annotation.tsv","pairContextSchemaId":"lss_structure_context_annotation","contextEngine":"FEC_V0_4_BETA_LSS","supportsPairArcView":true,"supportsDotBracketView":false,"supportsResidueHover":true,"routeAvailabilityStatus":"","blockerCode":"","blockerReason":""},{"contextRouteId":"annojoin:2d:RMDB2PDB:pairseg_6VVJ_sequence_000686","pairContextDataPath":"ANNOCONFIDENCE/lss_structure_context_annotation.tsv","pairContextSchemaId":"lss_structure_context_annotation","contextEngine":"FEC_V0_4_BETA_LSS","supportsPairArcView":true,"supportsDotBracketView":false,"supportsResidueHover":true,"routeAvailabilityStatus":"","blockerCode":"","blockerReason":""},{"contextRouteId":"annojoin:2d:RMDB2PDB:pairseg_6VVJ_sequence_000687","pairContextDataPath":"ANNOCONFIDENCE/lss_structure_context_annotation.tsv","pairContextSchemaId":"lss_structure_context_annotation","contextEngine":"FEC_V0_4_BETA_LSS","supportsPairArcView":true,"supportsDotBracketView":false,"supportsResidueHover":true,"routeAvailabilityStatus":"","blockerCode":"","blockerReason":""},{"contextRouteId":"annojoin:2d:RMDB2PDB:pairseg_6VVJ_sequence_000691","pairContextDataPath":"ANNOCONFIDENCE/lss_structure_context_annotation.tsv","pairContextSchemaId":"lss_structure_context_annotation","contextEngine":"FEC_V0_4_BETA_LSS","supportsPairArcView":true,"supportsDotBracketView":false,"supportsResidueHover":true,"routeAvailabilityStatus":"","blockerCode":"","blockerReason":""},{"contextRouteId":"annojoin:2d:RMDB2PDB:pairseg_6VVJ_sequence_000692","pairContextDataPath":"ANNOCONFIDENCE/lss_structure_context_annotation.tsv","pairContextSchemaId":"lss_structure_context_annotation","contextEngine":"FEC_V0_4_BETA_LSS","supportsPairArcView":true,"supportsDotBracketView":false,"supportsResidueHover":true,"routeAvailabilityStatus":"","blockerCode":"","blockerReason":""},{"contextRouteId":"annojoin:2d:RMDB2PDB:pairseg_6VVJ_sequence_000693","pairContextDataPath":"ANNOCONFIDENCE/lss_structure_context_annotation.tsv","pairContextSchemaId":"lss_structure_context_annotation","contextEngine":"FEC_V0_4_BETA_LSS","supportsPairArcView":true,"supportsDotBracketView":false,"supportsResidueHover":true,"routeAvailabilityStatus":"","blockerCode":"","blockerReason":""},{"contextRouteId":"annojoin:2d:RMDB2PDB:pairseg_6VVJ_sequence_000694","pairContextDataPath":"ANNOCONFIDENCE/lss_structure_context_annotation.tsv","pairContextSchemaId":"lss_structure_context_annotation","contextEngine":"FEC_V0_4_BETA_LSS","supportsPairArcView":true,"supportsDotBracketView":false,"supportsResidueHover":true,"routeAvailabilityStatus":"","blockerCode":"","blockerReason":""},{"contextRouteId":"annojoin:2d:RMDB2PDB:pairseg_6VVJ_sequence_000695","pairContextDataPath":"ANNOCONFIDENCE/lss_structure_context_annotation.tsv","pairContextSchemaId":"lss_structure_context_annotation","contextEngine":"FEC_V0_4_BETA_LSS","supportsPairArcView":true,"supportsDotBracketView":false,"supportsResidueHover":true,"routeAvailabilityStatus":"","blockerCode":"","blockerReason":""},{"contextRouteId":"annojoin:2d:RMDB2PDB:pairseg_6VVJ_sequence_000696","pairContextDataPath":"ANNOCONFIDENCE/lss_structure_context_annotation.tsv","pairContextSchemaId":"lss_structure_context_annotation","contextEngine":"FEC_V0_4_BETA_LSS","supportsPairArcView":true,"supportsDotBracketView":false,"supportsResidueHover":true,"routeAvailabilityStatus":"","blockerCode":"","blockerReason":""},{"contextRouteId":"annojoin:2d:RMDB2PDB:pairseg_6VVJ_sequence_000697","pairContextDataPath":"ANNOCONFIDENCE/lss_structure_context_annotation.tsv","pairContextSchemaId":"lss_structure_context_annotation","contextEngine":"FEC_V0_4_BETA_LSS","supportsPairArcView":true,"supportsDotBracketView":false,"supportsResidueHover":true,"routeAvailabilityStatus":"","blockerCode":"","blockerReason":""},{"contextRouteId":"annojoin:2d:RMDB2PDB:pairseg_6VVJ_sequence_000698","pairContextDataPath":"ANNOCONFIDENCE/lss_structure_context_annotation.tsv","pairContextSchemaId":"lss_structure_context_annotation","contextEngine":"FEC_V0_4_BETA_LSS","supportsPairArcView":true,"supportsDotBracketView":false,"supportsResidueHover":true,"routeAvailabilityStatus":"","blockerCode":"","blockerReason":""},{"contextRouteId":"annojoin:2d:RMDB2PDB:pairseg_6VVJ_sequence_000699","pairContextDataPath":"ANNOCONFIDENCE/lss_structure_context_annotation.tsv","pairContextSchemaId":"lss_structure_context_annotation","contextEngine":"FEC_V0_4_BETA_LSS","supportsPairArcView":true,"supportsDotBracketView":false,"supportsResidueHover":true,"routeAvailabilityStatus":"","blockerCode":"","blockerReason":""},{"contextRouteId":"annojoin:2d:RMDB2PDB:pairseg_6VVJ_sequence_000700","pairContextDataPath":"ANNOCONFIDENCE/lss_structure_context_annotation.tsv","pairContextSchemaId":"lss_structure_context_annotation","contextEngine":"FEC_V0_4_BETA_LSS","supportsPairArcView":true,"supportsDotBracketView":false,"supportsResidueHover":true,"routeAvailabilityStatus":"","blockerCode":"","blockerReason":""}]}
