{"schemaVersion":"annojoin-atlas.v1","version":"V2.1_RMDB_LINE_A_20260617","atlasCaseKey":"RMDB2PDB:4OQU","caseId":"4OQU","routeKey":"track-routes","page":2,"pageSize":500,"totalRows":580,"pageCount":2,"rows":[{"profileId":"data-eterna/data-eterna/OK6LIB_2A3_0000.rdat#4231","trackRouteId":"annojoin:track:RMDB2PDB:pairseg_4OQU_sequence_000501","trackDataPath":"ANNOCONFIDENCE/assay_numeric_usability_annotation.tsv","trackSchemaId":"assay_numeric_usability_annotation","supports1d":true,"supportsTable":true,"colorPolicyId":"rmdb_reactivity_low_mid_high_v1"},{"profileId":"data-eterna/data-eterna/OK6LIB_2A3_0000.rdat#4594","trackRouteId":"annojoin:track:RMDB2PDB:pairseg_4OQU_sequence_000502","trackDataPath":"ANNOCONFIDENCE/assay_numeric_usability_annotation.tsv","trackSchemaId":"assay_numeric_usability_annotation","supports1d":true,"supportsTable":true,"colorPolicyId":"rmdb_reactivity_low_mid_high_v1"},{"profileId":"data-eterna/data-eterna/OK6LIB_2A3_0000.rdat#6725","trackRouteId":"annojoin:track:RMDB2PDB:pairseg_4OQU_sequence_000503","trackDataPath":"ANNOCONFIDENCE/assay_numeric_usability_annotation.tsv","trackSchemaId":"assay_numeric_usability_annotation","supports1d":true,"supportsTable":true,"colorPolicyId":"rmdb_reactivity_low_mid_high_v1"},{"profileId":"data-eterna/data-eterna/OK45LIB_2A3_0000.rdat#4656","trackRouteId":"annojoin:track:RMDB2PDB:pairseg_4OQU_sequence_000504","trackDataPath":"ANNOCONFIDENCE/assay_numeric_usability_annotation.tsv","trackSchemaId":"assay_numeric_usability_annotation","supports1d":true,"supportsTable":true,"colorPolicyId":"rmdb_reactivity_low_mid_high_v1"},{"profileId":"data-eterna/data-eterna/OK6LIB_2A3_0000.rdat#3795","trackRouteId":"annojoin:track:RMDB2PDB:pairseg_4OQU_sequence_000505","trackDataPath":"ANNOCONFIDENCE/assay_numeric_usability_annotation.tsv","trackSchemaId":"assay_numeric_usability_annotation","supports1d":true,"supportsTable":true,"colorPolicyId":"rmdb_reactivity_low_mid_high_v1"},{"profileId":"data-eterna/data-eterna/OK45LIB_2A3_0000.rdat#6937","trackRouteId":"annojoin:track:RMDB2PDB:pairseg_4OQU_sequence_000506","trackDataPath":"ANNOCONFIDENCE/assay_numeric_usability_annotation.tsv","trackSchemaId":"assay_numeric_usability_annotation","supports1d":true,"supportsTable":true,"colorPolicyId":"rmdb_reactivity_low_mid_high_v1"},{"profileId":"data-eterna/data-eterna/OK6LIB_2A3_0000.rdat#8362","trackRouteId":"annojoin:track:RMDB2PDB:pairseg_4OQU_sequence_000507","trackDataPath":"ANNOCONFIDENCE/assay_numeric_usability_annotation.tsv","trackSchemaId":"assay_numeric_usability_annotation","supports1d":true,"supportsTable":true,"colorPolicyId":"rmdb_reactivity_low_mid_high_v1"},{"profileId":"data-eterna/data-eterna/OK6LIB_2A3_0000.rdat#921","trackRouteId":"annojoin:track:RMDB2PDB:pairseg_4OQU_sequence_000508","trackDataPath":"ANNOCONFIDENCE/assay_numeric_usability_annotation.tsv","trackSchemaId":"assay_numeric_usability_annotation","supports1d":true,"supportsTable":true,"colorPolicyId":"rmdb_reactivity_low_mid_high_v1"},{"profileId":"data-eterna/data-eterna/OK6LIB_2A3_0000.rdat#7617","trackRouteId":"annojoin:track:RMDB2PDB:pairseg_4OQU_sequence_000509","trackDataPath":"ANNOCONFIDENCE/assay_numeric_usability_annotation.tsv","trackSchemaId":"assay_numeric_usability_annotation","supports1d":true,"supportsTable":true,"colorPolicyId":"rmdb_reactivity_low_mid_high_v1"},{"profileId":"data-eterna/data-eterna/OK6LIB_2A3_0000.rdat#1540","trackRouteId":"annojoin:track:RMDB2PDB:pairseg_4OQU_sequence_000510","trackDataPath":"ANNOCONFIDENCE/assay_numeric_usability_annotation.tsv","trackSchemaId":"assay_numeric_usability_annotation","supports1d":true,"supportsTable":true,"colorPolicyId":"rmdb_reactivity_low_mid_high_v1"},{"profileId":"data-eterna/data-eterna/OK6LIB_2A3_0000.rdat#4401","trackRouteId":"annojoin:track:RMDB2PDB:pairseg_4OQU_sequence_000511","trackDataPath":"ANNOCONFIDENCE/assay_numeric_usability_annotation.tsv","trackSchemaId":"assay_numeric_usability_annotation","supports1d":true,"supportsTable":true,"colorPolicyId":"rmdb_reactivity_low_mid_high_v1"},{"profileId":"data-eterna/data-eterna/OK6LIB_2A3_0000.rdat#8506","trackRouteId":"annojoin:track:RMDB2PDB:pairseg_4OQU_sequence_000512","trackDataPath":"ANNOCONFIDENCE/assay_numeric_usability_annotation.tsv","trackSchemaId":"assay_numeric_usability_annotation","supports1d":true,"supportsTable":true,"colorPolicyId":"rmdb_reactivity_low_mid_high_v1"},{"profileId":"data-eterna/data-eterna/OK6LIB_2A3_0000.rdat#2468","trackRouteId":"annojoin:track:RMDB2PDB:pairseg_4OQU_sequence_000513","trackDataPath":"ANNOCONFIDENCE/assay_numeric_usability_annotation.tsv","trackSchemaId":"assay_numeric_usability_annotation","supports1d":true,"supportsTable":true,"colorPolicyId":"rmdb_reactivity_low_mid_high_v1"},{"profileId":"data-eterna/data-eterna/OK6LIB_2A3_0000.rdat#7799","trackRouteId":"annojoin:track:RMDB2PDB:pairseg_4OQU_sequence_000514","trackDataPath":"ANNOCONFIDENCE/assay_numeric_usability_annotation.tsv","trackSchemaId":"assay_numeric_usability_annotation","supports1d":true,"supportsTable":true,"colorPolicyId":"rmdb_reactivity_low_mid_high_v1"},{"profileId":"data-eterna/data-eterna/OK45LIB_2A3_0000.rdat#7026","trackRouteId":"annojoin:track:RMDB2PDB:pairseg_4OQU_sequence_000515","trackDataPath":"ANNOCONFIDENCE/assay_numeric_usability_annotation.tsv","trackSchemaId":"assay_numeric_usability_annotation","supports1d":true,"supportsTable":true,"colorPolicyId":"rmdb_reactivity_low_mid_high_v1"},{"profileId":"data-eterna/data-eterna/OK45LIB_2A3_0000.rdat#6025","trackRouteId":"annojoin:track:RMDB2PDB:pairseg_4OQU_sequence_000516","trackDataPath":"ANNOCONFIDENCE/assay_numeric_usability_annotation.tsv","trackSchemaId":"assay_numeric_usability_annotation","supports1d":true,"supportsTable":true,"colorPolicyId":"rmdb_reactivity_low_mid_high_v1"},{"profileId":"data-eterna/data-eterna/OK6LIB_2A3_0000.rdat#389","trackRouteId":"annojoin:track:RMDB2PDB:pairseg_4OQU_sequence_000517","trackDataPath":"ANNOCONFIDENCE/assay_numeric_usability_annotation.tsv","trackSchemaId":"assay_numeric_usability_annotation","supports1d":true,"supportsTable":true,"colorPolicyId":"rmdb_reactivity_low_mid_high_v1"},{"profileId":"data-eterna/data-eterna/OK6LIB_2A3_0000.rdat#2236","trackRouteId":"annojoin:track:RMDB2PDB:pairseg_4OQU_sequence_000518","trackDataPath":"ANNOCONFIDENCE/assay_numeric_usability_annotation.tsv","trackSchemaId":"assay_numeric_usability_annotation","supports1d":true,"supportsTable":true,"colorPolicyId":"rmdb_reactivity_low_mid_high_v1"},{"profileId":"data-eterna/data-eterna/OK6LIB_2A3_0000.rdat#2959","trackRouteId":"annojoin:track:RMDB2PDB:pairseg_4OQU_sequence_000519","trackDataPath":"ANNOCONFIDENCE/assay_numeric_usability_annotation.tsv","trackSchemaId":"assay_numeric_usability_annotation","supports1d":true,"supportsTable":true,"colorPolicyId":"rmdb_reactivity_low_mid_high_v1"},{"profileId":"data-eterna/data-eterna/OK45LIB_2A3_0000.rdat#3057","trackRouteId":"annojoin:track:RMDB2PDB:pairseg_4OQU_sequence_000520","trackDataPath":"ANNOCONFIDENCE/assay_numeric_usability_annotation.tsv","trackSchemaId":"assay_numeric_usability_annotation","supports1d":true,"supportsTable":true,"colorPolicyId":"rmdb_reactivity_low_mid_high_v1"},{"profileId":"data-eterna/data-eterna/OK6LIB_2A3_0000.rdat#3483","trackRouteId":"annojoin:track:RMDB2PDB:pairseg_4OQU_sequence_000521","trackDataPath":"ANNOCONFIDENCE/assay_numeric_usability_annotation.tsv","trackSchemaId":"assay_numeric_usability_annotation","supports1d":true,"supportsTable":true,"colorPolicyId":"rmdb_reactivity_low_mid_high_v1"},{"profileId":"data-eterna/data-eterna/OK6LIB_2A3_0000.rdat#4789","trackRouteId":"annojoin:track:RMDB2PDB:pairseg_4OQU_sequence_000522","trackDataPath":"ANNOCONFIDENCE/assay_numeric_usability_annotation.tsv","trackSchemaId":"assay_numeric_usability_annotation","supports1d":true,"supportsTable":true,"colorPolicyId":"rmdb_reactivity_low_mid_high_v1"},{"profileId":"data-eterna/data-eterna/OK45LIB_2A3_0000.rdat#6556","trackRouteId":"annojoin:track:RMDB2PDB:pairseg_4OQU_sequence_000523","trackDataPath":"ANNOCONFIDENCE/assay_numeric_usability_annotation.tsv","trackSchemaId":"assay_numeric_usability_annotation","supports1d":true,"supportsTable":true,"colorPolicyId":"rmdb_reactivity_low_mid_high_v1"},{"profileId":"data-eterna/data-eterna/OK6LIB_2A3_0000.rdat#2743","trackRouteId":"annojoin:track:RMDB2PDB:pairseg_4OQU_sequence_000524","trackDataPath":"ANNOCONFIDENCE/assay_numeric_usability_annotation.tsv","trackSchemaId":"assay_numeric_usability_annotation","supports1d":true,"supportsTable":true,"colorPolicyId":"rmdb_reactivity_low_mid_high_v1"},{"profileId":"data-eterna/data-eterna/OK6LIB_2A3_0000.rdat#7167","trackRouteId":"annojoin:track:RMDB2PDB:pairseg_4OQU_sequence_000525","trackDataPath":"ANNOCONFIDENCE/assay_numeric_usability_annotation.tsv","trackSchemaId":"assay_numeric_usability_annotation","supports1d":true,"supportsTable":true,"colorPolicyId":"rmdb_reactivity_low_mid_high_v1"},{"profileId":"data-eterna/data-eterna/OK6LIB_2A3_0000.rdat#2769","trackRouteId":"annojoin:track:RMDB2PDB:pairseg_4OQU_sequence_000526","trackDataPath":"ANNOCONFIDENCE/assay_numeric_usability_annotation.tsv","trackSchemaId":"assay_numeric_usability_annotation","supports1d":true,"supportsTable":true,"colorPolicyId":"rmdb_reactivity_low_mid_high_v1"},{"profileId":"data-eterna/data-eterna/OK6LIB_2A3_0000.rdat#2525","trackRouteId":"annojoin:track:RMDB2PDB:pairseg_4OQU_sequence_000527","trackDataPath":"ANNOCONFIDENCE/assay_numeric_usability_annotation.tsv","trackSchemaId":"assay_numeric_usability_annotation","supports1d":true,"supportsTable":true,"colorPolicyId":"rmdb_reactivity_low_mid_high_v1"},{"profileId":"data-eterna/data-eterna/OK6LIB_2A3_0000.rdat#2530","trackRouteId":"annojoin:track:RMDB2PDB:pairseg_4OQU_sequence_000528","trackDataPath":"ANNOCONFIDENCE/assay_numeric_usability_annotation.tsv","trackSchemaId":"assay_numeric_usability_annotation","supports1d":true,"supportsTable":true,"colorPolicyId":"rmdb_reactivity_low_mid_high_v1"},{"profileId":"data-eterna/data-eterna/OK6LIB_2A3_0000.rdat#3062","trackRouteId":"annojoin:track:RMDB2PDB:pairseg_4OQU_sequence_000529","trackDataPath":"ANNOCONFIDENCE/assay_numeric_usability_annotation.tsv","trackSchemaId":"assay_numeric_usability_annotation","supports1d":true,"supportsTable":true,"colorPolicyId":"rmdb_reactivity_low_mid_high_v1"},{"profileId":"data-eterna/data-eterna/OK6LIB_2A3_0000.rdat#4180","trackRouteId":"annojoin:track:RMDB2PDB:pairseg_4OQU_sequence_000530","trackDataPath":"ANNOCONFIDENCE/assay_numeric_usability_annotation.tsv","trackSchemaId":"assay_numeric_usability_annotation","supports1d":true,"supportsTable":true,"colorPolicyId":"rmdb_reactivity_low_mid_high_v1"},{"profileId":"data-eterna/data-eterna/OK6LIB_2A3_0000.rdat#5310","trackRouteId":"annojoin:track:RMDB2PDB:pairseg_4OQU_sequence_000531","trackDataPath":"ANNOCONFIDENCE/assay_numeric_usability_annotation.tsv","trackSchemaId":"assay_numeric_usability_annotation","supports1d":true,"supportsTable":true,"colorPolicyId":"rmdb_reactivity_low_mid_high_v1"},{"profileId":"data-eterna/data-eterna/OK45LIB_2A3_0000.rdat#3615","trackRouteId":"annojoin:track:RMDB2PDB:pairseg_4OQU_sequence_000532","trackDataPath":"ANNOCONFIDENCE/assay_numeric_usability_annotation.tsv","trackSchemaId":"assay_numeric_usability_annotation","supports1d":true,"supportsTable":true,"colorPolicyId":"rmdb_reactivity_low_mid_high_v1"},{"profileId":"data-eterna/data-eterna/OK6LIB_2A3_0000.rdat#2045","trackRouteId":"annojoin:track:RMDB2PDB:pairseg_4OQU_sequence_000533","trackDataPath":"ANNOCONFIDENCE/assay_numeric_usability_annotation.tsv","trackSchemaId":"assay_numeric_usability_annotation","supports1d":true,"supportsTable":true,"colorPolicyId":"rmdb_reactivity_low_mid_high_v1"},{"profileId":"data-eterna/data-eterna/OK6LIB_2A3_0000.rdat#2126","trackRouteId":"annojoin:track:RMDB2PDB:pairseg_4OQU_sequence_000534","trackDataPath":"ANNOCONFIDENCE/assay_numeric_usability_annotation.tsv","trackSchemaId":"assay_numeric_usability_annotation","supports1d":true,"supportsTable":true,"colorPolicyId":"rmdb_reactivity_low_mid_high_v1"},{"profileId":"data-eterna/data-eterna/OK6LIB_2A3_0000.rdat#7763","trackRouteId":"annojoin:track:RMDB2PDB:pairseg_4OQU_sequence_000535","trackDataPath":"ANNOCONFIDENCE/assay_numeric_usability_annotation.tsv","trackSchemaId":"assay_numeric_usability_annotation","supports1d":true,"supportsTable":true,"colorPolicyId":"rmdb_reactivity_low_mid_high_v1"},{"profileId":"data-eterna/data-eterna/OK6LIB_2A3_0000.rdat#3870","trackRouteId":"annojoin:track:RMDB2PDB:pairseg_4OQU_sequence_000536","trackDataPath":"ANNOCONFIDENCE/assay_numeric_usability_annotation.tsv","trackSchemaId":"assay_numeric_usability_annotation","supports1d":true,"supportsTable":true,"colorPolicyId":"rmdb_reactivity_low_mid_high_v1"},{"profileId":"data-eterna/data-eterna/OK6LIB_2A3_0000.rdat#3623","trackRouteId":"annojoin:track:RMDB2PDB:pairseg_4OQU_sequence_000537","trackDataPath":"ANNOCONFIDENCE/assay_numeric_usability_annotation.tsv","trackSchemaId":"assay_numeric_usability_annotation","supports1d":true,"supportsTable":true,"colorPolicyId":"rmdb_reactivity_low_mid_high_v1"},{"profileId":"data-eterna/data-eterna/OK45LIB_2A3_0000.rdat#1649","trackRouteId":"annojoin:track:RMDB2PDB:pairseg_4OQU_sequence_000538","trackDataPath":"ANNOCONFIDENCE/assay_numeric_usability_annotation.tsv","trackSchemaId":"assay_numeric_usability_annotation","supports1d":true,"supportsTable":true,"colorPolicyId":"rmdb_reactivity_low_mid_high_v1"},{"profileId":"data-eterna/data-eterna/OK45LIB_2A3_0000.rdat#3534","trackRouteId":"annojoin:track:RMDB2PDB:pairseg_4OQU_sequence_000539","trackDataPath":"ANNOCONFIDENCE/assay_numeric_usability_annotation.tsv","trackSchemaId":"assay_numeric_usability_annotation","supports1d":true,"supportsTable":true,"colorPolicyId":"rmdb_reactivity_low_mid_high_v1"},{"profileId":"data-eterna/data-eterna/OK6LIB_2A3_0000.rdat#2246","trackRouteId":"annojoin:track:RMDB2PDB:pairseg_4OQU_sequence_000540","trackDataPath":"ANNOCONFIDENCE/assay_numeric_usability_annotation.tsv","trackSchemaId":"assay_numeric_usability_annotation","supports1d":true,"supportsTable":true,"colorPolicyId":"rmdb_reactivity_low_mid_high_v1"},{"profileId":"data-eterna/data-eterna/OK6LIB_2A3_0000.rdat#6189","trackRouteId":"annojoin:track:RMDB2PDB:pairseg_4OQU_sequence_000541","trackDataPath":"ANNOCONFIDENCE/assay_numeric_usability_annotation.tsv","trackSchemaId":"assay_numeric_usability_annotation","supports1d":true,"supportsTable":true,"colorPolicyId":"rmdb_reactivity_low_mid_high_v1"},{"profileId":"data-eterna/data-eterna/OK6LIB_2A3_0000.rdat#653","trackRouteId":"annojoin:track:RMDB2PDB:pairseg_4OQU_sequence_000542","trackDataPath":"ANNOCONFIDENCE/assay_numeric_usability_annotation.tsv","trackSchemaId":"assay_numeric_usability_annotation","supports1d":true,"supportsTable":true,"colorPolicyId":"rmdb_reactivity_low_mid_high_v1"},{"profileId":"data-eterna/data-eterna/OK45LIB_2A3_0000.rdat#2615","trackRouteId":"annojoin:track:RMDB2PDB:pairseg_4OQU_sequence_000543","trackDataPath":"ANNOCONFIDENCE/assay_numeric_usability_annotation.tsv","trackSchemaId":"assay_numeric_usability_annotation","supports1d":true,"supportsTable":true,"colorPolicyId":"rmdb_reactivity_low_mid_high_v1"},{"profileId":"data-eterna/data-eterna/OK6LIB_2A3_0000.rdat#6399","trackRouteId":"annojoin:track:RMDB2PDB:pairseg_4OQU_sequence_000544","trackDataPath":"ANNOCONFIDENCE/assay_numeric_usability_annotation.tsv","trackSchemaId":"assay_numeric_usability_annotation","supports1d":true,"supportsTable":true,"colorPolicyId":"rmdb_reactivity_low_mid_high_v1"},{"profileId":"data-eterna/data-eterna/OK6LIB_2A3_0000.rdat#4495","trackRouteId":"annojoin:track:RMDB2PDB:pairseg_4OQU_sequence_000545","trackDataPath":"ANNOCONFIDENCE/assay_numeric_usability_annotation.tsv","trackSchemaId":"assay_numeric_usability_annotation","supports1d":true,"supportsTable":true,"colorPolicyId":"rmdb_reactivity_low_mid_high_v1"},{"profileId":"data-eterna/data-eterna/OK6LIB_2A3_0000.rdat#4182","trackRouteId":"annojoin:track:RMDB2PDB:pairseg_4OQU_sequence_000546","trackDataPath":"ANNOCONFIDENCE/assay_numeric_usability_annotation.tsv","trackSchemaId":"assay_numeric_usability_annotation","supports1d":true,"supportsTable":true,"colorPolicyId":"rmdb_reactivity_low_mid_high_v1"},{"profileId":"data-eterna/data-eterna/OK6LIB_2A3_0000.rdat#7388","trackRouteId":"annojoin:track:RMDB2PDB:pairseg_4OQU_sequence_000547","trackDataPath":"ANNOCONFIDENCE/assay_numeric_usability_annotation.tsv","trackSchemaId":"assay_numeric_usability_annotation","supports1d":true,"supportsTable":true,"colorPolicyId":"rmdb_reactivity_low_mid_high_v1"},{"profileId":"data-eterna/data-eterna/OK6LIB_2A3_0000.rdat#705","trackRouteId":"annojoin:track:RMDB2PDB:pairseg_4OQU_sequence_000548","trackDataPath":"ANNOCONFIDENCE/assay_numeric_usability_annotation.tsv","trackSchemaId":"assay_numeric_usability_annotation","supports1d":true,"supportsTable":true,"colorPolicyId":"rmdb_reactivity_low_mid_high_v1"},{"profileId":"data-eterna/data-eterna/OK6LIB_2A3_0000.rdat#8412","trackRouteId":"annojoin:track:RMDB2PDB:pairseg_4OQU_sequence_000549","trackDataPath":"ANNOCONFIDENCE/assay_numeric_usability_annotation.tsv","trackSchemaId":"assay_numeric_usability_annotation","supports1d":true,"supportsTable":true,"colorPolicyId":"rmdb_reactivity_low_mid_high_v1"},{"profileId":"data-eterna/data-eterna/OK6LIB_2A3_0000.rdat#6687","trackRouteId":"annojoin:track:RMDB2PDB:pairseg_4OQU_sequence_000550","trackDataPath":"ANNOCONFIDENCE/assay_numeric_usability_annotation.tsv","trackSchemaId":"assay_numeric_usability_annotation","supports1d":true,"supportsTable":true,"colorPolicyId":"rmdb_reactivity_low_mid_high_v1"},{"profileId":"data-eterna/data-eterna/OK45LIB_2A3_0000.rdat#4177","trackRouteId":"annojoin:track:RMDB2PDB:pairseg_4OQU_sequence_000551","trackDataPath":"ANNOCONFIDENCE/assay_numeric_usability_annotation.tsv","trackSchemaId":"assay_numeric_usability_annotation","supports1d":true,"supportsTable":true,"colorPolicyId":"rmdb_reactivity_low_mid_high_v1"},{"profileId":"data-eterna/data-eterna/OK45LIB_2A3_0000.rdat#2597","trackRouteId":"annojoin:track:RMDB2PDB:pairseg_4OQU_sequence_000552","trackDataPath":"ANNOCONFIDENCE/assay_numeric_usability_annotation.tsv","trackSchemaId":"assay_numeric_usability_annotation","supports1d":true,"supportsTable":true,"colorPolicyId":"rmdb_reactivity_low_mid_high_v1"},{"profileId":"data-eterna/data-eterna/OK45LIB_2A3_0000.rdat#3151","trackRouteId":"annojoin:track:RMDB2PDB:pairseg_4OQU_sequence_000553","trackDataPath":"ANNOCONFIDENCE/assay_numeric_usability_annotation.tsv","trackSchemaId":"assay_numeric_usability_annotation","supports1d":true,"supportsTable":true,"colorPolicyId":"rmdb_reactivity_low_mid_high_v1"},{"profileId":"data-eterna/data-eterna/OK45LIB_2A3_0000.rdat#4050","trackRouteId":"annojoin:track:RMDB2PDB:pairseg_4OQU_sequence_000554","trackDataPath":"ANNOCONFIDENCE/assay_numeric_usability_annotation.tsv","trackSchemaId":"assay_numeric_usability_annotation","supports1d":true,"supportsTable":true,"colorPolicyId":"rmdb_reactivity_low_mid_high_v1"},{"profileId":"data-eterna/data-eterna/OK6LIB_2A3_0000.rdat#3351","trackRouteId":"annojoin:track:RMDB2PDB:pairseg_4OQU_sequence_000555","trackDataPath":"ANNOCONFIDENCE/assay_numeric_usability_annotation.tsv","trackSchemaId":"assay_numeric_usability_annotation","supports1d":true,"supportsTable":true,"colorPolicyId":"rmdb_reactivity_low_mid_high_v1"},{"profileId":"data-eterna/data-eterna/OK6LIB_2A3_0000.rdat#4261","trackRouteId":"annojoin:track:RMDB2PDB:pairseg_4OQU_sequence_000556","trackDataPath":"ANNOCONFIDENCE/assay_numeric_usability_annotation.tsv","trackSchemaId":"assay_numeric_usability_annotation","supports1d":true,"supportsTable":true,"colorPolicyId":"rmdb_reactivity_low_mid_high_v1"},{"profileId":"data-eterna/data-eterna/OK6LIB_2A3_0000.rdat#5087","trackRouteId":"annojoin:track:RMDB2PDB:pairseg_4OQU_sequence_000557","trackDataPath":"ANNOCONFIDENCE/assay_numeric_usability_annotation.tsv","trackSchemaId":"assay_numeric_usability_annotation","supports1d":true,"supportsTable":true,"colorPolicyId":"rmdb_reactivity_low_mid_high_v1"},{"profileId":"data-eterna/data-eterna/OK6LIB_2A3_0000.rdat#6102","trackRouteId":"annojoin:track:RMDB2PDB:pairseg_4OQU_sequence_000558","trackDataPath":"ANNOCONFIDENCE/assay_numeric_usability_annotation.tsv","trackSchemaId":"assay_numeric_usability_annotation","supports1d":true,"supportsTable":true,"colorPolicyId":"rmdb_reactivity_low_mid_high_v1"},{"profileId":"data-eterna/data-eterna/OK45LIB_2A3_0000.rdat#1890","trackRouteId":"annojoin:track:RMDB2PDB:pairseg_4OQU_sequence_000559","trackDataPath":"ANNOCONFIDENCE/assay_numeric_usability_annotation.tsv","trackSchemaId":"assay_numeric_usability_annotation","supports1d":true,"supportsTable":true,"colorPolicyId":"rmdb_reactivity_low_mid_high_v1"},{"profileId":"data-eterna/data-eterna/OK6LIB_2A3_0000.rdat#1631","trackRouteId":"annojoin:track:RMDB2PDB:pairseg_4OQU_sequence_000560","trackDataPath":"ANNOCONFIDENCE/assay_numeric_usability_annotation.tsv","trackSchemaId":"assay_numeric_usability_annotation","supports1d":true,"supportsTable":true,"colorPolicyId":"rmdb_reactivity_low_mid_high_v1"},{"profileId":"data-eterna/data-eterna/OK6LIB_2A3_0000.rdat#6352","trackRouteId":"annojoin:track:RMDB2PDB:pairseg_4OQU_sequence_000561","trackDataPath":"ANNOCONFIDENCE/assay_numeric_usability_annotation.tsv","trackSchemaId":"assay_numeric_usability_annotation","supports1d":true,"supportsTable":true,"colorPolicyId":"rmdb_reactivity_low_mid_high_v1"},{"profileId":"data-eterna/data-eterna/OK6LIB_2A3_0000.rdat#754","trackRouteId":"annojoin:track:RMDB2PDB:pairseg_4OQU_sequence_000562","trackDataPath":"ANNOCONFIDENCE/assay_numeric_usability_annotation.tsv","trackSchemaId":"assay_numeric_usability_annotation","supports1d":true,"supportsTable":true,"colorPolicyId":"rmdb_reactivity_low_mid_high_v1"},{"profileId":"data-eterna/data-eterna/OK45LIB_2A3_0000.rdat#8072","trackRouteId":"annojoin:track:RMDB2PDB:pairseg_4OQU_sequence_000563","trackDataPath":"ANNOCONFIDENCE/assay_numeric_usability_annotation.tsv","trackSchemaId":"assay_numeric_usability_annotation","supports1d":true,"supportsTable":true,"colorPolicyId":"rmdb_reactivity_low_mid_high_v1"},{"profileId":"data-eterna/data-eterna/OK6LIB_2A3_0000.rdat#1923","trackRouteId":"annojoin:track:RMDB2PDB:pairseg_4OQU_sequence_000564","trackDataPath":"ANNOCONFIDENCE/assay_numeric_usability_annotation.tsv","trackSchemaId":"assay_numeric_usability_annotation","supports1d":true,"supportsTable":true,"colorPolicyId":"rmdb_reactivity_low_mid_high_v1"},{"profileId":"data-eterna/data-eterna/OK6LIB_2A3_0000.rdat#6714","trackRouteId":"annojoin:track:RMDB2PDB:pairseg_4OQU_sequence_000565","trackDataPath":"ANNOCONFIDENCE/assay_numeric_usability_annotation.tsv","trackSchemaId":"assay_numeric_usability_annotation","supports1d":true,"supportsTable":true,"colorPolicyId":"rmdb_reactivity_low_mid_high_v1"},{"profileId":"data-eterna/data-eterna/OK45LIB_2A3_0000.rdat#5810","trackRouteId":"annojoin:track:RMDB2PDB:pairseg_4OQU_sequence_000566","trackDataPath":"ANNOCONFIDENCE/assay_numeric_usability_annotation.tsv","trackSchemaId":"assay_numeric_usability_annotation","supports1d":true,"supportsTable":true,"colorPolicyId":"rmdb_reactivity_low_mid_high_v1"},{"profileId":"data-eterna/data-eterna/OK6LIB_2A3_0000.rdat#4485","trackRouteId":"annojoin:track:RMDB2PDB:pairseg_4OQU_sequence_000567","trackDataPath":"ANNOCONFIDENCE/assay_numeric_usability_annotation.tsv","trackSchemaId":"assay_numeric_usability_annotation","supports1d":true,"supportsTable":true,"colorPolicyId":"rmdb_reactivity_low_mid_high_v1"},{"profileId":"data-eterna/data-eterna/OK45LIB_2A3_0000.rdat#1979","trackRouteId":"annojoin:track:RMDB2PDB:pairseg_4OQU_sequence_000568","trackDataPath":"ANNOCONFIDENCE/assay_numeric_usability_annotation.tsv","trackSchemaId":"assay_numeric_usability_annotation","supports1d":true,"supportsTable":true,"colorPolicyId":"rmdb_reactivity_low_mid_high_v1"},{"profileId":"data-eterna/data-eterna/OK6LIB_2A3_0000.rdat#3924","trackRouteId":"annojoin:track:RMDB2PDB:pairseg_4OQU_sequence_000569","trackDataPath":"ANNOCONFIDENCE/assay_numeric_usability_annotation.tsv","trackSchemaId":"assay_numeric_usability_annotation","supports1d":true,"supportsTable":true,"colorPolicyId":"rmdb_reactivity_low_mid_high_v1"},{"profileId":"data-eterna/data-eterna/OK45LIB_2A3_0000.rdat#3706","trackRouteId":"annojoin:track:RMDB2PDB:pairseg_4OQU_sequence_000570","trackDataPath":"ANNOCONFIDENCE/assay_numeric_usability_annotation.tsv","trackSchemaId":"assay_numeric_usability_annotation","supports1d":true,"supportsTable":true,"colorPolicyId":"rmdb_reactivity_low_mid_high_v1"},{"profileId":"data-eterna/data-eterna/OK6LIB_2A3_0000.rdat#5131","trackRouteId":"annojoin:track:RMDB2PDB:pairseg_4OQU_sequence_000571","trackDataPath":"ANNOCONFIDENCE/assay_numeric_usability_annotation.tsv","trackSchemaId":"assay_numeric_usability_annotation","supports1d":true,"supportsTable":true,"colorPolicyId":"rmdb_reactivity_low_mid_high_v1"},{"profileId":"data-eterna/data-eterna/OK45LIB_2A3_0000.rdat#1432","trackRouteId":"annojoin:track:RMDB2PDB:pairseg_4OQU_sequence_000572","trackDataPath":"ANNOCONFIDENCE/assay_numeric_usability_annotation.tsv","trackSchemaId":"assay_numeric_usability_annotation","supports1d":true,"supportsTable":true,"colorPolicyId":"rmdb_reactivity_low_mid_high_v1"},{"profileId":"data-eterna/data-eterna/OK45LIB_2A3_0000.rdat#1114","trackRouteId":"annojoin:track:RMDB2PDB:pairseg_4OQU_sequence_000573","trackDataPath":"ANNOCONFIDENCE/assay_numeric_usability_annotation.tsv","trackSchemaId":"assay_numeric_usability_annotation","supports1d":true,"supportsTable":true,"colorPolicyId":"rmdb_reactivity_low_mid_high_v1"},{"profileId":"data-eterna/data-eterna/OK6LIB_2A3_0000.rdat#7840","trackRouteId":"annojoin:track:RMDB2PDB:pairseg_4OQU_sequence_000574","trackDataPath":"ANNOCONFIDENCE/assay_numeric_usability_annotation.tsv","trackSchemaId":"assay_numeric_usability_annotation","supports1d":true,"supportsTable":true,"colorPolicyId":"rmdb_reactivity_low_mid_high_v1"},{"profileId":"data-eterna/data-eterna/OK6LIB_2A3_0000.rdat#6062","trackRouteId":"annojoin:track:RMDB2PDB:pairseg_4OQU_sequence_000575","trackDataPath":"ANNOCONFIDENCE/assay_numeric_usability_annotation.tsv","trackSchemaId":"assay_numeric_usability_annotation","supports1d":true,"supportsTable":true,"colorPolicyId":"rmdb_reactivity_low_mid_high_v1"},{"profileId":"data-eterna/data-eterna/OK45LIB_2A3_0000.rdat#800","trackRouteId":"annojoin:track:RMDB2PDB:pairseg_4OQU_sequence_000576","trackDataPath":"ANNOCONFIDENCE/assay_numeric_usability_annotation.tsv","trackSchemaId":"assay_numeric_usability_annotation","supports1d":true,"supportsTable":true,"colorPolicyId":"rmdb_reactivity_low_mid_high_v1"},{"profileId":"data-eterna/data-eterna/OK6LIB_2A3_0000.rdat#4069","trackRouteId":"annojoin:track:RMDB2PDB:pairseg_4OQU_sequence_000577","trackDataPath":"ANNOCONFIDENCE/assay_numeric_usability_annotation.tsv","trackSchemaId":"assay_numeric_usability_annotation","supports1d":true,"supportsTable":true,"colorPolicyId":"rmdb_reactivity_low_mid_high_v1"},{"profileId":"data-eterna/data-eterna/OK6LIB_2A3_0000.rdat#7011","trackRouteId":"annojoin:track:RMDB2PDB:pairseg_4OQU_sequence_000578","trackDataPath":"ANNOCONFIDENCE/assay_numeric_usability_annotation.tsv","trackSchemaId":"assay_numeric_usability_annotation","supports1d":true,"supportsTable":true,"colorPolicyId":"rmdb_reactivity_low_mid_high_v1"},{"profileId":"data-eterna/data-eterna/OK6LIB_2A3_0000.rdat#3209","trackRouteId":"annojoin:track:RMDB2PDB:pairseg_4OQU_sequence_000579","trackDataPath":"ANNOCONFIDENCE/assay_numeric_usability_annotation.tsv","trackSchemaId":"assay_numeric_usability_annotation","supports1d":true,"supportsTable":true,"colorPolicyId":"rmdb_reactivity_low_mid_high_v1"},{"profileId":"data-eterna/data-eterna/OK6LIB_2A3_0000.rdat#5197","trackRouteId":"annojoin:track:RMDB2PDB:pairseg_4OQU_sequence_000580","trackDataPath":"ANNOCONFIDENCE/assay_numeric_usability_annotation.tsv","trackSchemaId":"assay_numeric_usability_annotation","supports1d":true,"supportsTable":true,"colorPolicyId":"rmdb_reactivity_low_mid_high_v1"}]}
