{"schemaVersion":"annojoin-atlas.v1","version":"V2.1_RMDB_LINE_A_20260617","atlasCaseKey":"RMDB2PDB:4P5J","caseId":"4P5J","routeKey":"pair-context-routes","page":2,"pageSize":500,"totalRows":519,"pageCount":2,"rows":[{"contextRouteId":"annojoin:2d:RMDB2PDB:pairseg_4P5J_sequence_000596","pairContextDataPath":"ANNOCONFIDENCE/lss_structure_context_annotation.tsv","pairContextSchemaId":"lss_structure_context_annotation","contextEngine":"FEC_V0_4_BETA_LSS","supportsPairArcView":true,"supportsDotBracketView":false,"supportsResidueHover":true,"routeAvailabilityStatus":"","blockerCode":"","blockerReason":""},{"contextRouteId":"annojoin:2d:RMDB2PDB:pairseg_4P5J_sequence_000597","pairContextDataPath":"ANNOCONFIDENCE/lss_structure_context_annotation.tsv","pairContextSchemaId":"lss_structure_context_annotation","contextEngine":"FEC_V0_4_BETA_LSS","supportsPairArcView":true,"supportsDotBracketView":false,"supportsResidueHover":true,"routeAvailabilityStatus":"","blockerCode":"","blockerReason":""},{"contextRouteId":"annojoin:2d:RMDB2PDB:pairseg_4P5J_sequence_000598","pairContextDataPath":"ANNOCONFIDENCE/lss_structure_context_annotation.tsv","pairContextSchemaId":"lss_structure_context_annotation","contextEngine":"FEC_V0_4_BETA_LSS","supportsPairArcView":true,"supportsDotBracketView":false,"supportsResidueHover":true,"routeAvailabilityStatus":"","blockerCode":"","blockerReason":""},{"contextRouteId":"annojoin:2d:RMDB2PDB:pairseg_4P5J_sequence_000599","pairContextDataPath":"ANNOCONFIDENCE/lss_structure_context_annotation.tsv","pairContextSchemaId":"lss_structure_context_annotation","contextEngine":"FEC_V0_4_BETA_LSS","supportsPairArcView":true,"supportsDotBracketView":false,"supportsResidueHover":true,"routeAvailabilityStatus":"","blockerCode":"","blockerReason":""},{"contextRouteId":"annojoin:2d:RMDB2PDB:pairseg_4P5J_sequence_000600","pairContextDataPath":"ANNOCONFIDENCE/lss_structure_context_annotation.tsv","pairContextSchemaId":"lss_structure_context_annotation","contextEngine":"FEC_V0_4_BETA_LSS","supportsPairArcView":true,"supportsDotBracketView":false,"supportsResidueHover":true,"routeAvailabilityStatus":"","blockerCode":"","blockerReason":""},{"contextRouteId":"annojoin:2d:RMDB2PDB:pairseg_4P5J_sequence_000602","pairContextDataPath":"ANNOCONFIDENCE/lss_structure_context_annotation.tsv","pairContextSchemaId":"lss_structure_context_annotation","contextEngine":"FEC_V0_4_BETA_LSS","supportsPairArcView":true,"supportsDotBracketView":false,"supportsResidueHover":true,"routeAvailabilityStatus":"","blockerCode":"","blockerReason":""},{"contextRouteId":"annojoin:2d:RMDB2PDB:pairseg_4P5J_sequence_000603","pairContextDataPath":"ANNOCONFIDENCE/lss_structure_context_annotation.tsv","pairContextSchemaId":"lss_structure_context_annotation","contextEngine":"FEC_V0_4_BETA_LSS","supportsPairArcView":true,"supportsDotBracketView":false,"supportsResidueHover":true,"routeAvailabilityStatus":"","blockerCode":"","blockerReason":""},{"contextRouteId":"annojoin:2d:RMDB2PDB:pairseg_4P5J_sequence_000604","pairContextDataPath":"ANNOCONFIDENCE/lss_structure_context_annotation.tsv","pairContextSchemaId":"lss_structure_context_annotation","contextEngine":"FEC_V0_4_BETA_LSS","supportsPairArcView":true,"supportsDotBracketView":false,"supportsResidueHover":true,"routeAvailabilityStatus":"","blockerCode":"","blockerReason":""},{"contextRouteId":"annojoin:2d:RMDB2PDB:pairseg_4P5J_sequence_000605","pairContextDataPath":"ANNOCONFIDENCE/lss_structure_context_annotation.tsv","pairContextSchemaId":"lss_structure_context_annotation","contextEngine":"FEC_V0_4_BETA_LSS","supportsPairArcView":true,"supportsDotBracketView":false,"supportsResidueHover":true,"routeAvailabilityStatus":"","blockerCode":"","blockerReason":""},{"contextRouteId":"annojoin:2d:RMDB2PDB:pairseg_4P5J_sequence_000606","pairContextDataPath":"ANNOCONFIDENCE/lss_structure_context_annotation.tsv","pairContextSchemaId":"lss_structure_context_annotation","contextEngine":"FEC_V0_4_BETA_LSS","supportsPairArcView":true,"supportsDotBracketView":false,"supportsResidueHover":true,"routeAvailabilityStatus":"","blockerCode":"","blockerReason":""},{"contextRouteId":"annojoin:2d:RMDB2PDB:pairseg_4P5J_sequence_000607","pairContextDataPath":"ANNOCONFIDENCE/lss_structure_context_annotation.tsv","pairContextSchemaId":"lss_structure_context_annotation","contextEngine":"FEC_V0_4_BETA_LSS","supportsPairArcView":true,"supportsDotBracketView":false,"supportsResidueHover":true,"routeAvailabilityStatus":"","blockerCode":"","blockerReason":""},{"contextRouteId":"annojoin:2d:RMDB2PDB:pairseg_4P5J_sequence_000608","pairContextDataPath":"ANNOCONFIDENCE/lss_structure_context_annotation.tsv","pairContextSchemaId":"lss_structure_context_annotation","contextEngine":"FEC_V0_4_BETA_LSS","supportsPairArcView":true,"supportsDotBracketView":false,"supportsResidueHover":true,"routeAvailabilityStatus":"","blockerCode":"","blockerReason":""},{"contextRouteId":"annojoin:2d:RMDB2PDB:pairseg_4P5J_sequence_000611","pairContextDataPath":"ANNOCONFIDENCE/lss_structure_context_annotation.tsv","pairContextSchemaId":"lss_structure_context_annotation","contextEngine":"FEC_V0_4_BETA_LSS","supportsPairArcView":true,"supportsDotBracketView":false,"supportsResidueHover":true,"routeAvailabilityStatus":"","blockerCode":"","blockerReason":""},{"contextRouteId":"annojoin:2d:RMDB2PDB:pairseg_4P5J_sequence_000612","pairContextDataPath":"ANNOCONFIDENCE/lss_structure_context_annotation.tsv","pairContextSchemaId":"lss_structure_context_annotation","contextEngine":"FEC_V0_4_BETA_LSS","supportsPairArcView":true,"supportsDotBracketView":false,"supportsResidueHover":true,"routeAvailabilityStatus":"","blockerCode":"","blockerReason":""},{"contextRouteId":"annojoin:2d:RMDB2PDB:pairseg_4P5J_sequence_000613","pairContextDataPath":"ANNOCONFIDENCE/lss_structure_context_annotation.tsv","pairContextSchemaId":"lss_structure_context_annotation","contextEngine":"FEC_V0_4_BETA_LSS","supportsPairArcView":true,"supportsDotBracketView":false,"supportsResidueHover":true,"routeAvailabilityStatus":"","blockerCode":"","blockerReason":""},{"contextRouteId":"annojoin:2d:RMDB2PDB:pairseg_4P5J_sequence_000617","pairContextDataPath":"ANNOCONFIDENCE/lss_structure_context_annotation.tsv","pairContextSchemaId":"lss_structure_context_annotation","contextEngine":"FEC_V0_4_BETA_LSS","supportsPairArcView":true,"supportsDotBracketView":false,"supportsResidueHover":true,"routeAvailabilityStatus":"","blockerCode":"","blockerReason":""},{"contextRouteId":"annojoin:2d:RMDB2PDB:pairseg_4P5J_sequence_000619","pairContextDataPath":"ANNOCONFIDENCE/lss_structure_context_annotation.tsv","pairContextSchemaId":"lss_structure_context_annotation","contextEngine":"FEC_V0_4_BETA_LSS","supportsPairArcView":true,"supportsDotBracketView":false,"supportsResidueHover":true,"routeAvailabilityStatus":"","blockerCode":"","blockerReason":""},{"contextRouteId":"annojoin:2d:RMDB2PDB:pairseg_4P5J_sequence_000625","pairContextDataPath":"ANNOCONFIDENCE/lss_structure_context_annotation.tsv","pairContextSchemaId":"lss_structure_context_annotation","contextEngine":"FEC_V0_4_BETA_LSS","supportsPairArcView":true,"supportsDotBracketView":false,"supportsResidueHover":true,"routeAvailabilityStatus":"","blockerCode":"","blockerReason":""},{"contextRouteId":"annojoin:2d:RMDB2PDB:pairseg_4P5J_sequence_000626","pairContextDataPath":"ANNOCONFIDENCE/lss_structure_context_annotation.tsv","pairContextSchemaId":"lss_structure_context_annotation","contextEngine":"FEC_V0_4_BETA_LSS","supportsPairArcView":true,"supportsDotBracketView":false,"supportsResidueHover":true,"routeAvailabilityStatus":"","blockerCode":"","blockerReason":""}]}
