{"schemaVersion":"annojoin-atlas.v1","version":"V2.1_RMDB_LINE_A_20260617","atlasCaseKey":"RMDB2PDB:8B2L","caseId":"8B2L","routeKey":"memberships","page":2,"pageSize":500,"totalRows":532,"pageCount":2,"rows":[{"pairId":"8B2L:sequence_000566","profileId":"rmdbv3_exact_c1cbb7aa05fa6604babaf07517b10569f9961054|top_x_279::seq_623b7505590cf93f|8B2L_A3","routeId":"annojoin:profiles:RMDB2PDB:8B2L"},{"pairId":"8B2L:sequence_000567","profileId":"rmdbv3_exact_d2b5cd6161d240ba92be3536c4bd1c842607a46c|top_x_279::seq_542b4b9a05e7873a|8B2L_A3","routeId":"annojoin:profiles:RMDB2PDB:8B2L"},{"pairId":"8B2L:sequence_000569","profileId":"rmdbv3_exact_daa183e12b1007327e1e5b4f7eda70e6dbad052b|top_x_279::seq_6b6074fd0ea28161|8B2L_A3","routeId":"annojoin:profiles:RMDB2PDB:8B2L"},{"pairId":"8B2L:sequence_000570","profileId":"rmdbv3_exact_daa183e12b1007327e1e5b4f7eda70e6dbad052b|top_x_279::seq_6e5caa379a55f908|8B2L_A3","routeId":"annojoin:profiles:RMDB2PDB:8B2L"},{"pairId":"8B2L:sequence_000571","profileId":"rmdbv3_exact_eb94c425be5a0e05fd5b9d3ea5df8a385a237bd5|top_x_279::seq_81d194dadfdd2ce1|8B2L_A3","routeId":"annojoin:profiles:RMDB2PDB:8B2L"},{"pairId":"8B2L:sequence_000572","profileId":"rmdbv3_exact_eb94c425be5a0e05fd5b9d3ea5df8a385a237bd5|top_x_279::seq_e2455ba6e1d7f864|8B2L_A3","routeId":"annojoin:profiles:RMDB2PDB:8B2L"},{"pairId":"8B2L:sequence_000573","profileId":"rmdbv3_exact_f247bfbb2ed2ddcf5e2bfec9141097a1e65dccd7|top_x_279::seq_9a6776560e9be710|8B2L_A3","routeId":"annojoin:profiles:RMDB2PDB:8B2L"},{"pairId":"8B2L:sequence_000574","profileId":"rmdbv3_exact_f247bfbb2ed2ddcf5e2bfec9141097a1e65dccd7|top_x_279::seq_b787dcc54c04c5dc|8B2L_A3","routeId":"annojoin:profiles:RMDB2PDB:8B2L"},{"pairId":"8B2L:sequence_000575","profileId":"rmdbv3_exact_d366f17e90c02def8378f812401416ca193187ef|top_x_279::seq_1b333f4062525349|8B2L_A3","routeId":"annojoin:profiles:RMDB2PDB:8B2L"},{"pairId":"8B2L:sequence_000576","profileId":"rmdbv3_exact_d366f17e90c02def8378f812401416ca193187ef|top_x_279::seq_9fc86f6d5715e137|8B2L_A3","routeId":"annojoin:profiles:RMDB2PDB:8B2L"},{"pairId":"8B2L:sequence_000577","profileId":"rmdbv3_exact_efb3d6dc926b73855eea285c4893133651155234|top_x_279::seq_a72b34cae3a66d2e|8B2L_h1","routeId":"annojoin:profiles:RMDB2PDB:8B2L"},{"pairId":"8B2L:sequence_000578","profileId":"rmdbv3_exact_efb3d6dc926b73855eea285c4893133651155234|top_x_279::seq_a8eb8010d212e211|8B2L_h1","routeId":"annojoin:profiles:RMDB2PDB:8B2L"},{"pairId":"8B2L:sequence_000579","profileId":"rmdbv3_exact_546c0e393fc34b02770874a8b08b49b9e0f3e57b|top_x_279::seq_e46b227d2e9dfe88|8B2L_A3","routeId":"annojoin:profiles:RMDB2PDB:8B2L"},{"pairId":"8B2L:sequence_000580","profileId":"rmdbv3_exact_546c0e393fc34b02770874a8b08b49b9e0f3e57b|top_x_279::seq_f67945bbdba8725b|8B2L_A3","routeId":"annojoin:profiles:RMDB2PDB:8B2L"},{"pairId":"8B2L:sequence_000581","profileId":"rmdbv3_exact_1a1b278ed1fc471cc184f1def0fac991edda6837|top_x_279::seq_3019ca7af2d422ae|8B2L_h1","routeId":"annojoin:profiles:RMDB2PDB:8B2L"},{"pairId":"8B2L:sequence_000582","profileId":"rmdbv3_exact_1a1b278ed1fc471cc184f1def0fac991edda6837|top_x_279::seq_9d2f128472d10585|8B2L_h1","routeId":"annojoin:profiles:RMDB2PDB:8B2L"},{"pairId":"8B2L:sequence_000583","profileId":"rmdbv3_exact_35ad678581b5103ed25eba79c34bf14b26e9fc94|top_x_279::seq_2a45cbd8ab62c777|8B2L_h1","routeId":"annojoin:profiles:RMDB2PDB:8B2L"},{"pairId":"8B2L:sequence_000584","profileId":"rmdbv3_exact_35ad678581b5103ed25eba79c34bf14b26e9fc94|top_x_279::seq_7d04258137c9f62f|8B2L_h1","routeId":"annojoin:profiles:RMDB2PDB:8B2L"},{"pairId":"8B2L:sequence_000587","profileId":"rmdbv3_exact_e9aec6f076d0c76f4d15800ec7cb71411d73f400|top_x_279::seq_70f87ea1544d677f|8B2L_h1","routeId":"annojoin:profiles:RMDB2PDB:8B2L"},{"pairId":"8B2L:sequence_000588","profileId":"rmdbv3_exact_e9aec6f076d0c76f4d15800ec7cb71411d73f400|top_x_279::seq_c91d2064106a79e6|8B2L_h1","routeId":"annojoin:profiles:RMDB2PDB:8B2L"},{"pairId":"8B2L:sequence_000589","profileId":"rmdbv3_exact_2b8fd5b2b637957996cbed0d1b503fcceafeb782|top_x_279::seq_13bdce6d3e616ad2|8B2L_h1","routeId":"annojoin:profiles:RMDB2PDB:8B2L"},{"pairId":"8B2L:sequence_000590","profileId":"rmdbv3_exact_2b8fd5b2b637957996cbed0d1b503fcceafeb782|top_x_279::seq_53c68c74dc41afa0|8B2L_h1","routeId":"annojoin:profiles:RMDB2PDB:8B2L"},{"pairId":"8B2L:sequence_000591","profileId":"rmdbv3_exact_32235480db2070a9890064c7f97d2d25cbee77d2|top_x_279::seq_6050addef20ac161|8B2L_h1","routeId":"annojoin:profiles:RMDB2PDB:8B2L"},{"pairId":"8B2L:sequence_000592","profileId":"rmdbv3_exact_32235480db2070a9890064c7f97d2d25cbee77d2|top_x_279::seq_71abbb476c88e662|8B2L_h1","routeId":"annojoin:profiles:RMDB2PDB:8B2L"},{"pairId":"8B2L:sequence_000593","profileId":"rmdbv3_exact_95af400670c818171956c66ee8119dee55b34193|top_x_279::seq_2ebe3fd69b3ff047|8B2L_A3","routeId":"annojoin:profiles:RMDB2PDB:8B2L"},{"pairId":"8B2L:sequence_000594","profileId":"rmdbv3_exact_95af400670c818171956c66ee8119dee55b34193|top_x_279::seq_4754b3d4a33c50a7|8B2L_A3","routeId":"annojoin:profiles:RMDB2PDB:8B2L"},{"pairId":"8B2L:sequence_000595","profileId":"rmdbv3_exact_5eb56a4ad0c5ac862a09858af0d1ceb52659a299|top_x_279::seq_b6e6f1e0bf4e1fa2|8B2L_A3","routeId":"annojoin:profiles:RMDB2PDB:8B2L"},{"pairId":"8B2L:sequence_000596","profileId":"rmdbv3_exact_5eb56a4ad0c5ac862a09858af0d1ceb52659a299|top_x_279::seq_b878d5311fee8568|8B2L_A3","routeId":"annojoin:profiles:RMDB2PDB:8B2L"},{"pairId":"8B2L:sequence_000597","profileId":"rmdbv3_exact_5eb56a4ad0c5ac862a09858af0d1ceb52659a299|top_x_279::seq_c71d169b39bb6275|8B2L_A3","routeId":"annojoin:profiles:RMDB2PDB:8B2L"},{"pairId":"8B2L:sequence_000598","profileId":"rmdbv3_exact_5eb56a4ad0c5ac862a09858af0d1ceb52659a299|top_x_279::seq_e35fac055b7bde10|8B2L_A3","routeId":"annojoin:profiles:RMDB2PDB:8B2L"},{"pairId":"8B2L:sequence_000599","profileId":"rmdbv3_exact_9a96d4d23212400e48b4526a507e351159cfe99e|top_x_279::seq_280e15be25a270a8|8B2L_A3","routeId":"annojoin:profiles:RMDB2PDB:8B2L"},{"pairId":"8B2L:sequence_000600","profileId":"rmdbv3_exact_9a96d4d23212400e48b4526a507e351159cfe99e|top_x_279::seq_2f9efc350d456de5|8B2L_A3","routeId":"annojoin:profiles:RMDB2PDB:8B2L"}]}
