{"schemaVersion":"annojoin-atlas.v1","version":"V2.1_RMDB_LINE_A_20260617","atlasCaseKey":"RMDB2PDB:9FBV","caseId":"9FBV","routeKey":"track-routes","page":3,"pageSize":500,"totalRows":1004,"pageCount":3,"rows":[{"profileId":"data-general/data-general/P90LIB_2A3_0000.rdat#1039","trackRouteId":"annojoin:track:RMDB2PDB:pairseg_9FBV_sequence_001155","trackDataPath":"ANNOCONFIDENCE/assay_numeric_usability_annotation.tsv","trackSchemaId":"assay_numeric_usability_annotation","supports1d":true,"supportsTable":true,"colorPolicyId":"rmdb_reactivity_low_mid_high_v1"},{"profileId":"data-general/data-general/P90LIB_2A3_0002.rdat#1039","trackRouteId":"annojoin:track:RMDB2PDB:pairseg_9FBV_sequence_001156","trackDataPath":"ANNOCONFIDENCE/assay_numeric_usability_annotation.tsv","trackSchemaId":"assay_numeric_usability_annotation","supports1d":true,"supportsTable":true,"colorPolicyId":"rmdb_reactivity_low_mid_high_v1"},{"profileId":"data-general/data-general/P90LIB_DMS_0000.rdat#1039","trackRouteId":"annojoin:track:RMDB2PDB:pairseg_9FBV_sequence_001157","trackDataPath":"ANNOCONFIDENCE/assay_numeric_usability_annotation.tsv","trackSchemaId":"assay_numeric_usability_annotation","supports1d":true,"supportsTable":true,"colorPolicyId":"rmdb_reactivity_low_mid_high_v1"},{"profileId":"data-general/data-general/P90LIB_2A3_0001.rdat#1039","trackRouteId":"annojoin:track:RMDB2PDB:pairseg_9FBV_sequence_001158","trackDataPath":"ANNOCONFIDENCE/assay_numeric_usability_annotation.tsv","trackSchemaId":"assay_numeric_usability_annotation","supports1d":true,"supportsTable":true,"colorPolicyId":"rmdb_reactivity_low_mid_high_v1"}]}
