{"schemaVersion":"annojoin-atlas.v1","version":"V2.1_RMDB_LINE_A_20260617","atlasCaseKey":"RMDB2PDB:9I78","caseId":"9I78","routeKey":"memberships","page":2,"pageSize":500,"totalRows":589,"pageCount":2,"rows":[{"pairId":"9I78:sequence_000510","profileId":"rmdbv3_exact_302ef2190fa13f1c565e02494bc74e58f73c2232|top_x_279::seq_7e3d86c95fa05d9d|9I78_L1","routeId":"annojoin:profiles:RMDB2PDB:9I78"},{"pairId":"9I78:sequence_000511","profileId":"rmdbv3_exact_302ef2190fa13f1c565e02494bc74e58f73c2232|top_x_279::seq_b9b9282c2dd6c473|9I78_L1","routeId":"annojoin:profiles:RMDB2PDB:9I78"},{"pairId":"9I78:sequence_000512","profileId":"rmdbv3_exact_302ef2190fa13f1c565e02494bc74e58f73c2232|top_x_279::seq_c65ec386eac4dc37|9I78_L1","routeId":"annojoin:profiles:RMDB2PDB:9I78"},{"pairId":"9I78:sequence_000513","profileId":"rmdbv3_exact_9b36e8406f4dabc20649f9f66a9398f2447bee6c|top_x_279::seq_156319ff795c5b10|9I78_L1","routeId":"annojoin:profiles:RMDB2PDB:9I78"},{"pairId":"9I78:sequence_000514","profileId":"rmdbv3_exact_9b36e8406f4dabc20649f9f66a9398f2447bee6c|top_x_279::seq_1fadf51f24f9639d|9I78_L1","routeId":"annojoin:profiles:RMDB2PDB:9I78"},{"pairId":"9I78:sequence_000515","profileId":"rmdbv3_exact_9b36e8406f4dabc20649f9f66a9398f2447bee6c|top_x_279::seq_adab5ef481e8f3cf|9I78_L1","routeId":"annojoin:profiles:RMDB2PDB:9I78"},{"pairId":"9I78:sequence_000516","profileId":"rmdbv3_exact_9b36e8406f4dabc20649f9f66a9398f2447bee6c|top_x_279::seq_f4d15a9f4d64cfcf|9I78_L1","routeId":"annojoin:profiles:RMDB2PDB:9I78"},{"pairId":"9I78:sequence_000517","profileId":"rmdbv3_exact_51dc405ea36650c6051da009ca566280587dcf63|top_x_279::seq_865ca849bf88a74a|9I78_L1","routeId":"annojoin:profiles:RMDB2PDB:9I78"},{"pairId":"9I78:sequence_000518","profileId":"rmdbv3_exact_51dc405ea36650c6051da009ca566280587dcf63|top_x_279::seq_89861579aa668dc1|9I78_L1","routeId":"annojoin:profiles:RMDB2PDB:9I78"},{"pairId":"9I78:sequence_000519","profileId":"rmdbv3_exact_51dc405ea36650c6051da009ca566280587dcf63|top_x_279::seq_af1dbd0b14302571|9I78_L1","routeId":"annojoin:profiles:RMDB2PDB:9I78"},{"pairId":"9I78:sequence_000520","profileId":"rmdbv3_exact_51dc405ea36650c6051da009ca566280587dcf63|top_x_279::seq_cdfa9944d1036df3|9I78_L1","routeId":"annojoin:profiles:RMDB2PDB:9I78"},{"pairId":"9I78:sequence_000521","profileId":"rmdbv3_exact_c43093b20830944d1b2ecf0167464bbcb88d5800|top_x_279::seq_582011ce0986287a|9I78_L1","routeId":"annojoin:profiles:RMDB2PDB:9I78"},{"pairId":"9I78:sequence_000522","profileId":"rmdbv3_exact_c43093b20830944d1b2ecf0167464bbcb88d5800|top_x_279::seq_852a004300c77a39|9I78_L1","routeId":"annojoin:profiles:RMDB2PDB:9I78"},{"pairId":"9I78:sequence_000523","profileId":"rmdbv3_exact_b95e869f18f91cfee8029e4b55a9bdb350b14424|top_x_279::seq_acd2086933473839|9I78_L1","routeId":"annojoin:profiles:RMDB2PDB:9I78"},{"pairId":"9I78:sequence_000524","profileId":"rmdbv3_exact_b95e869f18f91cfee8029e4b55a9bdb350b14424|top_x_279::seq_fde28216697a6bdc|9I78_L1","routeId":"annojoin:profiles:RMDB2PDB:9I78"},{"pairId":"9I78:sequence_000525","profileId":"rmdbv3_exact_1367adcc7f5775a528faae968191cfc81058c964|top_x_279::seq_094735e9f17d0db5|9I78_L1","routeId":"annojoin:profiles:RMDB2PDB:9I78"},{"pairId":"9I78:sequence_000526","profileId":"rmdbv3_exact_1367adcc7f5775a528faae968191cfc81058c964|top_x_279::seq_29f3ed6022a29f34|9I78_L1","routeId":"annojoin:profiles:RMDB2PDB:9I78"},{"pairId":"9I78:sequence_000527","profileId":"rmdbv3_exact_1367adcc7f5775a528faae968191cfc81058c964|top_x_279::seq_aaafbcf282526121|9I78_L1","routeId":"annojoin:profiles:RMDB2PDB:9I78"},{"pairId":"9I78:sequence_000528","profileId":"rmdbv3_exact_1367adcc7f5775a528faae968191cfc81058c964|top_x_279::seq_caedcf86c1a2bd2b|9I78_L1","routeId":"annojoin:profiles:RMDB2PDB:9I78"},{"pairId":"9I78:sequence_000529","profileId":"rmdbv3_exact_a6fc2ff85ad2cbfa86e67e2a8322017dbd26240a|top_x_279::seq_c9ed760ed57645e1|9I78_L1","routeId":"annojoin:profiles:RMDB2PDB:9I78"},{"pairId":"9I78:sequence_000530","profileId":"rmdbv3_exact_a6fc2ff85ad2cbfa86e67e2a8322017dbd26240a|top_x_279::seq_fcbd0034eac7b587|9I78_L1","routeId":"annojoin:profiles:RMDB2PDB:9I78"},{"pairId":"9I78:sequence_000531","profileId":"rmdbv3_exact_2379544de42d6a255666b6248d58c1ef9542e0cf|top_x_279::seq_9b8e544303535e79|9I78_L1","routeId":"annojoin:profiles:RMDB2PDB:9I78"},{"pairId":"9I78:sequence_000532","profileId":"rmdbv3_exact_2379544de42d6a255666b6248d58c1ef9542e0cf|top_x_279::seq_e97bc7bcc074fc51|9I78_L1","routeId":"annojoin:profiles:RMDB2PDB:9I78"},{"pairId":"9I78:sequence_000533","profileId":"rmdbv3_exact_d7c64b106c291144116c78e8f7bc2ad9c95b18df|top_x_279::seq_026a953d1bd8db3d|9I78_L1","routeId":"annojoin:profiles:RMDB2PDB:9I78"},{"pairId":"9I78:sequence_000534","profileId":"rmdbv3_exact_d7c64b106c291144116c78e8f7bc2ad9c95b18df|top_x_279::seq_26acb249aca44cb8|9I78_L1","routeId":"annojoin:profiles:RMDB2PDB:9I78"},{"pairId":"9I78:sequence_000535","profileId":"rmdbv3_exact_d7c64b106c291144116c78e8f7bc2ad9c95b18df|top_x_279::seq_362bc7fd23f008e2|9I78_L1","routeId":"annojoin:profiles:RMDB2PDB:9I78"},{"pairId":"9I78:sequence_000536","profileId":"rmdbv3_exact_d7c64b106c291144116c78e8f7bc2ad9c95b18df|top_x_279::seq_e4ad383b734a719f|9I78_L1","routeId":"annojoin:profiles:RMDB2PDB:9I78"},{"pairId":"9I78:sequence_000537","profileId":"rmdbv3_exact_49a09d8b9c1f0ed76913fc41035c9f420427ea17|top_x_279::seq_29f2810740e36526|9I78_L1","routeId":"annojoin:profiles:RMDB2PDB:9I78"},{"pairId":"9I78:sequence_000538","profileId":"rmdbv3_exact_49a09d8b9c1f0ed76913fc41035c9f420427ea17|top_x_279::seq_52c9aadf27756054|9I78_L1","routeId":"annojoin:profiles:RMDB2PDB:9I78"},{"pairId":"9I78:sequence_000539","profileId":"rmdbv3_exact_49a09d8b9c1f0ed76913fc41035c9f420427ea17|top_x_279::seq_976c8faa9a348920|9I78_L1","routeId":"annojoin:profiles:RMDB2PDB:9I78"},{"pairId":"9I78:sequence_000540","profileId":"rmdbv3_exact_49a09d8b9c1f0ed76913fc41035c9f420427ea17|top_x_279::seq_caa23a925e179a64|9I78_L1","routeId":"annojoin:profiles:RMDB2PDB:9I78"},{"pairId":"9I78:sequence_000541","profileId":"rmdbv3_exact_a27c15e1c2006d6ea402369e4c6aeae5b5aec4a5|top_x_279::seq_277430dc89b68ce9|9I78_L1","routeId":"annojoin:profiles:RMDB2PDB:9I78"},{"pairId":"9I78:sequence_000542","profileId":"rmdbv3_exact_a27c15e1c2006d6ea402369e4c6aeae5b5aec4a5|top_x_279::seq_88a6fc0afa10c892|9I78_L1","routeId":"annojoin:profiles:RMDB2PDB:9I78"},{"pairId":"9I78:sequence_000543","profileId":"rmdbv3_exact_04858ef2d29fde6bbdd1bd4f0987011eaaf9635d|top_x_279::seq_3bc2b393ee633be1|9I78_L1","routeId":"annojoin:profiles:RMDB2PDB:9I78"},{"pairId":"9I78:sequence_000544","profileId":"rmdbv3_exact_04858ef2d29fde6bbdd1bd4f0987011eaaf9635d|top_x_279::seq_8b147d5ce8405db9|9I78_L1","routeId":"annojoin:profiles:RMDB2PDB:9I78"},{"pairId":"9I78:sequence_000545","profileId":"rmdbv3_exact_408bd5a6ed6362f2b6a296c4d1e0fdc8baf9330c|top_x_279::seq_521c76f29c067ed6|9I78_L1","routeId":"annojoin:profiles:RMDB2PDB:9I78"},{"pairId":"9I78:sequence_000546","profileId":"rmdbv3_exact_408bd5a6ed6362f2b6a296c4d1e0fdc8baf9330c|top_x_279::seq_c91f2800151ea3d5|9I78_L1","routeId":"annojoin:profiles:RMDB2PDB:9I78"},{"pairId":"9I78:sequence_000547","profileId":"rmdbv3_exact_8a6ef88d4208708e79870e92ceecdef7802b7c51|top_x_279::seq_3e41a7e563aa9e80|9I78_L1","routeId":"annojoin:profiles:RMDB2PDB:9I78"},{"pairId":"9I78:sequence_000548","profileId":"rmdbv3_exact_8a6ef88d4208708e79870e92ceecdef7802b7c51|top_x_279::seq_78a378aaed62488d|9I78_L1","routeId":"annojoin:profiles:RMDB2PDB:9I78"},{"pairId":"9I78:sequence_000549","profileId":"rmdbv3_exact_8a6ef88d4208708e79870e92ceecdef7802b7c51|top_x_279::seq_7c0d97060f7d6f52|9I78_L1","routeId":"annojoin:profiles:RMDB2PDB:9I78"},{"pairId":"9I78:sequence_000550","profileId":"rmdbv3_exact_8a6ef88d4208708e79870e92ceecdef7802b7c51|top_x_279::seq_e2ce80b853e13e99|9I78_L1","routeId":"annojoin:profiles:RMDB2PDB:9I78"},{"pairId":"9I78:sequence_000551","profileId":"rmdbv3_exact_40196cea8162e9a1b47c361ab713f8b1ee06c444|top_x_279::seq_1eeabda04887183e|9I78_L1","routeId":"annojoin:profiles:RMDB2PDB:9I78"},{"pairId":"9I78:sequence_000552","profileId":"rmdbv3_exact_40196cea8162e9a1b47c361ab713f8b1ee06c444|top_x_279::seq_7b19f88e04a5758d|9I78_L1","routeId":"annojoin:profiles:RMDB2PDB:9I78"},{"pairId":"9I78:sequence_000553","profileId":"rmdbv3_exact_7bd26f2d97daba80ff510f7bd644be5bb551bb0b|top_x_279::seq_8f1c784059a15d4c|9I78_L1","routeId":"annojoin:profiles:RMDB2PDB:9I78"},{"pairId":"9I78:sequence_000554","profileId":"rmdbv3_exact_7bd26f2d97daba80ff510f7bd644be5bb551bb0b|top_x_279::seq_b9abce5ce3f7e217|9I78_L1","routeId":"annojoin:profiles:RMDB2PDB:9I78"},{"pairId":"9I78:sequence_000555","profileId":"rmdbv3_exact_7bd26f2d97daba80ff510f7bd644be5bb551bb0b|top_x_279::seq_e90c0cd6787ff01c|9I78_L1","routeId":"annojoin:profiles:RMDB2PDB:9I78"},{"pairId":"9I78:sequence_000556","profileId":"rmdbv3_exact_7bd26f2d97daba80ff510f7bd644be5bb551bb0b|top_x_279::seq_ecf7ef6c316c8649|9I78_L1","routeId":"annojoin:profiles:RMDB2PDB:9I78"},{"pairId":"9I78:sequence_000557","profileId":"rmdbv3_exact_97d97347dbd7ebe7a90e867d640949005ffd6751|top_x_279::seq_2506f6cf7e5daf77|9I78_L1","routeId":"annojoin:profiles:RMDB2PDB:9I78"},{"pairId":"9I78:sequence_000558","profileId":"rmdbv3_exact_97d97347dbd7ebe7a90e867d640949005ffd6751|top_x_279::seq_a5c871e8c069ca46|9I78_L1","routeId":"annojoin:profiles:RMDB2PDB:9I78"},{"pairId":"9I78:sequence_000559","profileId":"rmdbv3_exact_97d97347dbd7ebe7a90e867d640949005ffd6751|top_x_279::seq_d89ad638f42a51bb|9I78_L1","routeId":"annojoin:profiles:RMDB2PDB:9I78"},{"pairId":"9I78:sequence_000560","profileId":"rmdbv3_exact_97d97347dbd7ebe7a90e867d640949005ffd6751|top_x_279::seq_e6e81a4cea7d1aa7|9I78_L1","routeId":"annojoin:profiles:RMDB2PDB:9I78"},{"pairId":"9I78:sequence_000561","profileId":"rmdbv3_exact_7150ed2ec96415ca331d40f263d0e0a8d3deb230|top_x_279::seq_25c42ce4ba4ace03|9I78_L1","routeId":"annojoin:profiles:RMDB2PDB:9I78"},{"pairId":"9I78:sequence_000562","profileId":"rmdbv3_exact_7150ed2ec96415ca331d40f263d0e0a8d3deb230|top_x_279::seq_be2652eecf312844|9I78_L1","routeId":"annojoin:profiles:RMDB2PDB:9I78"},{"pairId":"9I78:sequence_000563","profileId":"rmdbv3_exact_d0da7f64d0de5b8304dd77e86d08b77dad88ac49|top_x_279::seq_0602d26f8b5cfb43|9I78_L1","routeId":"annojoin:profiles:RMDB2PDB:9I78"},{"pairId":"9I78:sequence_000564","profileId":"rmdbv3_exact_d0da7f64d0de5b8304dd77e86d08b77dad88ac49|top_x_279::seq_2c91325d323436f3|9I78_L1","routeId":"annojoin:profiles:RMDB2PDB:9I78"},{"pairId":"9I78:sequence_000565","profileId":"rmdbv3_exact_d0da7f64d0de5b8304dd77e86d08b77dad88ac49|top_x_279::seq_66681c3bebd5ac27|9I78_L1","routeId":"annojoin:profiles:RMDB2PDB:9I78"},{"pairId":"9I78:sequence_000566","profileId":"rmdbv3_exact_d0da7f64d0de5b8304dd77e86d08b77dad88ac49|top_x_279::seq_bf008056d40944eb|9I78_L1","routeId":"annojoin:profiles:RMDB2PDB:9I78"},{"pairId":"9I78:sequence_000567","profileId":"rmdbv3_exact_5803c910f96f107c23501ab3effb7e7ebc11eb58|top_x_279::seq_1ed46386681294e8|9I78_L1","routeId":"annojoin:profiles:RMDB2PDB:9I78"},{"pairId":"9I78:sequence_000568","profileId":"rmdbv3_exact_5803c910f96f107c23501ab3effb7e7ebc11eb58|top_x_279::seq_dbf6746ae67a1301|9I78_L1","routeId":"annojoin:profiles:RMDB2PDB:9I78"},{"pairId":"9I78:sequence_000569","profileId":"rmdbv3_exact_90313d97161c2930301e9e1b7c3f620bfd406a70|top_x_279::seq_5545fb25cecbd876|9I78_L1","routeId":"annojoin:profiles:RMDB2PDB:9I78"},{"pairId":"9I78:sequence_000570","profileId":"rmdbv3_exact_90313d97161c2930301e9e1b7c3f620bfd406a70|top_x_279::seq_95b441a77cb7d3f5|9I78_L1","routeId":"annojoin:profiles:RMDB2PDB:9I78"},{"pairId":"9I78:sequence_000571","profileId":"rmdbv3_exact_90313d97161c2930301e9e1b7c3f620bfd406a70|top_x_279::seq_a8e438d2c85f42f8|9I78_L1","routeId":"annojoin:profiles:RMDB2PDB:9I78"},{"pairId":"9I78:sequence_000572","profileId":"rmdbv3_exact_90313d97161c2930301e9e1b7c3f620bfd406a70|top_x_279::seq_b1a24afad810bff6|9I78_L1","routeId":"annojoin:profiles:RMDB2PDB:9I78"},{"pairId":"9I78:sequence_000573","profileId":"rmdbv3_exact_327c712773f760f35c34cbb75698b06f7e10c572|top_x_279::seq_90871636097da3b1|9I78_L1","routeId":"annojoin:profiles:RMDB2PDB:9I78"},{"pairId":"9I78:sequence_000574","profileId":"rmdbv3_exact_327c712773f760f35c34cbb75698b06f7e10c572|top_x_279::seq_eb2dbf151c0d7f7d|9I78_L1","routeId":"annojoin:profiles:RMDB2PDB:9I78"},{"pairId":"9I78:sequence_000575","profileId":"rmdbv3_exact_6eb42b4551b609db955ef113bace0dc966b6fe56|top_x_279::seq_0cd3f0a17422ab25|9I78_L1","routeId":"annojoin:profiles:RMDB2PDB:9I78"},{"pairId":"9I78:sequence_000576","profileId":"rmdbv3_exact_6eb42b4551b609db955ef113bace0dc966b6fe56|top_x_279::seq_74934a15f7c6302a|9I78_L1","routeId":"annojoin:profiles:RMDB2PDB:9I78"},{"pairId":"9I78:sequence_000577","profileId":"rmdbv3_exact_6eb42b4551b609db955ef113bace0dc966b6fe56|top_x_279::seq_8b1523dc9a303806|9I78_L1","routeId":"annojoin:profiles:RMDB2PDB:9I78"},{"pairId":"9I78:sequence_000578","profileId":"rmdbv3_exact_6eb42b4551b609db955ef113bace0dc966b6fe56|top_x_279::seq_df6128cbd47e0be7|9I78_L1","routeId":"annojoin:profiles:RMDB2PDB:9I78"},{"pairId":"9I78:sequence_000579","profileId":"rmdbv3_exact_f901d663fcb04158313c84dc1c7e5856549836fd|top_x_279::seq_59aec7e9d268e7fb|9I78_L1","routeId":"annojoin:profiles:RMDB2PDB:9I78"},{"pairId":"9I78:sequence_000580","profileId":"rmdbv3_exact_f901d663fcb04158313c84dc1c7e5856549836fd|top_x_279::seq_855d15f8fa3639db|9I78_L1","routeId":"annojoin:profiles:RMDB2PDB:9I78"},{"pairId":"9I78:sequence_000581","profileId":"rmdbv3_exact_52794b9126b7650ef818c81bfec3a4260f54ba87|top_x_279::seq_74b92acb2e5b85b6|9I78_L1","routeId":"annojoin:profiles:RMDB2PDB:9I78"},{"pairId":"9I78:sequence_000582","profileId":"rmdbv3_exact_52794b9126b7650ef818c81bfec3a4260f54ba87|top_x_279::seq_9aeaddeac10a3f65|9I78_L1","routeId":"annojoin:profiles:RMDB2PDB:9I78"},{"pairId":"9I78:sequence_000583","profileId":"rmdbv3_exact_6f79504a3894465969f71f47b0ec4c4693361f54|top_x_279::seq_192661432ae7d184|9I78_L1","routeId":"annojoin:profiles:RMDB2PDB:9I78"},{"pairId":"9I78:sequence_000584","profileId":"rmdbv3_exact_6f79504a3894465969f71f47b0ec4c4693361f54|top_x_279::seq_6bdbb9f6dceb866f|9I78_L1","routeId":"annojoin:profiles:RMDB2PDB:9I78"},{"pairId":"9I78:sequence_000585","profileId":"rmdbv3_exact_6f79504a3894465969f71f47b0ec4c4693361f54|top_x_279::seq_fd0435c513594243|9I78_L1","routeId":"annojoin:profiles:RMDB2PDB:9I78"},{"pairId":"9I78:sequence_000586","profileId":"rmdbv3_exact_6f79504a3894465969f71f47b0ec4c4693361f54|top_x_279::seq_fd4ef5355a8b9326|9I78_L1","routeId":"annojoin:profiles:RMDB2PDB:9I78"},{"pairId":"9I78:sequence_000587","profileId":"rmdbv3_exact_834372b59ef7b9ae2f8e62e367782479d51d6dd5|top_x_279::seq_634cdc59f2547200|9I78_L1","routeId":"annojoin:profiles:RMDB2PDB:9I78"},{"pairId":"9I78:sequence_000588","profileId":"rmdbv3_exact_834372b59ef7b9ae2f8e62e367782479d51d6dd5|top_x_279::seq_a98dfed7402e8005|9I78_L1","routeId":"annojoin:profiles:RMDB2PDB:9I78"},{"pairId":"9I78:sequence_000589","profileId":"rmdbv3_exact_249abfa5b709a0791040c912d6fbd8ee90be0c24|top_x_279::seq_67f99236182cc6e2|9I78_L1","routeId":"annojoin:profiles:RMDB2PDB:9I78"},{"pairId":"9I78:sequence_000590","profileId":"rmdbv3_exact_249abfa5b709a0791040c912d6fbd8ee90be0c24|top_x_279::seq_9896cb203b7f1252|9I78_L1","routeId":"annojoin:profiles:RMDB2PDB:9I78"},{"pairId":"9I78:sequence_000591","profileId":"rmdbv3_exact_249abfa5b709a0791040c912d6fbd8ee90be0c24|top_x_279::seq_cc3db02f7f21d4e4|9I78_L1","routeId":"annojoin:profiles:RMDB2PDB:9I78"},{"pairId":"9I78:sequence_000592","profileId":"rmdbv3_exact_249abfa5b709a0791040c912d6fbd8ee90be0c24|top_x_279::seq_d17c6d652d8ec800|9I78_L1","routeId":"annojoin:profiles:RMDB2PDB:9I78"},{"pairId":"9I78:sequence_000593","profileId":"rmdbv3_exact_d3ba4648e26ba57cac58150de7a7f3371da62383|top_x_279::seq_0f7ae7b28c982154|9I78_L1","routeId":"annojoin:profiles:RMDB2PDB:9I78"},{"pairId":"9I78:sequence_000594","profileId":"rmdbv3_exact_d3ba4648e26ba57cac58150de7a7f3371da62383|top_x_279::seq_21cd566cc8cb50e5|9I78_L1","routeId":"annojoin:profiles:RMDB2PDB:9I78"},{"pairId":"9I78:sequence_000595","profileId":"rmdbv3_exact_d3ba4648e26ba57cac58150de7a7f3371da62383|top_x_279::seq_e493dfd52dbb25a2|9I78_L1","routeId":"annojoin:profiles:RMDB2PDB:9I78"},{"pairId":"9I78:sequence_000596","profileId":"rmdbv3_exact_d3ba4648e26ba57cac58150de7a7f3371da62383|top_x_279::seq_fcddeb2f45d66aeb|9I78_L1","routeId":"annojoin:profiles:RMDB2PDB:9I78"},{"pairId":"9I78:sequence_000597","profileId":"rmdbv3_exact_de9c429317c324622a80a3713b8af9fa428515a6|top_x_279::seq_a691fa5b4711d499|9I78_L1","routeId":"annojoin:profiles:RMDB2PDB:9I78"},{"pairId":"9I78:sequence_000598","profileId":"rmdbv3_exact_de9c429317c324622a80a3713b8af9fa428515a6|top_x_279::seq_be1a9e4af772d372|9I78_L1","routeId":"annojoin:profiles:RMDB2PDB:9I78"}]}
