{"schemaVersion":"annojoin-atlas.v1","version":"V2.1_RMDB_LINE_A_20260617","atlasCaseKey":"RMDB2PDB:9P4I","caseId":"9P4I","routeKey":"conflicts","page":7,"pageSize":500,"totalRows":3067,"pageCount":7,"rows":[{"id":"RMDB2PDB|conflict|pairseg_9P4I_sequence_003078","routeId":"annojoin:conflict:RMDB2PDB:pairseg_9P4I_sequence_003078","type":"structure_signal_discordance_candidate","status":"none_detected","fecClaimCeiling":"","claimScope":"","lssStatus":"LSS_NOT_EVALUABLE","reviewPriorityHint":"no_conflict_review_priority"},{"id":"RMDB2PDB|conflict|pairseg_9P4I_sequence_003079","routeId":"annojoin:conflict:RMDB2PDB:pairseg_9P4I_sequence_003079","type":"structure_signal_discordance_candidate","status":"none_detected","fecClaimCeiling":"","claimScope":"","lssStatus":"LSS_NOT_EVALUABLE","reviewPriorityHint":"no_conflict_review_priority"},{"id":"RMDB2PDB|conflict|pairseg_9P4I_sequence_003080","routeId":"annojoin:conflict:RMDB2PDB:pairseg_9P4I_sequence_003080","type":"structure_signal_discordance_candidate","status":"none_detected","fecClaimCeiling":"","claimScope":"","lssStatus":"LSS_NOT_EVALUABLE","reviewPriorityHint":"no_conflict_review_priority"},{"id":"RMDB2PDB|conflict|pairseg_9P4I_sequence_003081","routeId":"annojoin:conflict:RMDB2PDB:pairseg_9P4I_sequence_003081","type":"structure_signal_discordance_candidate","status":"none_detected","fecClaimCeiling":"","claimScope":"","lssStatus":"LSS_NOT_EVALUABLE","reviewPriorityHint":"no_conflict_review_priority"},{"id":"RMDB2PDB|conflict|pairseg_9P4I_sequence_003082","routeId":"annojoin:conflict:RMDB2PDB:pairseg_9P4I_sequence_003082","type":"structure_signal_discordance_candidate","status":"none_detected","fecClaimCeiling":"","claimScope":"","lssStatus":"LSS_NOT_EVALUABLE","reviewPriorityHint":"no_conflict_review_priority"},{"id":"RMDB2PDB|conflict|pairseg_9P4I_sequence_003083","routeId":"annojoin:conflict:RMDB2PDB:pairseg_9P4I_sequence_003083","type":"structure_signal_discordance_candidate","status":"none_detected","fecClaimCeiling":"","claimScope":"","lssStatus":"LSS_NOT_EVALUABLE","reviewPriorityHint":"no_conflict_review_priority"},{"id":"RMDB2PDB|conflict|pairseg_9P4I_sequence_003084","routeId":"annojoin:conflict:RMDB2PDB:pairseg_9P4I_sequence_003084","type":"structure_signal_discordance_candidate","status":"none_detected","fecClaimCeiling":"","claimScope":"","lssStatus":"LSS_NOT_EVALUABLE","reviewPriorityHint":"no_conflict_review_priority"},{"id":"RMDB2PDB|conflict|pairseg_9P4I_sequence_003085","routeId":"annojoin:conflict:RMDB2PDB:pairseg_9P4I_sequence_003085","type":"structure_signal_discordance_candidate","status":"none_detected","fecClaimCeiling":"","claimScope":"","lssStatus":"LSS_NOT_EVALUABLE","reviewPriorityHint":"no_conflict_review_priority"},{"id":"RMDB2PDB|conflict|pairseg_9P4I_sequence_003086","routeId":"annojoin:conflict:RMDB2PDB:pairseg_9P4I_sequence_003086","type":"structure_signal_discordance_candidate","status":"none_detected","fecClaimCeiling":"","claimScope":"","lssStatus":"LSS_NOT_EVALUABLE","reviewPriorityHint":"no_conflict_review_priority"},{"id":"RMDB2PDB|conflict|pairseg_9P4I_sequence_003087","routeId":"annojoin:conflict:RMDB2PDB:pairseg_9P4I_sequence_003087","type":"structure_signal_discordance_candidate","status":"none_detected","fecClaimCeiling":"","claimScope":"","lssStatus":"LSS_NOT_EVALUABLE","reviewPriorityHint":"no_conflict_review_priority"},{"id":"RMDB2PDB|conflict|pairseg_9P4I_sequence_003088","routeId":"annojoin:conflict:RMDB2PDB:pairseg_9P4I_sequence_003088","type":"structure_signal_discordance_candidate","status":"none_detected","fecClaimCeiling":"","claimScope":"","lssStatus":"LSS_NOT_EVALUABLE","reviewPriorityHint":"no_conflict_review_priority"},{"id":"RMDB2PDB|conflict|pairseg_9P4I_sequence_003089","routeId":"annojoin:conflict:RMDB2PDB:pairseg_9P4I_sequence_003089","type":"structure_signal_discordance_candidate","status":"none_detected","fecClaimCeiling":"","claimScope":"","lssStatus":"LSS_NOT_EVALUABLE","reviewPriorityHint":"no_conflict_review_priority"},{"id":"RMDB2PDB|conflict|pairseg_9P4I_sequence_003090","routeId":"annojoin:conflict:RMDB2PDB:pairseg_9P4I_sequence_003090","type":"structure_signal_discordance_candidate","status":"none_detected","fecClaimCeiling":"","claimScope":"","lssStatus":"LSS_NOT_EVALUABLE","reviewPriorityHint":"no_conflict_review_priority"},{"id":"RMDB2PDB|conflict|pairseg_9P4I_sequence_003091","routeId":"annojoin:conflict:RMDB2PDB:pairseg_9P4I_sequence_003091","type":"structure_signal_discordance_candidate","status":"none_detected","fecClaimCeiling":"","claimScope":"","lssStatus":"LSS_NOT_EVALUABLE","reviewPriorityHint":"no_conflict_review_priority"},{"id":"RMDB2PDB|conflict|pairseg_9P4I_sequence_003092","routeId":"annojoin:conflict:RMDB2PDB:pairseg_9P4I_sequence_003092","type":"structure_signal_discordance_candidate","status":"none_detected","fecClaimCeiling":"","claimScope":"","lssStatus":"LSS_NOT_EVALUABLE","reviewPriorityHint":"no_conflict_review_priority"},{"id":"RMDB2PDB|conflict|pairseg_9P4I_sequence_003093","routeId":"annojoin:conflict:RMDB2PDB:pairseg_9P4I_sequence_003093","type":"structure_signal_discordance_candidate","status":"none_detected","fecClaimCeiling":"","claimScope":"","lssStatus":"LSS_NOT_EVALUABLE","reviewPriorityHint":"no_conflict_review_priority"},{"id":"RMDB2PDB|conflict|pairseg_9P4I_sequence_003094","routeId":"annojoin:conflict:RMDB2PDB:pairseg_9P4I_sequence_003094","type":"structure_signal_discordance_candidate","status":"none_detected","fecClaimCeiling":"","claimScope":"","lssStatus":"LSS_NOT_EVALUABLE","reviewPriorityHint":"no_conflict_review_priority"},{"id":"RMDB2PDB|conflict|pairseg_9P4I_sequence_003095","routeId":"annojoin:conflict:RMDB2PDB:pairseg_9P4I_sequence_003095","type":"structure_signal_discordance_candidate","status":"none_detected","fecClaimCeiling":"","claimScope":"","lssStatus":"LSS_NOT_EVALUABLE","reviewPriorityHint":"no_conflict_review_priority"},{"id":"RMDB2PDB|conflict|pairseg_9P4I_sequence_003096","routeId":"annojoin:conflict:RMDB2PDB:pairseg_9P4I_sequence_003096","type":"structure_signal_discordance_candidate","status":"none_detected","fecClaimCeiling":"","claimScope":"","lssStatus":"LSS_NOT_EVALUABLE","reviewPriorityHint":"no_conflict_review_priority"},{"id":"RMDB2PDB|conflict|pairseg_9P4I_sequence_003097","routeId":"annojoin:conflict:RMDB2PDB:pairseg_9P4I_sequence_003097","type":"structure_signal_discordance_candidate","status":"none_detected","fecClaimCeiling":"","claimScope":"","lssStatus":"LSS_NOT_EVALUABLE","reviewPriorityHint":"no_conflict_review_priority"},{"id":"RMDB2PDB|conflict|pairseg_9P4I_sequence_003098","routeId":"annojoin:conflict:RMDB2PDB:pairseg_9P4I_sequence_003098","type":"structure_signal_discordance_candidate","status":"none_detected","fecClaimCeiling":"","claimScope":"","lssStatus":"LSS_NOT_EVALUABLE","reviewPriorityHint":"no_conflict_review_priority"},{"id":"RMDB2PDB|conflict|pairseg_9P4I_sequence_003099","routeId":"annojoin:conflict:RMDB2PDB:pairseg_9P4I_sequence_003099","type":"structure_signal_discordance_candidate","status":"none_detected","fecClaimCeiling":"","claimScope":"","lssStatus":"LSS_NOT_EVALUABLE","reviewPriorityHint":"no_conflict_review_priority"},{"id":"RMDB2PDB|conflict|pairseg_9P4I_sequence_003100","routeId":"annojoin:conflict:RMDB2PDB:pairseg_9P4I_sequence_003100","type":"structure_signal_discordance_candidate","status":"none_detected","fecClaimCeiling":"","claimScope":"","lssStatus":"LSS_NOT_EVALUABLE","reviewPriorityHint":"no_conflict_review_priority"},{"id":"RMDB2PDB|conflict|pairseg_9P4I_sequence_003101","routeId":"annojoin:conflict:RMDB2PDB:pairseg_9P4I_sequence_003101","type":"structure_signal_discordance_candidate","status":"none_detected","fecClaimCeiling":"","claimScope":"","lssStatus":"LSS_NOT_EVALUABLE","reviewPriorityHint":"no_conflict_review_priority"},{"id":"RMDB2PDB|conflict|pairseg_9P4I_sequence_003102","routeId":"annojoin:conflict:RMDB2PDB:pairseg_9P4I_sequence_003102","type":"structure_signal_discordance_candidate","status":"none_detected","fecClaimCeiling":"","claimScope":"","lssStatus":"LSS_NOT_EVALUABLE","reviewPriorityHint":"no_conflict_review_priority"},{"id":"RMDB2PDB|conflict|pairseg_9P4I_sequence_003103","routeId":"annojoin:conflict:RMDB2PDB:pairseg_9P4I_sequence_003103","type":"structure_signal_discordance_candidate","status":"none_detected","fecClaimCeiling":"","claimScope":"","lssStatus":"LSS_NOT_EVALUABLE","reviewPriorityHint":"no_conflict_review_priority"},{"id":"RMDB2PDB|conflict|pairseg_9P4I_sequence_003104","routeId":"annojoin:conflict:RMDB2PDB:pairseg_9P4I_sequence_003104","type":"structure_signal_discordance_candidate","status":"none_detected","fecClaimCeiling":"","claimScope":"","lssStatus":"LSS_NOT_EVALUABLE","reviewPriorityHint":"no_conflict_review_priority"},{"id":"RMDB2PDB|conflict|pairseg_9P4I_sequence_003105","routeId":"annojoin:conflict:RMDB2PDB:pairseg_9P4I_sequence_003105","type":"structure_signal_discordance_candidate","status":"none_detected","fecClaimCeiling":"","claimScope":"","lssStatus":"LSS_NOT_EVALUABLE","reviewPriorityHint":"no_conflict_review_priority"},{"id":"RMDB2PDB|conflict|pairseg_9P4I_sequence_003106","routeId":"annojoin:conflict:RMDB2PDB:pairseg_9P4I_sequence_003106","type":"structure_signal_discordance_candidate","status":"none_detected","fecClaimCeiling":"","claimScope":"","lssStatus":"LSS_NOT_EVALUABLE","reviewPriorityHint":"no_conflict_review_priority"},{"id":"RMDB2PDB|conflict|pairseg_9P4I_sequence_003107","routeId":"annojoin:conflict:RMDB2PDB:pairseg_9P4I_sequence_003107","type":"structure_signal_discordance_candidate","status":"none_detected","fecClaimCeiling":"","claimScope":"","lssStatus":"LSS_NOT_EVALUABLE","reviewPriorityHint":"no_conflict_review_priority"},{"id":"RMDB2PDB|conflict|pairseg_9P4I_sequence_003108","routeId":"annojoin:conflict:RMDB2PDB:pairseg_9P4I_sequence_003108","type":"structure_signal_discordance_candidate","status":"none_detected","fecClaimCeiling":"","claimScope":"","lssStatus":"LSS_NOT_EVALUABLE","reviewPriorityHint":"no_conflict_review_priority"},{"id":"RMDB2PDB|conflict|pairseg_9P4I_sequence_003109","routeId":"annojoin:conflict:RMDB2PDB:pairseg_9P4I_sequence_003109","type":"structure_signal_discordance_candidate","status":"none_detected","fecClaimCeiling":"","claimScope":"","lssStatus":"LSS_NOT_EVALUABLE","reviewPriorityHint":"no_conflict_review_priority"},{"id":"RMDB2PDB|conflict|pairseg_9P4I_sequence_003110","routeId":"annojoin:conflict:RMDB2PDB:pairseg_9P4I_sequence_003110","type":"structure_signal_discordance_candidate","status":"none_detected","fecClaimCeiling":"","claimScope":"","lssStatus":"LSS_NOT_EVALUABLE","reviewPriorityHint":"no_conflict_review_priority"},{"id":"RMDB2PDB|conflict|pairseg_9P4I_sequence_003111","routeId":"annojoin:conflict:RMDB2PDB:pairseg_9P4I_sequence_003111","type":"structure_signal_discordance_candidate","status":"none_detected","fecClaimCeiling":"","claimScope":"","lssStatus":"LSS_NOT_EVALUABLE","reviewPriorityHint":"no_conflict_review_priority"},{"id":"RMDB2PDB|conflict|pairseg_9P4I_sequence_003112","routeId":"annojoin:conflict:RMDB2PDB:pairseg_9P4I_sequence_003112","type":"structure_signal_discordance_candidate","status":"none_detected","fecClaimCeiling":"","claimScope":"","lssStatus":"LSS_NOT_EVALUABLE","reviewPriorityHint":"no_conflict_review_priority"},{"id":"RMDB2PDB|conflict|pairseg_9P4I_sequence_003113","routeId":"annojoin:conflict:RMDB2PDB:pairseg_9P4I_sequence_003113","type":"structure_signal_discordance_candidate","status":"none_detected","fecClaimCeiling":"","claimScope":"","lssStatus":"LSS_NOT_EVALUABLE","reviewPriorityHint":"no_conflict_review_priority"},{"id":"RMDB2PDB|conflict|pairseg_9P4I_sequence_003114","routeId":"annojoin:conflict:RMDB2PDB:pairseg_9P4I_sequence_003114","type":"structure_signal_discordance_candidate","status":"none_detected","fecClaimCeiling":"","claimScope":"","lssStatus":"LSS_NOT_EVALUABLE","reviewPriorityHint":"no_conflict_review_priority"},{"id":"RMDB2PDB|conflict|pairseg_9P4I_sequence_003115","routeId":"annojoin:conflict:RMDB2PDB:pairseg_9P4I_sequence_003115","type":"structure_signal_discordance_candidate","status":"none_detected","fecClaimCeiling":"","claimScope":"","lssStatus":"LSS_NOT_EVALUABLE","reviewPriorityHint":"no_conflict_review_priority"},{"id":"RMDB2PDB|conflict|pairseg_9P4I_sequence_003116","routeId":"annojoin:conflict:RMDB2PDB:pairseg_9P4I_sequence_003116","type":"structure_signal_discordance_candidate","status":"none_detected","fecClaimCeiling":"","claimScope":"","lssStatus":"LSS_NOT_EVALUABLE","reviewPriorityHint":"no_conflict_review_priority"},{"id":"RMDB2PDB|conflict|pairseg_9P4I_sequence_003117","routeId":"annojoin:conflict:RMDB2PDB:pairseg_9P4I_sequence_003117","type":"structure_signal_discordance_candidate","status":"none_detected","fecClaimCeiling":"","claimScope":"","lssStatus":"LSS_NOT_EVALUABLE","reviewPriorityHint":"no_conflict_review_priority"},{"id":"RMDB2PDB|conflict|pairseg_9P4I_sequence_003118","routeId":"annojoin:conflict:RMDB2PDB:pairseg_9P4I_sequence_003118","type":"structure_signal_discordance_candidate","status":"none_detected","fecClaimCeiling":"","claimScope":"","lssStatus":"LSS_NOT_EVALUABLE","reviewPriorityHint":"no_conflict_review_priority"},{"id":"RMDB2PDB|conflict|pairseg_9P4I_sequence_003119","routeId":"annojoin:conflict:RMDB2PDB:pairseg_9P4I_sequence_003119","type":"structure_signal_discordance_candidate","status":"none_detected","fecClaimCeiling":"","claimScope":"","lssStatus":"LSS_NOT_EVALUABLE","reviewPriorityHint":"no_conflict_review_priority"},{"id":"RMDB2PDB|conflict|pairseg_9P4I_sequence_003120","routeId":"annojoin:conflict:RMDB2PDB:pairseg_9P4I_sequence_003120","type":"structure_signal_discordance_candidate","status":"none_detected","fecClaimCeiling":"","claimScope":"","lssStatus":"LSS_NOT_EVALUABLE","reviewPriorityHint":"no_conflict_review_priority"},{"id":"RMDB2PDB|conflict|pairseg_9P4I_sequence_003121","routeId":"annojoin:conflict:RMDB2PDB:pairseg_9P4I_sequence_003121","type":"structure_signal_discordance_candidate","status":"none_detected","fecClaimCeiling":"","claimScope":"","lssStatus":"LSS_NOT_EVALUABLE","reviewPriorityHint":"no_conflict_review_priority"},{"id":"RMDB2PDB|conflict|pairseg_9P4I_sequence_003122","routeId":"annojoin:conflict:RMDB2PDB:pairseg_9P4I_sequence_003122","type":"structure_signal_discordance_candidate","status":"none_detected","fecClaimCeiling":"","claimScope":"","lssStatus":"LSS_NOT_EVALUABLE","reviewPriorityHint":"no_conflict_review_priority"},{"id":"RMDB2PDB|conflict|pairseg_9P4I_sequence_003123","routeId":"annojoin:conflict:RMDB2PDB:pairseg_9P4I_sequence_003123","type":"structure_signal_discordance_candidate","status":"none_detected","fecClaimCeiling":"","claimScope":"","lssStatus":"LSS_NOT_EVALUABLE","reviewPriorityHint":"no_conflict_review_priority"},{"id":"RMDB2PDB|conflict|pairseg_9P4I_sequence_003124","routeId":"annojoin:conflict:RMDB2PDB:pairseg_9P4I_sequence_003124","type":"structure_signal_discordance_candidate","status":"none_detected","fecClaimCeiling":"","claimScope":"","lssStatus":"LSS_NOT_EVALUABLE","reviewPriorityHint":"no_conflict_review_priority"},{"id":"RMDB2PDB|conflict|pairseg_9P4I_sequence_003125","routeId":"annojoin:conflict:RMDB2PDB:pairseg_9P4I_sequence_003125","type":"structure_signal_discordance_candidate","status":"none_detected","fecClaimCeiling":"","claimScope":"","lssStatus":"LSS_NOT_EVALUABLE","reviewPriorityHint":"no_conflict_review_priority"},{"id":"RMDB2PDB|conflict|pairseg_9P4I_sequence_003126","routeId":"annojoin:conflict:RMDB2PDB:pairseg_9P4I_sequence_003126","type":"structure_signal_discordance_candidate","status":"none_detected","fecClaimCeiling":"","claimScope":"","lssStatus":"LSS_NOT_EVALUABLE","reviewPriorityHint":"no_conflict_review_priority"},{"id":"RMDB2PDB|conflict|pairseg_9P4I_sequence_003127","routeId":"annojoin:conflict:RMDB2PDB:pairseg_9P4I_sequence_003127","type":"structure_signal_discordance_candidate","status":"none_detected","fecClaimCeiling":"","claimScope":"","lssStatus":"LSS_NOT_EVALUABLE","reviewPriorityHint":"no_conflict_review_priority"},{"id":"RMDB2PDB|conflict|pairseg_9P4I_sequence_003128","routeId":"annojoin:conflict:RMDB2PDB:pairseg_9P4I_sequence_003128","type":"structure_signal_discordance_candidate","status":"none_detected","fecClaimCeiling":"","claimScope":"","lssStatus":"LSS_NOT_EVALUABLE","reviewPriorityHint":"no_conflict_review_priority"},{"id":"RMDB2PDB|conflict|pairseg_9P4I_sequence_003129","routeId":"annojoin:conflict:RMDB2PDB:pairseg_9P4I_sequence_003129","type":"structure_signal_discordance_candidate","status":"none_detected","fecClaimCeiling":"","claimScope":"","lssStatus":"LSS_NOT_EVALUABLE","reviewPriorityHint":"no_conflict_review_priority"},{"id":"RMDB2PDB|conflict|pairseg_9P4I_sequence_003130","routeId":"annojoin:conflict:RMDB2PDB:pairseg_9P4I_sequence_003130","type":"structure_signal_discordance_candidate","status":"none_detected","fecClaimCeiling":"","claimScope":"","lssStatus":"LSS_NOT_EVALUABLE","reviewPriorityHint":"no_conflict_review_priority"},{"id":"RMDB2PDB|conflict|pairseg_9P4I_sequence_003131","routeId":"annojoin:conflict:RMDB2PDB:pairseg_9P4I_sequence_003131","type":"structure_signal_discordance_candidate","status":"none_detected","fecClaimCeiling":"","claimScope":"","lssStatus":"LSS_NOT_EVALUABLE","reviewPriorityHint":"no_conflict_review_priority"},{"id":"RMDB2PDB|conflict|pairseg_9P4I_sequence_003132","routeId":"annojoin:conflict:RMDB2PDB:pairseg_9P4I_sequence_003132","type":"structure_signal_discordance_candidate","status":"none_detected","fecClaimCeiling":"","claimScope":"","lssStatus":"LSS_NOT_EVALUABLE","reviewPriorityHint":"no_conflict_review_priority"},{"id":"RMDB2PDB|conflict|pairseg_9P4I_sequence_003133","routeId":"annojoin:conflict:RMDB2PDB:pairseg_9P4I_sequence_003133","type":"structure_signal_discordance_candidate","status":"none_detected","fecClaimCeiling":"","claimScope":"","lssStatus":"LSS_NOT_EVALUABLE","reviewPriorityHint":"no_conflict_review_priority"},{"id":"RMDB2PDB|conflict|pairseg_9P4I_sequence_003134","routeId":"annojoin:conflict:RMDB2PDB:pairseg_9P4I_sequence_003134","type":"structure_signal_discordance_candidate","status":"none_detected","fecClaimCeiling":"","claimScope":"","lssStatus":"LSS_NOT_EVALUABLE","reviewPriorityHint":"no_conflict_review_priority"},{"id":"RMDB2PDB|conflict|pairseg_9P4I_sequence_003135","routeId":"annojoin:conflict:RMDB2PDB:pairseg_9P4I_sequence_003135","type":"structure_signal_discordance_candidate","status":"none_detected","fecClaimCeiling":"","claimScope":"","lssStatus":"LSS_NOT_EVALUABLE","reviewPriorityHint":"no_conflict_review_priority"},{"id":"RMDB2PDB|conflict|pairseg_9P4I_sequence_003136","routeId":"annojoin:conflict:RMDB2PDB:pairseg_9P4I_sequence_003136","type":"structure_signal_discordance_candidate","status":"none_detected","fecClaimCeiling":"","claimScope":"","lssStatus":"LSS_NOT_EVALUABLE","reviewPriorityHint":"no_conflict_review_priority"},{"id":"RMDB2PDB|conflict|pairseg_9P4I_sequence_003137","routeId":"annojoin:conflict:RMDB2PDB:pairseg_9P4I_sequence_003137","type":"structure_signal_discordance_candidate","status":"none_detected","fecClaimCeiling":"","claimScope":"","lssStatus":"LSS_NOT_EVALUABLE","reviewPriorityHint":"no_conflict_review_priority"},{"id":"RMDB2PDB|conflict|pairseg_9P4I_sequence_003138","routeId":"annojoin:conflict:RMDB2PDB:pairseg_9P4I_sequence_003138","type":"structure_signal_discordance_candidate","status":"none_detected","fecClaimCeiling":"","claimScope":"","lssStatus":"LSS_NOT_EVALUABLE","reviewPriorityHint":"no_conflict_review_priority"},{"id":"RMDB2PDB|conflict|pairseg_9P4I_sequence_003139","routeId":"annojoin:conflict:RMDB2PDB:pairseg_9P4I_sequence_003139","type":"structure_signal_discordance_candidate","status":"none_detected","fecClaimCeiling":"","claimScope":"","lssStatus":"LSS_NOT_EVALUABLE","reviewPriorityHint":"no_conflict_review_priority"},{"id":"RMDB2PDB|conflict|pairseg_9P4I_sequence_003140","routeId":"annojoin:conflict:RMDB2PDB:pairseg_9P4I_sequence_003140","type":"structure_signal_discordance_candidate","status":"none_detected","fecClaimCeiling":"","claimScope":"","lssStatus":"LSS_NOT_EVALUABLE","reviewPriorityHint":"no_conflict_review_priority"},{"id":"RMDB2PDB|conflict|pairseg_9P4I_sequence_003141","routeId":"annojoin:conflict:RMDB2PDB:pairseg_9P4I_sequence_003141","type":"structure_signal_discordance_candidate","status":"none_detected","fecClaimCeiling":"","claimScope":"","lssStatus":"LSS_NOT_EVALUABLE","reviewPriorityHint":"no_conflict_review_priority"},{"id":"RMDB2PDB|conflict|pairseg_9P4I_sequence_003142","routeId":"annojoin:conflict:RMDB2PDB:pairseg_9P4I_sequence_003142","type":"structure_signal_discordance_candidate","status":"none_detected","fecClaimCeiling":"","claimScope":"","lssStatus":"LSS_NOT_EVALUABLE","reviewPriorityHint":"no_conflict_review_priority"},{"id":"RMDB2PDB|conflict|pairseg_9P4I_sequence_003143","routeId":"annojoin:conflict:RMDB2PDB:pairseg_9P4I_sequence_003143","type":"structure_signal_discordance_candidate","status":"none_detected","fecClaimCeiling":"","claimScope":"","lssStatus":"LSS_NOT_EVALUABLE","reviewPriorityHint":"no_conflict_review_priority"},{"id":"RMDB2PDB|conflict|pairseg_9P4I_sequence_003144","routeId":"annojoin:conflict:RMDB2PDB:pairseg_9P4I_sequence_003144","type":"structure_signal_discordance_candidate","status":"none_detected","fecClaimCeiling":"","claimScope":"","lssStatus":"LSS_NOT_EVALUABLE","reviewPriorityHint":"no_conflict_review_priority"}]}
