{"schemaVersion":"annojoin-atlas.v1","version":"V2.1_RMDB_LINE_A_20260617","atlasCaseKey":"RMDB2PDB:4V9F","caseId":"4V9F","routeKey":"conflicts","page":4,"pageSize":500,"totalRows":1591,"pageCount":4,"rows":[{"id":"RMDB2PDB|conflict|pairseg_4V9F_sequence_001626","routeId":"annojoin:conflict:RMDB2PDB:pairseg_4V9F_sequence_001626","type":"structure_signal_discordance_candidate","status":"none_detected","fecClaimCeiling":"","claimScope":"","lssStatus":"LSS_NOT_EVALUABLE","reviewPriorityHint":"no_conflict_review_priority"},{"id":"RMDB2PDB|conflict|pairseg_4V9F_sequence_001627","routeId":"annojoin:conflict:RMDB2PDB:pairseg_4V9F_sequence_001627","type":"structure_signal_discordance_candidate","status":"none_detected","fecClaimCeiling":"","claimScope":"","lssStatus":"LSS_NOT_EVALUABLE","reviewPriorityHint":"no_conflict_review_priority"},{"id":"RMDB2PDB|conflict|pairseg_4V9F_sequence_001628","routeId":"annojoin:conflict:RMDB2PDB:pairseg_4V9F_sequence_001628","type":"structure_signal_discordance_candidate","status":"none_detected","fecClaimCeiling":"","claimScope":"","lssStatus":"LSS_NOT_EVALUABLE","reviewPriorityHint":"no_conflict_review_priority"},{"id":"RMDB2PDB|conflict|pairseg_4V9F_sequence_001629","routeId":"annojoin:conflict:RMDB2PDB:pairseg_4V9F_sequence_001629","type":"structure_signal_discordance_candidate","status":"none_detected","fecClaimCeiling":"","claimScope":"","lssStatus":"LSS_NOT_EVALUABLE","reviewPriorityHint":"no_conflict_review_priority"},{"id":"RMDB2PDB|conflict|pairseg_4V9F_sequence_001630","routeId":"annojoin:conflict:RMDB2PDB:pairseg_4V9F_sequence_001630","type":"structure_signal_discordance_candidate","status":"none_detected","fecClaimCeiling":"","claimScope":"","lssStatus":"LSS_NOT_EVALUABLE","reviewPriorityHint":"no_conflict_review_priority"},{"id":"RMDB2PDB|conflict|pairseg_4V9F_sequence_001631","routeId":"annojoin:conflict:RMDB2PDB:pairseg_4V9F_sequence_001631","type":"structure_signal_discordance_candidate","status":"none_detected","fecClaimCeiling":"","claimScope":"","lssStatus":"LSS_NOT_EVALUABLE","reviewPriorityHint":"no_conflict_review_priority"},{"id":"RMDB2PDB|conflict|pairseg_4V9F_sequence_001632","routeId":"annojoin:conflict:RMDB2PDB:pairseg_4V9F_sequence_001632","type":"structure_signal_discordance_candidate","status":"none_detected","fecClaimCeiling":"","claimScope":"","lssStatus":"LSS_NOT_EVALUABLE","reviewPriorityHint":"no_conflict_review_priority"},{"id":"RMDB2PDB|conflict|pairseg_4V9F_sequence_001633","routeId":"annojoin:conflict:RMDB2PDB:pairseg_4V9F_sequence_001633","type":"structure_signal_discordance_candidate","status":"none_detected","fecClaimCeiling":"","claimScope":"","lssStatus":"LSS_NOT_EVALUABLE","reviewPriorityHint":"no_conflict_review_priority"},{"id":"RMDB2PDB|conflict|pairseg_4V9F_sequence_001634","routeId":"annojoin:conflict:RMDB2PDB:pairseg_4V9F_sequence_001634","type":"structure_signal_discordance_candidate","status":"none_detected","fecClaimCeiling":"","claimScope":"","lssStatus":"LSS_NOT_EVALUABLE","reviewPriorityHint":"no_conflict_review_priority"},{"id":"RMDB2PDB|conflict|pairseg_4V9F_sequence_001635","routeId":"annojoin:conflict:RMDB2PDB:pairseg_4V9F_sequence_001635","type":"structure_signal_discordance_candidate","status":"none_detected","fecClaimCeiling":"","claimScope":"","lssStatus":"LSS_NOT_EVALUABLE","reviewPriorityHint":"no_conflict_review_priority"},{"id":"RMDB2PDB|conflict|pairseg_4V9F_sequence_001636","routeId":"annojoin:conflict:RMDB2PDB:pairseg_4V9F_sequence_001636","type":"structure_signal_discordance_candidate","status":"none_detected","fecClaimCeiling":"","claimScope":"","lssStatus":"LSS_NOT_EVALUABLE","reviewPriorityHint":"no_conflict_review_priority"},{"id":"RMDB2PDB|conflict|pairseg_4V9F_sequence_001637","routeId":"annojoin:conflict:RMDB2PDB:pairseg_4V9F_sequence_001637","type":"structure_signal_discordance_candidate","status":"none_detected","fecClaimCeiling":"","claimScope":"","lssStatus":"LSS_NOT_EVALUABLE","reviewPriorityHint":"no_conflict_review_priority"},{"id":"RMDB2PDB|conflict|pairseg_4V9F_sequence_001638","routeId":"annojoin:conflict:RMDB2PDB:pairseg_4V9F_sequence_001638","type":"structure_signal_discordance_candidate","status":"none_detected","fecClaimCeiling":"","claimScope":"","lssStatus":"LSS_NOT_EVALUABLE","reviewPriorityHint":"no_conflict_review_priority"},{"id":"RMDB2PDB|conflict|pairseg_4V9F_sequence_001639","routeId":"annojoin:conflict:RMDB2PDB:pairseg_4V9F_sequence_001639","type":"structure_signal_discordance_candidate","status":"none_detected","fecClaimCeiling":"","claimScope":"","lssStatus":"LSS_NOT_EVALUABLE","reviewPriorityHint":"no_conflict_review_priority"},{"id":"RMDB2PDB|conflict|pairseg_4V9F_sequence_001640","routeId":"annojoin:conflict:RMDB2PDB:pairseg_4V9F_sequence_001640","type":"structure_signal_discordance_candidate","status":"none_detected","fecClaimCeiling":"","claimScope":"","lssStatus":"LSS_NOT_EVALUABLE","reviewPriorityHint":"no_conflict_review_priority"},{"id":"RMDB2PDB|conflict|pairseg_4V9F_sequence_001641","routeId":"annojoin:conflict:RMDB2PDB:pairseg_4V9F_sequence_001641","type":"structure_signal_discordance_candidate","status":"none_detected","fecClaimCeiling":"","claimScope":"","lssStatus":"LSS_NOT_EVALUABLE","reviewPriorityHint":"no_conflict_review_priority"},{"id":"RMDB2PDB|conflict|pairseg_4V9F_sequence_001642","routeId":"annojoin:conflict:RMDB2PDB:pairseg_4V9F_sequence_001642","type":"structure_signal_discordance_candidate","status":"none_detected","fecClaimCeiling":"","claimScope":"","lssStatus":"LSS_NOT_EVALUABLE","reviewPriorityHint":"no_conflict_review_priority"},{"id":"RMDB2PDB|conflict|pairseg_4V9F_sequence_001643","routeId":"annojoin:conflict:RMDB2PDB:pairseg_4V9F_sequence_001643","type":"structure_signal_discordance_candidate","status":"none_detected","fecClaimCeiling":"","claimScope":"","lssStatus":"LSS_NOT_EVALUABLE","reviewPriorityHint":"no_conflict_review_priority"},{"id":"RMDB2PDB|conflict|pairseg_4V9F_sequence_001644","routeId":"annojoin:conflict:RMDB2PDB:pairseg_4V9F_sequence_001644","type":"structure_signal_discordance_candidate","status":"none_detected","fecClaimCeiling":"","claimScope":"","lssStatus":"LSS_NOT_EVALUABLE","reviewPriorityHint":"no_conflict_review_priority"},{"id":"RMDB2PDB|conflict|pairseg_4V9F_sequence_001645","routeId":"annojoin:conflict:RMDB2PDB:pairseg_4V9F_sequence_001645","type":"structure_signal_discordance_candidate","status":"none_detected","fecClaimCeiling":"","claimScope":"","lssStatus":"LSS_NOT_EVALUABLE","reviewPriorityHint":"no_conflict_review_priority"},{"id":"RMDB2PDB|conflict|pairseg_4V9F_sequence_001646","routeId":"annojoin:conflict:RMDB2PDB:pairseg_4V9F_sequence_001646","type":"structure_signal_discordance_candidate","status":"none_detected","fecClaimCeiling":"","claimScope":"","lssStatus":"LSS_NOT_EVALUABLE","reviewPriorityHint":"no_conflict_review_priority"},{"id":"RMDB2PDB|conflict|pairseg_4V9F_sequence_001647","routeId":"annojoin:conflict:RMDB2PDB:pairseg_4V9F_sequence_001647","type":"structure_signal_discordance_candidate","status":"none_detected","fecClaimCeiling":"","claimScope":"","lssStatus":"LSS_NOT_EVALUABLE","reviewPriorityHint":"no_conflict_review_priority"},{"id":"RMDB2PDB|conflict|pairseg_4V9F_sequence_001648","routeId":"annojoin:conflict:RMDB2PDB:pairseg_4V9F_sequence_001648","type":"structure_signal_discordance_candidate","status":"none_detected","fecClaimCeiling":"","claimScope":"","lssStatus":"LSS_NOT_EVALUABLE","reviewPriorityHint":"no_conflict_review_priority"},{"id":"RMDB2PDB|conflict|pairseg_4V9F_sequence_001649","routeId":"annojoin:conflict:RMDB2PDB:pairseg_4V9F_sequence_001649","type":"structure_signal_discordance_candidate","status":"none_detected","fecClaimCeiling":"","claimScope":"","lssStatus":"LSS_NOT_EVALUABLE","reviewPriorityHint":"no_conflict_review_priority"},{"id":"RMDB2PDB|conflict|pairseg_4V9F_sequence_001650","routeId":"annojoin:conflict:RMDB2PDB:pairseg_4V9F_sequence_001650","type":"structure_signal_discordance_candidate","status":"none_detected","fecClaimCeiling":"","claimScope":"","lssStatus":"LSS_NOT_EVALUABLE","reviewPriorityHint":"no_conflict_review_priority"},{"id":"RMDB2PDB|conflict|pairseg_4V9F_sequence_001651","routeId":"annojoin:conflict:RMDB2PDB:pairseg_4V9F_sequence_001651","type":"structure_signal_discordance_candidate","status":"none_detected","fecClaimCeiling":"","claimScope":"","lssStatus":"LSS_NOT_EVALUABLE","reviewPriorityHint":"no_conflict_review_priority"},{"id":"RMDB2PDB|conflict|pairseg_4V9F_sequence_001652","routeId":"annojoin:conflict:RMDB2PDB:pairseg_4V9F_sequence_001652","type":"structure_signal_discordance_candidate","status":"none_detected","fecClaimCeiling":"","claimScope":"","lssStatus":"LSS_NOT_EVALUABLE","reviewPriorityHint":"no_conflict_review_priority"},{"id":"RMDB2PDB|conflict|pairseg_4V9F_sequence_001653","routeId":"annojoin:conflict:RMDB2PDB:pairseg_4V9F_sequence_001653","type":"structure_signal_discordance_candidate","status":"none_detected","fecClaimCeiling":"","claimScope":"","lssStatus":"LSS_NOT_EVALUABLE","reviewPriorityHint":"no_conflict_review_priority"},{"id":"RMDB2PDB|conflict|pairseg_4V9F_sequence_001654","routeId":"annojoin:conflict:RMDB2PDB:pairseg_4V9F_sequence_001654","type":"structure_signal_discordance_candidate","status":"none_detected","fecClaimCeiling":"","claimScope":"","lssStatus":"LSS_NOT_EVALUABLE","reviewPriorityHint":"no_conflict_review_priority"},{"id":"RMDB2PDB|conflict|pairseg_4V9F_sequence_001655","routeId":"annojoin:conflict:RMDB2PDB:pairseg_4V9F_sequence_001655","type":"structure_signal_discordance_candidate","status":"none_detected","fecClaimCeiling":"","claimScope":"","lssStatus":"LSS_NOT_EVALUABLE","reviewPriorityHint":"no_conflict_review_priority"},{"id":"RMDB2PDB|conflict|pairseg_4V9F_sequence_001656","routeId":"annojoin:conflict:RMDB2PDB:pairseg_4V9F_sequence_001656","type":"structure_signal_discordance_candidate","status":"none_detected","fecClaimCeiling":"","claimScope":"","lssStatus":"LSS_NOT_EVALUABLE","reviewPriorityHint":"no_conflict_review_priority"},{"id":"RMDB2PDB|conflict|pairseg_4V9F_sequence_001657","routeId":"annojoin:conflict:RMDB2PDB:pairseg_4V9F_sequence_001657","type":"structure_signal_discordance_candidate","status":"none_detected","fecClaimCeiling":"","claimScope":"","lssStatus":"LSS_NOT_EVALUABLE","reviewPriorityHint":"no_conflict_review_priority"},{"id":"RMDB2PDB|conflict|pairseg_4V9F_sequence_001658","routeId":"annojoin:conflict:RMDB2PDB:pairseg_4V9F_sequence_001658","type":"structure_signal_discordance_candidate","status":"none_detected","fecClaimCeiling":"","claimScope":"","lssStatus":"LSS_NOT_EVALUABLE","reviewPriorityHint":"no_conflict_review_priority"},{"id":"RMDB2PDB|conflict|pairseg_4V9F_sequence_001659","routeId":"annojoin:conflict:RMDB2PDB:pairseg_4V9F_sequence_001659","type":"structure_signal_discordance_candidate","status":"none_detected","fecClaimCeiling":"","claimScope":"","lssStatus":"LSS_NOT_EVALUABLE","reviewPriorityHint":"no_conflict_review_priority"},{"id":"RMDB2PDB|conflict|pairseg_4V9F_sequence_001660","routeId":"annojoin:conflict:RMDB2PDB:pairseg_4V9F_sequence_001660","type":"structure_signal_discordance_candidate","status":"none_detected","fecClaimCeiling":"","claimScope":"","lssStatus":"LSS_NOT_EVALUABLE","reviewPriorityHint":"no_conflict_review_priority"},{"id":"RMDB2PDB|conflict|pairseg_4V9F_sequence_001661","routeId":"annojoin:conflict:RMDB2PDB:pairseg_4V9F_sequence_001661","type":"structure_signal_discordance_candidate","status":"none_detected","fecClaimCeiling":"","claimScope":"","lssStatus":"LSS_NOT_EVALUABLE","reviewPriorityHint":"no_conflict_review_priority"},{"id":"RMDB2PDB|conflict|pairseg_4V9F_sequence_001662","routeId":"annojoin:conflict:RMDB2PDB:pairseg_4V9F_sequence_001662","type":"structure_signal_discordance_candidate","status":"none_detected","fecClaimCeiling":"","claimScope":"","lssStatus":"LSS_NOT_EVALUABLE","reviewPriorityHint":"no_conflict_review_priority"},{"id":"RMDB2PDB|conflict|pairseg_4V9F_sequence_001663","routeId":"annojoin:conflict:RMDB2PDB:pairseg_4V9F_sequence_001663","type":"structure_signal_discordance_candidate","status":"none_detected","fecClaimCeiling":"","claimScope":"","lssStatus":"LSS_NOT_EVALUABLE","reviewPriorityHint":"no_conflict_review_priority"},{"id":"RMDB2PDB|conflict|pairseg_4V9F_sequence_001664","routeId":"annojoin:conflict:RMDB2PDB:pairseg_4V9F_sequence_001664","type":"structure_signal_discordance_candidate","status":"none_detected","fecClaimCeiling":"","claimScope":"","lssStatus":"LSS_NOT_EVALUABLE","reviewPriorityHint":"no_conflict_review_priority"},{"id":"RMDB2PDB|conflict|pairseg_4V9F_sequence_001665","routeId":"annojoin:conflict:RMDB2PDB:pairseg_4V9F_sequence_001665","type":"structure_signal_discordance_candidate","status":"none_detected","fecClaimCeiling":"","claimScope":"","lssStatus":"LSS_NOT_EVALUABLE","reviewPriorityHint":"no_conflict_review_priority"},{"id":"RMDB2PDB|conflict|pairseg_4V9F_sequence_001666","routeId":"annojoin:conflict:RMDB2PDB:pairseg_4V9F_sequence_001666","type":"structure_signal_discordance_candidate","status":"none_detected","fecClaimCeiling":"","claimScope":"","lssStatus":"LSS_NOT_EVALUABLE","reviewPriorityHint":"no_conflict_review_priority"},{"id":"RMDB2PDB|conflict|pairseg_4V9F_sequence_001667","routeId":"annojoin:conflict:RMDB2PDB:pairseg_4V9F_sequence_001667","type":"structure_signal_discordance_candidate","status":"none_detected","fecClaimCeiling":"","claimScope":"","lssStatus":"LSS_NOT_EVALUABLE","reviewPriorityHint":"no_conflict_review_priority"},{"id":"RMDB2PDB|conflict|pairseg_4V9F_sequence_001668","routeId":"annojoin:conflict:RMDB2PDB:pairseg_4V9F_sequence_001668","type":"structure_signal_discordance_candidate","status":"none_detected","fecClaimCeiling":"","claimScope":"","lssStatus":"LSS_NOT_EVALUABLE","reviewPriorityHint":"no_conflict_review_priority"},{"id":"RMDB2PDB|conflict|pairseg_4V9F_sequence_001669","routeId":"annojoin:conflict:RMDB2PDB:pairseg_4V9F_sequence_001669","type":"structure_signal_discordance_candidate","status":"none_detected","fecClaimCeiling":"","claimScope":"","lssStatus":"LSS_NOT_EVALUABLE","reviewPriorityHint":"no_conflict_review_priority"},{"id":"RMDB2PDB|conflict|pairseg_4V9F_sequence_001670","routeId":"annojoin:conflict:RMDB2PDB:pairseg_4V9F_sequence_001670","type":"structure_signal_discordance_candidate","status":"none_detected","fecClaimCeiling":"","claimScope":"","lssStatus":"LSS_NOT_EVALUABLE","reviewPriorityHint":"no_conflict_review_priority"},{"id":"RMDB2PDB|conflict|pairseg_4V9F_sequence_001671","routeId":"annojoin:conflict:RMDB2PDB:pairseg_4V9F_sequence_001671","type":"structure_signal_discordance_candidate","status":"none_detected","fecClaimCeiling":"","claimScope":"","lssStatus":"LSS_NOT_EVALUABLE","reviewPriorityHint":"no_conflict_review_priority"},{"id":"RMDB2PDB|conflict|pairseg_4V9F_sequence_001672","routeId":"annojoin:conflict:RMDB2PDB:pairseg_4V9F_sequence_001672","type":"structure_signal_discordance_candidate","status":"none_detected","fecClaimCeiling":"","claimScope":"","lssStatus":"LSS_NOT_EVALUABLE","reviewPriorityHint":"no_conflict_review_priority"},{"id":"RMDB2PDB|conflict|pairseg_4V9F_sequence_001673","routeId":"annojoin:conflict:RMDB2PDB:pairseg_4V9F_sequence_001673","type":"structure_signal_discordance_candidate","status":"none_detected","fecClaimCeiling":"","claimScope":"","lssStatus":"LSS_NOT_EVALUABLE","reviewPriorityHint":"no_conflict_review_priority"},{"id":"RMDB2PDB|conflict|pairseg_4V9F_sequence_001674","routeId":"annojoin:conflict:RMDB2PDB:pairseg_4V9F_sequence_001674","type":"structure_signal_discordance_candidate","status":"none_detected","fecClaimCeiling":"","claimScope":"","lssStatus":"LSS_NOT_EVALUABLE","reviewPriorityHint":"no_conflict_review_priority"},{"id":"RMDB2PDB|conflict|pairseg_4V9F_sequence_001675","routeId":"annojoin:conflict:RMDB2PDB:pairseg_4V9F_sequence_001675","type":"structure_signal_discordance_candidate","status":"none_detected","fecClaimCeiling":"","claimScope":"","lssStatus":"LSS_NOT_EVALUABLE","reviewPriorityHint":"no_conflict_review_priority"},{"id":"RMDB2PDB|conflict|pairseg_4V9F_sequence_001676","routeId":"annojoin:conflict:RMDB2PDB:pairseg_4V9F_sequence_001676","type":"structure_signal_discordance_candidate","status":"none_detected","fecClaimCeiling":"","claimScope":"","lssStatus":"LSS_NOT_EVALUABLE","reviewPriorityHint":"no_conflict_review_priority"},{"id":"RMDB2PDB|conflict|pairseg_4V9F_sequence_001677","routeId":"annojoin:conflict:RMDB2PDB:pairseg_4V9F_sequence_001677","type":"structure_signal_discordance_candidate","status":"none_detected","fecClaimCeiling":"","claimScope":"","lssStatus":"LSS_NOT_EVALUABLE","reviewPriorityHint":"no_conflict_review_priority"},{"id":"RMDB2PDB|conflict|pairseg_4V9F_sequence_001678","routeId":"annojoin:conflict:RMDB2PDB:pairseg_4V9F_sequence_001678","type":"structure_signal_discordance_candidate","status":"none_detected","fecClaimCeiling":"","claimScope":"","lssStatus":"LSS_NOT_EVALUABLE","reviewPriorityHint":"no_conflict_review_priority"},{"id":"RMDB2PDB|conflict|pairseg_4V9F_sequence_001679","routeId":"annojoin:conflict:RMDB2PDB:pairseg_4V9F_sequence_001679","type":"structure_signal_discordance_candidate","status":"none_detected","fecClaimCeiling":"","claimScope":"","lssStatus":"LSS_NOT_EVALUABLE","reviewPriorityHint":"no_conflict_review_priority"},{"id":"RMDB2PDB|conflict|pairseg_4V9F_sequence_001680","routeId":"annojoin:conflict:RMDB2PDB:pairseg_4V9F_sequence_001680","type":"structure_signal_discordance_candidate","status":"none_detected","fecClaimCeiling":"","claimScope":"","lssStatus":"LSS_NOT_EVALUABLE","reviewPriorityHint":"no_conflict_review_priority"},{"id":"RMDB2PDB|conflict|pairseg_4V9F_sequence_001681","routeId":"annojoin:conflict:RMDB2PDB:pairseg_4V9F_sequence_001681","type":"structure_signal_discordance_candidate","status":"none_detected","fecClaimCeiling":"","claimScope":"","lssStatus":"LSS_NOT_EVALUABLE","reviewPriorityHint":"no_conflict_review_priority"},{"id":"RMDB2PDB|conflict|pairseg_4V9F_sequence_001682","routeId":"annojoin:conflict:RMDB2PDB:pairseg_4V9F_sequence_001682","type":"structure_signal_discordance_candidate","status":"none_detected","fecClaimCeiling":"","claimScope":"","lssStatus":"LSS_NOT_EVALUABLE","reviewPriorityHint":"no_conflict_review_priority"},{"id":"RMDB2PDB|conflict|pairseg_4V9F_sequence_001683","routeId":"annojoin:conflict:RMDB2PDB:pairseg_4V9F_sequence_001683","type":"structure_signal_discordance_candidate","status":"none_detected","fecClaimCeiling":"","claimScope":"","lssStatus":"LSS_NOT_EVALUABLE","reviewPriorityHint":"no_conflict_review_priority"},{"id":"RMDB2PDB|conflict|pairseg_4V9F_sequence_001684","routeId":"annojoin:conflict:RMDB2PDB:pairseg_4V9F_sequence_001684","type":"structure_signal_discordance_candidate","status":"none_detected","fecClaimCeiling":"","claimScope":"","lssStatus":"LSS_NOT_EVALUABLE","reviewPriorityHint":"no_conflict_review_priority"},{"id":"RMDB2PDB|conflict|pairseg_4V9F_sequence_001685","routeId":"annojoin:conflict:RMDB2PDB:pairseg_4V9F_sequence_001685","type":"structure_signal_discordance_candidate","status":"none_detected","fecClaimCeiling":"","claimScope":"","lssStatus":"LSS_NOT_EVALUABLE","reviewPriorityHint":"no_conflict_review_priority"},{"id":"RMDB2PDB|conflict|pairseg_4V9F_sequence_001686","routeId":"annojoin:conflict:RMDB2PDB:pairseg_4V9F_sequence_001686","type":"structure_signal_discordance_candidate","status":"none_detected","fecClaimCeiling":"","claimScope":"","lssStatus":"LSS_NOT_EVALUABLE","reviewPriorityHint":"no_conflict_review_priority"},{"id":"RMDB2PDB|conflict|pairseg_4V9F_sequence_001687","routeId":"annojoin:conflict:RMDB2PDB:pairseg_4V9F_sequence_001687","type":"structure_signal_discordance_candidate","status":"none_detected","fecClaimCeiling":"","claimScope":"","lssStatus":"LSS_NOT_EVALUABLE","reviewPriorityHint":"no_conflict_review_priority"},{"id":"RMDB2PDB|conflict|pairseg_4V9F_sequence_001688","routeId":"annojoin:conflict:RMDB2PDB:pairseg_4V9F_sequence_001688","type":"structure_signal_discordance_candidate","status":"none_detected","fecClaimCeiling":"","claimScope":"","lssStatus":"LSS_NOT_EVALUABLE","reviewPriorityHint":"no_conflict_review_priority"},{"id":"RMDB2PDB|conflict|pairseg_4V9F_sequence_001689","routeId":"annojoin:conflict:RMDB2PDB:pairseg_4V9F_sequence_001689","type":"structure_signal_discordance_candidate","status":"none_detected","fecClaimCeiling":"","claimScope":"","lssStatus":"LSS_NOT_EVALUABLE","reviewPriorityHint":"no_conflict_review_priority"},{"id":"RMDB2PDB|conflict|pairseg_4V9F_sequence_001690","routeId":"annojoin:conflict:RMDB2PDB:pairseg_4V9F_sequence_001690","type":"structure_signal_discordance_candidate","status":"none_detected","fecClaimCeiling":"","claimScope":"","lssStatus":"LSS_NOT_EVALUABLE","reviewPriorityHint":"no_conflict_review_priority"},{"id":"RMDB2PDB|conflict|pairseg_4V9F_sequence_001691","routeId":"annojoin:conflict:RMDB2PDB:pairseg_4V9F_sequence_001691","type":"structure_signal_discordance_candidate","status":"none_detected","fecClaimCeiling":"","claimScope":"","lssStatus":"LSS_NOT_EVALUABLE","reviewPriorityHint":"no_conflict_review_priority"},{"id":"RMDB2PDB|conflict|pairseg_4V9F_sequence_001692","routeId":"annojoin:conflict:RMDB2PDB:pairseg_4V9F_sequence_001692","type":"structure_signal_discordance_candidate","status":"none_detected","fecClaimCeiling":"","claimScope":"","lssStatus":"LSS_NOT_EVALUABLE","reviewPriorityHint":"no_conflict_review_priority"},{"id":"RMDB2PDB|conflict|pairseg_4V9F_sequence_001693","routeId":"annojoin:conflict:RMDB2PDB:pairseg_4V9F_sequence_001693","type":"structure_signal_discordance_candidate","status":"none_detected","fecClaimCeiling":"","claimScope":"","lssStatus":"LSS_NOT_EVALUABLE","reviewPriorityHint":"no_conflict_review_priority"},{"id":"RMDB2PDB|conflict|pairseg_4V9F_sequence_001694","routeId":"annojoin:conflict:RMDB2PDB:pairseg_4V9F_sequence_001694","type":"structure_signal_discordance_candidate","status":"none_detected","fecClaimCeiling":"","claimScope":"","lssStatus":"LSS_NOT_EVALUABLE","reviewPriorityHint":"no_conflict_review_priority"},{"id":"RMDB2PDB|conflict|pairseg_4V9F_sequence_001695","routeId":"annojoin:conflict:RMDB2PDB:pairseg_4V9F_sequence_001695","type":"structure_signal_discordance_candidate","status":"none_detected","fecClaimCeiling":"","claimScope":"","lssStatus":"LSS_NOT_EVALUABLE","reviewPriorityHint":"no_conflict_review_priority"},{"id":"RMDB2PDB|conflict|pairseg_4V9F_sequence_001696","routeId":"annojoin:conflict:RMDB2PDB:pairseg_4V9F_sequence_001696","type":"structure_signal_discordance_candidate","status":"none_detected","fecClaimCeiling":"","claimScope":"","lssStatus":"LSS_NOT_EVALUABLE","reviewPriorityHint":"no_conflict_review_priority"},{"id":"RMDB2PDB|conflict|pairseg_4V9F_sequence_001697","routeId":"annojoin:conflict:RMDB2PDB:pairseg_4V9F_sequence_001697","type":"structure_signal_discordance_candidate","status":"none_detected","fecClaimCeiling":"","claimScope":"","lssStatus":"LSS_NOT_EVALUABLE","reviewPriorityHint":"no_conflict_review_priority"},{"id":"RMDB2PDB|conflict|pairseg_4V9F_sequence_001698","routeId":"annojoin:conflict:RMDB2PDB:pairseg_4V9F_sequence_001698","type":"structure_signal_discordance_candidate","status":"none_detected","fecClaimCeiling":"","claimScope":"","lssStatus":"LSS_NOT_EVALUABLE","reviewPriorityHint":"no_conflict_review_priority"},{"id":"RMDB2PDB|conflict|pairseg_4V9F_sequence_001699","routeId":"annojoin:conflict:RMDB2PDB:pairseg_4V9F_sequence_001699","type":"structure_signal_discordance_candidate","status":"none_detected","fecClaimCeiling":"","claimScope":"","lssStatus":"LSS_NOT_EVALUABLE","reviewPriorityHint":"no_conflict_review_priority"},{"id":"RMDB2PDB|conflict|pairseg_4V9F_sequence_001700","routeId":"annojoin:conflict:RMDB2PDB:pairseg_4V9F_sequence_001700","type":"structure_signal_discordance_candidate","status":"none_detected","fecClaimCeiling":"","claimScope":"","lssStatus":"LSS_NOT_EVALUABLE","reviewPriorityHint":"no_conflict_review_priority"},{"id":"RMDB2PDB|conflict|pairseg_4V9F_sequence_001701","routeId":"annojoin:conflict:RMDB2PDB:pairseg_4V9F_sequence_001701","type":"structure_signal_discordance_candidate","status":"none_detected","fecClaimCeiling":"","claimScope":"","lssStatus":"LSS_NOT_EVALUABLE","reviewPriorityHint":"no_conflict_review_priority"},{"id":"RMDB2PDB|conflict|pairseg_4V9F_sequence_001702","routeId":"annojoin:conflict:RMDB2PDB:pairseg_4V9F_sequence_001702","type":"structure_signal_discordance_candidate","status":"none_detected","fecClaimCeiling":"","claimScope":"","lssStatus":"LSS_NOT_EVALUABLE","reviewPriorityHint":"no_conflict_review_priority"},{"id":"RMDB2PDB|conflict|pairseg_4V9F_sequence_001703","routeId":"annojoin:conflict:RMDB2PDB:pairseg_4V9F_sequence_001703","type":"structure_signal_discordance_candidate","status":"none_detected","fecClaimCeiling":"","claimScope":"","lssStatus":"LSS_NOT_EVALUABLE","reviewPriorityHint":"no_conflict_review_priority"},{"id":"RMDB2PDB|conflict|pairseg_4V9F_sequence_001704","routeId":"annojoin:conflict:RMDB2PDB:pairseg_4V9F_sequence_001704","type":"structure_signal_discordance_candidate","status":"none_detected","fecClaimCeiling":"","claimScope":"","lssStatus":"LSS_NOT_EVALUABLE","reviewPriorityHint":"no_conflict_review_priority"},{"id":"RMDB2PDB|conflict|pairseg_4V9F_sequence_001705","routeId":"annojoin:conflict:RMDB2PDB:pairseg_4V9F_sequence_001705","type":"structure_signal_discordance_candidate","status":"none_detected","fecClaimCeiling":"","claimScope":"","lssStatus":"LSS_NOT_EVALUABLE","reviewPriorityHint":"no_conflict_review_priority"},{"id":"RMDB2PDB|conflict|pairseg_4V9F_sequence_001706","routeId":"annojoin:conflict:RMDB2PDB:pairseg_4V9F_sequence_001706","type":"structure_signal_discordance_candidate","status":"none_detected","fecClaimCeiling":"","claimScope":"","lssStatus":"LSS_NOT_EVALUABLE","reviewPriorityHint":"no_conflict_review_priority"},{"id":"RMDB2PDB|conflict|pairseg_4V9F_sequence_001707","routeId":"annojoin:conflict:RMDB2PDB:pairseg_4V9F_sequence_001707","type":"structure_signal_discordance_candidate","status":"none_detected","fecClaimCeiling":"","claimScope":"","lssStatus":"LSS_NOT_EVALUABLE","reviewPriorityHint":"no_conflict_review_priority"},{"id":"RMDB2PDB|conflict|pairseg_4V9F_sequence_001708","routeId":"annojoin:conflict:RMDB2PDB:pairseg_4V9F_sequence_001708","type":"structure_signal_discordance_candidate","status":"none_detected","fecClaimCeiling":"","claimScope":"","lssStatus":"LSS_NOT_EVALUABLE","reviewPriorityHint":"no_conflict_review_priority"},{"id":"RMDB2PDB|conflict|pairseg_4V9F_sequence_001709","routeId":"annojoin:conflict:RMDB2PDB:pairseg_4V9F_sequence_001709","type":"structure_signal_discordance_candidate","status":"none_detected","fecClaimCeiling":"","claimScope":"","lssStatus":"LSS_NOT_EVALUABLE","reviewPriorityHint":"no_conflict_review_priority"},{"id":"RMDB2PDB|conflict|pairseg_4V9F_sequence_001710","routeId":"annojoin:conflict:RMDB2PDB:pairseg_4V9F_sequence_001710","type":"structure_signal_discordance_candidate","status":"none_detected","fecClaimCeiling":"","claimScope":"","lssStatus":"LSS_NOT_EVALUABLE","reviewPriorityHint":"no_conflict_review_priority"},{"id":"RMDB2PDB|conflict|pairseg_4V9F_sequence_001711","routeId":"annojoin:conflict:RMDB2PDB:pairseg_4V9F_sequence_001711","type":"structure_signal_discordance_candidate","status":"none_detected","fecClaimCeiling":"","claimScope":"","lssStatus":"LSS_NOT_EVALUABLE","reviewPriorityHint":"no_conflict_review_priority"},{"id":"RMDB2PDB|conflict|pairseg_4V9F_sequence_001712","routeId":"annojoin:conflict:RMDB2PDB:pairseg_4V9F_sequence_001712","type":"structure_signal_discordance_candidate","status":"none_detected","fecClaimCeiling":"","claimScope":"","lssStatus":"LSS_NOT_EVALUABLE","reviewPriorityHint":"no_conflict_review_priority"},{"id":"RMDB2PDB|conflict|pairseg_4V9F_sequence_001713","routeId":"annojoin:conflict:RMDB2PDB:pairseg_4V9F_sequence_001713","type":"structure_signal_discordance_candidate","status":"none_detected","fecClaimCeiling":"","claimScope":"","lssStatus":"LSS_NOT_EVALUABLE","reviewPriorityHint":"no_conflict_review_priority"},{"id":"RMDB2PDB|conflict|pairseg_4V9F_sequence_001714","routeId":"annojoin:conflict:RMDB2PDB:pairseg_4V9F_sequence_001714","type":"structure_signal_discordance_candidate","status":"none_detected","fecClaimCeiling":"","claimScope":"","lssStatus":"LSS_NOT_EVALUABLE","reviewPriorityHint":"no_conflict_review_priority"},{"id":"RMDB2PDB|conflict|pairseg_4V9F_sequence_001715","routeId":"annojoin:conflict:RMDB2PDB:pairseg_4V9F_sequence_001715","type":"structure_signal_discordance_candidate","status":"none_detected","fecClaimCeiling":"","claimScope":"","lssStatus":"LSS_NOT_EVALUABLE","reviewPriorityHint":"no_conflict_review_priority"},{"id":"RMDB2PDB|conflict|pairseg_4V9F_sequence_001716","routeId":"annojoin:conflict:RMDB2PDB:pairseg_4V9F_sequence_001716","type":"structure_signal_discordance_candidate","status":"none_detected","fecClaimCeiling":"","claimScope":"","lssStatus":"LSS_NOT_EVALUABLE","reviewPriorityHint":"no_conflict_review_priority"}]}
