{"schemaVersion":"annojoin-atlas.v1","version":"V2.1_RMDB_LINE_A_20260617","atlasCaseKey":"RMDB2PDB:6GYV","caseId":"6GYV","routeKey":"memberships","page":2,"pageSize":500,"totalRows":623,"pageCount":2,"rows":[{"pairId":"6GYV:sequence_000539","profileId":"rmdbv3_exact_cebdfbb333a78e146a706eddc56d8d9cdfe801f3|top_x_279::seq_2d0e61a19ce88913|6GYV_A","routeId":"annojoin:profiles:RMDB2PDB:6GYV"},{"pairId":"6GYV:sequence_000540","profileId":"rmdbv3_exact_cebdfbb333a78e146a706eddc56d8d9cdfe801f3|top_x_279::seq_67fa22c4fbf47870|6GYV_A","routeId":"annojoin:profiles:RMDB2PDB:6GYV"},{"pairId":"6GYV:sequence_000541","profileId":"rmdbv3_exact_ced826971275d3476b58dfe22f9aaa163c5c58dc|top_x_279::seq_33406a30fcd71f65|6GYV_A","routeId":"annojoin:profiles:RMDB2PDB:6GYV"},{"pairId":"6GYV:sequence_000542","profileId":"rmdbv3_exact_ced826971275d3476b58dfe22f9aaa163c5c58dc|top_x_279::seq_6ac4dd8519f2a894|6GYV_A","routeId":"annojoin:profiles:RMDB2PDB:6GYV"},{"pairId":"6GYV:sequence_000543","profileId":"rmdbv3_exact_d0ee48bd53bfeaae2747adc94bd3175fc3a06338|top_x_279::seq_2c476efa5f3b0999|6GYV_A","routeId":"annojoin:profiles:RMDB2PDB:6GYV"},{"pairId":"6GYV:sequence_000544","profileId":"rmdbv3_exact_d0ee48bd53bfeaae2747adc94bd3175fc3a06338|top_x_279::seq_88e882e21321cdf0|6GYV_A","routeId":"annojoin:profiles:RMDB2PDB:6GYV"},{"pairId":"6GYV:sequence_000545","profileId":"rmdbv3_exact_d0ee7c4fecc9ffb20eeca4c4e449f8797f6117aa|top_x_279::seq_02a7cc6c3e4b2b67|6GYV_A","routeId":"annojoin:profiles:RMDB2PDB:6GYV"},{"pairId":"6GYV:sequence_000546","profileId":"rmdbv3_exact_d0ee7c4fecc9ffb20eeca4c4e449f8797f6117aa|top_x_279::seq_d07f4bd14aca41f6|6GYV_A","routeId":"annojoin:profiles:RMDB2PDB:6GYV"},{"pairId":"6GYV:sequence_000547","profileId":"rmdbv3_exact_d1cf96f2094d012b22a274e00796b3d84c9bc333|top_x_279::seq_1e5dda1a449a550f|6GYV_A","routeId":"annojoin:profiles:RMDB2PDB:6GYV"},{"pairId":"6GYV:sequence_000548","profileId":"rmdbv3_exact_d1cf96f2094d012b22a274e00796b3d84c9bc333|top_x_279::seq_92b8453bde66c933|6GYV_A","routeId":"annojoin:profiles:RMDB2PDB:6GYV"},{"pairId":"6GYV:sequence_000549","profileId":"rmdbv3_exact_d2d1ad3284a1e1b62e772b07c67a47b37a3892e4|top_x_279::seq_8cca862645d5571b|6GYV_A","routeId":"annojoin:profiles:RMDB2PDB:6GYV"},{"pairId":"6GYV:sequence_000550","profileId":"rmdbv3_exact_d2d1ad3284a1e1b62e772b07c67a47b37a3892e4|top_x_279::seq_b0a4e9ffe7db6e7f|6GYV_A","routeId":"annojoin:profiles:RMDB2PDB:6GYV"},{"pairId":"6GYV:sequence_000551","profileId":"rmdbv3_exact_d2ecf7356fbfc7eedefa465a28660be6eb45938e|top_x_279::seq_c6b0c43f6c0c55f2|6GYV_A","routeId":"annojoin:profiles:RMDB2PDB:6GYV"},{"pairId":"6GYV:sequence_000552","profileId":"rmdbv3_exact_d2ecf7356fbfc7eedefa465a28660be6eb45938e|top_x_279::seq_fba6e26ada9c5667|6GYV_A","routeId":"annojoin:profiles:RMDB2PDB:6GYV"},{"pairId":"6GYV:sequence_000553","profileId":"rmdbv3_exact_d2f397114653be95b1a8977eb95f2aa0f30a70ac|top_x_279::seq_625993e14b8fc26a|6GYV_A","routeId":"annojoin:profiles:RMDB2PDB:6GYV"},{"pairId":"6GYV:sequence_000554","profileId":"rmdbv3_exact_d2f397114653be95b1a8977eb95f2aa0f30a70ac|top_x_279::seq_9cec5c12d541995f|6GYV_A","routeId":"annojoin:profiles:RMDB2PDB:6GYV"},{"pairId":"6GYV:sequence_000557","profileId":"rmdbv3_exact_d4d177bfba5dd1776a24b6d0ab21c46397f5da64|top_x_279::seq_6ba4fe3f6b7f73e5|6GYV_A","routeId":"annojoin:profiles:RMDB2PDB:6GYV"},{"pairId":"6GYV:sequence_000558","profileId":"rmdbv3_exact_d4d177bfba5dd1776a24b6d0ab21c46397f5da64|top_x_279::seq_9d09a3bf2d6de62c|6GYV_A","routeId":"annojoin:profiles:RMDB2PDB:6GYV"},{"pairId":"6GYV:sequence_000559","profileId":"rmdbv3_exact_d61192e168d05bbf1fb0e24fd041c0f9eec29e49|top_x_279::seq_587e02eca185425b|6GYV_A","routeId":"annojoin:profiles:RMDB2PDB:6GYV"},{"pairId":"6GYV:sequence_000560","profileId":"rmdbv3_exact_d61192e168d05bbf1fb0e24fd041c0f9eec29e49|top_x_279::seq_fe7618c98981be40|6GYV_A","routeId":"annojoin:profiles:RMDB2PDB:6GYV"},{"pairId":"6GYV:sequence_000561","profileId":"rmdbv3_exact_d7c0ef18a6b457d5175f8c946564aaf80585cd88|top_x_279::seq_6eb526acae80cb39|6GYV_A","routeId":"annojoin:profiles:RMDB2PDB:6GYV"},{"pairId":"6GYV:sequence_000562","profileId":"rmdbv3_exact_d7c0ef18a6b457d5175f8c946564aaf80585cd88|top_x_279::seq_c3d35b17b21bba93|6GYV_A","routeId":"annojoin:profiles:RMDB2PDB:6GYV"},{"pairId":"6GYV:sequence_000563","profileId":"rmdbv3_exact_d83cd7353a2320afe0b7665646f28134136022cc|top_x_279::seq_3f2a51ee72aeaf9d|6GYV_A","routeId":"annojoin:profiles:RMDB2PDB:6GYV"},{"pairId":"6GYV:sequence_000564","profileId":"rmdbv3_exact_d83cd7353a2320afe0b7665646f28134136022cc|top_x_279::seq_e3603a106568d09a|6GYV_A","routeId":"annojoin:profiles:RMDB2PDB:6GYV"},{"pairId":"6GYV:sequence_000565","profileId":"rmdbv3_exact_d95153e27edfd892595f1e0af3719e9847a7d525|top_x_279::seq_0f12360057e0ce39|6GYV_A","routeId":"annojoin:profiles:RMDB2PDB:6GYV"},{"pairId":"6GYV:sequence_000566","profileId":"rmdbv3_exact_d95153e27edfd892595f1e0af3719e9847a7d525|top_x_279::seq_79282eff102e8376|6GYV_A","routeId":"annojoin:profiles:RMDB2PDB:6GYV"},{"pairId":"6GYV:sequence_000567","profileId":"rmdbv3_exact_d9d8b554c18beb1773e3a5cf456fc2da903f6a29|top_x_279::seq_0c36be99aa112ceb|6GYV_A","routeId":"annojoin:profiles:RMDB2PDB:6GYV"},{"pairId":"6GYV:sequence_000568","profileId":"rmdbv3_exact_d9d8b554c18beb1773e3a5cf456fc2da903f6a29|top_x_279::seq_148fdc0beb9e7e75|6GYV_A","routeId":"annojoin:profiles:RMDB2PDB:6GYV"},{"pairId":"6GYV:sequence_000569","profileId":"rmdbv3_exact_db40a425ffd9d475046760d970644ba7675f5eec|top_x_279::seq_3faa2348c0a426db|6GYV_A","routeId":"annojoin:profiles:RMDB2PDB:6GYV"},{"pairId":"6GYV:sequence_000570","profileId":"rmdbv3_exact_db40a425ffd9d475046760d970644ba7675f5eec|top_x_279::seq_55a3862502a6827e|6GYV_A","routeId":"annojoin:profiles:RMDB2PDB:6GYV"},{"pairId":"6GYV:sequence_000571","profileId":"rmdbv3_exact_db78be075ca8689757a0bcbc6abde8d7de377fe2|top_x_279::seq_73362f12c57ef5dc|6GYV_A","routeId":"annojoin:profiles:RMDB2PDB:6GYV"},{"pairId":"6GYV:sequence_000572","profileId":"rmdbv3_exact_db78be075ca8689757a0bcbc6abde8d7de377fe2|top_x_279::seq_be554b2906cb7819|6GYV_A","routeId":"annojoin:profiles:RMDB2PDB:6GYV"},{"pairId":"6GYV:sequence_000573","profileId":"rmdbv3_exact_db7aaabedf460072315c297c33b2f32884787ef4|top_x_279::seq_13a7a8ded69e4abc|6GYV_A","routeId":"annojoin:profiles:RMDB2PDB:6GYV"},{"pairId":"6GYV:sequence_000574","profileId":"rmdbv3_exact_db7aaabedf460072315c297c33b2f32884787ef4|top_x_279::seq_5ef59a82a419b9be|6GYV_A","routeId":"annojoin:profiles:RMDB2PDB:6GYV"},{"pairId":"6GYV:sequence_000575","profileId":"rmdbv3_exact_dc772b47edf5f099d64f630bcdecd26817ee071d|top_x_279::seq_7be8e385a634d1c7|6GYV_A","routeId":"annojoin:profiles:RMDB2PDB:6GYV"},{"pairId":"6GYV:sequence_000576","profileId":"rmdbv3_exact_dc772b47edf5f099d64f630bcdecd26817ee071d|top_x_279::seq_de6541b7205a8550|6GYV_A","routeId":"annojoin:profiles:RMDB2PDB:6GYV"},{"pairId":"6GYV:sequence_000577","profileId":"rmdbv3_exact_dcbb03b6f361d5cebc2c0446ea934d177ce2b029|top_x_279::seq_4648033c8443dcaf|6GYV_A","routeId":"annojoin:profiles:RMDB2PDB:6GYV"},{"pairId":"6GYV:sequence_000578","profileId":"rmdbv3_exact_dcbb03b6f361d5cebc2c0446ea934d177ce2b029|top_x_279::seq_91c8096d98a53b05|6GYV_A","routeId":"annojoin:profiles:RMDB2PDB:6GYV"},{"pairId":"6GYV:sequence_000579","profileId":"rmdbv3_exact_dccb538ac0e381e4f3390aea287cb74c4e97a736|top_x_279::seq_51ea1cda0fb297c5|6GYV_A","routeId":"annojoin:profiles:RMDB2PDB:6GYV"},{"pairId":"6GYV:sequence_000580","profileId":"rmdbv3_exact_dccb538ac0e381e4f3390aea287cb74c4e97a736|top_x_279::seq_ec06f2fce47896e4|6GYV_A","routeId":"annojoin:profiles:RMDB2PDB:6GYV"},{"pairId":"6GYV:sequence_000581","profileId":"rmdbv3_exact_dd1910801c42a6152e156fc9254d18bd70256cb5|top_x_279::seq_07e162dcad4041b4|6GYV_A","routeId":"annojoin:profiles:RMDB2PDB:6GYV"},{"pairId":"6GYV:sequence_000582","profileId":"rmdbv3_exact_dd1910801c42a6152e156fc9254d18bd70256cb5|top_x_279::seq_7f153551a37fd9f3|6GYV_A","routeId":"annojoin:profiles:RMDB2PDB:6GYV"},{"pairId":"6GYV:sequence_000583","profileId":"rmdbv3_exact_dd81331e6c051777daa13e5bae223d5cb87d99f0|top_x_279::seq_94d830b1d42bcaf9|6GYV_A","routeId":"annojoin:profiles:RMDB2PDB:6GYV"},{"pairId":"6GYV:sequence_000584","profileId":"rmdbv3_exact_dd81331e6c051777daa13e5bae223d5cb87d99f0|top_x_279::seq_df3465f9e306fa70|6GYV_A","routeId":"annojoin:profiles:RMDB2PDB:6GYV"},{"pairId":"6GYV:sequence_000585","profileId":"rmdbv3_exact_ddce2bf48c633616172cbc98383aa417138cc552|top_x_279::seq_0b596ee748eb028f|6GYV_A","routeId":"annojoin:profiles:RMDB2PDB:6GYV"},{"pairId":"6GYV:sequence_000586","profileId":"rmdbv3_exact_ddce2bf48c633616172cbc98383aa417138cc552|top_x_279::seq_fd57dd5996d69eca|6GYV_A","routeId":"annojoin:profiles:RMDB2PDB:6GYV"},{"pairId":"6GYV:sequence_000587","profileId":"rmdbv3_exact_de9374212ff5a80c8b01a0dad5db2ae37518bc19|top_x_279::seq_72148685888284d5|6GYV_A","routeId":"annojoin:profiles:RMDB2PDB:6GYV"},{"pairId":"6GYV:sequence_000588","profileId":"rmdbv3_exact_de9374212ff5a80c8b01a0dad5db2ae37518bc19|top_x_279::seq_908824f4bd22c9c4|6GYV_A","routeId":"annojoin:profiles:RMDB2PDB:6GYV"},{"pairId":"6GYV:sequence_000589","profileId":"rmdbv3_exact_def3da6f8c6dcb822deaf0b8620d6994d447496f|top_x_279::seq_422094892bb28e4e|6GYV_A","routeId":"annojoin:profiles:RMDB2PDB:6GYV"},{"pairId":"6GYV:sequence_000590","profileId":"rmdbv3_exact_def3da6f8c6dcb822deaf0b8620d6994d447496f|top_x_279::seq_93e06f409471600b|6GYV_A","routeId":"annojoin:profiles:RMDB2PDB:6GYV"},{"pairId":"6GYV:sequence_000591","profileId":"rmdbv3_exact_dfbd2d311a08b8039879cb2ad14f734968c8f75d|top_x_279::seq_35495e40625bbb76|6GYV_A","routeId":"annojoin:profiles:RMDB2PDB:6GYV"},{"pairId":"6GYV:sequence_000592","profileId":"rmdbv3_exact_dfbd2d311a08b8039879cb2ad14f734968c8f75d|top_x_279::seq_3f37dc14599aa51f|6GYV_A","routeId":"annojoin:profiles:RMDB2PDB:6GYV"},{"pairId":"6GYV:sequence_000593","profileId":"rmdbv3_exact_dfd9085ae690233d90475e834f0cbeb1cd498932|top_x_279::seq_2ffdfec8babcb317|6GYV_A","routeId":"annojoin:profiles:RMDB2PDB:6GYV"},{"pairId":"6GYV:sequence_000594","profileId":"rmdbv3_exact_dfd9085ae690233d90475e834f0cbeb1cd498932|top_x_279::seq_eebbeb0a17b4d3fd|6GYV_A","routeId":"annojoin:profiles:RMDB2PDB:6GYV"},{"pairId":"6GYV:sequence_000595","profileId":"rmdbv3_exact_e00afc3ef1315024baa0a142386ce93fa9c5b87e|top_x_279::seq_42af0d4887af1721|6GYV_A","routeId":"annojoin:profiles:RMDB2PDB:6GYV"},{"pairId":"6GYV:sequence_000596","profileId":"rmdbv3_exact_e00afc3ef1315024baa0a142386ce93fa9c5b87e|top_x_279::seq_6a5e629ff0701783|6GYV_A","routeId":"annojoin:profiles:RMDB2PDB:6GYV"},{"pairId":"6GYV:sequence_000597","profileId":"rmdbv3_exact_e010137bf550478a9ec96ee43681842e0b74f017|top_x_279::seq_7d143dae7c3be3d5|6GYV_A","routeId":"annojoin:profiles:RMDB2PDB:6GYV"},{"pairId":"6GYV:sequence_000598","profileId":"rmdbv3_exact_e010137bf550478a9ec96ee43681842e0b74f017|top_x_279::seq_acbaca8db61e85bc|6GYV_A","routeId":"annojoin:profiles:RMDB2PDB:6GYV"},{"pairId":"6GYV:sequence_000599","profileId":"rmdbv3_exact_e02aaed1fe567a760197b6030f7fd1242f40a2b2|top_x_279::seq_1bf063433ed18f21|6GYV_A","routeId":"annojoin:profiles:RMDB2PDB:6GYV"},{"pairId":"6GYV:sequence_000600","profileId":"rmdbv3_exact_e02aaed1fe567a760197b6030f7fd1242f40a2b2|top_x_279::seq_66a35cf7084c85f2|6GYV_A","routeId":"annojoin:profiles:RMDB2PDB:6GYV"},{"pairId":"6GYV:sequence_000601","profileId":"rmdbv3_exact_e14b3fe7e94a7546c49218cd3b7b8dbdd782f45c|top_x_279::seq_f729b7910b6cf5f8|6GYV_A","routeId":"annojoin:profiles:RMDB2PDB:6GYV"},{"pairId":"6GYV:sequence_000602","profileId":"rmdbv3_exact_e14b3fe7e94a7546c49218cd3b7b8dbdd782f45c|top_x_279::seq_fe004b1160048be3|6GYV_A","routeId":"annojoin:profiles:RMDB2PDB:6GYV"},{"pairId":"6GYV:sequence_000603","profileId":"rmdbv3_exact_e3f44c3507abe2971d123a50f92b8d8207f23cd5|top_x_279::seq_d236743d2e02711c|6GYV_A","routeId":"annojoin:profiles:RMDB2PDB:6GYV"},{"pairId":"6GYV:sequence_000604","profileId":"rmdbv3_exact_e3f44c3507abe2971d123a50f92b8d8207f23cd5|top_x_279::seq_df0f2c4637e7463f|6GYV_A","routeId":"annojoin:profiles:RMDB2PDB:6GYV"},{"pairId":"6GYV:sequence_000605","profileId":"rmdbv3_exact_e543ea038e0a2267dcf66e01d80688fb8f5ad65c|top_x_279::seq_50e84cb5bf1608b8|6GYV_A","routeId":"annojoin:profiles:RMDB2PDB:6GYV"},{"pairId":"6GYV:sequence_000606","profileId":"rmdbv3_exact_e543ea038e0a2267dcf66e01d80688fb8f5ad65c|top_x_279::seq_dd7e94c9e289629e|6GYV_A","routeId":"annojoin:profiles:RMDB2PDB:6GYV"},{"pairId":"6GYV:sequence_000607","profileId":"rmdbv3_exact_e62908b72d6f794d4a46e952f0674805c732ae9a|top_x_279::seq_6534830247881dbb|6GYV_A","routeId":"annojoin:profiles:RMDB2PDB:6GYV"},{"pairId":"6GYV:sequence_000608","profileId":"rmdbv3_exact_e62908b72d6f794d4a46e952f0674805c732ae9a|top_x_279::seq_bc27bf68c0d23045|6GYV_A","routeId":"annojoin:profiles:RMDB2PDB:6GYV"},{"pairId":"6GYV:sequence_000609","profileId":"rmdbv3_exact_e70f6025c5df2468b47c2851be0996409b10b9bf|top_x_279::seq_820938c36d900f65|6GYV_A","routeId":"annojoin:profiles:RMDB2PDB:6GYV"},{"pairId":"6GYV:sequence_000610","profileId":"rmdbv3_exact_e70f6025c5df2468b47c2851be0996409b10b9bf|top_x_279::seq_cd51ca364808b660|6GYV_A","routeId":"annojoin:profiles:RMDB2PDB:6GYV"},{"pairId":"6GYV:sequence_000611","profileId":"rmdbv3_exact_ea77512ccf3b863555d678f86693da300016e015|top_x_279::seq_66c6513df785f319|6GYV_A","routeId":"annojoin:profiles:RMDB2PDB:6GYV"},{"pairId":"6GYV:sequence_000612","profileId":"rmdbv3_exact_ea77512ccf3b863555d678f86693da300016e015|top_x_279::seq_e127a5b935138e3b|6GYV_A","routeId":"annojoin:profiles:RMDB2PDB:6GYV"},{"pairId":"6GYV:sequence_000613","profileId":"rmdbv3_exact_eb1025958738a1bd548722d395b580e4734960dd|top_x_279::seq_43c66007662d3ffd|6GYV_A","routeId":"annojoin:profiles:RMDB2PDB:6GYV"},{"pairId":"6GYV:sequence_000614","profileId":"rmdbv3_exact_eb1025958738a1bd548722d395b580e4734960dd|top_x_279::seq_b155e0fcc715f56f|6GYV_A","routeId":"annojoin:profiles:RMDB2PDB:6GYV"},{"pairId":"6GYV:sequence_000615","profileId":"rmdbv3_exact_eb151c0e669d59dc7b549320d31f61562e5c7bae|top_x_279::seq_0bdd88c617343354|6GYV_A","routeId":"annojoin:profiles:RMDB2PDB:6GYV"},{"pairId":"6GYV:sequence_000616","profileId":"rmdbv3_exact_eb151c0e669d59dc7b549320d31f61562e5c7bae|top_x_279::seq_1fb3f3108973883d|6GYV_A","routeId":"annojoin:profiles:RMDB2PDB:6GYV"},{"pairId":"6GYV:sequence_000617","profileId":"rmdbv3_exact_ecf1a9f66cccf03421a2ca2fb7c5be8b1dbb95f5|top_x_279::seq_6e2412b63f1a66b8|6GYV_A","routeId":"annojoin:profiles:RMDB2PDB:6GYV"},{"pairId":"6GYV:sequence_000618","profileId":"rmdbv3_exact_ecf1a9f66cccf03421a2ca2fb7c5be8b1dbb95f5|top_x_279::seq_b3df7561b5b9e139|6GYV_A","routeId":"annojoin:profiles:RMDB2PDB:6GYV"},{"pairId":"6GYV:sequence_000619","profileId":"rmdbv3_exact_edd7f67d89ef27e92bab8df2ba0add597ca69a53|top_x_279::seq_21aaf66baa01c270|6GYV_A","routeId":"annojoin:profiles:RMDB2PDB:6GYV"},{"pairId":"6GYV:sequence_000620","profileId":"rmdbv3_exact_edd7f67d89ef27e92bab8df2ba0add597ca69a53|top_x_279::seq_b942662d2c59caef|6GYV_A","routeId":"annojoin:profiles:RMDB2PDB:6GYV"},{"pairId":"6GYV:sequence_000623","profileId":"rmdbv3_exact_efc2ace7c033e4d00786ed05237dc466f447fa9f|top_x_279::seq_77dafa4ba13349ff|6GYV_A","routeId":"annojoin:profiles:RMDB2PDB:6GYV"},{"pairId":"6GYV:sequence_000624","profileId":"rmdbv3_exact_efc2ace7c033e4d00786ed05237dc466f447fa9f|top_x_279::seq_a974ab5a098e1028|6GYV_A","routeId":"annojoin:profiles:RMDB2PDB:6GYV"},{"pairId":"6GYV:sequence_000625","profileId":"rmdbv3_exact_eff0ce5eeab5cb88290f349a4f875f352a58e598|top_x_279::seq_29857c3d1037e617|6GYV_A","routeId":"annojoin:profiles:RMDB2PDB:6GYV"},{"pairId":"6GYV:sequence_000626","profileId":"rmdbv3_exact_eff0ce5eeab5cb88290f349a4f875f352a58e598|top_x_279::seq_9fc6f82c2feae937|6GYV_A","routeId":"annojoin:profiles:RMDB2PDB:6GYV"},{"pairId":"6GYV:sequence_000628","profileId":"rmdbv3_exact_f0145c8f8ae5842dd3cf8873c989980b2b5191d7|top_x_279::seq_742fb7a1b6a756df|6GYV_A","routeId":"annojoin:profiles:RMDB2PDB:6GYV"},{"pairId":"6GYV:sequence_000630","profileId":"rmdbv3_exact_f09754edbe3fc50fdf90d257c2dcc2c16850f8be|top_x_279::seq_4b7e3542818bd397|6GYV_A","routeId":"annojoin:profiles:RMDB2PDB:6GYV"},{"pairId":"6GYV:sequence_000631","profileId":"rmdbv3_exact_f1a35f6c4e0871e5d1076a32b305059869e3c655|top_x_279::seq_23c27757f9ce868e|6GYV_A","routeId":"annojoin:profiles:RMDB2PDB:6GYV"},{"pairId":"6GYV:sequence_000632","profileId":"rmdbv3_exact_f1a35f6c4e0871e5d1076a32b305059869e3c655|top_x_279::seq_fecf4c2c4030a13c|6GYV_A","routeId":"annojoin:profiles:RMDB2PDB:6GYV"},{"pairId":"6GYV:sequence_000633","profileId":"rmdbv3_exact_f1de15966cd12a49cc321de8f9a616dc873ad925|top_x_279::seq_5e950a6b249fb9e9|6GYV_A","routeId":"annojoin:profiles:RMDB2PDB:6GYV"},{"pairId":"6GYV:sequence_000634","profileId":"rmdbv3_exact_f1de15966cd12a49cc321de8f9a616dc873ad925|top_x_279::seq_95bac621484095cd|6GYV_A","routeId":"annojoin:profiles:RMDB2PDB:6GYV"},{"pairId":"6GYV:sequence_000635","profileId":"rmdbv3_exact_f23e725e0b81e09a65efbe7921995ffb2d1e9039|top_x_279::seq_b4a4f82188b003b9|6GYV_A","routeId":"annojoin:profiles:RMDB2PDB:6GYV"},{"pairId":"6GYV:sequence_000636","profileId":"rmdbv3_exact_f23e725e0b81e09a65efbe7921995ffb2d1e9039|top_x_279::seq_e0f88f7095571edf|6GYV_A","routeId":"annojoin:profiles:RMDB2PDB:6GYV"},{"pairId":"6GYV:sequence_000637","profileId":"rmdbv3_exact_f3015aab59c70e252d4cccb4a102b8bc437d74d4|top_x_279::seq_2aa4382f7563fd46|6GYV_A","routeId":"annojoin:profiles:RMDB2PDB:6GYV"},{"pairId":"6GYV:sequence_000638","profileId":"rmdbv3_exact_f3015aab59c70e252d4cccb4a102b8bc437d74d4|top_x_279::seq_4e734a4c79776080|6GYV_A","routeId":"annojoin:profiles:RMDB2PDB:6GYV"},{"pairId":"6GYV:sequence_000639","profileId":"rmdbv3_exact_f365739f34c6321dd93cfe347c46fea6a06ef44d|top_x_279::seq_09f7486949106a33|6GYV_A","routeId":"annojoin:profiles:RMDB2PDB:6GYV"},{"pairId":"6GYV:sequence_000640","profileId":"rmdbv3_exact_f365739f34c6321dd93cfe347c46fea6a06ef44d|top_x_279::seq_588838f1860b3f52|6GYV_A","routeId":"annojoin:profiles:RMDB2PDB:6GYV"},{"pairId":"6GYV:sequence_000641","profileId":"rmdbv3_exact_f3678e05ea90d0498208ddfb3807d8cccead4b88|top_x_279::seq_2317c86764d6b87d|6GYV_A","routeId":"annojoin:profiles:RMDB2PDB:6GYV"},{"pairId":"6GYV:sequence_000642","profileId":"rmdbv3_exact_f3678e05ea90d0498208ddfb3807d8cccead4b88|top_x_279::seq_a69f57a53f5a82e2|6GYV_A","routeId":"annojoin:profiles:RMDB2PDB:6GYV"},{"pairId":"6GYV:sequence_000643","profileId":"rmdbv3_exact_f3fede098f7109a6455251011772ebb84447c1b7|top_x_279::seq_98da7842c15dab05|6GYV_A","routeId":"annojoin:profiles:RMDB2PDB:6GYV"},{"pairId":"6GYV:sequence_000644","profileId":"rmdbv3_exact_f3fede098f7109a6455251011772ebb84447c1b7|top_x_279::seq_eb76743365e20b06|6GYV_A","routeId":"annojoin:profiles:RMDB2PDB:6GYV"},{"pairId":"6GYV:sequence_000645","profileId":"rmdbv3_exact_f4354cc69e71c41cb8880c9656175a21f98c169e|top_x_279::seq_0ff1b9da9bf109fd|6GYV_A","routeId":"annojoin:profiles:RMDB2PDB:6GYV"},{"pairId":"6GYV:sequence_000646","profileId":"rmdbv3_exact_f4354cc69e71c41cb8880c9656175a21f98c169e|top_x_279::seq_bd759ae888226234|6GYV_A","routeId":"annojoin:profiles:RMDB2PDB:6GYV"},{"pairId":"6GYV:sequence_000647","profileId":"rmdbv3_exact_f5197bbfc643403a08905d3532b77b5098679e01|top_x_279::seq_106b22c54723cd77|6GYV_A","routeId":"annojoin:profiles:RMDB2PDB:6GYV"},{"pairId":"6GYV:sequence_000648","profileId":"rmdbv3_exact_f5197bbfc643403a08905d3532b77b5098679e01|top_x_279::seq_f1a9e02d9b4c3463|6GYV_A","routeId":"annojoin:profiles:RMDB2PDB:6GYV"},{"pairId":"6GYV:sequence_000649","profileId":"rmdbv3_exact_f51a9060d972ed7e5e230f9cc3212af6600d2acb|top_x_279::seq_477b43e21573d46e|6GYV_A","routeId":"annojoin:profiles:RMDB2PDB:6GYV"},{"pairId":"6GYV:sequence_000650","profileId":"rmdbv3_exact_f51a9060d972ed7e5e230f9cc3212af6600d2acb|top_x_279::seq_95acfedfe0ac7d85|6GYV_A","routeId":"annojoin:profiles:RMDB2PDB:6GYV"},{"pairId":"6GYV:sequence_000651","profileId":"rmdbv3_exact_f52615e143150d2e4fa7c71bfbaf007d78e256c4|top_x_279::seq_6eb1834b6d865be0|6GYV_A","routeId":"annojoin:profiles:RMDB2PDB:6GYV"},{"pairId":"6GYV:sequence_000652","profileId":"rmdbv3_exact_f52615e143150d2e4fa7c71bfbaf007d78e256c4|top_x_279::seq_9482174e3aa7a32d|6GYV_A","routeId":"annojoin:profiles:RMDB2PDB:6GYV"},{"pairId":"6GYV:sequence_000653","profileId":"rmdbv3_exact_f5f2fecec02abd203b97b497ee5572bb551e5987|top_x_279::seq_8fff56b3fb7e3392|6GYV_A","routeId":"annojoin:profiles:RMDB2PDB:6GYV"},{"pairId":"6GYV:sequence_000654","profileId":"rmdbv3_exact_f5f2fecec02abd203b97b497ee5572bb551e5987|top_x_279::seq_f63f93459b1f5a3a|6GYV_A","routeId":"annojoin:profiles:RMDB2PDB:6GYV"},{"pairId":"6GYV:sequence_000655","profileId":"rmdbv3_exact_f7a2ad35a6c0c3bad58f989bf14f8a7bba3ae1b6|top_x_279::seq_250a86ecee92e134|6GYV_A","routeId":"annojoin:profiles:RMDB2PDB:6GYV"},{"pairId":"6GYV:sequence_000656","profileId":"rmdbv3_exact_f7a2ad35a6c0c3bad58f989bf14f8a7bba3ae1b6|top_x_279::seq_f3f0eb4c4bd525b0|6GYV_A","routeId":"annojoin:profiles:RMDB2PDB:6GYV"},{"pairId":"6GYV:sequence_000657","profileId":"rmdbv3_exact_f8f73073508cc207ebf18ad5e5cf6186a33e8e83|top_x_279::seq_421088a04ba4a13d|6GYV_A","routeId":"annojoin:profiles:RMDB2PDB:6GYV"},{"pairId":"6GYV:sequence_000658","profileId":"rmdbv3_exact_f8f73073508cc207ebf18ad5e5cf6186a33e8e83|top_x_279::seq_c5b1c614633e6100|6GYV_A","routeId":"annojoin:profiles:RMDB2PDB:6GYV"},{"pairId":"6GYV:sequence_000659","profileId":"rmdbv3_exact_f99fe45701388b29262677453b835aa7c3cd9aa4|top_x_279::seq_1137e60becda442f|6GYV_A","routeId":"annojoin:profiles:RMDB2PDB:6GYV"},{"pairId":"6GYV:sequence_000660","profileId":"rmdbv3_exact_f99fe45701388b29262677453b835aa7c3cd9aa4|top_x_279::seq_b0f71e25c4d8ecd0|6GYV_A","routeId":"annojoin:profiles:RMDB2PDB:6GYV"},{"pairId":"6GYV:sequence_000661","profileId":"rmdbv3_exact_fc171e171641c6241e9978259a8d9a62e67be4da|top_x_279::seq_4f1e8b58a8569d1e|6GYV_A","routeId":"annojoin:profiles:RMDB2PDB:6GYV"},{"pairId":"6GYV:sequence_000662","profileId":"rmdbv3_exact_fc171e171641c6241e9978259a8d9a62e67be4da|top_x_279::seq_9218a546f44ac519|6GYV_A","routeId":"annojoin:profiles:RMDB2PDB:6GYV"},{"pairId":"6GYV:sequence_000664","profileId":"rmdbv3_exact_fd57875e631527efe52b1e768874cf245570cf53|top_x_279::seq_3b9fceaff1989e52|6GYV_A","routeId":"annojoin:profiles:RMDB2PDB:6GYV"},{"pairId":"6GYV:sequence_000665","profileId":"rmdbv3_exact_ffc8c5a9a179be4310bc4816bbd9cbf842422358|top_x_279::seq_481d5be64fca2792|6GYV_A","routeId":"annojoin:profiles:RMDB2PDB:6GYV"},{"pairId":"6GYV:sequence_000666","profileId":"rmdbv3_exact_ffc8c5a9a179be4310bc4816bbd9cbf842422358|top_x_279::seq_a7c466d1dde629d2|6GYV_A","routeId":"annojoin:profiles:RMDB2PDB:6GYV"},{"pairId":"6GYV:sequence_000667","profileId":"rmdbv3_exact_ffe53ef4265b5e712598e299e50d1091942e0f90|top_x_279::seq_8b70d280f56bf4a6|6GYV_A","routeId":"annojoin:profiles:RMDB2PDB:6GYV"},{"pairId":"6GYV:sequence_000668","profileId":"rmdbv3_exact_ffe53ef4265b5e712598e299e50d1091942e0f90|top_x_279::seq_de209b329e144720|6GYV_A","routeId":"annojoin:profiles:RMDB2PDB:6GYV"}]}
