{"schemaVersion":"annojoin-atlas.v1","version":"V2.1_RMDB_LINE_A_20260617","atlasCaseKey":"RMDB2PDB:5ZEY","caseId":"5ZEY","routeKey":"conflicts","page":2,"pageSize":500,"totalRows":513,"pageCount":2,"rows":[{"id":"RMDB2PDB|conflict|pairseg_5ZEY_sequence_000574","routeId":"annojoin:conflict:RMDB2PDB:pairseg_5ZEY_sequence_000574","type":"structure_signal_discordance_candidate","status":"none_detected","fecClaimCeiling":"","claimScope":"","lssStatus":"LSS_NOT_EVALUABLE","reviewPriorityHint":"no_conflict_review_priority"},{"id":"RMDB2PDB|conflict|pairseg_5ZEY_sequence_000575","routeId":"annojoin:conflict:RMDB2PDB:pairseg_5ZEY_sequence_000575","type":"structure_signal_discordance_candidate","status":"none_detected","fecClaimCeiling":"","claimScope":"","lssStatus":"LSS_NOT_EVALUABLE","reviewPriorityHint":"no_conflict_review_priority"},{"id":"RMDB2PDB|conflict|pairseg_5ZEY_sequence_000576","routeId":"annojoin:conflict:RMDB2PDB:pairseg_5ZEY_sequence_000576","type":"structure_signal_discordance_candidate","status":"none_detected","fecClaimCeiling":"","claimScope":"","lssStatus":"LSS_NOT_EVALUABLE","reviewPriorityHint":"no_conflict_review_priority"},{"id":"RMDB2PDB|conflict|pairseg_5ZEY_sequence_000577","routeId":"annojoin:conflict:RMDB2PDB:pairseg_5ZEY_sequence_000577","type":"structure_signal_discordance_candidate","status":"none_detected","fecClaimCeiling":"","claimScope":"","lssStatus":"LSS_NOT_EVALUABLE","reviewPriorityHint":"no_conflict_review_priority"},{"id":"RMDB2PDB|conflict|pairseg_5ZEY_sequence_000578","routeId":"annojoin:conflict:RMDB2PDB:pairseg_5ZEY_sequence_000578","type":"structure_signal_discordance_candidate","status":"none_detected","fecClaimCeiling":"","claimScope":"","lssStatus":"LSS_NOT_EVALUABLE","reviewPriorityHint":"no_conflict_review_priority"},{"id":"RMDB2PDB|conflict|pairseg_5ZEY_sequence_000579","routeId":"annojoin:conflict:RMDB2PDB:pairseg_5ZEY_sequence_000579","type":"structure_signal_discordance_candidate","status":"none_detected","fecClaimCeiling":"","claimScope":"","lssStatus":"LSS_NOT_EVALUABLE","reviewPriorityHint":"no_conflict_review_priority"},{"id":"RMDB2PDB|conflict|pairseg_5ZEY_sequence_000580","routeId":"annojoin:conflict:RMDB2PDB:pairseg_5ZEY_sequence_000580","type":"structure_signal_discordance_candidate","status":"none_detected","fecClaimCeiling":"","claimScope":"","lssStatus":"LSS_NOT_EVALUABLE","reviewPriorityHint":"no_conflict_review_priority"},{"id":"RMDB2PDB|conflict|pairseg_5ZEY_sequence_000581","routeId":"annojoin:conflict:RMDB2PDB:pairseg_5ZEY_sequence_000581","type":"structure_signal_discordance_candidate","status":"none_detected","fecClaimCeiling":"","claimScope":"","lssStatus":"LSS_NOT_EVALUABLE","reviewPriorityHint":"no_conflict_review_priority"},{"id":"RMDB2PDB|conflict|pairseg_5ZEY_sequence_000582","routeId":"annojoin:conflict:RMDB2PDB:pairseg_5ZEY_sequence_000582","type":"structure_signal_discordance_candidate","status":"none_detected","fecClaimCeiling":"","claimScope":"","lssStatus":"LSS_NOT_EVALUABLE","reviewPriorityHint":"no_conflict_review_priority"},{"id":"RMDB2PDB|conflict|pairseg_5ZEY_sequence_000583","routeId":"annojoin:conflict:RMDB2PDB:pairseg_5ZEY_sequence_000583","type":"structure_signal_discordance_candidate","status":"none_detected","fecClaimCeiling":"","claimScope":"","lssStatus":"LSS_NOT_EVALUABLE","reviewPriorityHint":"no_conflict_review_priority"},{"id":"RMDB2PDB|conflict|pairseg_5ZEY_sequence_000584","routeId":"annojoin:conflict:RMDB2PDB:pairseg_5ZEY_sequence_000584","type":"structure_signal_discordance_candidate","status":"none_detected","fecClaimCeiling":"","claimScope":"","lssStatus":"LSS_NOT_EVALUABLE","reviewPriorityHint":"no_conflict_review_priority"},{"id":"RMDB2PDB|conflict|pairseg_5ZEY_sequence_000585","routeId":"annojoin:conflict:RMDB2PDB:pairseg_5ZEY_sequence_000585","type":"structure_signal_discordance_candidate","status":"none_detected","fecClaimCeiling":"","claimScope":"","lssStatus":"LSS_NOT_EVALUABLE","reviewPriorityHint":"no_conflict_review_priority"},{"id":"RMDB2PDB|conflict|pairseg_5ZEY_sequence_000586","routeId":"annojoin:conflict:RMDB2PDB:pairseg_5ZEY_sequence_000586","type":"structure_signal_discordance_candidate","status":"none_detected","fecClaimCeiling":"","claimScope":"","lssStatus":"LSS_NOT_EVALUABLE","reviewPriorityHint":"no_conflict_review_priority"}]}
