{"schemaVersion":"annojoin-atlas.v1","version":"V2.1_RMDB_LINE_A_20260617","atlasCaseKey":"RMDB2PDB:4OQU","caseId":"4OQU","routeKey":"memberships","page":2,"pageSize":500,"totalRows":580,"pageCount":2,"rows":[{"pairId":"4OQU:sequence_000501","profileId":"rmdbv3_exact_d4e62103c102387fc837cb56664893bd73b8ddb0|top_x_279::seq_38e69c3aae45286c|4OQU_A","routeId":"annojoin:profiles:RMDB2PDB:4OQU"},{"pairId":"4OQU:sequence_000502","profileId":"rmdbv3_exact_f60c1e8b443ce65ae68ffcf2be5c76fa6def8014|top_x_279::seq_6ad01747a8f84901|4OQU_A","routeId":"annojoin:profiles:RMDB2PDB:4OQU"},{"pairId":"4OQU:sequence_000503","profileId":"rmdbv3_exact_f8d3abb82398cc217af0a6cacf826b62492a1711|top_x_279::seq_48d98b696aef9e68|4OQU_A","routeId":"annojoin:profiles:RMDB2PDB:4OQU"},{"pairId":"4OQU:sequence_000504","profileId":"rmdbv3_exact_48994bba426174dbb427050b6b3438ad0b0f4380|top_x_279::seq_afe395ff020c4725|4OQU_A","routeId":"annojoin:profiles:RMDB2PDB:4OQU"},{"pairId":"4OQU:sequence_000505","profileId":"rmdbv3_exact_64a5bb32ba9c2e0bc8c5d9d31f14275ae9231653|top_x_279::seq_43a3c48389a8b403|4OQU_A","routeId":"annojoin:profiles:RMDB2PDB:4OQU"},{"pairId":"4OQU:sequence_000506","profileId":"rmdbv3_exact_b3730bffaf3a9ec08887c08e42f9762808315b52|top_x_279::seq_1ac014fcd41efbdf|4OQU_A","routeId":"annojoin:profiles:RMDB2PDB:4OQU"},{"pairId":"4OQU:sequence_000507","profileId":"rmdbv3_exact_c38a42864068784af1d7e01725b3f18cc2d42bf7|top_x_279::seq_980d4738505dc89f|4OQU_A","routeId":"annojoin:profiles:RMDB2PDB:4OQU"},{"pairId":"4OQU:sequence_000508","profileId":"rmdbv3_exact_832f0b7a423c50bcebe505ba37621e51f5edb2f8|top_x_279::seq_eca00703000b3a11|4OQU_A","routeId":"annojoin:profiles:RMDB2PDB:4OQU"},{"pairId":"4OQU:sequence_000509","profileId":"rmdbv3_exact_f23ad35a904e504109f5b475abf6888c474d5df1|top_x_279::seq_fcd319f71b6495a1|4OQU_A","routeId":"annojoin:profiles:RMDB2PDB:4OQU"},{"pairId":"4OQU:sequence_000510","profileId":"rmdbv3_exact_9af05da2a097bc22b1f78df8889140cbc7f6ce88|top_x_279::seq_0e5ed458a4345500|4OQU_A","routeId":"annojoin:profiles:RMDB2PDB:4OQU"},{"pairId":"4OQU:sequence_000511","profileId":"rmdbv3_exact_04e09db3c80c616b95095ceab3dc5bb8c33105c3|top_x_279::seq_b7b5e5928545783d|4OQU_A","routeId":"annojoin:profiles:RMDB2PDB:4OQU"},{"pairId":"4OQU:sequence_000512","profileId":"rmdbv3_exact_22763dfa74fbfc88d9d78fe8cbb8a59ea2ae3127|top_x_279::seq_1c25173d8727330c|4OQU_A","routeId":"annojoin:profiles:RMDB2PDB:4OQU"},{"pairId":"4OQU:sequence_000513","profileId":"rmdbv3_exact_2cf4f616a5cd6b51307a9125832fd15b378f7e00|top_x_279::seq_79c7cfdf8ad3532e|4OQU_A","routeId":"annojoin:profiles:RMDB2PDB:4OQU"},{"pairId":"4OQU:sequence_000514","profileId":"rmdbv3_exact_334f30dd96d86dac0da67706cba9500a43dfd7ef|top_x_279::seq_e2307ed1104d82a0|4OQU_A","routeId":"annojoin:profiles:RMDB2PDB:4OQU"},{"pairId":"4OQU:sequence_000515","profileId":"rmdbv3_exact_335895bbecc92d31c24933ed38996db9ef53603b|top_x_279::seq_43fd96c4378acd60|4OQU_A","routeId":"annojoin:profiles:RMDB2PDB:4OQU"},{"pairId":"4OQU:sequence_000516","profileId":"rmdbv3_exact_3d59c616ac5e13ae4e776a80c1d4eb193ec34292|top_x_279::seq_933e59667690ffa1|4OQU_A","routeId":"annojoin:profiles:RMDB2PDB:4OQU"},{"pairId":"4OQU:sequence_000517","profileId":"rmdbv3_exact_4c1ba590bba4f462bb4541ac5b84c48948ff2534|top_x_279::seq_39fdd06a3c56294b|4OQU_A","routeId":"annojoin:profiles:RMDB2PDB:4OQU"},{"pairId":"4OQU:sequence_000518","profileId":"rmdbv3_exact_57476ffbc5da9ff364e6a4d61b19868f7842df91|top_x_279::seq_5841e853838b8ade|4OQU_A","routeId":"annojoin:profiles:RMDB2PDB:4OQU"},{"pairId":"4OQU:sequence_000519","profileId":"rmdbv3_exact_6bfae06f3b6c9ade5c42bb3f22972ed8589db08e|top_x_279::seq_31062c84f0b1842a|4OQU_A","routeId":"annojoin:profiles:RMDB2PDB:4OQU"},{"pairId":"4OQU:sequence_000520","profileId":"rmdbv3_exact_8140c495684f83052c06f6b2e1f85c38b3d113ec|top_x_279::seq_bac012c79d37e0a7|4OQU_A","routeId":"annojoin:profiles:RMDB2PDB:4OQU"},{"pairId":"4OQU:sequence_000521","profileId":"rmdbv3_exact_882e7a7a5a79309f1951e6dbc4b17c6d1fd12f20|top_x_279::seq_692bacdb8b0b0037|4OQU_A","routeId":"annojoin:profiles:RMDB2PDB:4OQU"},{"pairId":"4OQU:sequence_000522","profileId":"rmdbv3_exact_3703c6c0fddd018871b2ac8b415d3cfc7c6183a1|top_x_279::seq_c608b122dfb0a6ab|4OQU_A","routeId":"annojoin:profiles:RMDB2PDB:4OQU"},{"pairId":"4OQU:sequence_000523","profileId":"rmdbv3_exact_ab739d5b42ee9559c337cf921f91215d3c5dcde0|top_x_279::seq_9af9b9642286887a|4OQU_A","routeId":"annojoin:profiles:RMDB2PDB:4OQU"},{"pairId":"4OQU:sequence_000524","profileId":"rmdbv3_exact_fe246cd97987bb68ccbac4092310720ec668370f|top_x_279::seq_407d5c6bf4bcd132|4OQU_A","routeId":"annojoin:profiles:RMDB2PDB:4OQU"},{"pairId":"4OQU:sequence_000525","profileId":"rmdbv3_exact_274001311e7ff4975b38142b98068a392810647c|top_x_279::seq_a9fc869bbd69d564|4OQU_A","routeId":"annojoin:profiles:RMDB2PDB:4OQU"},{"pairId":"4OQU:sequence_000526","profileId":"rmdbv3_exact_51d9769d9fa414f71e554290f94f26563bd8f143|top_x_279::seq_42473af7e8f10a29|4OQU_A","routeId":"annojoin:profiles:RMDB2PDB:4OQU"},{"pairId":"4OQU:sequence_000527","profileId":"rmdbv3_exact_98075c88ca5fe52e95d327a16be6fcc28f09caa7|top_x_279::seq_0cefcf23bc20dc17|4OQU_A","routeId":"annojoin:profiles:RMDB2PDB:4OQU"},{"pairId":"4OQU:sequence_000528","profileId":"rmdbv3_exact_c020327e8e02e72f1da60eb237415a1c331d25ac|top_x_279::seq_72764845aace1c0e|4OQU_A","routeId":"annojoin:profiles:RMDB2PDB:4OQU"},{"pairId":"4OQU:sequence_000529","profileId":"rmdbv3_exact_1cc8ff848407aebc9193cdbe89fbd750e542fc75|top_x_279::seq_ab347ff09c300d01|4OQU_A","routeId":"annojoin:profiles:RMDB2PDB:4OQU"},{"pairId":"4OQU:sequence_000530","profileId":"rmdbv3_exact_faffef4dd21d54b1b28205c8518ef701266ce93a|top_x_279::seq_3e6674f245d7cd2b|4OQU_A","routeId":"annojoin:profiles:RMDB2PDB:4OQU"},{"pairId":"4OQU:sequence_000531","profileId":"rmdbv3_exact_20d4b2c7989a073e8fde7319a9ecac4f42b54531|top_x_279::seq_cf36fb89d2daf4a2|4OQU_A","routeId":"annojoin:profiles:RMDB2PDB:4OQU"},{"pairId":"4OQU:sequence_000532","profileId":"rmdbv3_exact_276019b16469a2375cde2b8b69919bb812c35b8e|top_x_279::seq_57ec9670bc43f68c|4OQU_A","routeId":"annojoin:profiles:RMDB2PDB:4OQU"},{"pairId":"4OQU:sequence_000533","profileId":"rmdbv3_exact_5a4fc6b7f42bf4e85e2e7be4e9e245a8327dd066|top_x_279::seq_cbfe2fbccbc23c78|4OQU_A","routeId":"annojoin:profiles:RMDB2PDB:4OQU"},{"pairId":"4OQU:sequence_000534","profileId":"rmdbv3_exact_7adb13d49db68ade01aa5c7419ec42bd1e9f4c37|top_x_279::seq_67731e1492ec839a|4OQU_A","routeId":"annojoin:profiles:RMDB2PDB:4OQU"},{"pairId":"4OQU:sequence_000535","profileId":"rmdbv3_exact_91d0432f4353f73f4792234d13e1b63a593cc0e3|top_x_279::seq_7580ed6f034737ce|4OQU_A","routeId":"annojoin:profiles:RMDB2PDB:4OQU"},{"pairId":"4OQU:sequence_000536","profileId":"rmdbv3_exact_b38b886516506f1b5d217dc7c955069cc7c05a2c|top_x_279::seq_715f09abb5b28617|4OQU_A","routeId":"annojoin:profiles:RMDB2PDB:4OQU"},{"pairId":"4OQU:sequence_000537","profileId":"rmdbv3_exact_c76641f35626c044bcfd551261479746e9676c09|top_x_279::seq_2457868b748d64de|4OQU_A","routeId":"annojoin:profiles:RMDB2PDB:4OQU"},{"pairId":"4OQU:sequence_000538","profileId":"rmdbv3_exact_e5f4e20410db91869f73219406778f42690533bb|top_x_279::seq_b22432a532b0055c|4OQU_A","routeId":"annojoin:profiles:RMDB2PDB:4OQU"},{"pairId":"4OQU:sequence_000539","profileId":"rmdbv3_exact_5829eec519bbd798276357658c40d0d7427cec63|top_x_279::seq_10b5a75961c511c7|4OQU_A","routeId":"annojoin:profiles:RMDB2PDB:4OQU"},{"pairId":"4OQU:sequence_000540","profileId":"rmdbv3_exact_7d3aa5d2641d319ba045e8f6b013d925cd4dfdf3|top_x_279::seq_ffbba12068975d1d|4OQU_A","routeId":"annojoin:profiles:RMDB2PDB:4OQU"},{"pairId":"4OQU:sequence_000541","profileId":"rmdbv3_exact_49071b114ae36d5a0fc82d749cb6556e8d32f739|top_x_279::seq_f199a92aed882caf|4OQU_A","routeId":"annojoin:profiles:RMDB2PDB:4OQU"},{"pairId":"4OQU:sequence_000542","profileId":"rmdbv3_exact_29ec11857ed4c8b48d1e62e150c6b46656368079|top_x_279::seq_db8661d02d89816c|4OQU_A","routeId":"annojoin:profiles:RMDB2PDB:4OQU"},{"pairId":"4OQU:sequence_000543","profileId":"rmdbv3_exact_3dd5e342895ce2a2b9289b82f7df97e4d1ae2f85|top_x_279::seq_72c6eb8ef5e65d93|4OQU_A","routeId":"annojoin:profiles:RMDB2PDB:4OQU"},{"pairId":"4OQU:sequence_000544","profileId":"rmdbv3_exact_5d1a8fd56608a97ebdefef1949b9a03566f16799|top_x_279::seq_6495eea5dca6d736|4OQU_A","routeId":"annojoin:profiles:RMDB2PDB:4OQU"},{"pairId":"4OQU:sequence_000545","profileId":"rmdbv3_exact_9956f9df1020f7b08bc3ea310df8c190af86be04|top_x_279::seq_33c2c7b995e66d47|4OQU_A","routeId":"annojoin:profiles:RMDB2PDB:4OQU"},{"pairId":"4OQU:sequence_000546","profileId":"rmdbv3_exact_d7b663511c84efa44945d6feb265723dcbf4f68b|top_x_279::seq_21bb8e5954aa8ef4|4OQU_A","routeId":"annojoin:profiles:RMDB2PDB:4OQU"},{"pairId":"4OQU:sequence_000547","profileId":"rmdbv3_exact_faaf549826df7eb3508e94aeff439cc5752d04a6|top_x_279::seq_ab87fbf7a6c6513f|4OQU_A","routeId":"annojoin:profiles:RMDB2PDB:4OQU"},{"pairId":"4OQU:sequence_000548","profileId":"rmdbv3_exact_8c2e8edbfa115656ee561bb34c54dbf2bec76d8f|top_x_279::seq_2059fc010614a465|4OQU_A","routeId":"annojoin:profiles:RMDB2PDB:4OQU"},{"pairId":"4OQU:sequence_000549","profileId":"rmdbv3_exact_97d4295854a4b93af19a3da5855f958060b73bdc|top_x_279::seq_25e3686a392366d6|4OQU_A","routeId":"annojoin:profiles:RMDB2PDB:4OQU"},{"pairId":"4OQU:sequence_000550","profileId":"rmdbv3_exact_26a5989adb31cea72558c1722f7080d893a2a222|top_x_279::seq_5a7ad16b16f54986|4OQU_A","routeId":"annojoin:profiles:RMDB2PDB:4OQU"},{"pairId":"4OQU:sequence_000551","profileId":"rmdbv3_exact_3580b039d09ce8cf6bdb8f5ae3475ed5ae014822|top_x_279::seq_151da496cfe3e903|4OQU_A","routeId":"annojoin:profiles:RMDB2PDB:4OQU"},{"pairId":"4OQU:sequence_000552","profileId":"rmdbv3_exact_a0e725ad52f7e60560dfe2ca5e95b947ad7cc81f|top_x_279::seq_9e27081ed10139d3|4OQU_A","routeId":"annojoin:profiles:RMDB2PDB:4OQU"},{"pairId":"4OQU:sequence_000553","profileId":"rmdbv3_exact_b0f4a4c6d33269fb7d59fcbd41e94ca0354a2c42|top_x_279::seq_399cb12330d464c3|4OQU_A","routeId":"annojoin:profiles:RMDB2PDB:4OQU"},{"pairId":"4OQU:sequence_000554","profileId":"rmdbv3_exact_cce9160e5dcbd107d5c1b561826a2b287c13a264|top_x_279::seq_86ab598d19dc8287|4OQU_A","routeId":"annojoin:profiles:RMDB2PDB:4OQU"},{"pairId":"4OQU:sequence_000555","profileId":"rmdbv3_exact_dfddb28907f026f4b835ce792a51df99fbfb6522|top_x_279::seq_e8443eb87c156812|4OQU_A","routeId":"annojoin:profiles:RMDB2PDB:4OQU"},{"pairId":"4OQU:sequence_000556","profileId":"rmdbv3_exact_4416b035622f5f835e102b20ed45f5607070cc23|top_x_279::seq_db714cb915ed4d72|4OQU_A","routeId":"annojoin:profiles:RMDB2PDB:4OQU"},{"pairId":"4OQU:sequence_000557","profileId":"rmdbv3_exact_a8153c8ffa617dc950965591cbae76463905ec8b|top_x_279::seq_865f47e53420fe4c|4OQU_A","routeId":"annojoin:profiles:RMDB2PDB:4OQU"},{"pairId":"4OQU:sequence_000558","profileId":"rmdbv3_exact_da6a0fa29ca0162ed195ac1fe1378977309d0d9f|top_x_279::seq_4647255fe6a4eb8d|4OQU_A","routeId":"annojoin:profiles:RMDB2PDB:4OQU"},{"pairId":"4OQU:sequence_000559","profileId":"rmdbv3_exact_0608ad49da90307866b851c7d3799c98bc7276cd|top_x_279::seq_c22f07da715e8db6|4OQU_A","routeId":"annojoin:profiles:RMDB2PDB:4OQU"},{"pairId":"4OQU:sequence_000560","profileId":"rmdbv3_exact_4d205a67a8d2824f12cce242f26eb3ea45f3e694|top_x_279::seq_ccc238a31b98830a|4OQU_A","routeId":"annojoin:profiles:RMDB2PDB:4OQU"},{"pairId":"4OQU:sequence_000561","profileId":"rmdbv3_exact_5812d3cd719591c1c91700a882729e1e17430f76|top_x_279::seq_f92fe1f7dfc8c7e2|4OQU_A","routeId":"annojoin:profiles:RMDB2PDB:4OQU"},{"pairId":"4OQU:sequence_000562","profileId":"rmdbv3_exact_6093f513a51795372ff4e9653417eada52944da7|top_x_279::seq_dc1a65bf78e38877|4OQU_A","routeId":"annojoin:profiles:RMDB2PDB:4OQU"},{"pairId":"4OQU:sequence_000563","profileId":"rmdbv3_exact_b73d11437832cce2941fa37a7075e88cb25647c5|top_x_279::seq_8792802c3b9ecfbe|4OQU_A","routeId":"annojoin:profiles:RMDB2PDB:4OQU"},{"pairId":"4OQU:sequence_000564","profileId":"rmdbv3_exact_07dac79346cf31d2a79cc1edc643f034d277efc0|top_x_279::seq_cebfe5b53ca4b50c|4OQU_A","routeId":"annojoin:profiles:RMDB2PDB:4OQU"},{"pairId":"4OQU:sequence_000565","profileId":"rmdbv3_exact_180119b15a298a590914691478413ed648637382|top_x_279::seq_0e37e6ff0996c644|4OQU_A","routeId":"annojoin:profiles:RMDB2PDB:4OQU"},{"pairId":"4OQU:sequence_000566","profileId":"rmdbv3_exact_3b864c6d37556dd66d3f78dfaf96b235e21b490c|top_x_279::seq_a561e49db8af7b7f|4OQU_A","routeId":"annojoin:profiles:RMDB2PDB:4OQU"},{"pairId":"4OQU:sequence_000567","profileId":"rmdbv3_exact_805270511b8f43c4007d5c1a839767d15ead301b|top_x_279::seq_1b7cf904f66f5e4f|4OQU_A","routeId":"annojoin:profiles:RMDB2PDB:4OQU"},{"pairId":"4OQU:sequence_000568","profileId":"rmdbv3_exact_828062fa989e1e41fb79fa6110f56032f4dbfbfa|top_x_279::seq_61ce0bb83bc771a0|4OQU_A","routeId":"annojoin:profiles:RMDB2PDB:4OQU"},{"pairId":"4OQU:sequence_000569","profileId":"rmdbv3_exact_82d4cf1f89b600a61a32e55a4e9322d46be01974|top_x_279::seq_192a50dfcb9432d9|4OQU_A","routeId":"annojoin:profiles:RMDB2PDB:4OQU"},{"pairId":"4OQU:sequence_000570","profileId":"rmdbv3_exact_a7916f2911bca09cf05e0a1ff2534e7e8cff20a6|top_x_279::seq_c9f7df9b75fa6c17|4OQU_A","routeId":"annojoin:profiles:RMDB2PDB:4OQU"},{"pairId":"4OQU:sequence_000571","profileId":"rmdbv3_exact_bfe33196b7ead0d6cf13b7fb034ca0cb19e5b2e4|top_x_279::seq_4872d53ef68d7a9e|4OQU_A","routeId":"annojoin:profiles:RMDB2PDB:4OQU"},{"pairId":"4OQU:sequence_000572","profileId":"rmdbv3_exact_c2ec2535850ec44cfeb81f5813ea870e4c60f378|top_x_279::seq_0689cc8ce8f135dc|4OQU_A","routeId":"annojoin:profiles:RMDB2PDB:4OQU"},{"pairId":"4OQU:sequence_000573","profileId":"rmdbv3_exact_f99a2698471ab2cffca3e4cf8fd6760084631bdf|top_x_279::seq_5a252e12efbdd2c3|4OQU_A","routeId":"annojoin:profiles:RMDB2PDB:4OQU"},{"pairId":"4OQU:sequence_000574","profileId":"rmdbv3_exact_a0fd23f82471ecf45f05256a02d9abcae7a3c1fb|top_x_279::seq_4c974754eb92b038|4OQU_A","routeId":"annojoin:profiles:RMDB2PDB:4OQU"},{"pairId":"4OQU:sequence_000575","profileId":"rmdbv3_exact_8d7bb2cbf952c04d4d56d3c3d4f050637704b6c9|top_x_279::seq_251e2f38303bd324|4OQU_A","routeId":"annojoin:profiles:RMDB2PDB:4OQU"},{"pairId":"4OQU:sequence_000576","profileId":"rmdbv3_exact_6b1ae91ecfde0367de88062c51dee7b4cb2fedee|top_x_279::seq_e2c9fa59bd4009bf|4OQU_A","routeId":"annojoin:profiles:RMDB2PDB:4OQU"},{"pairId":"4OQU:sequence_000577","profileId":"rmdbv3_exact_6eecf9b66787f055bab57fe5a1621d17661f1204|top_x_279::seq_61e1eb58aafd8896|4OQU_A","routeId":"annojoin:profiles:RMDB2PDB:4OQU"},{"pairId":"4OQU:sequence_000578","profileId":"rmdbv3_exact_5100d5dbfdc03431c66cd0154159da7d8db63ac4|top_x_279::seq_3db7fce23cfbedeb|4OQU_A","routeId":"annojoin:profiles:RMDB2PDB:4OQU"},{"pairId":"4OQU:sequence_000579","profileId":"rmdbv3_exact_a309b53dfba17b88426353c442d7794994b428b5|top_x_279::seq_f5ca954ae6072273|4OQU_A","routeId":"annojoin:profiles:RMDB2PDB:4OQU"},{"pairId":"4OQU:sequence_000580","profileId":"rmdbv3_exact_d6ae2dc141f4e544bfd0b3b470656243902b60b8|top_x_279::seq_bacaff839b9d8a58|4OQU_A","routeId":"annojoin:profiles:RMDB2PDB:4OQU"}]}
