{"schemaVersion":"annojoin-atlas.v1","version":"V2.1_RMDB_LINE_A_20260617","atlasCaseKey":"RMDB2PDB:6YDP","caseId":"6YDP","routeKey":"memberships","page":3,"pageSize":500,"totalRows":1147,"pageCount":3,"rows":[{"pairId":"6YDP:sequence_001202","profileId":"rmdbv3_exact_b7cf4c656980f25c1acab807f592a4a28d6e30a0|top_x_279::seq_5b3deac68f35f6e7|6YDP_AA","routeId":"annojoin:profiles:RMDB2PDB:6YDP"},{"pairId":"6YDP:sequence_001203","profileId":"rmdbv3_exact_ba85dfc0975b210ce87d6800e3a30abcf025b40e|top_x_279::seq_4fbdebbaed2722e9|6YDP_AA","routeId":"annojoin:profiles:RMDB2PDB:6YDP"},{"pairId":"6YDP:sequence_001204","profileId":"rmdbv3_exact_ba85dfc0975b210ce87d6800e3a30abcf025b40e|top_x_279::seq_db0161da5aad8408|6YDP_AA","routeId":"annojoin:profiles:RMDB2PDB:6YDP"},{"pairId":"6YDP:sequence_001205","profileId":"rmdbv3_exact_ba9aef66cf0e778751e88b5f2513b1c798c5763a|top_x_279::seq_a91eaba525a00c4e|6YDP_AA","routeId":"annojoin:profiles:RMDB2PDB:6YDP"},{"pairId":"6YDP:sequence_001206","profileId":"rmdbv3_exact_ba9aef66cf0e778751e88b5f2513b1c798c5763a|top_x_279::seq_f45c554385892508|6YDP_AA","routeId":"annojoin:profiles:RMDB2PDB:6YDP"},{"pairId":"6YDP:sequence_001207","profileId":"rmdbv3_exact_bba223109b1ae13edfae78f23057f96efe05e6e4|top_x_279::seq_a047f870be951c59|6YDP_AA","routeId":"annojoin:profiles:RMDB2PDB:6YDP"},{"pairId":"6YDP:sequence_001208","profileId":"rmdbv3_exact_bba223109b1ae13edfae78f23057f96efe05e6e4|top_x_279::seq_d6b1c06c707b61f7|6YDP_AA","routeId":"annojoin:profiles:RMDB2PDB:6YDP"},{"pairId":"6YDP:sequence_001209","profileId":"rmdbv3_exact_bc1f6a639466f12aa7f54459719f98f8f1dec31d|top_x_279::seq_d4747e19e68abd71|6YDP_AA","routeId":"annojoin:profiles:RMDB2PDB:6YDP"},{"pairId":"6YDP:sequence_001210","profileId":"rmdbv3_exact_bc1f6a639466f12aa7f54459719f98f8f1dec31d|top_x_279::seq_f56ed900c4dfc874|6YDP_AA","routeId":"annojoin:profiles:RMDB2PDB:6YDP"},{"pairId":"6YDP:sequence_001211","profileId":"rmdbv3_exact_bc60aa30684b7164b89f06e57111fd76be227e5a|top_x_279::seq_a6f70f4fe54eed93|6YDP_AA","routeId":"annojoin:profiles:RMDB2PDB:6YDP"},{"pairId":"6YDP:sequence_001212","profileId":"rmdbv3_exact_bc60aa30684b7164b89f06e57111fd76be227e5a|top_x_279::seq_b800f279228249d9|6YDP_AA","routeId":"annojoin:profiles:RMDB2PDB:6YDP"},{"pairId":"6YDP:sequence_001213","profileId":"rmdbv3_exact_bc6bffdf9c5354cdd20caca2d00f14229d1d1f76|top_x_279::seq_2fcc777a0d9e0ddb|6YDP_AA","routeId":"annojoin:profiles:RMDB2PDB:6YDP"},{"pairId":"6YDP:sequence_001214","profileId":"rmdbv3_exact_bc6bffdf9c5354cdd20caca2d00f14229d1d1f76|top_x_279::seq_3d9d5ce9ef71b658|6YDP_AA","routeId":"annojoin:profiles:RMDB2PDB:6YDP"},{"pairId":"6YDP:sequence_001219","profileId":"rmdbv3_exact_bfd6346e981372ce792e5366bd42913fac7e171d|top_x_279::seq_0107dfb5ef4e38ba|6YDP_AA","routeId":"annojoin:profiles:RMDB2PDB:6YDP"},{"pairId":"6YDP:sequence_001220","profileId":"rmdbv3_exact_bfd6346e981372ce792e5366bd42913fac7e171d|top_x_279::seq_993100e5a05b4faf|6YDP_AA","routeId":"annojoin:profiles:RMDB2PDB:6YDP"},{"pairId":"6YDP:sequence_001221","profileId":"rmdbv3_exact_c08d5f319c43f5653e77567de9c7b52de40f5022|top_x_279::seq_8d562873d7003568|6YDP_AA","routeId":"annojoin:profiles:RMDB2PDB:6YDP"},{"pairId":"6YDP:sequence_001223","profileId":"rmdbv3_exact_c2803400b192605412e2bd26ea1099012eb45018|top_x_279::seq_292c86f2b6a7c882|6YDP_AA","routeId":"annojoin:profiles:RMDB2PDB:6YDP"},{"pairId":"6YDP:sequence_001224","profileId":"rmdbv3_exact_c2803400b192605412e2bd26ea1099012eb45018|top_x_279::seq_96bc919974e82f01|6YDP_AA","routeId":"annojoin:profiles:RMDB2PDB:6YDP"},{"pairId":"6YDP:sequence_001225","profileId":"rmdbv3_exact_c297575551dc9c7902f29f2ae46ceb929cf9f19f|top_x_279::seq_af6ccce485782096|6YDP_AA","routeId":"annojoin:profiles:RMDB2PDB:6YDP"},{"pairId":"6YDP:sequence_001226","profileId":"rmdbv3_exact_c297575551dc9c7902f29f2ae46ceb929cf9f19f|top_x_279::seq_e71a7cfcae0d6baa|6YDP_AA","routeId":"annojoin:profiles:RMDB2PDB:6YDP"},{"pairId":"6YDP:sequence_001228","profileId":"rmdbv3_exact_c5252550d03afb872d0b83fb404496cbafc2b816|top_x_279::seq_459565d28174f93a|6YDP_AA","routeId":"annojoin:profiles:RMDB2PDB:6YDP"},{"pairId":"6YDP:sequence_001229","profileId":"rmdbv3_exact_c52cc3d203b11e8c7011bf2b30a11c452996fadb|top_x_279::seq_00c78e93dd28d80e|6YDP_AA","routeId":"annojoin:profiles:RMDB2PDB:6YDP"},{"pairId":"6YDP:sequence_001230","profileId":"rmdbv3_exact_c52cc3d203b11e8c7011bf2b30a11c452996fadb|top_x_279::seq_19185285e58e6503|6YDP_AA","routeId":"annojoin:profiles:RMDB2PDB:6YDP"},{"pairId":"6YDP:sequence_001233","profileId":"rmdbv3_exact_c7c2d0342bd37c82941058b92d034d1f5c2bc090|top_x_279::seq_3000ea3c5d53008e|6YDP_AA","routeId":"annojoin:profiles:RMDB2PDB:6YDP"},{"pairId":"6YDP:sequence_001234","profileId":"rmdbv3_exact_c7c2d0342bd37c82941058b92d034d1f5c2bc090|top_x_279::seq_517bc6f0116c6cb2|6YDP_AA","routeId":"annojoin:profiles:RMDB2PDB:6YDP"},{"pairId":"6YDP:sequence_001235","profileId":"rmdbv3_exact_c8f37603cc0300657c90e86442d402945974961b|top_x_279::seq_c4df462a7ff6b9db|6YDP_AA","routeId":"annojoin:profiles:RMDB2PDB:6YDP"},{"pairId":"6YDP:sequence_001236","profileId":"rmdbv3_exact_c8f37603cc0300657c90e86442d402945974961b|top_x_279::seq_efb1e1b2774c47a0|6YDP_AA","routeId":"annojoin:profiles:RMDB2PDB:6YDP"},{"pairId":"6YDP:sequence_001237","profileId":"rmdbv3_exact_c9f55f529a906f3840f8632c58e0725643278168|top_x_279::seq_950056e610f10d5c|6YDP_AA","routeId":"annojoin:profiles:RMDB2PDB:6YDP"},{"pairId":"6YDP:sequence_001238","profileId":"rmdbv3_exact_c9f55f529a906f3840f8632c58e0725643278168|top_x_279::seq_f73efc1553091f95|6YDP_AA","routeId":"annojoin:profiles:RMDB2PDB:6YDP"},{"pairId":"6YDP:sequence_001239","profileId":"rmdbv3_exact_ca716e2801347b92e9db145699778dd3656c1fef|top_x_279::seq_7a39fbd44f0b1860|6YDP_AA","routeId":"annojoin:profiles:RMDB2PDB:6YDP"},{"pairId":"6YDP:sequence_001240","profileId":"rmdbv3_exact_ca716e2801347b92e9db145699778dd3656c1fef|top_x_279::seq_f3ed06f75997258a|6YDP_AA","routeId":"annojoin:profiles:RMDB2PDB:6YDP"},{"pairId":"6YDP:sequence_001241","profileId":"rmdbv3_exact_cbef9c9316f3adb1d136b6abd70f071619080206|top_x_279::seq_2568c0a3eb6a4516|6YDP_AA","routeId":"annojoin:profiles:RMDB2PDB:6YDP"},{"pairId":"6YDP:sequence_001242","profileId":"rmdbv3_exact_cbef9c9316f3adb1d136b6abd70f071619080206|top_x_279::seq_4de387682aa2b6e3|6YDP_AA","routeId":"annojoin:profiles:RMDB2PDB:6YDP"},{"pairId":"6YDP:sequence_001247","profileId":"rmdbv3_exact_cde645883e4afc9c7ef049ae985b734e349497a1|top_x_279::seq_433647ec0765622c|6YDP_AA","routeId":"annojoin:profiles:RMDB2PDB:6YDP"},{"pairId":"6YDP:sequence_001248","profileId":"rmdbv3_exact_cde645883e4afc9c7ef049ae985b734e349497a1|top_x_279::seq_b54c50613a48d3d0|6YDP_AA","routeId":"annojoin:profiles:RMDB2PDB:6YDP"},{"pairId":"6YDP:sequence_001249","profileId":"rmdbv3_exact_cef951694a4a12b0c59c54ae4baf391d6caada8c|top_x_279::seq_9fa3ca0945d28ee9|6YDP_AA","routeId":"annojoin:profiles:RMDB2PDB:6YDP"},{"pairId":"6YDP:sequence_001250","profileId":"rmdbv3_exact_cef951694a4a12b0c59c54ae4baf391d6caada8c|top_x_279::seq_c1e051b2b1c18000|6YDP_AA","routeId":"annojoin:profiles:RMDB2PDB:6YDP"},{"pairId":"6YDP:sequence_001251","profileId":"rmdbv3_exact_cfb0618556f32e188e8cf788468a7f633aabc327|top_x_279::seq_a5d4bde7138aca36|6YDP_AA","routeId":"annojoin:profiles:RMDB2PDB:6YDP"},{"pairId":"6YDP:sequence_001253","profileId":"rmdbv3_exact_d08751273b8ba53df01fd3b8693f7bdfe91778d1|top_x_279::seq_1eeee3e6bd1a88a5|6YDP_AA","routeId":"annojoin:profiles:RMDB2PDB:6YDP"},{"pairId":"6YDP:sequence_001254","profileId":"rmdbv3_exact_d08751273b8ba53df01fd3b8693f7bdfe91778d1|top_x_279::seq_b31b15c472e2a7a4|6YDP_AA","routeId":"annojoin:profiles:RMDB2PDB:6YDP"},{"pairId":"6YDP:sequence_001255","profileId":"rmdbv3_exact_d33199beb416f7dcf0d78ead32c7b9425d9c9b1f|top_x_279::seq_463eb6de5043286b|6YDP_AA","routeId":"annojoin:profiles:RMDB2PDB:6YDP"},{"pairId":"6YDP:sequence_001256","profileId":"rmdbv3_exact_d33199beb416f7dcf0d78ead32c7b9425d9c9b1f|top_x_279::seq_86a79338fccbc5e2|6YDP_AA","routeId":"annojoin:profiles:RMDB2PDB:6YDP"},{"pairId":"6YDP:sequence_001259","profileId":"rmdbv3_exact_d35f3c6ed2013b358cbe62d1fd8f0367c9b9f8c1|top_x_279::seq_a5c78778c39f45b0|6YDP_AA","routeId":"annojoin:profiles:RMDB2PDB:6YDP"},{"pairId":"6YDP:sequence_001260","profileId":"rmdbv3_exact_d35f3c6ed2013b358cbe62d1fd8f0367c9b9f8c1|top_x_279::seq_cc896ee052f07a5f|6YDP_AA","routeId":"annojoin:profiles:RMDB2PDB:6YDP"},{"pairId":"6YDP:sequence_001261","profileId":"rmdbv3_exact_d3f597201b8774fbd7a0a9187a402bd3fb3224f0|top_x_279::seq_28f01d492a0deb81|6YDP_AA","routeId":"annojoin:profiles:RMDB2PDB:6YDP"},{"pairId":"6YDP:sequence_001262","profileId":"rmdbv3_exact_d3f597201b8774fbd7a0a9187a402bd3fb3224f0|top_x_279::seq_a3bf4a4552711e1f|6YDP_AA","routeId":"annojoin:profiles:RMDB2PDB:6YDP"},{"pairId":"6YDP:sequence_001263","profileId":"rmdbv3_exact_d443e288bd616f3f0183d41943b8a6e2227ff2e2|top_x_279::seq_7efd2df10287e6a1|6YDP_AA","routeId":"annojoin:profiles:RMDB2PDB:6YDP"},{"pairId":"6YDP:sequence_001264","profileId":"rmdbv3_exact_d443e288bd616f3f0183d41943b8a6e2227ff2e2|top_x_279::seq_a0108ecdfa1d9dfb|6YDP_AA","routeId":"annojoin:profiles:RMDB2PDB:6YDP"},{"pairId":"6YDP:sequence_001267","profileId":"rmdbv3_exact_d556def09e92a07aeb2f2f8c1302f19fc5156532|top_x_279::seq_c008796a7dad4a20|6YDP_AA","routeId":"annojoin:profiles:RMDB2PDB:6YDP"},{"pairId":"6YDP:sequence_001268","profileId":"rmdbv3_exact_d556def09e92a07aeb2f2f8c1302f19fc5156532|top_x_279::seq_dd0b9112b47a71c7|6YDP_AA","routeId":"annojoin:profiles:RMDB2PDB:6YDP"},{"pairId":"6YDP:sequence_001269","profileId":"rmdbv3_exact_d5b0c8ff2e8d8052f95b43450f183a0f688d87cb|top_x_279::seq_21d41602c89b0610|6YDP_AA","routeId":"annojoin:profiles:RMDB2PDB:6YDP"},{"pairId":"6YDP:sequence_001270","profileId":"rmdbv3_exact_d5b0c8ff2e8d8052f95b43450f183a0f688d87cb|top_x_279::seq_f004ddfa2d8a5c19|6YDP_AA","routeId":"annojoin:profiles:RMDB2PDB:6YDP"},{"pairId":"6YDP:sequence_001273","profileId":"rmdbv3_exact_d6a238420dc593883ffacd3b91b53ace15f48234|top_x_279::seq_5425a9bfa24ed2ae|6YDP_AA","routeId":"annojoin:profiles:RMDB2PDB:6YDP"},{"pairId":"6YDP:sequence_001274","profileId":"rmdbv3_exact_d6a238420dc593883ffacd3b91b53ace15f48234|top_x_279::seq_f196d6c2648a0ca3|6YDP_AA","routeId":"annojoin:profiles:RMDB2PDB:6YDP"},{"pairId":"6YDP:sequence_001275","profileId":"rmdbv3_exact_d70300cca99abe9f9fdb8e640cba4c509efc3da4|top_x_279::seq_2e7ec5ec79514c11|6YDP_AA","routeId":"annojoin:profiles:RMDB2PDB:6YDP"},{"pairId":"6YDP:sequence_001276","profileId":"rmdbv3_exact_d70300cca99abe9f9fdb8e640cba4c509efc3da4|top_x_279::seq_fcf4fa9a64635528|6YDP_AA","routeId":"annojoin:profiles:RMDB2PDB:6YDP"},{"pairId":"6YDP:sequence_001277","profileId":"rmdbv3_exact_d7b0c71ac3746be7317d568d1b73a986a74b6641|top_x_279::seq_108c8e2268b9e404|6YDP_AA","routeId":"annojoin:profiles:RMDB2PDB:6YDP"},{"pairId":"6YDP:sequence_001278","profileId":"rmdbv3_exact_d7b0c71ac3746be7317d568d1b73a986a74b6641|top_x_279::seq_4bc114589a247b2c|6YDP_AA","routeId":"annojoin:profiles:RMDB2PDB:6YDP"},{"pairId":"6YDP:sequence_001279","profileId":"rmdbv3_exact_d8ad3bac33cc593cd8d2639952a1c07965f914dc|top_x_279::seq_25dd9ac0e1badb40|6YDP_AA","routeId":"annojoin:profiles:RMDB2PDB:6YDP"},{"pairId":"6YDP:sequence_001280","profileId":"rmdbv3_exact_d8ad3bac33cc593cd8d2639952a1c07965f914dc|top_x_279::seq_6c3534ef2e61d3c8|6YDP_AA","routeId":"annojoin:profiles:RMDB2PDB:6YDP"},{"pairId":"6YDP:sequence_001285","profileId":"rmdbv3_exact_d9b32812489b8f1e447bcbbd1898c24fa3607be0|top_x_279::seq_a7cf54d03bcc0298|6YDP_AA","routeId":"annojoin:profiles:RMDB2PDB:6YDP"},{"pairId":"6YDP:sequence_001286","profileId":"rmdbv3_exact_d9b32812489b8f1e447bcbbd1898c24fa3607be0|top_x_279::seq_d3e0f4e0d63cefd6|6YDP_AA","routeId":"annojoin:profiles:RMDB2PDB:6YDP"},{"pairId":"6YDP:sequence_001289","profileId":"rmdbv3_exact_daabaf395f6750fb2846f3f078950074b28b672d|top_x_279::seq_5a88840926bd4f8f|6YDP_AA","routeId":"annojoin:profiles:RMDB2PDB:6YDP"},{"pairId":"6YDP:sequence_001290","profileId":"rmdbv3_exact_daabaf395f6750fb2846f3f078950074b28b672d|top_x_279::seq_e2d8ddda332da49f|6YDP_AA","routeId":"annojoin:profiles:RMDB2PDB:6YDP"},{"pairId":"6YDP:sequence_001291","profileId":"rmdbv3_exact_dae909199b405c05b34b59cb028faee8f9efe743|top_x_279::seq_1969c7bded349cb2|6YDP_AA","routeId":"annojoin:profiles:RMDB2PDB:6YDP"},{"pairId":"6YDP:sequence_001292","profileId":"rmdbv3_exact_dae909199b405c05b34b59cb028faee8f9efe743|top_x_279::seq_b5d8f54eb2040aa1|6YDP_AA","routeId":"annojoin:profiles:RMDB2PDB:6YDP"},{"pairId":"6YDP:sequence_001293","profileId":"rmdbv3_exact_dd1098ad1bba90f8b571ef46d9f360bda4a82ca1|top_x_279::seq_4b7116d940f6db7d|6YDP_AA","routeId":"annojoin:profiles:RMDB2PDB:6YDP"},{"pairId":"6YDP:sequence_001295","profileId":"rmdbv3_exact_ddb5a81ed23a79e657f9b33d1c9deff01f815427|top_x_279::seq_0abdbc66c56209ca|6YDP_AA","routeId":"annojoin:profiles:RMDB2PDB:6YDP"},{"pairId":"6YDP:sequence_001296","profileId":"rmdbv3_exact_ddb5a81ed23a79e657f9b33d1c9deff01f815427|top_x_279::seq_6dea1aecc0108af5|6YDP_AA","routeId":"annojoin:profiles:RMDB2PDB:6YDP"},{"pairId":"6YDP:sequence_001297","profileId":"rmdbv3_exact_df028df724a8a43b9558f70f9d99e9be3255c62f|top_x_279::seq_038c193ab30e48b2|6YDP_AA","routeId":"annojoin:profiles:RMDB2PDB:6YDP"},{"pairId":"6YDP:sequence_001298","profileId":"rmdbv3_exact_df028df724a8a43b9558f70f9d99e9be3255c62f|top_x_279::seq_c556a5a6dbc0a8ad|6YDP_AA","routeId":"annojoin:profiles:RMDB2PDB:6YDP"},{"pairId":"6YDP:sequence_001299","profileId":"rmdbv3_exact_e0c3077b8b80ff4d1f50c82dad10040487e0f32b|top_x_279::seq_4a10659fb409e5dc|6YDP_AA","routeId":"annojoin:profiles:RMDB2PDB:6YDP"},{"pairId":"6YDP:sequence_001300","profileId":"rmdbv3_exact_e0c3077b8b80ff4d1f50c82dad10040487e0f32b|top_x_279::seq_acf97ddc7c483899|6YDP_AA","routeId":"annojoin:profiles:RMDB2PDB:6YDP"},{"pairId":"6YDP:sequence_001301","profileId":"rmdbv3_exact_e0ead7ad3623faf77e365bff9cc8228e641ee2d6|top_x_279::seq_2c0c6ea9097aed68|6YDP_AA","routeId":"annojoin:profiles:RMDB2PDB:6YDP"},{"pairId":"6YDP:sequence_001302","profileId":"rmdbv3_exact_e0ead7ad3623faf77e365bff9cc8228e641ee2d6|top_x_279::seq_c3d49df5691f187f|6YDP_AA","routeId":"annojoin:profiles:RMDB2PDB:6YDP"},{"pairId":"6YDP:sequence_001304","profileId":"rmdbv3_exact_e1973567de3033ff6c9705dde5a926e99a404ef3|top_x_279::seq_6dd0da72d0bfffe6|6YDP_AA","routeId":"annojoin:profiles:RMDB2PDB:6YDP"},{"pairId":"6YDP:sequence_001305","profileId":"rmdbv3_exact_e22f79a63f1d3c3fe8078dcbde08de61a0b88a77|top_x_279::seq_119bea64a23d7f93|6YDP_AA","routeId":"annojoin:profiles:RMDB2PDB:6YDP"},{"pairId":"6YDP:sequence_001306","profileId":"rmdbv3_exact_e22f79a63f1d3c3fe8078dcbde08de61a0b88a77|top_x_279::seq_f96c7fed6cc506ad|6YDP_AA","routeId":"annojoin:profiles:RMDB2PDB:6YDP"},{"pairId":"6YDP:sequence_001307","profileId":"rmdbv3_exact_e323f56f081ec6fdf31e832f53b52811502b2a4a|top_x_279::seq_704079c25b426eaa|6YDP_AA","routeId":"annojoin:profiles:RMDB2PDB:6YDP"},{"pairId":"6YDP:sequence_001308","profileId":"rmdbv3_exact_e323f56f081ec6fdf31e832f53b52811502b2a4a|top_x_279::seq_7a2177673d3bfd5a|6YDP_AA","routeId":"annojoin:profiles:RMDB2PDB:6YDP"},{"pairId":"6YDP:sequence_001310","profileId":"rmdbv3_exact_e3c0e2b5889c3ab2e3e39af1f05fe36a4608fc60|top_x_279::seq_ebd4e05c8f1e4512|6YDP_AA","routeId":"annojoin:profiles:RMDB2PDB:6YDP"},{"pairId":"6YDP:sequence_001311","profileId":"rmdbv3_exact_e3d562515e0b8ff75ca75ebecea29912e20856cc|top_x_279::seq_44dd17bcce08076c|6YDP_AA","routeId":"annojoin:profiles:RMDB2PDB:6YDP"},{"pairId":"6YDP:sequence_001312","profileId":"rmdbv3_exact_e3d562515e0b8ff75ca75ebecea29912e20856cc|top_x_279::seq_9880b95c52866e84|6YDP_AA","routeId":"annojoin:profiles:RMDB2PDB:6YDP"},{"pairId":"6YDP:sequence_001313","profileId":"rmdbv3_exact_e3e3f53a42c2ce0c07467e8c5bbf75dd69a0fd0c|top_x_279::seq_28c4b1257d370b48|6YDP_AA","routeId":"annojoin:profiles:RMDB2PDB:6YDP"},{"pairId":"6YDP:sequence_001314","profileId":"rmdbv3_exact_e3e3f53a42c2ce0c07467e8c5bbf75dd69a0fd0c|top_x_279::seq_5b557d6cef1dcb8a|6YDP_AA","routeId":"annojoin:profiles:RMDB2PDB:6YDP"},{"pairId":"6YDP:sequence_001315","profileId":"rmdbv3_exact_e3ef7ebd35bb5aaf110ba3eea6cf90e3f90a7c70|top_x_279::seq_08e1db0a6a0d4144|6YDP_AA","routeId":"annojoin:profiles:RMDB2PDB:6YDP"},{"pairId":"6YDP:sequence_001316","profileId":"rmdbv3_exact_e3ef7ebd35bb5aaf110ba3eea6cf90e3f90a7c70|top_x_279::seq_4c053a7a5479443f|6YDP_AA","routeId":"annojoin:profiles:RMDB2PDB:6YDP"},{"pairId":"6YDP:sequence_001323","profileId":"rmdbv3_exact_e72f1e8c745385f02986a802ead5f6c0fb917f7e|top_x_279::seq_1cfe27fa8fe13fa6|6YDP_AA","routeId":"annojoin:profiles:RMDB2PDB:6YDP"},{"pairId":"6YDP:sequence_001324","profileId":"rmdbv3_exact_e72f1e8c745385f02986a802ead5f6c0fb917f7e|top_x_279::seq_2a9a23bcf3cbb7bf|6YDP_AA","routeId":"annojoin:profiles:RMDB2PDB:6YDP"},{"pairId":"6YDP:sequence_001325","profileId":"rmdbv3_exact_e79ff2cade52117a3a9b12e876b2abc5bd4e68db|top_x_279::seq_9cf09e64c5156e23|6YDP_AA","routeId":"annojoin:profiles:RMDB2PDB:6YDP"},{"pairId":"6YDP:sequence_001326","profileId":"rmdbv3_exact_e79ff2cade52117a3a9b12e876b2abc5bd4e68db|top_x_279::seq_c23ed136b589f561|6YDP_AA","routeId":"annojoin:profiles:RMDB2PDB:6YDP"},{"pairId":"6YDP:sequence_001327","profileId":"rmdbv3_exact_e94aedef72565bc67a020425e5dfd8452486bd21|top_x_279::seq_34ca7b33f73f08ac|6YDP_AA","routeId":"annojoin:profiles:RMDB2PDB:6YDP"},{"pairId":"6YDP:sequence_001328","profileId":"rmdbv3_exact_e94aedef72565bc67a020425e5dfd8452486bd21|top_x_279::seq_682645fe8fc03206|6YDP_AA","routeId":"annojoin:profiles:RMDB2PDB:6YDP"},{"pairId":"6YDP:sequence_001331","profileId":"rmdbv3_exact_ec5fe9a9e823f3224b8b547ef18f3db5cffb0de3|top_x_279::seq_a57f34eab432c5ef|6YDP_AA","routeId":"annojoin:profiles:RMDB2PDB:6YDP"},{"pairId":"6YDP:sequence_001332","profileId":"rmdbv3_exact_ec5fe9a9e823f3224b8b547ef18f3db5cffb0de3|top_x_279::seq_d986850971c67281|6YDP_AA","routeId":"annojoin:profiles:RMDB2PDB:6YDP"},{"pairId":"6YDP:sequence_001333","profileId":"rmdbv3_exact_ed0a95a50ffcdd8fef25e5995286aa674f1416f9|top_x_279::seq_be8a4d46bb5379d6|6YDP_AA","routeId":"annojoin:profiles:RMDB2PDB:6YDP"},{"pairId":"6YDP:sequence_001334","profileId":"rmdbv3_exact_ed0a95a50ffcdd8fef25e5995286aa674f1416f9|top_x_279::seq_e80f67b4bfbd3c69|6YDP_AA","routeId":"annojoin:profiles:RMDB2PDB:6YDP"},{"pairId":"6YDP:sequence_001335","profileId":"rmdbv3_exact_ed5b71d8077fd640698bb79245e3a8f21f8dd006|top_x_279::seq_0b1e43a849b9ae89|6YDP_AA","routeId":"annojoin:profiles:RMDB2PDB:6YDP"},{"pairId":"6YDP:sequence_001336","profileId":"rmdbv3_exact_ed5b71d8077fd640698bb79245e3a8f21f8dd006|top_x_279::seq_ac1e1d3fda4bcc4d|6YDP_AA","routeId":"annojoin:profiles:RMDB2PDB:6YDP"},{"pairId":"6YDP:sequence_001337","profileId":"rmdbv3_exact_ed6d9d54c13955e831ecd38861af8cb42c5eb37d|top_x_279::seq_0c2ba23be7af8a19|6YDP_AA","routeId":"annojoin:profiles:RMDB2PDB:6YDP"},{"pairId":"6YDP:sequence_001338","profileId":"rmdbv3_exact_ed6d9d54c13955e831ecd38861af8cb42c5eb37d|top_x_279::seq_63c913afc27f0714|6YDP_AA","routeId":"annojoin:profiles:RMDB2PDB:6YDP"},{"pairId":"6YDP:sequence_001339","profileId":"rmdbv3_exact_edb4054624258427440c7eb0c175c7aac15c7ca5|top_x_279::seq_6e073a4bd4a0fc79|6YDP_AA","routeId":"annojoin:profiles:RMDB2PDB:6YDP"},{"pairId":"6YDP:sequence_001340","profileId":"rmdbv3_exact_edb4054624258427440c7eb0c175c7aac15c7ca5|top_x_279::seq_773b685666d77630|6YDP_AA","routeId":"annojoin:profiles:RMDB2PDB:6YDP"},{"pairId":"6YDP:sequence_001341","profileId":"rmdbv3_exact_ef815582d7753d106a1e4d704a3cd99144aa2163|top_x_279::seq_9158ab60795b533a|6YDP_AA","routeId":"annojoin:profiles:RMDB2PDB:6YDP"},{"pairId":"6YDP:sequence_001342","profileId":"rmdbv3_exact_ef815582d7753d106a1e4d704a3cd99144aa2163|top_x_279::seq_afeae50c61349dfe|6YDP_AA","routeId":"annojoin:profiles:RMDB2PDB:6YDP"},{"pairId":"6YDP:sequence_001343","profileId":"rmdbv3_exact_ef85bf69e4ae008e5939db95c0955a4078e9e92f|top_x_279::seq_22d60ad207a4daa7|6YDP_AA","routeId":"annojoin:profiles:RMDB2PDB:6YDP"},{"pairId":"6YDP:sequence_001344","profileId":"rmdbv3_exact_ef85bf69e4ae008e5939db95c0955a4078e9e92f|top_x_279::seq_2ef5d602c5e5dbe2|6YDP_AA","routeId":"annojoin:profiles:RMDB2PDB:6YDP"},{"pairId":"6YDP:sequence_001347","profileId":"rmdbv3_exact_effeba2bf06ecebcb14e948e069440b43b359e4f|top_x_279::seq_c1c9477173c1ff63|6YDP_AA","routeId":"annojoin:profiles:RMDB2PDB:6YDP"},{"pairId":"6YDP:sequence_001348","profileId":"rmdbv3_exact_effeba2bf06ecebcb14e948e069440b43b359e4f|top_x_279::seq_fbe6a1179af5609f|6YDP_AA","routeId":"annojoin:profiles:RMDB2PDB:6YDP"},{"pairId":"6YDP:sequence_001349","profileId":"rmdbv3_exact_f0100525d5626e36b7ee9b89f916cfe4030f8d52|top_x_279::seq_55f3763eb1ff3df7|6YDP_AA","routeId":"annojoin:profiles:RMDB2PDB:6YDP"},{"pairId":"6YDP:sequence_001350","profileId":"rmdbv3_exact_f0100525d5626e36b7ee9b89f916cfe4030f8d52|top_x_279::seq_f58357836e903510|6YDP_AA","routeId":"annojoin:profiles:RMDB2PDB:6YDP"},{"pairId":"6YDP:sequence_001355","profileId":"rmdbv3_exact_f1bd8fffbfde87c7b811614f1a91f3daf4290176|top_x_279::seq_a9d27657107bd417|6YDP_AA","routeId":"annojoin:profiles:RMDB2PDB:6YDP"},{"pairId":"6YDP:sequence_001356","profileId":"rmdbv3_exact_f1bd8fffbfde87c7b811614f1a91f3daf4290176|top_x_279::seq_df4e5b92fb7c2325|6YDP_AA","routeId":"annojoin:profiles:RMDB2PDB:6YDP"},{"pairId":"6YDP:sequence_001359","profileId":"rmdbv3_exact_f2f4cbb57b7b44c4b9ef030fe758766838147695|top_x_279::seq_e353e8497afe067e|6YDP_AA","routeId":"annojoin:profiles:RMDB2PDB:6YDP"},{"pairId":"6YDP:sequence_001360","profileId":"rmdbv3_exact_f2f4cbb57b7b44c4b9ef030fe758766838147695|top_x_279::seq_fb9d667148be327c|6YDP_AA","routeId":"annojoin:profiles:RMDB2PDB:6YDP"},{"pairId":"6YDP:sequence_001361","profileId":"rmdbv3_exact_f3b7ca92a56cd53d1282fe6a940c2615d0439b5d|top_x_279::seq_71e3f70cb8dd8a99|6YDP_AA","routeId":"annojoin:profiles:RMDB2PDB:6YDP"},{"pairId":"6YDP:sequence_001362","profileId":"rmdbv3_exact_f3b7ca92a56cd53d1282fe6a940c2615d0439b5d|top_x_279::seq_fff18948e0e0bfd9|6YDP_AA","routeId":"annojoin:profiles:RMDB2PDB:6YDP"},{"pairId":"6YDP:sequence_001363","profileId":"rmdbv3_exact_f4a1e3f8614f2e6e9f16f2a09e08b052036f3388|top_x_279::seq_5fc2f96593f5ab78|6YDP_AA","routeId":"annojoin:profiles:RMDB2PDB:6YDP"},{"pairId":"6YDP:sequence_001364","profileId":"rmdbv3_exact_f4a1e3f8614f2e6e9f16f2a09e08b052036f3388|top_x_279::seq_dc9b44305659f057|6YDP_AA","routeId":"annojoin:profiles:RMDB2PDB:6YDP"},{"pairId":"6YDP:sequence_001365","profileId":"rmdbv3_exact_f57228648e2d27386d6a4cd7ff072ed0a1432d6c|top_x_279::seq_b0e0551d06ae0cdb|6YDP_AA","routeId":"annojoin:profiles:RMDB2PDB:6YDP"},{"pairId":"6YDP:sequence_001366","profileId":"rmdbv3_exact_f57228648e2d27386d6a4cd7ff072ed0a1432d6c|top_x_279::seq_cbff684b2fd785de|6YDP_AA","routeId":"annojoin:profiles:RMDB2PDB:6YDP"},{"pairId":"6YDP:sequence_001367","profileId":"rmdbv3_exact_f782f4062addd22cbc37682d287e0a3264f7f4a9|top_x_279::seq_01d113fe1f055d3e|6YDP_AA","routeId":"annojoin:profiles:RMDB2PDB:6YDP"},{"pairId":"6YDP:sequence_001368","profileId":"rmdbv3_exact_f782f4062addd22cbc37682d287e0a3264f7f4a9|top_x_279::seq_03c2154dc0eed408|6YDP_AA","routeId":"annojoin:profiles:RMDB2PDB:6YDP"},{"pairId":"6YDP:sequence_001369","profileId":"rmdbv3_exact_f80633d28f1bfb668583e0ead4db0b47263286ce|top_x_279::seq_1eb49b6411d2a48b|6YDP_AA","routeId":"annojoin:profiles:RMDB2PDB:6YDP"},{"pairId":"6YDP:sequence_001370","profileId":"rmdbv3_exact_f80633d28f1bfb668583e0ead4db0b47263286ce|top_x_279::seq_bbd2152407b7c703|6YDP_AA","routeId":"annojoin:profiles:RMDB2PDB:6YDP"},{"pairId":"6YDP:sequence_001371","profileId":"rmdbv3_exact_f83a982cdf5f1089b720f19c2729bc083c40b8c8|top_x_279::seq_078200cb348daac5|6YDP_AA","routeId":"annojoin:profiles:RMDB2PDB:6YDP"},{"pairId":"6YDP:sequence_001373","profileId":"rmdbv3_exact_f8ecfed894e02464f0f41d4f2da289e557ff157c|top_x_279::seq_46fd5c82a42acb4e|6YDP_AA","routeId":"annojoin:profiles:RMDB2PDB:6YDP"},{"pairId":"6YDP:sequence_001374","profileId":"rmdbv3_exact_f8ecfed894e02464f0f41d4f2da289e557ff157c|top_x_279::seq_fc24d72d2cbcbf9d|6YDP_AA","routeId":"annojoin:profiles:RMDB2PDB:6YDP"},{"pairId":"6YDP:sequence_001375","profileId":"rmdbv3_exact_f9f42084ff8972828be7ceeade826af92d9a6609|top_x_279::seq_4928c9fea39857d5|6YDP_AA","routeId":"annojoin:profiles:RMDB2PDB:6YDP"},{"pairId":"6YDP:sequence_001376","profileId":"rmdbv3_exact_f9f42084ff8972828be7ceeade826af92d9a6609|top_x_279::seq_a2938d0c00d1a6a1|6YDP_AA","routeId":"annojoin:profiles:RMDB2PDB:6YDP"},{"pairId":"6YDP:sequence_001377","profileId":"rmdbv3_exact_fc96054cc763a28a0f14f0c488ec4321664329e1|top_x_279::seq_6cdaae32e0d42e17|6YDP_AA","routeId":"annojoin:profiles:RMDB2PDB:6YDP"},{"pairId":"6YDP:sequence_001378","profileId":"rmdbv3_exact_fc96054cc763a28a0f14f0c488ec4321664329e1|top_x_279::seq_b407b4bfbf28ab7d|6YDP_AA","routeId":"annojoin:profiles:RMDB2PDB:6YDP"},{"pairId":"6YDP:sequence_001379","profileId":"rmdbv3_exact_fed66d5a667c76fe4e9584c53e188950df18d8e2|top_x_279::seq_05f22be6d835cc24|6YDP_AA","routeId":"annojoin:profiles:RMDB2PDB:6YDP"},{"pairId":"6YDP:sequence_001380","profileId":"rmdbv3_exact_fed66d5a667c76fe4e9584c53e188950df18d8e2|top_x_279::seq_e4c704af6aee2619|6YDP_AA","routeId":"annojoin:profiles:RMDB2PDB:6YDP"},{"pairId":"6YDP:sequence_001381","profileId":"rmdbv3_exact_fedc0e9b2cd16843dc141256cb4a86eab039bf61|top_x_279::seq_0ac7579a357ed974|6YDP_AA","routeId":"annojoin:profiles:RMDB2PDB:6YDP"},{"pairId":"6YDP:sequence_001382","profileId":"rmdbv3_exact_fedc0e9b2cd16843dc141256cb4a86eab039bf61|top_x_279::seq_f236fe4ad5f665d1|6YDP_AA","routeId":"annojoin:profiles:RMDB2PDB:6YDP"},{"pairId":"6YDP:sequence_001383","profileId":"rmdbv3_exact_fff3a7c679c92d3900f6fdff24597dcb976e172d|top_x_279::seq_3deb34333fa5cee3|6YDP_AA","routeId":"annojoin:profiles:RMDB2PDB:6YDP"},{"pairId":"6YDP:sequence_001384","profileId":"rmdbv3_exact_fff3a7c679c92d3900f6fdff24597dcb976e172d|top_x_279::seq_da3beb97c04427f3|6YDP_AA","routeId":"annojoin:profiles:RMDB2PDB:6YDP"},{"pairId":"6YDP:sequence_001385","profileId":"rmdbv3_exact_4f2c89439113c8173ad1146eb52df5f2e5ee22d8|top_x_279::seq_655c8f26d060107b|6YDP_AA","routeId":"annojoin:profiles:RMDB2PDB:6YDP"},{"pairId":"6YDP:sequence_001386","profileId":"rmdbv3_exact_4f2c89439113c8173ad1146eb52df5f2e5ee22d8|top_x_279::seq_a9b0b830453c9add|6YDP_AA","routeId":"annojoin:profiles:RMDB2PDB:6YDP"},{"pairId":"6YDP:sequence_001387","profileId":"rmdbv3_exact_f74d16475b1e5edc0967e1ff3cdb37271f0ed3db|top_x_279::seq_0c08e7c9d28d592a|6YDP_AA","routeId":"annojoin:profiles:RMDB2PDB:6YDP"},{"pairId":"6YDP:sequence_001388","profileId":"rmdbv3_exact_f74d16475b1e5edc0967e1ff3cdb37271f0ed3db|top_x_279::seq_75f3b6639c086092|6YDP_AA","routeId":"annojoin:profiles:RMDB2PDB:6YDP"},{"pairId":"6YDP:sequence_001389","profileId":"rmdbv3_exact_dabe3c89f89596a4a0566017b9404eac5338abab|top_x_279::seq_3dae4cfa9dc9458f|6YDP_AA","routeId":"annojoin:profiles:RMDB2PDB:6YDP"},{"pairId":"6YDP:sequence_001390","profileId":"rmdbv3_exact_dabe3c89f89596a4a0566017b9404eac5338abab|top_x_279::seq_af25dc17c962cca7|6YDP_AA","routeId":"annojoin:profiles:RMDB2PDB:6YDP"},{"pairId":"6YDP:sequence_001391","profileId":"rmdbv3_exact_78dd9c508faf0b6b2b8edf281ff8c1a154a0ca1f|top_x_279::seq_1878640b36b3137a|6YDP_AA","routeId":"annojoin:profiles:RMDB2PDB:6YDP"},{"pairId":"6YDP:sequence_001392","profileId":"rmdbv3_exact_78dd9c508faf0b6b2b8edf281ff8c1a154a0ca1f|top_x_279::seq_8c50428e084bece3|6YDP_AA","routeId":"annojoin:profiles:RMDB2PDB:6YDP"},{"pairId":"6YDP:sequence_001393","profileId":"rmdbv3_exact_5a06b8340811c4118da438d538e1b4d1a129d89c|top_x_279::seq_85fba64238830c04|6YDP_AA","routeId":"annojoin:profiles:RMDB2PDB:6YDP"}]}
