{"schemaVersion":"annojoin-atlas.v1","version":"V2.1_RMDB_LINE_A_20260617","atlasCaseKey":"RMDB2PDB:4P5J","caseId":"4P5J","routeKey":"track-routes","page":2,"pageSize":500,"totalRows":519,"pageCount":2,"rows":[{"profileId":"data-rna-structures/data-rna-structures/M2RFPK_2A3_0001.rdat#18629","trackRouteId":"annojoin:track:RMDB2PDB:pairseg_4P5J_sequence_000596","trackDataPath":"ANNOCONFIDENCE/assay_numeric_usability_annotation.tsv","trackSchemaId":"assay_numeric_usability_annotation","supports1d":true,"supportsTable":true,"colorPolicyId":"rmdb_reactivity_low_mid_high_v1"},{"profileId":"data-rna-structures/data-rna-structures/M2RFPK_DMS_0001.rdat#18465","trackRouteId":"annojoin:track:RMDB2PDB:pairseg_4P5J_sequence_000597","trackDataPath":"ANNOCONFIDENCE/assay_numeric_usability_annotation.tsv","trackSchemaId":"assay_numeric_usability_annotation","supports1d":true,"supportsTable":true,"colorPolicyId":"rmdb_reactivity_low_mid_high_v1"},{"profileId":"data-rna-structures/data-rna-structures/M2RFPK_2A3_0001.rdat#18465","trackRouteId":"annojoin:track:RMDB2PDB:pairseg_4P5J_sequence_000598","trackDataPath":"ANNOCONFIDENCE/assay_numeric_usability_annotation.tsv","trackSchemaId":"assay_numeric_usability_annotation","supports1d":true,"supportsTable":true,"colorPolicyId":"rmdb_reactivity_low_mid_high_v1"},{"profileId":"data-rna-structures/data-rna-structures/M2RFPK_DMS_0001.rdat#18607","trackRouteId":"annojoin:track:RMDB2PDB:pairseg_4P5J_sequence_000599","trackDataPath":"ANNOCONFIDENCE/assay_numeric_usability_annotation.tsv","trackSchemaId":"assay_numeric_usability_annotation","supports1d":true,"supportsTable":true,"colorPolicyId":"rmdb_reactivity_low_mid_high_v1"},{"profileId":"data-rna-structures/data-rna-structures/M2RFPK_2A3_0001.rdat#18607","trackRouteId":"annojoin:track:RMDB2PDB:pairseg_4P5J_sequence_000600","trackDataPath":"ANNOCONFIDENCE/assay_numeric_usability_annotation.tsv","trackSchemaId":"assay_numeric_usability_annotation","supports1d":true,"supportsTable":true,"colorPolicyId":"rmdb_reactivity_low_mid_high_v1"},{"profileId":"data-rna-structures/data-rna-structures/M2RFPK_DMS_0001.rdat#18645","trackRouteId":"annojoin:track:RMDB2PDB:pairseg_4P5J_sequence_000602","trackDataPath":"ANNOCONFIDENCE/assay_numeric_usability_annotation.tsv","trackSchemaId":"assay_numeric_usability_annotation","supports1d":true,"supportsTable":true,"colorPolicyId":"rmdb_reactivity_low_mid_high_v1"},{"profileId":"data-rna-structures/data-rna-structures/M2RFPK_DMS_0001.rdat#18438","trackRouteId":"annojoin:track:RMDB2PDB:pairseg_4P5J_sequence_000603","trackDataPath":"ANNOCONFIDENCE/assay_numeric_usability_annotation.tsv","trackSchemaId":"assay_numeric_usability_annotation","supports1d":true,"supportsTable":true,"colorPolicyId":"rmdb_reactivity_low_mid_high_v1"},{"profileId":"data-rna-structures/data-rna-structures/M2RFPK_2A3_0001.rdat#18438","trackRouteId":"annojoin:track:RMDB2PDB:pairseg_4P5J_sequence_000604","trackDataPath":"ANNOCONFIDENCE/assay_numeric_usability_annotation.tsv","trackSchemaId":"assay_numeric_usability_annotation","supports1d":true,"supportsTable":true,"colorPolicyId":"rmdb_reactivity_low_mid_high_v1"},{"profileId":"data-rna-structures/data-rna-structures/M2RFPK_DMS_0001.rdat#18428","trackRouteId":"annojoin:track:RMDB2PDB:pairseg_4P5J_sequence_000605","trackDataPath":"ANNOCONFIDENCE/assay_numeric_usability_annotation.tsv","trackSchemaId":"assay_numeric_usability_annotation","supports1d":true,"supportsTable":true,"colorPolicyId":"rmdb_reactivity_low_mid_high_v1"},{"profileId":"data-rna-structures/data-rna-structures/M2RFPK_2A3_0001.rdat#18428","trackRouteId":"annojoin:track:RMDB2PDB:pairseg_4P5J_sequence_000606","trackDataPath":"ANNOCONFIDENCE/assay_numeric_usability_annotation.tsv","trackSchemaId":"assay_numeric_usability_annotation","supports1d":true,"supportsTable":true,"colorPolicyId":"rmdb_reactivity_low_mid_high_v1"},{"profileId":"data-rna-structures/data-rna-structures/M2RFPK_2A3_0001.rdat#18456","trackRouteId":"annojoin:track:RMDB2PDB:pairseg_4P5J_sequence_000607","trackDataPath":"ANNOCONFIDENCE/assay_numeric_usability_annotation.tsv","trackSchemaId":"assay_numeric_usability_annotation","supports1d":true,"supportsTable":true,"colorPolicyId":"rmdb_reactivity_low_mid_high_v1"},{"profileId":"data-rna-structures/data-rna-structures/M2RFPK_DMS_0001.rdat#18456","trackRouteId":"annojoin:track:RMDB2PDB:pairseg_4P5J_sequence_000608","trackDataPath":"ANNOCONFIDENCE/assay_numeric_usability_annotation.tsv","trackSchemaId":"assay_numeric_usability_annotation","supports1d":true,"supportsTable":true,"colorPolicyId":"rmdb_reactivity_low_mid_high_v1"},{"profileId":"data-rna-structures/data-rna-structures/M2RFPK_2A3_0001.rdat#18543","trackRouteId":"annojoin:track:RMDB2PDB:pairseg_4P5J_sequence_000611","trackDataPath":"ANNOCONFIDENCE/assay_numeric_usability_annotation.tsv","trackSchemaId":"assay_numeric_usability_annotation","supports1d":true,"supportsTable":true,"colorPolicyId":"rmdb_reactivity_low_mid_high_v1"},{"profileId":"data-rna-structures/data-rna-structures/M2RFPK_DMS_0001.rdat#18543","trackRouteId":"annojoin:track:RMDB2PDB:pairseg_4P5J_sequence_000612","trackDataPath":"ANNOCONFIDENCE/assay_numeric_usability_annotation.tsv","trackSchemaId":"assay_numeric_usability_annotation","supports1d":true,"supportsTable":true,"colorPolicyId":"rmdb_reactivity_low_mid_high_v1"},{"profileId":"data-rna-structures/data-rna-structures/M2RFPK_2A3_0001.rdat#18533","trackRouteId":"annojoin:track:RMDB2PDB:pairseg_4P5J_sequence_000613","trackDataPath":"ANNOCONFIDENCE/assay_numeric_usability_annotation.tsv","trackSchemaId":"assay_numeric_usability_annotation","supports1d":true,"supportsTable":true,"colorPolicyId":"rmdb_reactivity_low_mid_high_v1"},{"profileId":"data-eterna/data-eterna/OK1LIB_2A3_0000.rdat#42074","trackRouteId":"annojoin:track:RMDB2PDB:pairseg_4P5J_sequence_000617","trackDataPath":"ANNOCONFIDENCE/assay_numeric_usability_annotation.tsv","trackSchemaId":"assay_numeric_usability_annotation","supports1d":true,"supportsTable":true,"colorPolicyId":"rmdb_reactivity_low_mid_high_v1"},{"profileId":"data-eterna/data-eterna/OK2TST_DMS_0000.rdat#117993","trackRouteId":"annojoin:track:RMDB2PDB:pairseg_4P5J_sequence_000619","trackDataPath":"ANNOCONFIDENCE/assay_numeric_usability_annotation.tsv","trackSchemaId":"assay_numeric_usability_annotation","supports1d":true,"supportsTable":true,"colorPolicyId":"rmdb_reactivity_low_mid_high_v1"},{"profileId":"data-rna-structures/data-rna-structures/POS240_2A3_0000.rdat#1841","trackRouteId":"annojoin:track:RMDB2PDB:pairseg_4P5J_sequence_000625","trackDataPath":"ANNOCONFIDENCE/assay_numeric_usability_annotation.tsv","trackSchemaId":"assay_numeric_usability_annotation","supports1d":true,"supportsTable":true,"colorPolicyId":"rmdb_reactivity_low_mid_high_v1"},{"profileId":"data-rna-structures/data-rna-structures/POS240_DMS_0000.rdat#1841","trackRouteId":"annojoin:track:RMDB2PDB:pairseg_4P5J_sequence_000626","trackDataPath":"ANNOCONFIDENCE/assay_numeric_usability_annotation.tsv","trackSchemaId":"assay_numeric_usability_annotation","supports1d":true,"supportsTable":true,"colorPolicyId":"rmdb_reactivity_low_mid_high_v1"}]}
