{"schemaVersion":"annojoin-atlas.v1","version":"V2.1_RMDB_LINE_A_20260617","atlasCaseKey":"RMDB2PDB:9SI0","caseId":"9SI0","routeKey":"memberships","page":2,"pageSize":500,"totalRows":645,"pageCount":2,"rows":[{"pairId":"9SI0:sequence_000750","profileId":"rmdbv3_exact_742f4c503289c17081d71988705b8a87c71378bb|nonpuzzle_fail_rescue::seq_ffd63ea30680556f|9SI0_B","routeId":"annojoin:profiles:RMDB2PDB:9SI0"},{"pairId":"9SI0:sequence_000751","profileId":"rmdbv3_exact_7433b720fcce4096afb37743c9d72beb9abfbefa|nonpuzzle_fail_rescue::seq_5c99c91287910b1d|9SI0_B","routeId":"annojoin:profiles:RMDB2PDB:9SI0"},{"pairId":"9SI0:sequence_000752","profileId":"rmdbv3_exact_7433b720fcce4096afb37743c9d72beb9abfbefa|nonpuzzle_fail_rescue::seq_9dbe7851b3cac0a0|9SI0_B","routeId":"annojoin:profiles:RMDB2PDB:9SI0"},{"pairId":"9SI0:sequence_000753","profileId":"rmdbv3_exact_7525c28917c856f4b55cd247feb3dea6d9a147f1|nonpuzzle_fail_rescue::seq_385572ae925a0d45|9SI0_B","routeId":"annojoin:profiles:RMDB2PDB:9SI0"},{"pairId":"9SI0:sequence_000754","profileId":"rmdbv3_exact_7525c28917c856f4b55cd247feb3dea6d9a147f1|nonpuzzle_fail_rescue::seq_fcfbaec3c950fa39|9SI0_B","routeId":"annojoin:profiles:RMDB2PDB:9SI0"},{"pairId":"9SI0:sequence_000755","profileId":"rmdbv3_exact_76553088b6f6da76b15392a4aca7b2fedcd8ee00|nonpuzzle_fail_rescue::seq_105a273f7458e126|9SI0_B","routeId":"annojoin:profiles:RMDB2PDB:9SI0"},{"pairId":"9SI0:sequence_000756","profileId":"rmdbv3_exact_76553088b6f6da76b15392a4aca7b2fedcd8ee00|nonpuzzle_fail_rescue::seq_863e4c4cca99ce9b|9SI0_B","routeId":"annojoin:profiles:RMDB2PDB:9SI0"},{"pairId":"9SI0:sequence_000757","profileId":"rmdbv3_exact_76a88e0f20f59f174e07ef457054492565fc9112|nonpuzzle_fail_rescue::seq_1acba6140871172c|9SI0_B","routeId":"annojoin:profiles:RMDB2PDB:9SI0"},{"pairId":"9SI0:sequence_000758","profileId":"rmdbv3_exact_76a88e0f20f59f174e07ef457054492565fc9112|nonpuzzle_fail_rescue::seq_3f667639b640258b|9SI0_B","routeId":"annojoin:profiles:RMDB2PDB:9SI0"},{"pairId":"9SI0:sequence_000759","profileId":"rmdbv3_exact_773384c29a34e8448384494817579aea54cda488|nonpuzzle_fail_rescue::seq_3b73caa913a1f29b|9SI0_B","routeId":"annojoin:profiles:RMDB2PDB:9SI0"},{"pairId":"9SI0:sequence_000760","profileId":"rmdbv3_exact_773384c29a34e8448384494817579aea54cda488|nonpuzzle_fail_rescue::seq_9d2050cc4e16116e|9SI0_B","routeId":"annojoin:profiles:RMDB2PDB:9SI0"},{"pairId":"9SI0:sequence_000761","profileId":"rmdbv3_exact_77ec2150d324da74410460f0f9c910de111073fb|nonpuzzle_fail_rescue::seq_44bc68af93624fcb|9SI0_B","routeId":"annojoin:profiles:RMDB2PDB:9SI0"},{"pairId":"9SI0:sequence_000762","profileId":"rmdbv3_exact_77ec2150d324da74410460f0f9c910de111073fb|nonpuzzle_fail_rescue::seq_ddeddd8c319fa886|9SI0_B","routeId":"annojoin:profiles:RMDB2PDB:9SI0"},{"pairId":"9SI0:sequence_000763","profileId":"rmdbv3_exact_7c6730b0699860237f5745cdd1ca4a12a13b8c64|nonpuzzle_fail_rescue::seq_dc51c9aac51c5dd7|9SI0_B","routeId":"annojoin:profiles:RMDB2PDB:9SI0"},{"pairId":"9SI0:sequence_000764","profileId":"rmdbv3_exact_7c6730b0699860237f5745cdd1ca4a12a13b8c64|nonpuzzle_fail_rescue::seq_f3eaff783187fa86|9SI0_B","routeId":"annojoin:profiles:RMDB2PDB:9SI0"},{"pairId":"9SI0:sequence_000765","profileId":"rmdbv3_exact_7e817b685b83671e4e10bd0481b6b704ebe02d08|nonpuzzle_fail_rescue::seq_46664ff9426669f7|9SI0_B","routeId":"annojoin:profiles:RMDB2PDB:9SI0"},{"pairId":"9SI0:sequence_000766","profileId":"rmdbv3_exact_7e817b685b83671e4e10bd0481b6b704ebe02d08|nonpuzzle_fail_rescue::seq_a8a1bbb1f2ab5871|9SI0_B","routeId":"annojoin:profiles:RMDB2PDB:9SI0"},{"pairId":"9SI0:sequence_000767","profileId":"rmdbv3_exact_7f2b3582df02c299f09ff50935f2e9938a0d015d|nonpuzzle_fail_rescue::seq_7f48838b2cdf4f9b|9SI0_B","routeId":"annojoin:profiles:RMDB2PDB:9SI0"},{"pairId":"9SI0:sequence_000768","profileId":"rmdbv3_exact_7f2b3582df02c299f09ff50935f2e9938a0d015d|nonpuzzle_fail_rescue::seq_9b3fc4f375d644cb|9SI0_B","routeId":"annojoin:profiles:RMDB2PDB:9SI0"},{"pairId":"9SI0:sequence_000769","profileId":"rmdbv3_exact_80368ac8032170353535380a23fc271e295b1e54|nonpuzzle_fail_rescue::seq_556661af3ead654f|9SI0_B","routeId":"annojoin:profiles:RMDB2PDB:9SI0"},{"pairId":"9SI0:sequence_000770","profileId":"rmdbv3_exact_80368ac8032170353535380a23fc271e295b1e54|nonpuzzle_fail_rescue::seq_d42e47dffafb6f4d|9SI0_B","routeId":"annojoin:profiles:RMDB2PDB:9SI0"},{"pairId":"9SI0:sequence_000771","profileId":"rmdbv3_exact_81c96bf25f1394d95c4604d3df3bb78914ca9ba2|nonpuzzle_fail_rescue::seq_39f763b38c15a9c6|9SI0_B","routeId":"annojoin:profiles:RMDB2PDB:9SI0"},{"pairId":"9SI0:sequence_000772","profileId":"rmdbv3_exact_81c96bf25f1394d95c4604d3df3bb78914ca9ba2|nonpuzzle_fail_rescue::seq_4ece5b84383f54e5|9SI0_B","routeId":"annojoin:profiles:RMDB2PDB:9SI0"},{"pairId":"9SI0:sequence_000773","profileId":"rmdbv3_exact_87c8576179f17ac632293f30add8b6620deff5a3|nonpuzzle_fail_rescue::seq_45b3a8624dd75308|9SI0_B","routeId":"annojoin:profiles:RMDB2PDB:9SI0"},{"pairId":"9SI0:sequence_000774","profileId":"rmdbv3_exact_87c8576179f17ac632293f30add8b6620deff5a3|nonpuzzle_fail_rescue::seq_9bb5c4aef57c3226|9SI0_B","routeId":"annojoin:profiles:RMDB2PDB:9SI0"},{"pairId":"9SI0:sequence_000775","profileId":"rmdbv3_exact_888fcd978e8686a47a2bd7010401a65249165bb2|nonpuzzle_fail_rescue::seq_82bf47b6192bdc80|9SI0_B","routeId":"annojoin:profiles:RMDB2PDB:9SI0"},{"pairId":"9SI0:sequence_000776","profileId":"rmdbv3_exact_888fcd978e8686a47a2bd7010401a65249165bb2|nonpuzzle_fail_rescue::seq_f910c4b55d6096d1|9SI0_B","routeId":"annojoin:profiles:RMDB2PDB:9SI0"},{"pairId":"9SI0:sequence_000777","profileId":"rmdbv3_exact_8ab206975a99b4a99e527601912c8f1ba1ca27a0|nonpuzzle_fail_rescue::seq_12a44ab1ad13ebbb|9SI0_B","routeId":"annojoin:profiles:RMDB2PDB:9SI0"},{"pairId":"9SI0:sequence_000778","profileId":"rmdbv3_exact_8ab206975a99b4a99e527601912c8f1ba1ca27a0|nonpuzzle_fail_rescue::seq_503c17a7b198d574|9SI0_B","routeId":"annojoin:profiles:RMDB2PDB:9SI0"},{"pairId":"9SI0:sequence_000779","profileId":"rmdbv3_exact_90da1e888575acc14510444cacfb4b471e30b544|nonpuzzle_fail_rescue::seq_2885c88603b1666f|9SI0_B","routeId":"annojoin:profiles:RMDB2PDB:9SI0"},{"pairId":"9SI0:sequence_000780","profileId":"rmdbv3_exact_90da1e888575acc14510444cacfb4b471e30b544|nonpuzzle_fail_rescue::seq_78fe4cc7be15db65|9SI0_B","routeId":"annojoin:profiles:RMDB2PDB:9SI0"},{"pairId":"9SI0:sequence_000781","profileId":"rmdbv3_exact_91a56502c9733dd6cb5aedacca6dba62ec087c6f|nonpuzzle_fail_rescue::seq_19e3a75f55a9fec9|9SI0_B","routeId":"annojoin:profiles:RMDB2PDB:9SI0"},{"pairId":"9SI0:sequence_000782","profileId":"rmdbv3_exact_91a56502c9733dd6cb5aedacca6dba62ec087c6f|nonpuzzle_fail_rescue::seq_e951fa72fe13798a|9SI0_B","routeId":"annojoin:profiles:RMDB2PDB:9SI0"},{"pairId":"9SI0:sequence_000783","profileId":"rmdbv3_exact_91dd901a4cdec7033149f2c1986f8846fe7f8360|nonpuzzle_fail_rescue::seq_6bd197acca7e9132|9SI0_B","routeId":"annojoin:profiles:RMDB2PDB:9SI0"},{"pairId":"9SI0:sequence_000784","profileId":"rmdbv3_exact_91dd901a4cdec7033149f2c1986f8846fe7f8360|nonpuzzle_fail_rescue::seq_f1547b85268b05f8|9SI0_B","routeId":"annojoin:profiles:RMDB2PDB:9SI0"},{"pairId":"9SI0:sequence_000785","profileId":"rmdbv3_exact_951f33e0600d920949dc080d6dd888e0e2a629ab|nonpuzzle_fail_rescue::seq_560e7d4c3c92673a|9SI0_B","routeId":"annojoin:profiles:RMDB2PDB:9SI0"},{"pairId":"9SI0:sequence_000786","profileId":"rmdbv3_exact_951f33e0600d920949dc080d6dd888e0e2a629ab|nonpuzzle_fail_rescue::seq_6c4d69d786f1f374|9SI0_B","routeId":"annojoin:profiles:RMDB2PDB:9SI0"},{"pairId":"9SI0:sequence_000787","profileId":"rmdbv3_exact_953faed26ca8bc8b2466f8d9df55b37b02545a3e|nonpuzzle_fail_rescue::seq_c7a30aa6945c201a|9SI0_B","routeId":"annojoin:profiles:RMDB2PDB:9SI0"},{"pairId":"9SI0:sequence_000788","profileId":"rmdbv3_exact_953faed26ca8bc8b2466f8d9df55b37b02545a3e|nonpuzzle_fail_rescue::seq_ee16092a5720e493|9SI0_B","routeId":"annojoin:profiles:RMDB2PDB:9SI0"},{"pairId":"9SI0:sequence_000789","profileId":"rmdbv3_exact_96086b5d4b7bdf14edd2a0993acdcae3219f627d|nonpuzzle_fail_rescue::seq_61d4de5ee2d4f7d1|9SI0_B","routeId":"annojoin:profiles:RMDB2PDB:9SI0"},{"pairId":"9SI0:sequence_000790","profileId":"rmdbv3_exact_96086b5d4b7bdf14edd2a0993acdcae3219f627d|nonpuzzle_fail_rescue::seq_84c83c757c9e55ad|9SI0_B","routeId":"annojoin:profiles:RMDB2PDB:9SI0"},{"pairId":"9SI0:sequence_000791","profileId":"rmdbv3_exact_9633a05c74b11d5fe93f581b13550a10f870af6c|nonpuzzle_fail_rescue::seq_7027ce7cc321185d|9SI0_B","routeId":"annojoin:profiles:RMDB2PDB:9SI0"},{"pairId":"9SI0:sequence_000792","profileId":"rmdbv3_exact_9633a05c74b11d5fe93f581b13550a10f870af6c|nonpuzzle_fail_rescue::seq_8c208e1e21d6013f|9SI0_B","routeId":"annojoin:profiles:RMDB2PDB:9SI0"},{"pairId":"9SI0:sequence_000793","profileId":"rmdbv3_exact_9ba7737d93cb7ef1c7e10ab8e9a9c1c44a03fdee|nonpuzzle_fail_rescue::seq_521a7f509b8039af|9SI0_B","routeId":"annojoin:profiles:RMDB2PDB:9SI0"},{"pairId":"9SI0:sequence_000794","profileId":"rmdbv3_exact_9ba7737d93cb7ef1c7e10ab8e9a9c1c44a03fdee|nonpuzzle_fail_rescue::seq_c083dfb0cd3c917a|9SI0_B","routeId":"annojoin:profiles:RMDB2PDB:9SI0"},{"pairId":"9SI0:sequence_000795","profileId":"rmdbv3_exact_9c50300f0809a870a69ea69052d6f0a07be2b7d1|nonpuzzle_fail_rescue::seq_132b9e454e01d0f6|9SI0_B","routeId":"annojoin:profiles:RMDB2PDB:9SI0"},{"pairId":"9SI0:sequence_000796","profileId":"rmdbv3_exact_9c50300f0809a870a69ea69052d6f0a07be2b7d1|nonpuzzle_fail_rescue::seq_f239cc083215ed3d|9SI0_B","routeId":"annojoin:profiles:RMDB2PDB:9SI0"},{"pairId":"9SI0:sequence_000797","profileId":"rmdbv3_exact_a093b5b3f3b68ed0df19fbedf0e8a42620e27801|nonpuzzle_fail_rescue::seq_a3a1f2683e71031c|9SI0_B","routeId":"annojoin:profiles:RMDB2PDB:9SI0"},{"pairId":"9SI0:sequence_000798","profileId":"rmdbv3_exact_a093b5b3f3b68ed0df19fbedf0e8a42620e27801|nonpuzzle_fail_rescue::seq_bc0b0ffb78f07b79|9SI0_B","routeId":"annojoin:profiles:RMDB2PDB:9SI0"},{"pairId":"9SI0:sequence_000799","profileId":"rmdbv3_exact_a72ffd9914f9e790e194d441f0867b9538b2c14a|nonpuzzle_fail_rescue::seq_098015673aef71aa|9SI0_B","routeId":"annojoin:profiles:RMDB2PDB:9SI0"},{"pairId":"9SI0:sequence_000800","profileId":"rmdbv3_exact_a72ffd9914f9e790e194d441f0867b9538b2c14a|nonpuzzle_fail_rescue::seq_125fae2bbddd159a|9SI0_B","routeId":"annojoin:profiles:RMDB2PDB:9SI0"},{"pairId":"9SI0:sequence_000801","profileId":"rmdbv3_exact_a7eacf8fdc596e624b83a0f7905efb16206b5dac|nonpuzzle_fail_rescue::seq_5126038212e38eec|9SI0_B","routeId":"annojoin:profiles:RMDB2PDB:9SI0"},{"pairId":"9SI0:sequence_000802","profileId":"rmdbv3_exact_a7eacf8fdc596e624b83a0f7905efb16206b5dac|nonpuzzle_fail_rescue::seq_8fae35cbc5989810|9SI0_B","routeId":"annojoin:profiles:RMDB2PDB:9SI0"},{"pairId":"9SI0:sequence_000803","profileId":"rmdbv3_exact_a8ffcfc0906acde3e0d0fba5652b3b7d48a0af39|nonpuzzle_fail_rescue::seq_2de1261948ea5b22|9SI0_B","routeId":"annojoin:profiles:RMDB2PDB:9SI0"},{"pairId":"9SI0:sequence_000804","profileId":"rmdbv3_exact_a8ffcfc0906acde3e0d0fba5652b3b7d48a0af39|nonpuzzle_fail_rescue::seq_6aa2a0ea90774058|9SI0_B","routeId":"annojoin:profiles:RMDB2PDB:9SI0"},{"pairId":"9SI0:sequence_000805","profileId":"rmdbv3_exact_ad9c8e2f8fea575007cc5220c271a99b982325a3|nonpuzzle_fail_rescue::seq_ac3d293cb1804d10|9SI0_B","routeId":"annojoin:profiles:RMDB2PDB:9SI0"},{"pairId":"9SI0:sequence_000806","profileId":"rmdbv3_exact_ad9c8e2f8fea575007cc5220c271a99b982325a3|nonpuzzle_fail_rescue::seq_b0748316d3d41b01|9SI0_B","routeId":"annojoin:profiles:RMDB2PDB:9SI0"},{"pairId":"9SI0:sequence_000807","profileId":"rmdbv3_exact_aeee6c39f9643f8d6ebc4b5a1bd21a0bf52d99ed|nonpuzzle_fail_rescue::seq_9ebcfb85960f5918|9SI0_B","routeId":"annojoin:profiles:RMDB2PDB:9SI0"},{"pairId":"9SI0:sequence_000808","profileId":"rmdbv3_exact_aeee6c39f9643f8d6ebc4b5a1bd21a0bf52d99ed|nonpuzzle_fail_rescue::seq_bbc9220009aae70f|9SI0_B","routeId":"annojoin:profiles:RMDB2PDB:9SI0"},{"pairId":"9SI0:sequence_000809","profileId":"rmdbv3_exact_afb4055df8602d2916fcaf04481a4459fdebbea2|nonpuzzle_fail_rescue::seq_7002fd9de83c22bd|9SI0_B","routeId":"annojoin:profiles:RMDB2PDB:9SI0"},{"pairId":"9SI0:sequence_000810","profileId":"rmdbv3_exact_afb4055df8602d2916fcaf04481a4459fdebbea2|nonpuzzle_fail_rescue::seq_fbb668c1ee308c96|9SI0_B","routeId":"annojoin:profiles:RMDB2PDB:9SI0"},{"pairId":"9SI0:sequence_000811","profileId":"rmdbv3_exact_b0c050e2d8068318673bc3a6964322f80a463596|nonpuzzle_fail_rescue::seq_71a1877c2ba3fdaf|9SI0_B","routeId":"annojoin:profiles:RMDB2PDB:9SI0"},{"pairId":"9SI0:sequence_000812","profileId":"rmdbv3_exact_b0c050e2d8068318673bc3a6964322f80a463596|nonpuzzle_fail_rescue::seq_a01958c1cd3a2a38|9SI0_B","routeId":"annojoin:profiles:RMDB2PDB:9SI0"},{"pairId":"9SI0:sequence_000813","profileId":"rmdbv3_exact_b4f9d959057752b6a63e8c8a9c351c820caf657a|nonpuzzle_fail_rescue::seq_56f8b703125e4972|9SI0_B","routeId":"annojoin:profiles:RMDB2PDB:9SI0"},{"pairId":"9SI0:sequence_000814","profileId":"rmdbv3_exact_b4f9d959057752b6a63e8c8a9c351c820caf657a|nonpuzzle_fail_rescue::seq_d72ea8edb1919ec4|9SI0_B","routeId":"annojoin:profiles:RMDB2PDB:9SI0"},{"pairId":"9SI0:sequence_000815","profileId":"rmdbv3_exact_b5aa44c0444517d67557becd474fd025dfb1341b|nonpuzzle_fail_rescue::seq_2480db1897c0819e|9SI0_B","routeId":"annojoin:profiles:RMDB2PDB:9SI0"},{"pairId":"9SI0:sequence_000816","profileId":"rmdbv3_exact_b5aa44c0444517d67557becd474fd025dfb1341b|nonpuzzle_fail_rescue::seq_723475cde0e23669|9SI0_B","routeId":"annojoin:profiles:RMDB2PDB:9SI0"},{"pairId":"9SI0:sequence_000817","profileId":"rmdbv3_exact_b824867176df6410395a41a6a1cadb734d0491a5|nonpuzzle_fail_rescue::seq_f808366f81639d18|9SI0_B","routeId":"annojoin:profiles:RMDB2PDB:9SI0"},{"pairId":"9SI0:sequence_000818","profileId":"rmdbv3_exact_b824867176df6410395a41a6a1cadb734d0491a5|nonpuzzle_fail_rescue::seq_fa5bc7a786f72ce8|9SI0_B","routeId":"annojoin:profiles:RMDB2PDB:9SI0"},{"pairId":"9SI0:sequence_000819","profileId":"rmdbv3_exact_b8dedbf98368a2a4847f6d880c58b435981d4121|nonpuzzle_fail_rescue::seq_a611163a1f161811|9SI0_B","routeId":"annojoin:profiles:RMDB2PDB:9SI0"},{"pairId":"9SI0:sequence_000820","profileId":"rmdbv3_exact_b8dedbf98368a2a4847f6d880c58b435981d4121|nonpuzzle_fail_rescue::seq_a9c6a4a2c29dec87|9SI0_B","routeId":"annojoin:profiles:RMDB2PDB:9SI0"},{"pairId":"9SI0:sequence_000821","profileId":"rmdbv3_exact_bfd54a51d7c981697d4822f155969dff6578c9cc|nonpuzzle_fail_rescue::seq_5bae4bf36d8442db|9SI0_B","routeId":"annojoin:profiles:RMDB2PDB:9SI0"},{"pairId":"9SI0:sequence_000822","profileId":"rmdbv3_exact_bfd54a51d7c981697d4822f155969dff6578c9cc|nonpuzzle_fail_rescue::seq_eba583d5c1b7cc65|9SI0_B","routeId":"annojoin:profiles:RMDB2PDB:9SI0"},{"pairId":"9SI0:sequence_000823","profileId":"rmdbv3_exact_bfe0448e8e41ae6f84a7ee706493f83d78d0f7b9|nonpuzzle_fail_rescue::seq_10af64900cdb25b9|9SI0_B","routeId":"annojoin:profiles:RMDB2PDB:9SI0"},{"pairId":"9SI0:sequence_000824","profileId":"rmdbv3_exact_bfe0448e8e41ae6f84a7ee706493f83d78d0f7b9|nonpuzzle_fail_rescue::seq_7eb1a15b04475572|9SI0_B","routeId":"annojoin:profiles:RMDB2PDB:9SI0"},{"pairId":"9SI0:sequence_000825","profileId":"rmdbv3_exact_c079a3088fe873523ee3b64189979f021ad98664|nonpuzzle_fail_rescue::seq_23b366f093b857cc|9SI0_B","routeId":"annojoin:profiles:RMDB2PDB:9SI0"},{"pairId":"9SI0:sequence_000826","profileId":"rmdbv3_exact_c079a3088fe873523ee3b64189979f021ad98664|nonpuzzle_fail_rescue::seq_85ce44400544504c|9SI0_B","routeId":"annojoin:profiles:RMDB2PDB:9SI0"},{"pairId":"9SI0:sequence_000827","profileId":"rmdbv3_exact_c45bdcdd6b16e7b9bb711abc7bef8716b41400f1|nonpuzzle_fail_rescue::seq_33ce0911a2bb1c36|9SI0_B","routeId":"annojoin:profiles:RMDB2PDB:9SI0"},{"pairId":"9SI0:sequence_000828","profileId":"rmdbv3_exact_c45bdcdd6b16e7b9bb711abc7bef8716b41400f1|nonpuzzle_fail_rescue::seq_ba8be10af7ee346c|9SI0_B","routeId":"annojoin:profiles:RMDB2PDB:9SI0"},{"pairId":"9SI0:sequence_000829","profileId":"rmdbv3_exact_cbbb45f8ebae3b45945e3498c75f192e65704b5b|nonpuzzle_fail_rescue::seq_4310815995e91ed9|9SI0_B","routeId":"annojoin:profiles:RMDB2PDB:9SI0"},{"pairId":"9SI0:sequence_000830","profileId":"rmdbv3_exact_cbbb45f8ebae3b45945e3498c75f192e65704b5b|nonpuzzle_fail_rescue::seq_cd3296eef3bb90aa|9SI0_B","routeId":"annojoin:profiles:RMDB2PDB:9SI0"},{"pairId":"9SI0:sequence_000831","profileId":"rmdbv3_exact_cbf4f96a2d939c9b3ac9ea3137d27bac89295144|nonpuzzle_fail_rescue::seq_152849272b57ce03|9SI0_B","routeId":"annojoin:profiles:RMDB2PDB:9SI0"},{"pairId":"9SI0:sequence_000832","profileId":"rmdbv3_exact_cbf4f96a2d939c9b3ac9ea3137d27bac89295144|nonpuzzle_fail_rescue::seq_d6afd75d07e2c238|9SI0_B","routeId":"annojoin:profiles:RMDB2PDB:9SI0"},{"pairId":"9SI0:sequence_000833","profileId":"rmdbv3_exact_cf13bc85947939216be3e567fb1b4e6bdf5d8d26|nonpuzzle_fail_rescue::seq_0f01967766d9f053|9SI0_B","routeId":"annojoin:profiles:RMDB2PDB:9SI0"},{"pairId":"9SI0:sequence_000834","profileId":"rmdbv3_exact_cf13bc85947939216be3e567fb1b4e6bdf5d8d26|nonpuzzle_fail_rescue::seq_32025f5291a41f5d|9SI0_B","routeId":"annojoin:profiles:RMDB2PDB:9SI0"},{"pairId":"9SI0:sequence_000835","profileId":"rmdbv3_exact_cf4e39fc83fad750687c78ba4e6f0b69d28d4c63|nonpuzzle_fail_rescue::seq_2178b4ee7cb6baa6|9SI0_B","routeId":"annojoin:profiles:RMDB2PDB:9SI0"},{"pairId":"9SI0:sequence_000836","profileId":"rmdbv3_exact_cf4e39fc83fad750687c78ba4e6f0b69d28d4c63|nonpuzzle_fail_rescue::seq_4665b0d9aa1f3b3d|9SI0_B","routeId":"annojoin:profiles:RMDB2PDB:9SI0"},{"pairId":"9SI0:sequence_000837","profileId":"rmdbv3_exact_d2c8be8ca09e29902d0be07b4e4183180a494133|nonpuzzle_fail_rescue::seq_748dcf2ada5da729|9SI0_B","routeId":"annojoin:profiles:RMDB2PDB:9SI0"},{"pairId":"9SI0:sequence_000838","profileId":"rmdbv3_exact_d2c8be8ca09e29902d0be07b4e4183180a494133|nonpuzzle_fail_rescue::seq_dbe05a8e2b24a1d1|9SI0_B","routeId":"annojoin:profiles:RMDB2PDB:9SI0"},{"pairId":"9SI0:sequence_000839","profileId":"rmdbv3_exact_d7208fa35edd7e7de5ed9521dfbfacfe679c3a17|nonpuzzle_fail_rescue::seq_928adfbed685e3e7|9SI0_B","routeId":"annojoin:profiles:RMDB2PDB:9SI0"},{"pairId":"9SI0:sequence_000840","profileId":"rmdbv3_exact_d7208fa35edd7e7de5ed9521dfbfacfe679c3a17|nonpuzzle_fail_rescue::seq_a626c6ba9ff7fd6b|9SI0_B","routeId":"annojoin:profiles:RMDB2PDB:9SI0"},{"pairId":"9SI0:sequence_000841","profileId":"rmdbv3_exact_d95d45afc42c2d2281c768f054381b13507e62a8|nonpuzzle_fail_rescue::seq_36b5b0e789de3641|9SI0_B","routeId":"annojoin:profiles:RMDB2PDB:9SI0"},{"pairId":"9SI0:sequence_000842","profileId":"rmdbv3_exact_d95d45afc42c2d2281c768f054381b13507e62a8|nonpuzzle_fail_rescue::seq_740878521aeb0e8b|9SI0_B","routeId":"annojoin:profiles:RMDB2PDB:9SI0"},{"pairId":"9SI0:sequence_000843","profileId":"rmdbv3_exact_dc4fa4bf3f9cb091678366e5db5f28f2c045891f|nonpuzzle_fail_rescue::seq_2a2879384411c11a|9SI0_B","routeId":"annojoin:profiles:RMDB2PDB:9SI0"},{"pairId":"9SI0:sequence_000844","profileId":"rmdbv3_exact_dc4fa4bf3f9cb091678366e5db5f28f2c045891f|nonpuzzle_fail_rescue::seq_647051932cd10cbf|9SI0_B","routeId":"annojoin:profiles:RMDB2PDB:9SI0"},{"pairId":"9SI0:sequence_000845","profileId":"rmdbv3_exact_dd6865fcdc6ec296bcd7bfcadd3f4e0704ebb889|nonpuzzle_fail_rescue::seq_05d93ac126d56e64|9SI0_B","routeId":"annojoin:profiles:RMDB2PDB:9SI0"},{"pairId":"9SI0:sequence_000846","profileId":"rmdbv3_exact_dd6865fcdc6ec296bcd7bfcadd3f4e0704ebb889|nonpuzzle_fail_rescue::seq_5e59da410d4849e0|9SI0_B","routeId":"annojoin:profiles:RMDB2PDB:9SI0"},{"pairId":"9SI0:sequence_000847","profileId":"rmdbv3_exact_dd6b8708020cc842db81e1999d8a68135ec714cd|nonpuzzle_fail_rescue::seq_21b42cbe31fb9c69|9SI0_B","routeId":"annojoin:profiles:RMDB2PDB:9SI0"},{"pairId":"9SI0:sequence_000848","profileId":"rmdbv3_exact_dd6b8708020cc842db81e1999d8a68135ec714cd|nonpuzzle_fail_rescue::seq_ce930ad897a7ccd4|9SI0_B","routeId":"annojoin:profiles:RMDB2PDB:9SI0"},{"pairId":"9SI0:sequence_000849","profileId":"rmdbv3_exact_e1923db8836201a105929500dff59aac3a368f7b|nonpuzzle_fail_rescue::seq_26d46bdf62213e25|9SI0_B","routeId":"annojoin:profiles:RMDB2PDB:9SI0"},{"pairId":"9SI0:sequence_000850","profileId":"rmdbv3_exact_e1923db8836201a105929500dff59aac3a368f7b|nonpuzzle_fail_rescue::seq_7f556f8f05b220fe|9SI0_B","routeId":"annojoin:profiles:RMDB2PDB:9SI0"},{"pairId":"9SI0:sequence_000851","profileId":"rmdbv3_exact_e328c0987ae415984dc2b853a2af8c5ea037b704|nonpuzzle_fail_rescue::seq_713b80d1f97640d4|9SI0_B","routeId":"annojoin:profiles:RMDB2PDB:9SI0"},{"pairId":"9SI0:sequence_000852","profileId":"rmdbv3_exact_e328c0987ae415984dc2b853a2af8c5ea037b704|nonpuzzle_fail_rescue::seq_b96ddfc5226f757c|9SI0_B","routeId":"annojoin:profiles:RMDB2PDB:9SI0"},{"pairId":"9SI0:sequence_000853","profileId":"rmdbv3_exact_e73851663ab38eae3cb72b41acd5f8cf626ede60|nonpuzzle_fail_rescue::seq_0589ef2fd5a1c855|9SI0_B","routeId":"annojoin:profiles:RMDB2PDB:9SI0"},{"pairId":"9SI0:sequence_000854","profileId":"rmdbv3_exact_e73851663ab38eae3cb72b41acd5f8cf626ede60|nonpuzzle_fail_rescue::seq_8a85fd546dea0eac|9SI0_B","routeId":"annojoin:profiles:RMDB2PDB:9SI0"},{"pairId":"9SI0:sequence_000855","profileId":"rmdbv3_exact_e816246cd85438f56ea6d4ad7d7cc61063d041d7|nonpuzzle_fail_rescue::seq_857fa94dd448bb6b|9SI0_B","routeId":"annojoin:profiles:RMDB2PDB:9SI0"},{"pairId":"9SI0:sequence_000856","profileId":"rmdbv3_exact_e816246cd85438f56ea6d4ad7d7cc61063d041d7|nonpuzzle_fail_rescue::seq_a93ad6b8ca5a421a|9SI0_B","routeId":"annojoin:profiles:RMDB2PDB:9SI0"},{"pairId":"9SI0:sequence_000857","profileId":"rmdbv3_exact_e977c2d4c166ef2909285138deb089b4756eff53|nonpuzzle_fail_rescue::seq_0484e9e1b74de33e|9SI0_B","routeId":"annojoin:profiles:RMDB2PDB:9SI0"},{"pairId":"9SI0:sequence_000858","profileId":"rmdbv3_exact_e977c2d4c166ef2909285138deb089b4756eff53|nonpuzzle_fail_rescue::seq_546a8b849ea9e067|9SI0_B","routeId":"annojoin:profiles:RMDB2PDB:9SI0"},{"pairId":"9SI0:sequence_000859","profileId":"rmdbv3_exact_ebe9da7298e49e2453ae271a0ecf2a2ab1f00311|nonpuzzle_fail_rescue::seq_996d26d7819075c8|9SI0_B","routeId":"annojoin:profiles:RMDB2PDB:9SI0"},{"pairId":"9SI0:sequence_000860","profileId":"rmdbv3_exact_ebe9da7298e49e2453ae271a0ecf2a2ab1f00311|nonpuzzle_fail_rescue::seq_cf6b8abc38936e57|9SI0_B","routeId":"annojoin:profiles:RMDB2PDB:9SI0"},{"pairId":"9SI0:sequence_000861","profileId":"rmdbv3_exact_f0fdc174cb7c997e82dd93c979b449a77ecc45de|nonpuzzle_fail_rescue::seq_b33bf6f2820a096a|9SI0_B","routeId":"annojoin:profiles:RMDB2PDB:9SI0"},{"pairId":"9SI0:sequence_000862","profileId":"rmdbv3_exact_f0fdc174cb7c997e82dd93c979b449a77ecc45de|nonpuzzle_fail_rescue::seq_c8ab16fb0a5e9f6b|9SI0_B","routeId":"annojoin:profiles:RMDB2PDB:9SI0"},{"pairId":"9SI0:sequence_000863","profileId":"rmdbv3_exact_f2e1886c12b86b86c57c73676aa5926156c1efb1|nonpuzzle_fail_rescue::seq_2b3e36ffc0691245|9SI0_B","routeId":"annojoin:profiles:RMDB2PDB:9SI0"},{"pairId":"9SI0:sequence_000864","profileId":"rmdbv3_exact_f2e1886c12b86b86c57c73676aa5926156c1efb1|nonpuzzle_fail_rescue::seq_5a0f91276accdea3|9SI0_B","routeId":"annojoin:profiles:RMDB2PDB:9SI0"},{"pairId":"9SI0:sequence_000865","profileId":"rmdbv3_exact_f4d30e13d853daabd669d5b66e4b93e3878e181b|nonpuzzle_fail_rescue::seq_d12c6bd27e4f7071|9SI0_B","routeId":"annojoin:profiles:RMDB2PDB:9SI0"},{"pairId":"9SI0:sequence_000866","profileId":"rmdbv3_exact_f4d30e13d853daabd669d5b66e4b93e3878e181b|nonpuzzle_fail_rescue::seq_f3ba93c087975867|9SI0_B","routeId":"annojoin:profiles:RMDB2PDB:9SI0"},{"pairId":"9SI0:sequence_000867","profileId":"rmdbv3_exact_f662747d37eb3cd6ccefc7f0196313febc5628e3|nonpuzzle_fail_rescue::seq_40b248432bef5644|9SI0_B","routeId":"annojoin:profiles:RMDB2PDB:9SI0"},{"pairId":"9SI0:sequence_000868","profileId":"rmdbv3_exact_f662747d37eb3cd6ccefc7f0196313febc5628e3|nonpuzzle_fail_rescue::seq_722dbfc2290911bf|9SI0_B","routeId":"annojoin:profiles:RMDB2PDB:9SI0"},{"pairId":"9SI0:sequence_000869","profileId":"rmdbv3_exact_f7681c6691587f18a6505e0aaebe48530c0a2240|nonpuzzle_fail_rescue::seq_5b834b2c108dde05|9SI0_B","routeId":"annojoin:profiles:RMDB2PDB:9SI0"},{"pairId":"9SI0:sequence_000870","profileId":"rmdbv3_exact_f7681c6691587f18a6505e0aaebe48530c0a2240|nonpuzzle_fail_rescue::seq_cecae07aa01e3ec1|9SI0_B","routeId":"annojoin:profiles:RMDB2PDB:9SI0"},{"pairId":"9SI0:sequence_000871","profileId":"rmdbv3_exact_fa3dda25625f2e29dc2b75827abb362f1fef6112|nonpuzzle_fail_rescue::seq_43cb20d46551b135|9SI0_B","routeId":"annojoin:profiles:RMDB2PDB:9SI0"},{"pairId":"9SI0:sequence_000872","profileId":"rmdbv3_exact_fa3dda25625f2e29dc2b75827abb362f1fef6112|nonpuzzle_fail_rescue::seq_922605df3f373f59|9SI0_B","routeId":"annojoin:profiles:RMDB2PDB:9SI0"},{"pairId":"9SI0:sequence_000873","profileId":"rmdbv3_exact_fd3e077e03ab14e0d78279cd57d98a5e27ecd224|nonpuzzle_fail_rescue::seq_7e00351c4e1d8c48|9SI0_B","routeId":"annojoin:profiles:RMDB2PDB:9SI0"},{"pairId":"9SI0:sequence_000874","profileId":"rmdbv3_exact_fd3e077e03ab14e0d78279cd57d98a5e27ecd224|nonpuzzle_fail_rescue::seq_cdbbaa5a1201c36e|9SI0_B","routeId":"annojoin:profiles:RMDB2PDB:9SI0"},{"pairId":"9SI0:sequence_000875","profileId":"rmdbv3_exact_fd96c94bd23f1685c1c179f8007b0742708cfcf8|nonpuzzle_fail_rescue::seq_4ba7e57ab812ae1b|9SI0_B","routeId":"annojoin:profiles:RMDB2PDB:9SI0"},{"pairId":"9SI0:sequence_000876","profileId":"rmdbv3_exact_fd96c94bd23f1685c1c179f8007b0742708cfcf8|nonpuzzle_fail_rescue::seq_a9b7479a7d7bc8ab|9SI0_B","routeId":"annojoin:profiles:RMDB2PDB:9SI0"},{"pairId":"9SI0:sequence_000877","profileId":"rmdbv3_exact_ff04e14b53cc86f896e2b961d01dbd597c2b8acf|nonpuzzle_fail_rescue::seq_03628f40af5b79a0|9SI0_B","routeId":"annojoin:profiles:RMDB2PDB:9SI0"},{"pairId":"9SI0:sequence_000878","profileId":"rmdbv3_exact_ff04e14b53cc86f896e2b961d01dbd597c2b8acf|nonpuzzle_fail_rescue::seq_29f0d3fde921cd50|9SI0_B","routeId":"annojoin:profiles:RMDB2PDB:9SI0"},{"pairId":"9SI0:sequence_000880","profileId":"rmdbv3_exact_0ca5c165b268f56ebfbe55c2ad0244551cd422f3|top_x_279::seq_ae3b5680b44f955e|9SI0_B","routeId":"annojoin:profiles:RMDB2PDB:9SI0"},{"pairId":"9SI0:sequence_000881","profileId":"rmdbv3_exact_5131eeba8ccb4b5570c48d85eb1d74ae372a7d49|top_x_279::seq_6506500c645ee504|9SI0_B","routeId":"annojoin:profiles:RMDB2PDB:9SI0"},{"pairId":"9SI0:sequence_000882","profileId":"rmdbv3_exact_5131eeba8ccb4b5570c48d85eb1d74ae372a7d49|top_x_279::seq_e1cbd81bb8f37b50|9SI0_B","routeId":"annojoin:profiles:RMDB2PDB:9SI0"},{"pairId":"9SI0:sequence_000883","profileId":"rmdbv3_exact_95487ade933f0f6f74bff98817dbfa2ccbb70609|top_x_279::seq_7964d32a2974e25f|9SI0_B","routeId":"annojoin:profiles:RMDB2PDB:9SI0"},{"pairId":"9SI0:sequence_000884","profileId":"rmdbv3_exact_95487ade933f0f6f74bff98817dbfa2ccbb70609|top_x_279::seq_9967dfe09c2631c1|9SI0_B","routeId":"annojoin:profiles:RMDB2PDB:9SI0"},{"pairId":"9SI0:sequence_000885","profileId":"rmdbv3_exact_f6c25e25f5b7a6185a4a34678024dcd8a80376d3|top_x_279::seq_8ca9d2497c51c463|9SI0_B","routeId":"annojoin:profiles:RMDB2PDB:9SI0"},{"pairId":"9SI0:sequence_000886","profileId":"rmdbv3_exact_f6c25e25f5b7a6185a4a34678024dcd8a80376d3|top_x_279::seq_8dbd1d4f1d6669e8|9SI0_B","routeId":"annojoin:profiles:RMDB2PDB:9SI0"},{"pairId":"9SI0:sequence_000887","profileId":"rmdbv3_exact_94585649bce04861e82ea250875c09a6bf131fe4|top_x_279::seq_02377e62fc191710|9SI0_B","routeId":"annojoin:profiles:RMDB2PDB:9SI0"},{"pairId":"9SI0:sequence_000888","profileId":"rmdbv3_exact_94585649bce04861e82ea250875c09a6bf131fe4|top_x_279::seq_c0baf073a8e9dd94|9SI0_B","routeId":"annojoin:profiles:RMDB2PDB:9SI0"},{"pairId":"9SI0:sequence_000889","profileId":"rmdbv3_exact_053a31d69de0f4563b2edd7d4b6de1f48d65a252|top_x_279::seq_588a8e6aa04a318d|9SI0_B","routeId":"annojoin:profiles:RMDB2PDB:9SI0"},{"pairId":"9SI0:sequence_000890","profileId":"rmdbv3_exact_053a31d69de0f4563b2edd7d4b6de1f48d65a252|top_x_279::seq_ed0e7ea0385e3639|9SI0_B","routeId":"annojoin:profiles:RMDB2PDB:9SI0"},{"pairId":"9SI0:sequence_000896","profileId":"rmdbv3_exact_10a08ab4f83d603e282a45447c00737ae942a695|top_x_279::seq_f1b10bfdd80a2358|9SI0_B","routeId":"annojoin:profiles:RMDB2PDB:9SI0"},{"pairId":"9SI0:sequence_000899","profileId":"rmdbv3_exact_1820e01485d2025ba2663cc8526c6c1f14621589|top_x_279::seq_665d61d678e73d48|9SI0_B","routeId":"annojoin:profiles:RMDB2PDB:9SI0"},{"pairId":"9SI0:sequence_000900","profileId":"rmdbv3_exact_1820e01485d2025ba2663cc8526c6c1f14621589|top_x_279::seq_7254b86499d69596|9SI0_B","routeId":"annojoin:profiles:RMDB2PDB:9SI0"},{"pairId":"9SI0:sequence_000913","profileId":"rmdbv3_exact_0a429c52ecd683af896e8896b20cda90fbee2e68|top_x_279::seq_9a9e56f94ca6f9e6|9SI0_B","routeId":"annojoin:profiles:RMDB2PDB:9SI0"},{"pairId":"9SI0:sequence_000914","profileId":"rmdbv3_exact_0a429c52ecd683af896e8896b20cda90fbee2e68|top_x_279::seq_ddc375bcedc49edc|9SI0_B","routeId":"annojoin:profiles:RMDB2PDB:9SI0"}]}
