{"schemaVersion":"annojoin-atlas.v1","version":"V2.1_RMDB_LINE_A_20260617","atlasCaseKey":"RMDB2PDB:9RVU","caseId":"9RVU","routeKey":"memberships","page":3,"pageSize":500,"totalRows":1139,"pageCount":3,"rows":[{"pairId":"9RVU:sequence_001012","profileId":"rmdbv3_exact_eb1edce94c5405f6225ae1dd71a31ad5769e725e|top_x_279::seq_cfa004121906dc22|9RVU_B2","routeId":"annojoin:profiles:RMDB2PDB:9RVU"},{"pairId":"9RVU:sequence_001013","profileId":"rmdbv3_exact_eb5f78e37c89f3f9a4eaf58fd81735c4e05b5532|top_x_279::seq_3095440ee7979dca|9RVU_B2","routeId":"annojoin:profiles:RMDB2PDB:9RVU"},{"pairId":"9RVU:sequence_001014","profileId":"rmdbv3_exact_eb5f78e37c89f3f9a4eaf58fd81735c4e05b5532|top_x_279::seq_94d839210102de90|9RVU_B2","routeId":"annojoin:profiles:RMDB2PDB:9RVU"},{"pairId":"9RVU:sequence_001015","profileId":"rmdbv3_exact_f3c997ba1d79756746f57f2f58f0661e08aab959|top_x_279::seq_86d5c1404f0f564d|9RVU_B2","routeId":"annojoin:profiles:RMDB2PDB:9RVU"},{"pairId":"9RVU:sequence_001017","profileId":"rmdbv3_exact_0d7b5ec47edfe36abe6512d392d425f27c784126|top_x_279::seq_448c21aa6f1c1dd1|9RVU_AA","routeId":"annojoin:profiles:RMDB2PDB:9RVU"},{"pairId":"9RVU:sequence_001018","profileId":"rmdbv3_exact_0d7b5ec47edfe36abe6512d392d425f27c784126|top_x_279::seq_80c14bf2563bf224|9RVU_AA","routeId":"annojoin:profiles:RMDB2PDB:9RVU"},{"pairId":"9RVU:sequence_001019","profileId":"rmdbv3_exact_594628841b9d0aa7a49e4df338e534be750886f2|top_x_279::seq_93781137bab4fbb0|9RVU_AA","routeId":"annojoin:profiles:RMDB2PDB:9RVU"},{"pairId":"9RVU:sequence_001020","profileId":"rmdbv3_exact_594628841b9d0aa7a49e4df338e534be750886f2|top_x_279::seq_da24a13b2079bcc8|9RVU_AA","routeId":"annojoin:profiles:RMDB2PDB:9RVU"},{"pairId":"9RVU:sequence_001021","profileId":"rmdbv3_exact_ae30f17c407a6348d85b2ef69e644516675336f0|top_x_279::seq_8c2e3a844ea198b4|9RVU_AA","routeId":"annojoin:profiles:RMDB2PDB:9RVU"},{"pairId":"9RVU:sequence_001022","profileId":"rmdbv3_exact_ae30f17c407a6348d85b2ef69e644516675336f0|top_x_279::seq_9d2b2ada032bfcd5|9RVU_AA","routeId":"annojoin:profiles:RMDB2PDB:9RVU"},{"pairId":"9RVU:sequence_001023","profileId":"rmdbv3_exact_ae30f17c407a6348d85b2ef69e644516675336f0|top_x_279::seq_af8057e87a62d4fd|9RVU_AA","routeId":"annojoin:profiles:RMDB2PDB:9RVU"},{"pairId":"9RVU:sequence_001024","profileId":"rmdbv3_exact_ae30f17c407a6348d85b2ef69e644516675336f0|top_x_279::seq_e3092b75247c575c|9RVU_AA","routeId":"annojoin:profiles:RMDB2PDB:9RVU"},{"pairId":"9RVU:sequence_001025","profileId":"rmdbv3_exact_5a1ed57b9385ed4201a45a562ec49f190156a51d|top_x_279::seq_7694c6ec400c2aa2|9RVU_B2","routeId":"annojoin:profiles:RMDB2PDB:9RVU"},{"pairId":"9RVU:sequence_001026","profileId":"rmdbv3_exact_5a1ed57b9385ed4201a45a562ec49f190156a51d|top_x_279::seq_ad756c7829329d9c|9RVU_B2","routeId":"annojoin:profiles:RMDB2PDB:9RVU"},{"pairId":"9RVU:sequence_001027","profileId":"rmdbv3_exact_8b1859ce38e4c1265ab3a654e168d8e950587013|top_x_279::seq_0ce8d9eace5af54b|9RVU_B2","routeId":"annojoin:profiles:RMDB2PDB:9RVU"},{"pairId":"9RVU:sequence_001028","profileId":"rmdbv3_exact_8b1859ce38e4c1265ab3a654e168d8e950587013|top_x_279::seq_1bd8503ba3bf069c|9RVU_B2","routeId":"annojoin:profiles:RMDB2PDB:9RVU"},{"pairId":"9RVU:sequence_001029","profileId":"rmdbv3_exact_8b1859ce38e4c1265ab3a654e168d8e950587013|top_x_279::seq_60d4177a784424ca|9RVU_B2","routeId":"annojoin:profiles:RMDB2PDB:9RVU"},{"pairId":"9RVU:sequence_001030","profileId":"rmdbv3_exact_8b1859ce38e4c1265ab3a654e168d8e950587013|top_x_279::seq_de2aedd1aac5e43b|9RVU_B2","routeId":"annojoin:profiles:RMDB2PDB:9RVU"},{"pairId":"9RVU:sequence_001031","profileId":"rmdbv3_exact_a5931904c12716d415e60f9222b605591e29f629|top_x_279::seq_2f7644d62c2bc24b|9RVU_B2","routeId":"annojoin:profiles:RMDB2PDB:9RVU"},{"pairId":"9RVU:sequence_001032","profileId":"rmdbv3_exact_a5931904c12716d415e60f9222b605591e29f629|top_x_279::seq_525a83d2a0c5082a|9RVU_B2","routeId":"annojoin:profiles:RMDB2PDB:9RVU"},{"pairId":"9RVU:sequence_001033","profileId":"rmdbv3_exact_adef31460652b87586f201078c8238f461629904|top_x_279::seq_5842747d15081a30|9RVU_B2","routeId":"annojoin:profiles:RMDB2PDB:9RVU"},{"pairId":"9RVU:sequence_001034","profileId":"rmdbv3_exact_adef31460652b87586f201078c8238f461629904|top_x_279::seq_9ddfc1bdba21b9c2|9RVU_B2","routeId":"annojoin:profiles:RMDB2PDB:9RVU"},{"pairId":"9RVU:sequence_001035","profileId":"rmdbv3_exact_e28e9ec3661d46a5f2df3c256ad266dc73781b59|top_x_279::seq_00f724fb02266314|9RVU_B2","routeId":"annojoin:profiles:RMDB2PDB:9RVU"},{"pairId":"9RVU:sequence_001036","profileId":"rmdbv3_exact_e28e9ec3661d46a5f2df3c256ad266dc73781b59|top_x_279::seq_577cd4fad5a417eb|9RVU_B2","routeId":"annojoin:profiles:RMDB2PDB:9RVU"},{"pairId":"9RVU:sequence_001037","profileId":"rmdbv3_exact_ecc84f69f52d49bee923033206b08400ad23796b|top_x_279::seq_4d3da38c9f390053|9RVU_B2","routeId":"annojoin:profiles:RMDB2PDB:9RVU"},{"pairId":"9RVU:sequence_001038","profileId":"rmdbv3_exact_ecc84f69f52d49bee923033206b08400ad23796b|top_x_279::seq_bdc3b2389c8588fb|9RVU_B2","routeId":"annojoin:profiles:RMDB2PDB:9RVU"},{"pairId":"9RVU:sequence_001039","profileId":"rmdbv3_exact_de2bcf4a697a9188e39ae3b10b197fa1ec0e7ac1|top_x_279::seq_13304df720e099f1|9RVU_B2","routeId":"annojoin:profiles:RMDB2PDB:9RVU"},{"pairId":"9RVU:sequence_001040","profileId":"rmdbv3_exact_de2bcf4a697a9188e39ae3b10b197fa1ec0e7ac1|top_x_279::seq_19d3c8d9e8a402ca|9RVU_B2","routeId":"annojoin:profiles:RMDB2PDB:9RVU"},{"pairId":"9RVU:sequence_001042","profileId":"rmdbv3_exact_de2bcf4a697a9188e39ae3b10b197fa1ec0e7ac1|top_x_279::seq_c7957077e765dc2b|9RVU_B2","routeId":"annojoin:profiles:RMDB2PDB:9RVU"},{"pairId":"9RVU:sequence_001043","profileId":"rmdbv3_exact_eecf02ef86d22110c082606f0444c3226786ab16|top_x_279::seq_a4a69f614903b268|9RVU_B2","routeId":"annojoin:profiles:RMDB2PDB:9RVU"},{"pairId":"9RVU:sequence_001044","profileId":"rmdbv3_exact_eecf02ef86d22110c082606f0444c3226786ab16|top_x_279::seq_beb98602284dd00e|9RVU_B2","routeId":"annojoin:profiles:RMDB2PDB:9RVU"},{"pairId":"9RVU:sequence_001045","profileId":"rmdbv3_exact_8481446b913e77386e6d2471d4842451444d2c7d|top_x_279::seq_c726039645568556|9RVU_AA","routeId":"annojoin:profiles:RMDB2PDB:9RVU"},{"pairId":"9RVU:sequence_001046","profileId":"rmdbv3_exact_8481446b913e77386e6d2471d4842451444d2c7d|top_x_279::seq_fea76f14bcfed5f2|9RVU_AA","routeId":"annojoin:profiles:RMDB2PDB:9RVU"},{"pairId":"9RVU:sequence_001047","profileId":"rmdbv3_exact_24430014a807de5ad4efee569743169bd7e901ed|top_x_279::seq_40a02aaeaea923a8|9RVU_AA","routeId":"annojoin:profiles:RMDB2PDB:9RVU"},{"pairId":"9RVU:sequence_001048","profileId":"rmdbv3_exact_24430014a807de5ad4efee569743169bd7e901ed|top_x_279::seq_68069fb59dd1f61f|9RVU_AA","routeId":"annojoin:profiles:RMDB2PDB:9RVU"},{"pairId":"9RVU:sequence_001049","profileId":"rmdbv3_exact_24430014a807de5ad4efee569743169bd7e901ed|top_x_279::seq_72e5a9c1a078a448|9RVU_AA","routeId":"annojoin:profiles:RMDB2PDB:9RVU"},{"pairId":"9RVU:sequence_001050","profileId":"rmdbv3_exact_24430014a807de5ad4efee569743169bd7e901ed|top_x_279::seq_e925624869f27822|9RVU_AA","routeId":"annojoin:profiles:RMDB2PDB:9RVU"},{"pairId":"9RVU:sequence_001051","profileId":"rmdbv3_exact_2f8aae86c9f5e33306da50026ddf411b777bf68b|top_x_279::seq_49d1a8a49f1cc9fb|9RVU_AA","routeId":"annojoin:profiles:RMDB2PDB:9RVU"},{"pairId":"9RVU:sequence_001052","profileId":"rmdbv3_exact_2f8aae86c9f5e33306da50026ddf411b777bf68b|top_x_279::seq_d4b8a6d16f8065fb|9RVU_AA","routeId":"annojoin:profiles:RMDB2PDB:9RVU"},{"pairId":"9RVU:sequence_001053","profileId":"rmdbv3_exact_795446b8df96d12ab6a2862198a5f40e0fbbf2fd|top_x_279::seq_5c250b6fa81f7c0a|9RVU_AA","routeId":"annojoin:profiles:RMDB2PDB:9RVU"},{"pairId":"9RVU:sequence_001054","profileId":"rmdbv3_exact_795446b8df96d12ab6a2862198a5f40e0fbbf2fd|top_x_279::seq_8a7ec4d85fd8ac2d|9RVU_AA","routeId":"annojoin:profiles:RMDB2PDB:9RVU"},{"pairId":"9RVU:sequence_001055","profileId":"rmdbv3_exact_98a0d3101ff814e7e292ac19b28a12ab75dc979f|top_x_279::seq_4ed95e58e4e0280c|9RVU_AA","routeId":"annojoin:profiles:RMDB2PDB:9RVU"},{"pairId":"9RVU:sequence_001056","profileId":"rmdbv3_exact_98a0d3101ff814e7e292ac19b28a12ab75dc979f|top_x_279::seq_afcfbd8561e3b0a4|9RVU_AA","routeId":"annojoin:profiles:RMDB2PDB:9RVU"},{"pairId":"9RVU:sequence_001057","profileId":"rmdbv3_exact_a600835fe08e8bb82f75b37b0397bf5b4e1e5929|top_x_279::seq_45068268b749e1a5|9RVU_AA","routeId":"annojoin:profiles:RMDB2PDB:9RVU"},{"pairId":"9RVU:sequence_001058","profileId":"rmdbv3_exact_a600835fe08e8bb82f75b37b0397bf5b4e1e5929|top_x_279::seq_a3b7e42028891fea|9RVU_AA","routeId":"annojoin:profiles:RMDB2PDB:9RVU"},{"pairId":"9RVU:sequence_001059","profileId":"rmdbv3_exact_fe11eff2a0f604012b9b76bac40539c625f5f0ae|top_x_279::seq_0f2043176a4c9bd9|9RVU_AA","routeId":"annojoin:profiles:RMDB2PDB:9RVU"},{"pairId":"9RVU:sequence_001060","profileId":"rmdbv3_exact_fe11eff2a0f604012b9b76bac40539c625f5f0ae|top_x_279::seq_874725551ceb5628|9RVU_AA","routeId":"annojoin:profiles:RMDB2PDB:9RVU"},{"pairId":"9RVU:sequence_001061","profileId":"rmdbv3_exact_21aec81cdcd23cf89da323ad763392bd050e202a|top_x_279::seq_2d9e0cf5e8d58d55|9RVU_B2","routeId":"annojoin:profiles:RMDB2PDB:9RVU"},{"pairId":"9RVU:sequence_001062","profileId":"rmdbv3_exact_21aec81cdcd23cf89da323ad763392bd050e202a|top_x_279::seq_3519156b02c8fc72|9RVU_B2","routeId":"annojoin:profiles:RMDB2PDB:9RVU"},{"pairId":"9RVU:sequence_001063","profileId":"rmdbv3_exact_21aec81cdcd23cf89da323ad763392bd050e202a|top_x_279::seq_a7bb104170db0298|9RVU_B2","routeId":"annojoin:profiles:RMDB2PDB:9RVU"},{"pairId":"9RVU:sequence_001064","profileId":"rmdbv3_exact_21aec81cdcd23cf89da323ad763392bd050e202a|top_x_279::seq_ef5cea7d10ddc84f|9RVU_B2","routeId":"annojoin:profiles:RMDB2PDB:9RVU"},{"pairId":"9RVU:sequence_001065","profileId":"rmdbv3_exact_4bc89dd961670e93f18cc65b00caf6d12b3d80ae|top_x_279::seq_1c5b5fb420a2f6ef|9RVU_B2","routeId":"annojoin:profiles:RMDB2PDB:9RVU"},{"pairId":"9RVU:sequence_001066","profileId":"rmdbv3_exact_4bc89dd961670e93f18cc65b00caf6d12b3d80ae|top_x_279::seq_852171fae3cbd53a|9RVU_B2","routeId":"annojoin:profiles:RMDB2PDB:9RVU"},{"pairId":"9RVU:sequence_001067","profileId":"rmdbv3_exact_5df1f9f63c0ceada27017a90078ff6d8f183deea|top_x_279::seq_302f0708f8213388|9RVU_B2","routeId":"annojoin:profiles:RMDB2PDB:9RVU"},{"pairId":"9RVU:sequence_001068","profileId":"rmdbv3_exact_5df1f9f63c0ceada27017a90078ff6d8f183deea|top_x_279::seq_4519b63d2c1d6a5b|9RVU_B2","routeId":"annojoin:profiles:RMDB2PDB:9RVU"},{"pairId":"9RVU:sequence_001069","profileId":"rmdbv3_exact_6c0b324807fbf16ca0cd7d133d6359b6cf53e4f0|top_x_279::seq_86d05b23223192db|9RVU_B2","routeId":"annojoin:profiles:RMDB2PDB:9RVU"},{"pairId":"9RVU:sequence_001070","profileId":"rmdbv3_exact_6c0b324807fbf16ca0cd7d133d6359b6cf53e4f0|top_x_279::seq_9a7b68629f75abfc|9RVU_B2","routeId":"annojoin:profiles:RMDB2PDB:9RVU"},{"pairId":"9RVU:sequence_001071","profileId":"rmdbv3_exact_6c0b324807fbf16ca0cd7d133d6359b6cf53e4f0|top_x_279::seq_aa1cd7e38bc53737|9RVU_B2","routeId":"annojoin:profiles:RMDB2PDB:9RVU"},{"pairId":"9RVU:sequence_001072","profileId":"rmdbv3_exact_6c0b324807fbf16ca0cd7d133d6359b6cf53e4f0|top_x_279::seq_c311ca575eef4443|9RVU_B2","routeId":"annojoin:profiles:RMDB2PDB:9RVU"},{"pairId":"9RVU:sequence_001073","profileId":"rmdbv3_exact_761aaec306eebf78152111314bd09cf483652485|top_x_279::seq_069789457ce62a02|9RVU_B2","routeId":"annojoin:profiles:RMDB2PDB:9RVU"},{"pairId":"9RVU:sequence_001074","profileId":"rmdbv3_exact_761aaec306eebf78152111314bd09cf483652485|top_x_279::seq_6121685d74c38951|9RVU_B2","routeId":"annojoin:profiles:RMDB2PDB:9RVU"},{"pairId":"9RVU:sequence_001075","profileId":"rmdbv3_exact_761aaec306eebf78152111314bd09cf483652485|top_x_279::seq_abed843ddff94c0e|9RVU_B2","routeId":"annojoin:profiles:RMDB2PDB:9RVU"},{"pairId":"9RVU:sequence_001076","profileId":"rmdbv3_exact_761aaec306eebf78152111314bd09cf483652485|top_x_279::seq_d5bf160a533e4721|9RVU_B2","routeId":"annojoin:profiles:RMDB2PDB:9RVU"},{"pairId":"9RVU:sequence_001077","profileId":"rmdbv3_exact_a18c5395f7d23c7d21be6a10c20e5f79d08a290d|top_x_279::seq_5064c2fcb2904964|9RVU_B2","routeId":"annojoin:profiles:RMDB2PDB:9RVU"},{"pairId":"9RVU:sequence_001078","profileId":"rmdbv3_exact_a18c5395f7d23c7d21be6a10c20e5f79d08a290d|top_x_279::seq_a699d01b318ae4e9|9RVU_B2","routeId":"annojoin:profiles:RMDB2PDB:9RVU"},{"pairId":"9RVU:sequence_001079","profileId":"rmdbv3_exact_2e08879a628ed993493b6479ef04380d86b91442|top_x_279::seq_1073b503d0dab7c1|9RVU_AA","routeId":"annojoin:profiles:RMDB2PDB:9RVU"},{"pairId":"9RVU:sequence_001080","profileId":"rmdbv3_exact_2e08879a628ed993493b6479ef04380d86b91442|top_x_279::seq_ef403f9df6ec61da|9RVU_AA","routeId":"annojoin:profiles:RMDB2PDB:9RVU"},{"pairId":"9RVU:sequence_001081","profileId":"rmdbv3_exact_4f5e4de9d15fab88bd994f4e65793f8187824714|top_x_279::seq_42106c8834fb67c8|9RVU_AA","routeId":"annojoin:profiles:RMDB2PDB:9RVU"},{"pairId":"9RVU:sequence_001082","profileId":"rmdbv3_exact_4f5e4de9d15fab88bd994f4e65793f8187824714|top_x_279::seq_45eeef6760502575|9RVU_AA","routeId":"annojoin:profiles:RMDB2PDB:9RVU"},{"pairId":"9RVU:sequence_001083","profileId":"rmdbv3_exact_4b3cb42d90099d93a3a01986fb8d76c649d2db46|top_x_279::seq_3e5951f99973f70d|9RVU_B2","routeId":"annojoin:profiles:RMDB2PDB:9RVU"},{"pairId":"9RVU:sequence_001084","profileId":"rmdbv3_exact_4b3cb42d90099d93a3a01986fb8d76c649d2db46|top_x_279::seq_53a1708f8c87d4f7|9RVU_B2","routeId":"annojoin:profiles:RMDB2PDB:9RVU"},{"pairId":"9RVU:sequence_001085","profileId":"rmdbv3_exact_4b3cb42d90099d93a3a01986fb8d76c649d2db46|top_x_279::seq_6d1f34a0df50d0dc|9RVU_B2","routeId":"annojoin:profiles:RMDB2PDB:9RVU"},{"pairId":"9RVU:sequence_001086","profileId":"rmdbv3_exact_4b3cb42d90099d93a3a01986fb8d76c649d2db46|top_x_279::seq_d8c1c33002f75dcc|9RVU_B2","routeId":"annojoin:profiles:RMDB2PDB:9RVU"},{"pairId":"9RVU:sequence_001088","profileId":"rmdbv3_exact_7db5bde74ced2fdeba86868879523d039e03e805|top_x_279::seq_d31e28759d547651|9RVU_B2","routeId":"annojoin:profiles:RMDB2PDB:9RVU"},{"pairId":"9RVU:sequence_001089","profileId":"rmdbv3_exact_4a958daa9882cfa0767e2b10472cec0b1aa97f87|top_x_279::seq_371179ac94f327c7|9RVU_B2","routeId":"annojoin:profiles:RMDB2PDB:9RVU"},{"pairId":"9RVU:sequence_001090","profileId":"rmdbv3_exact_4a958daa9882cfa0767e2b10472cec0b1aa97f87|top_x_279::seq_5e6661d0c33b9ac6|9RVU_B2","routeId":"annojoin:profiles:RMDB2PDB:9RVU"},{"pairId":"9RVU:sequence_001091","profileId":"rmdbv3_exact_4a958daa9882cfa0767e2b10472cec0b1aa97f87|top_x_279::seq_85be1d0511a7c4b8|9RVU_B2","routeId":"annojoin:profiles:RMDB2PDB:9RVU"},{"pairId":"9RVU:sequence_001092","profileId":"rmdbv3_exact_4a958daa9882cfa0767e2b10472cec0b1aa97f87|top_x_279::seq_f4ed77c60c09bcf7|9RVU_B2","routeId":"annojoin:profiles:RMDB2PDB:9RVU"},{"pairId":"9RVU:sequence_001093","profileId":"rmdbv3_exact_fb7f5c72cf0cd8173e2db45fb66e47974c5e9cac|top_x_279::seq_d465590073c56f91|9RVU_B2","routeId":"annojoin:profiles:RMDB2PDB:9RVU"},{"pairId":"9RVU:sequence_001094","profileId":"rmdbv3_exact_fb7f5c72cf0cd8173e2db45fb66e47974c5e9cac|top_x_279::seq_d5ec3b9578a3eb9b|9RVU_B2","routeId":"annojoin:profiles:RMDB2PDB:9RVU"},{"pairId":"9RVU:sequence_001095","profileId":"rmdbv3_exact_225318489a9d8dfdf4972f9ee717b7fda031fc4d|top_x_279::seq_2495c8bc242583c2|9RVU_AA","routeId":"annojoin:profiles:RMDB2PDB:9RVU"},{"pairId":"9RVU:sequence_001096","profileId":"rmdbv3_exact_225318489a9d8dfdf4972f9ee717b7fda031fc4d|top_x_279::seq_c677e086014f3667|9RVU_AA","routeId":"annojoin:profiles:RMDB2PDB:9RVU"},{"pairId":"9RVU:sequence_001097","profileId":"rmdbv3_exact_50c7a914379834335f7462346825264b40d7a935|top_x_279::seq_4b8be5f958b84551|9RVU_AA","routeId":"annojoin:profiles:RMDB2PDB:9RVU"},{"pairId":"9RVU:sequence_001098","profileId":"rmdbv3_exact_50c7a914379834335f7462346825264b40d7a935|top_x_279::seq_4db3015f5547989d|9RVU_AA","routeId":"annojoin:profiles:RMDB2PDB:9RVU"},{"pairId":"9RVU:sequence_001099","profileId":"rmdbv3_exact_9fe575a7f9a5242faf85abb8259a7a64a0ac2f92|top_x_279::seq_1252ef25c95367c8|9RVU_AA","routeId":"annojoin:profiles:RMDB2PDB:9RVU"},{"pairId":"9RVU:sequence_001100","profileId":"rmdbv3_exact_9fe575a7f9a5242faf85abb8259a7a64a0ac2f92|top_x_279::seq_e467bf6ee8d67874|9RVU_AA","routeId":"annojoin:profiles:RMDB2PDB:9RVU"},{"pairId":"9RVU:sequence_001103","profileId":"rmdbv3_exact_09436a6a46e2302c0edcf08aa947d24459e3c136|top_x_279::seq_55728a9e4e85c32a|9RVU_AA","routeId":"annojoin:profiles:RMDB2PDB:9RVU"},{"pairId":"9RVU:sequence_001104","profileId":"rmdbv3_exact_09436a6a46e2302c0edcf08aa947d24459e3c136|top_x_279::seq_6fef317dbe3f0a69|9RVU_AA","routeId":"annojoin:profiles:RMDB2PDB:9RVU"},{"pairId":"9RVU:sequence_001105","profileId":"rmdbv3_exact_09436a6a46e2302c0edcf08aa947d24459e3c136|top_x_279::seq_a83f3e449ecf07ee|9RVU_AA","routeId":"annojoin:profiles:RMDB2PDB:9RVU"},{"pairId":"9RVU:sequence_001106","profileId":"rmdbv3_exact_09436a6a46e2302c0edcf08aa947d24459e3c136|top_x_279::seq_cfd3fa589b88af3f|9RVU_AA","routeId":"annojoin:profiles:RMDB2PDB:9RVU"},{"pairId":"9RVU:sequence_001107","profileId":"rmdbv3_exact_23793112e9f64b3ff6a84747917bf3dea6c19aec|top_x_279::seq_0d10d6841fd6f8f7|9RVU_AA","routeId":"annojoin:profiles:RMDB2PDB:9RVU"},{"pairId":"9RVU:sequence_001108","profileId":"rmdbv3_exact_23793112e9f64b3ff6a84747917bf3dea6c19aec|top_x_279::seq_2611a5f76f0bab60|9RVU_AA","routeId":"annojoin:profiles:RMDB2PDB:9RVU"},{"pairId":"9RVU:sequence_001109","profileId":"rmdbv3_exact_2baafd6bea93e908d6f3e30b9f6c9abf5239aacf|top_x_279::seq_4213c93cc750ef52|9RVU_AA","routeId":"annojoin:profiles:RMDB2PDB:9RVU"},{"pairId":"9RVU:sequence_001110","profileId":"rmdbv3_exact_2baafd6bea93e908d6f3e30b9f6c9abf5239aacf|top_x_279::seq_614a6c434ff6680b|9RVU_AA","routeId":"annojoin:profiles:RMDB2PDB:9RVU"},{"pairId":"9RVU:sequence_001111","profileId":"rmdbv3_exact_ac934df85cc4532f69ad629d88c06c9cef4c7e0d|top_x_279::seq_4c2d10e6939281c7|9RVU_AA","routeId":"annojoin:profiles:RMDB2PDB:9RVU"},{"pairId":"9RVU:sequence_001112","profileId":"rmdbv3_exact_ac934df85cc4532f69ad629d88c06c9cef4c7e0d|top_x_279::seq_9e0cba3c35c5000a|9RVU_AA","routeId":"annojoin:profiles:RMDB2PDB:9RVU"},{"pairId":"9RVU:sequence_001113","profileId":"rmdbv3_exact_b7cdc848f808883006a44be968914d8ee48f8af2|top_x_279::seq_be6d40d413f2acbb|9RVU_AA","routeId":"annojoin:profiles:RMDB2PDB:9RVU"},{"pairId":"9RVU:sequence_001114","profileId":"rmdbv3_exact_b7cdc848f808883006a44be968914d8ee48f8af2|top_x_279::seq_d5f6b043a12cdf93|9RVU_AA","routeId":"annojoin:profiles:RMDB2PDB:9RVU"},{"pairId":"9RVU:sequence_001115","profileId":"rmdbv3_exact_bf3f13c4049801df16ff99a47479ab5f8f80d94d|top_x_279::seq_29a00f313324a7e8|9RVU_AA","routeId":"annojoin:profiles:RMDB2PDB:9RVU"},{"pairId":"9RVU:sequence_001116","profileId":"rmdbv3_exact_bf3f13c4049801df16ff99a47479ab5f8f80d94d|top_x_279::seq_2bcd8459729ef5d2|9RVU_AA","routeId":"annojoin:profiles:RMDB2PDB:9RVU"},{"pairId":"9RVU:sequence_001117","profileId":"rmdbv3_exact_8e27ee566a5536df7f33bacf714ed24b4f29f6d9|top_x_279::seq_54eb56473d941dd9|9RVU_B2","routeId":"annojoin:profiles:RMDB2PDB:9RVU"},{"pairId":"9RVU:sequence_001118","profileId":"rmdbv3_exact_8e27ee566a5536df7f33bacf714ed24b4f29f6d9|top_x_279::seq_c1a34745965ec7c5|9RVU_B2","routeId":"annojoin:profiles:RMDB2PDB:9RVU"},{"pairId":"9RVU:sequence_001119","profileId":"rmdbv3_exact_8e27ee566a5536df7f33bacf714ed24b4f29f6d9|top_x_279::seq_daa3d51b5466e633|9RVU_B2","routeId":"annojoin:profiles:RMDB2PDB:9RVU"},{"pairId":"9RVU:sequence_001120","profileId":"rmdbv3_exact_8e27ee566a5536df7f33bacf714ed24b4f29f6d9|top_x_279::seq_f820703700ebd4d9|9RVU_B2","routeId":"annojoin:profiles:RMDB2PDB:9RVU"},{"pairId":"9RVU:sequence_001121","profileId":"rmdbv3_exact_a60c51fee89235b27c9f005a1026de601d281655|top_x_279::seq_df61efc5033781cd|9RVU_B2","routeId":"annojoin:profiles:RMDB2PDB:9RVU"},{"pairId":"9RVU:sequence_001122","profileId":"rmdbv3_exact_a60c51fee89235b27c9f005a1026de601d281655|top_x_279::seq_fe6f75404d583a29|9RVU_B2","routeId":"annojoin:profiles:RMDB2PDB:9RVU"},{"pairId":"9RVU:sequence_001123","profileId":"rmdbv3_exact_ad51e16cf352f8ae9e3ae1c9024a5b57cc0b754f|top_x_279::seq_8f74bd00ec4b534f|9RVU_B2","routeId":"annojoin:profiles:RMDB2PDB:9RVU"},{"pairId":"9RVU:sequence_001124","profileId":"rmdbv3_exact_ad51e16cf352f8ae9e3ae1c9024a5b57cc0b754f|top_x_279::seq_95a6c41793c57a69|9RVU_B2","routeId":"annojoin:profiles:RMDB2PDB:9RVU"},{"pairId":"9RVU:sequence_001125","profileId":"rmdbv3_exact_b576235f7ef244d4fcba5411a7ea9fb01fbb3bc3|top_x_279::seq_0ebee66c9e610b04|9RVU_B2","routeId":"annojoin:profiles:RMDB2PDB:9RVU"},{"pairId":"9RVU:sequence_001126","profileId":"rmdbv3_exact_b576235f7ef244d4fcba5411a7ea9fb01fbb3bc3|top_x_279::seq_eca824ac1970e8c1|9RVU_B2","routeId":"annojoin:profiles:RMDB2PDB:9RVU"},{"pairId":"9RVU:sequence_001127","profileId":"rmdbv3_exact_eed2d3e85e76f1e1adeb33048f1122f4bb7ff6e1|top_x_279::seq_0aa16d1e550bd2ac|9RVU_B2","routeId":"annojoin:profiles:RMDB2PDB:9RVU"},{"pairId":"9RVU:sequence_001128","profileId":"rmdbv3_exact_eed2d3e85e76f1e1adeb33048f1122f4bb7ff6e1|top_x_279::seq_f819cac0fa7544fb|9RVU_B2","routeId":"annojoin:profiles:RMDB2PDB:9RVU"},{"pairId":"9RVU:sequence_001129","profileId":"rmdbv3_exact_f87bfb4424654c68c112e38f29a6f7b2c209e22b|top_x_279::seq_65dda75798f0fb0c|9RVU_B2","routeId":"annojoin:profiles:RMDB2PDB:9RVU"},{"pairId":"9RVU:sequence_001130","profileId":"rmdbv3_exact_f87bfb4424654c68c112e38f29a6f7b2c209e22b|top_x_279::seq_87bb594863f5d3dc|9RVU_B2","routeId":"annojoin:profiles:RMDB2PDB:9RVU"},{"pairId":"9RVU:sequence_001131","profileId":"rmdbv3_exact_7be9a6d8b7a4731dc220896f58a965a1f3c9e20f|top_x_279::seq_5d65a776d193b30d|9RVU_AA","routeId":"annojoin:profiles:RMDB2PDB:9RVU"},{"pairId":"9RVU:sequence_001133","profileId":"rmdbv3_exact_ef3a6011f849caed3a80778a67336f5a404bef09|top_x_279::seq_35cabb28682094e0|9RVU_AA","routeId":"annojoin:profiles:RMDB2PDB:9RVU"},{"pairId":"9RVU:sequence_001134","profileId":"rmdbv3_exact_ef3a6011f849caed3a80778a67336f5a404bef09|top_x_279::seq_c020208b0143860c|9RVU_AA","routeId":"annojoin:profiles:RMDB2PDB:9RVU"},{"pairId":"9RVU:sequence_001135","profileId":"rmdbv3_exact_7a2638aff274ba861905d98d032ff5a134c64ba2|top_x_279::seq_1ceaf9612a3238bb|9RVU_AA","routeId":"annojoin:profiles:RMDB2PDB:9RVU"},{"pairId":"9RVU:sequence_001136","profileId":"rmdbv3_exact_7a2638aff274ba861905d98d032ff5a134c64ba2|top_x_279::seq_9598b14679e1f1c2|9RVU_AA","routeId":"annojoin:profiles:RMDB2PDB:9RVU"},{"pairId":"9RVU:sequence_001137","profileId":"rmdbv3_exact_90bb15d03be41f61a9ed7316d01895eea18bcdd5|top_x_279::seq_3a90a33acf3a860d|9RVU_AA","routeId":"annojoin:profiles:RMDB2PDB:9RVU"},{"pairId":"9RVU:sequence_001138","profileId":"rmdbv3_exact_90bb15d03be41f61a9ed7316d01895eea18bcdd5|top_x_279::seq_65f835ecfd75477a|9RVU_AA","routeId":"annojoin:profiles:RMDB2PDB:9RVU"},{"pairId":"9RVU:sequence_001139","profileId":"rmdbv3_exact_90bb15d03be41f61a9ed7316d01895eea18bcdd5|top_x_279::seq_afebe5e468ec7b39|9RVU_AA","routeId":"annojoin:profiles:RMDB2PDB:9RVU"},{"pairId":"9RVU:sequence_001140","profileId":"rmdbv3_exact_90bb15d03be41f61a9ed7316d01895eea18bcdd5|top_x_279::seq_c75ea22c06c98cfe|9RVU_AA","routeId":"annojoin:profiles:RMDB2PDB:9RVU"},{"pairId":"9RVU:sequence_001141","profileId":"rmdbv3_exact_4803b643d99c1b5a4f41ded18142d47eeb182c8d|top_x_279::seq_514c02558737d882|9RVU_AA","routeId":"annojoin:profiles:RMDB2PDB:9RVU"},{"pairId":"9RVU:sequence_001142","profileId":"rmdbv3_exact_4803b643d99c1b5a4f41ded18142d47eeb182c8d|top_x_279::seq_9eb886edbae9055c|9RVU_AA","routeId":"annojoin:profiles:RMDB2PDB:9RVU"},{"pairId":"9RVU:sequence_001143","profileId":"rmdbv3_exact_4803b643d99c1b5a4f41ded18142d47eeb182c8d|top_x_279::seq_e83b84d444ac3c18|9RVU_AA","routeId":"annojoin:profiles:RMDB2PDB:9RVU"},{"pairId":"9RVU:sequence_001144","profileId":"rmdbv3_exact_4803b643d99c1b5a4f41ded18142d47eeb182c8d|top_x_279::seq_f83b7d48fa990146|9RVU_AA","routeId":"annojoin:profiles:RMDB2PDB:9RVU"},{"pairId":"9RVU:sequence_001145","profileId":"rmdbv3_exact_58fc90e149541413fa43f2e78421b42640e4f464|top_x_279::seq_810a91113f05a5c1|9RVU_AA","routeId":"annojoin:profiles:RMDB2PDB:9RVU"},{"pairId":"9RVU:sequence_001146","profileId":"rmdbv3_exact_58fc90e149541413fa43f2e78421b42640e4f464|top_x_279::seq_9c3ca0e48e4d8c7a|9RVU_AA","routeId":"annojoin:profiles:RMDB2PDB:9RVU"},{"pairId":"9RVU:sequence_001147","profileId":"rmdbv3_exact_7e00de60d57fa35baa82ecf2c4526668dbe2a664|top_x_279::seq_22beaba27d440e2a|9RVU_AA","routeId":"annojoin:profiles:RMDB2PDB:9RVU"},{"pairId":"9RVU:sequence_001148","profileId":"rmdbv3_exact_7e00de60d57fa35baa82ecf2c4526668dbe2a664|top_x_279::seq_f8fe17fa42490284|9RVU_AA","routeId":"annojoin:profiles:RMDB2PDB:9RVU"},{"pairId":"9RVU:sequence_001149","profileId":"rmdbv3_exact_80d30dba42123bdf4ebfd8708e4360ae832e22cc|top_x_279::seq_01e7c75c644188d5|9RVU_AA","routeId":"annojoin:profiles:RMDB2PDB:9RVU"},{"pairId":"9RVU:sequence_001150","profileId":"rmdbv3_exact_80d30dba42123bdf4ebfd8708e4360ae832e22cc|top_x_279::seq_35536e3c2c6ff367|9RVU_AA","routeId":"annojoin:profiles:RMDB2PDB:9RVU"},{"pairId":"9RVU:sequence_001151","profileId":"rmdbv3_exact_c5acd5d05dba6b95aa2bdf2c059e9a7cf13f3839|top_x_279::seq_8e755516f5ed324c|9RVU_AA","routeId":"annojoin:profiles:RMDB2PDB:9RVU"},{"pairId":"9RVU:sequence_001152","profileId":"rmdbv3_exact_c5acd5d05dba6b95aa2bdf2c059e9a7cf13f3839|top_x_279::seq_cc5ffb21f88a4695|9RVU_AA","routeId":"annojoin:profiles:RMDB2PDB:9RVU"},{"pairId":"9RVU:sequence_001153","profileId":"rmdbv3_exact_f6d069a2c23d9ca31e063ce99c7f3993b26f429c|top_x_279::seq_35bc144185172681|9RVU_AA","routeId":"annojoin:profiles:RMDB2PDB:9RVU"},{"pairId":"9RVU:sequence_001154","profileId":"rmdbv3_exact_f6d069a2c23d9ca31e063ce99c7f3993b26f429c|top_x_279::seq_8fad27613afcbb82|9RVU_AA","routeId":"annojoin:profiles:RMDB2PDB:9RVU"},{"pairId":"9RVU:sequence_001155","profileId":"rmdbv3_exact_a1a5faf62d0f071bf3fd8e16dd116c3b155b2ea5|top_x_279::seq_2a4d42ec930687f1|9RVU_B2","routeId":"annojoin:profiles:RMDB2PDB:9RVU"},{"pairId":"9RVU:sequence_001156","profileId":"rmdbv3_exact_a1a5faf62d0f071bf3fd8e16dd116c3b155b2ea5|top_x_279::seq_88d40dfc02459566|9RVU_B2","routeId":"annojoin:profiles:RMDB2PDB:9RVU"}]}
