{"schemaVersion":"annojoin-atlas.v1","version":"V2.1_RMDB_LINE_A_20260617","atlasCaseKey":"RMDB2PDB:9O3J","caseId":"9O3J","routeKey":"memberships","page":2,"pageSize":500,"totalRows":660,"pageCount":2,"rows":[{"pairId":"9O3J:sequence_000659","profileId":"rmdbv3_exact_855ef9ed8d14998fef698710b3ab315f4b0456e0|top_x_279::seq_6540532192ba8145|9O3J_2B","routeId":"annojoin:profiles:RMDB2PDB:9O3J"},{"pairId":"9O3J:sequence_000660","profileId":"rmdbv3_exact_855ef9ed8d14998fef698710b3ab315f4b0456e0|top_x_279::seq_e178df986daf9a2a|9O3J_2B","routeId":"annojoin:profiles:RMDB2PDB:9O3J"},{"pairId":"9O3J:sequence_000661","profileId":"rmdbv3_exact_7505f133095e8d62795265ecaf1763064e10452c|top_x_279::seq_56281da281158182|9O3J_2a","routeId":"annojoin:profiles:RMDB2PDB:9O3J"},{"pairId":"9O3J:sequence_000662","profileId":"rmdbv3_exact_7505f133095e8d62795265ecaf1763064e10452c|top_x_279::seq_d6802978f4fc96ea|9O3J_2a","routeId":"annojoin:profiles:RMDB2PDB:9O3J"},{"pairId":"9O3J:sequence_000663","profileId":"rmdbv3_exact_e7f0cb829dd8a9b3bbbab87492670d2f8410fb33|top_x_279::seq_6f5735679d083775|9O3J_2a","routeId":"annojoin:profiles:RMDB2PDB:9O3J"},{"pairId":"9O3J:sequence_000664","profileId":"rmdbv3_exact_e7f0cb829dd8a9b3bbbab87492670d2f8410fb33|top_x_279::seq_a777e4b862a74d50|9O3J_2a","routeId":"annojoin:profiles:RMDB2PDB:9O3J"},{"pairId":"9O3J:sequence_000665","profileId":"rmdbv3_exact_f5615bc9e8d701e8be3b3df56387fa14b33ad2cb|top_x_279::seq_5054ef39f3b1b436|9O3J_2a","routeId":"annojoin:profiles:RMDB2PDB:9O3J"},{"pairId":"9O3J:sequence_000666","profileId":"rmdbv3_exact_f5615bc9e8d701e8be3b3df56387fa14b33ad2cb|top_x_279::seq_54dce9bf77b4bed8|9O3J_2a","routeId":"annojoin:profiles:RMDB2PDB:9O3J"},{"pairId":"9O3J:sequence_000667","profileId":"rmdbv3_exact_f5615bc9e8d701e8be3b3df56387fa14b33ad2cb|top_x_279::seq_ad3596351e49b9ad|9O3J_2a","routeId":"annojoin:profiles:RMDB2PDB:9O3J"},{"pairId":"9O3J:sequence_000668","profileId":"rmdbv3_exact_f5615bc9e8d701e8be3b3df56387fa14b33ad2cb|top_x_279::seq_f1e4e3fa9a3c31e6|9O3J_2a","routeId":"annojoin:profiles:RMDB2PDB:9O3J"},{"pairId":"9O3J:sequence_000669","profileId":"rmdbv3_exact_a1aebec7d843e48c98893da1fd78cfd7d38c9e56|top_x_279::seq_54e3bbe540badb58|9O3J_2a","routeId":"annojoin:profiles:RMDB2PDB:9O3J"},{"pairId":"9O3J:sequence_000670","profileId":"rmdbv3_exact_a1aebec7d843e48c98893da1fd78cfd7d38c9e56|top_x_279::seq_f82205fbd52e4f66|9O3J_2a","routeId":"annojoin:profiles:RMDB2PDB:9O3J"},{"pairId":"9O3J:sequence_000671","profileId":"rmdbv3_exact_1a6de5b9e8ed0d6200f951544da39bad9ac57b78|top_x_279::seq_53db8794ef193912|9O3J_2a","routeId":"annojoin:profiles:RMDB2PDB:9O3J"},{"pairId":"9O3J:sequence_000672","profileId":"rmdbv3_exact_1a6de5b9e8ed0d6200f951544da39bad9ac57b78|top_x_279::seq_555319545faf25da|9O3J_2a","routeId":"annojoin:profiles:RMDB2PDB:9O3J"},{"pairId":"9O3J:sequence_000673","profileId":"rmdbv3_exact_1a6de5b9e8ed0d6200f951544da39bad9ac57b78|top_x_279::seq_564c3e2176a642f9|9O3J_2a","routeId":"annojoin:profiles:RMDB2PDB:9O3J"},{"pairId":"9O3J:sequence_000674","profileId":"rmdbv3_exact_1a6de5b9e8ed0d6200f951544da39bad9ac57b78|top_x_279::seq_f1a1fe87a1aa7a5f|9O3J_2a","routeId":"annojoin:profiles:RMDB2PDB:9O3J"},{"pairId":"9O3J:sequence_000675","profileId":"rmdbv3_exact_858302a52a05db9df12cb333e264d164114389e3|top_x_279::seq_bb14449c5704fc6b|9O3J_2a","routeId":"annojoin:profiles:RMDB2PDB:9O3J"},{"pairId":"9O3J:sequence_000676","profileId":"rmdbv3_exact_858302a52a05db9df12cb333e264d164114389e3|top_x_279::seq_ca3c739a25f05425|9O3J_2a","routeId":"annojoin:profiles:RMDB2PDB:9O3J"},{"pairId":"9O3J:sequence_000677","profileId":"rmdbv3_exact_372e7bf28f305c6c29a536d5bd439d5a47a594a4|top_x_279::seq_1998af65682b1384|9O3J_2a","routeId":"annojoin:profiles:RMDB2PDB:9O3J"},{"pairId":"9O3J:sequence_000679","profileId":"rmdbv3_exact_55b33d728847f0bc8b1e4a59391e95b7acaa2bcc|top_x_279::seq_215d3812d87f5dfc|9O3J_2a","routeId":"annojoin:profiles:RMDB2PDB:9O3J"},{"pairId":"9O3J:sequence_000680","profileId":"rmdbv3_exact_55b33d728847f0bc8b1e4a59391e95b7acaa2bcc|top_x_279::seq_a6cbd5a0383ee66e|9O3J_2a","routeId":"annojoin:profiles:RMDB2PDB:9O3J"},{"pairId":"9O3J:sequence_000681","profileId":"rmdbv3_exact_3bb6f6ccf2960d01fb3c18b20dc8214187dd17d2|top_x_279::seq_c8d7a4cee1d4a0bd|9O3J_2a","routeId":"annojoin:profiles:RMDB2PDB:9O3J"},{"pairId":"9O3J:sequence_000682","profileId":"rmdbv3_exact_3bb6f6ccf2960d01fb3c18b20dc8214187dd17d2|top_x_279::seq_f166d1ce65bf3b0f|9O3J_2a","routeId":"annojoin:profiles:RMDB2PDB:9O3J"},{"pairId":"9O3J:sequence_000683","profileId":"rmdbv3_exact_42c4adedd3feb21807f7e3b9b3659f10868a7d01|top_x_279::seq_1fac854e7338e91a|9O3J_2a","routeId":"annojoin:profiles:RMDB2PDB:9O3J"},{"pairId":"9O3J:sequence_000684","profileId":"rmdbv3_exact_42c4adedd3feb21807f7e3b9b3659f10868a7d01|top_x_279::seq_b08b7966c77c7017|9O3J_2a","routeId":"annojoin:profiles:RMDB2PDB:9O3J"},{"pairId":"9O3J:sequence_000685","profileId":"rmdbv3_exact_ccb26b0de94edc213214254257ef62754a16aa27|top_x_279::seq_a71b8f04aedfb2ec|9O3J_2a","routeId":"annojoin:profiles:RMDB2PDB:9O3J"},{"pairId":"9O3J:sequence_000686","profileId":"rmdbv3_exact_ccb26b0de94edc213214254257ef62754a16aa27|top_x_279::seq_ce6344d6fb0135d1|9O3J_2a","routeId":"annojoin:profiles:RMDB2PDB:9O3J"},{"pairId":"9O3J:sequence_000687","profileId":"rmdbv3_exact_1c745365e612b3d317af5d9f5b7c6816aa2a1ceb|top_x_279::seq_39d0606bba9952c2|9O3J_2a","routeId":"annojoin:profiles:RMDB2PDB:9O3J"},{"pairId":"9O3J:sequence_000688","profileId":"rmdbv3_exact_1c745365e612b3d317af5d9f5b7c6816aa2a1ceb|top_x_279::seq_90603a94cde66439|9O3J_2a","routeId":"annojoin:profiles:RMDB2PDB:9O3J"},{"pairId":"9O3J:sequence_000689","profileId":"rmdbv3_exact_ce1152ea1106b558ba156e1f94abd63bb7a291fe|top_x_279::seq_aad7f18d0f42aa40|9O3J_2a","routeId":"annojoin:profiles:RMDB2PDB:9O3J"},{"pairId":"9O3J:sequence_000690","profileId":"rmdbv3_exact_ce1152ea1106b558ba156e1f94abd63bb7a291fe|top_x_279::seq_b34fd7e08bd064a4|9O3J_2a","routeId":"annojoin:profiles:RMDB2PDB:9O3J"},{"pairId":"9O3J:sequence_000691","profileId":"rmdbv3_exact_0102795e7c4e41b09f5935a684323a51fa5271fd|top_x_279::seq_327e1bf51cf113ff|9O3J_2a","routeId":"annojoin:profiles:RMDB2PDB:9O3J"},{"pairId":"9O3J:sequence_000692","profileId":"rmdbv3_exact_0102795e7c4e41b09f5935a684323a51fa5271fd|top_x_279::seq_b9cf372c0a1775b9|9O3J_2a","routeId":"annojoin:profiles:RMDB2PDB:9O3J"},{"pairId":"9O3J:sequence_000693","profileId":"rmdbv3_exact_314b2f196b3c3d9901e5ddd74ff95f02cac8e749|top_x_279::seq_02d35829b244dcb5|9O3J_2A","routeId":"annojoin:profiles:RMDB2PDB:9O3J"},{"pairId":"9O3J:sequence_000694","profileId":"rmdbv3_exact_314b2f196b3c3d9901e5ddd74ff95f02cac8e749|top_x_279::seq_08a21414296d7e03|9O3J_2A","routeId":"annojoin:profiles:RMDB2PDB:9O3J"},{"pairId":"9O3J:sequence_000695","profileId":"rmdbv3_exact_314b2f196b3c3d9901e5ddd74ff95f02cac8e749|top_x_279::seq_7be3904edb89f445|9O3J_2A","routeId":"annojoin:profiles:RMDB2PDB:9O3J"},{"pairId":"9O3J:sequence_000696","profileId":"rmdbv3_exact_314b2f196b3c3d9901e5ddd74ff95f02cac8e749|top_x_279::seq_cfc9c7f2b9b454a3|9O3J_2A","routeId":"annojoin:profiles:RMDB2PDB:9O3J"},{"pairId":"9O3J:sequence_000697","profileId":"rmdbv3_exact_7e45e151451ac08f92690711484db0029d034584|top_x_279::seq_1c9973ca8eef60e3|9O3J_2A","routeId":"annojoin:profiles:RMDB2PDB:9O3J"},{"pairId":"9O3J:sequence_000698","profileId":"rmdbv3_exact_7e45e151451ac08f92690711484db0029d034584|top_x_279::seq_de5e658b48c739fd|9O3J_2A","routeId":"annojoin:profiles:RMDB2PDB:9O3J"},{"pairId":"9O3J:sequence_000699","profileId":"rmdbv3_exact_7e45e151451ac08f92690711484db0029d034584|top_x_279::seq_df2cd4dbc57316b9|9O3J_2A","routeId":"annojoin:profiles:RMDB2PDB:9O3J"},{"pairId":"9O3J:sequence_000700","profileId":"rmdbv3_exact_7e45e151451ac08f92690711484db0029d034584|top_x_279::seq_efa65f36a53b28cc|9O3J_2A","routeId":"annojoin:profiles:RMDB2PDB:9O3J"},{"pairId":"9O3J:sequence_000701","profileId":"rmdbv3_exact_8ef4316ff4ed9c0b2fe997793eee093889b8317c|top_x_279::seq_26fc60541e84162a|9O3J_2A","routeId":"annojoin:profiles:RMDB2PDB:9O3J"},{"pairId":"9O3J:sequence_000702","profileId":"rmdbv3_exact_8ef4316ff4ed9c0b2fe997793eee093889b8317c|top_x_279::seq_c7d479218ffe46d7|9O3J_2A","routeId":"annojoin:profiles:RMDB2PDB:9O3J"},{"pairId":"9O3J:sequence_000703","profileId":"rmdbv3_exact_f54c338dd707abd404b38d5e3bd163be634b5a5d|top_x_279::seq_66204987318e1bc9|9O3J_2A","routeId":"annojoin:profiles:RMDB2PDB:9O3J"},{"pairId":"9O3J:sequence_000704","profileId":"rmdbv3_exact_f54c338dd707abd404b38d5e3bd163be634b5a5d|top_x_279::seq_d8bf3c373d34967a|9O3J_2A","routeId":"annojoin:profiles:RMDB2PDB:9O3J"},{"pairId":"9O3J:sequence_000705","profileId":"rmdbv3_exact_9812254b55933bccb38ff75dc23c56c5e940e024|top_x_279::seq_0ad296cce503b36a|9O3J_2A","routeId":"annojoin:profiles:RMDB2PDB:9O3J"},{"pairId":"9O3J:sequence_000706","profileId":"rmdbv3_exact_9812254b55933bccb38ff75dc23c56c5e940e024|top_x_279::seq_7b0b258261b455ae|9O3J_2A","routeId":"annojoin:profiles:RMDB2PDB:9O3J"},{"pairId":"9O3J:sequence_000707","profileId":"rmdbv3_exact_9812254b55933bccb38ff75dc23c56c5e940e024|top_x_279::seq_9c5f886f7fe42fd3|9O3J_2A","routeId":"annojoin:profiles:RMDB2PDB:9O3J"},{"pairId":"9O3J:sequence_000708","profileId":"rmdbv3_exact_9812254b55933bccb38ff75dc23c56c5e940e024|top_x_279::seq_a01cc9055ae96c97|9O3J_2A","routeId":"annojoin:profiles:RMDB2PDB:9O3J"},{"pairId":"9O3J:sequence_000709","profileId":"rmdbv3_exact_87b8c17061015a9b0d7e81f6c5e504efc60aafa9|top_x_279::seq_99442ab4803e34cf|9O3J_2A","routeId":"annojoin:profiles:RMDB2PDB:9O3J"},{"pairId":"9O3J:sequence_000710","profileId":"rmdbv3_exact_87b8c17061015a9b0d7e81f6c5e504efc60aafa9|top_x_279::seq_bf9947908f8e6d1f|9O3J_2A","routeId":"annojoin:profiles:RMDB2PDB:9O3J"},{"pairId":"9O3J:sequence_000711","profileId":"rmdbv3_exact_594cbad4dc6c4cd5f784167bd4763dbba5eb6a34|top_x_279::seq_52c65ac4b37d6aae|9O3J_2A","routeId":"annojoin:profiles:RMDB2PDB:9O3J"},{"pairId":"9O3J:sequence_000712","profileId":"rmdbv3_exact_594cbad4dc6c4cd5f784167bd4763dbba5eb6a34|top_x_279::seq_720e1bc77d6af746|9O3J_2A","routeId":"annojoin:profiles:RMDB2PDB:9O3J"},{"pairId":"9O3J:sequence_000713","profileId":"rmdbv3_exact_545c6d270cf9329e655019748776cde1e1b373a4|top_x_279::seq_0d28ef854de72b56|9O3J_2A","routeId":"annojoin:profiles:RMDB2PDB:9O3J"},{"pairId":"9O3J:sequence_000714","profileId":"rmdbv3_exact_545c6d270cf9329e655019748776cde1e1b373a4|top_x_279::seq_3adf6dbf0ff7acd9|9O3J_2A","routeId":"annojoin:profiles:RMDB2PDB:9O3J"},{"pairId":"9O3J:sequence_000715","profileId":"rmdbv3_exact_545c6d270cf9329e655019748776cde1e1b373a4|top_x_279::seq_58324d3bc3a7c08f|9O3J_2A","routeId":"annojoin:profiles:RMDB2PDB:9O3J"},{"pairId":"9O3J:sequence_000716","profileId":"rmdbv3_exact_545c6d270cf9329e655019748776cde1e1b373a4|top_x_279::seq_b68ae47aa4e91927|9O3J_2A","routeId":"annojoin:profiles:RMDB2PDB:9O3J"},{"pairId":"9O3J:sequence_000717","profileId":"rmdbv3_exact_a74a22b9e4eeaca1502a4bf2c499b09af1eded15|top_x_279::seq_263cdfc99d35b923|9O3J_2A","routeId":"annojoin:profiles:RMDB2PDB:9O3J"},{"pairId":"9O3J:sequence_000718","profileId":"rmdbv3_exact_a74a22b9e4eeaca1502a4bf2c499b09af1eded15|top_x_279::seq_49c90c4ee9d75938|9O3J_2A","routeId":"annojoin:profiles:RMDB2PDB:9O3J"},{"pairId":"9O3J:sequence_000719","profileId":"rmdbv3_exact_e725d5eef6d8041f376c50a69efffa20d38e8df5|top_x_279::seq_8d3a6d7ef2a36e0e|9O3J_2a","routeId":"annojoin:profiles:RMDB2PDB:9O3J"},{"pairId":"9O3J:sequence_000720","profileId":"rmdbv3_exact_e725d5eef6d8041f376c50a69efffa20d38e8df5|top_x_279::seq_91d9dbdb9db06578|9O3J_2a","routeId":"annojoin:profiles:RMDB2PDB:9O3J"},{"pairId":"9O3J:sequence_000721","profileId":"rmdbv3_exact_e725d5eef6d8041f376c50a69efffa20d38e8df5|top_x_279::seq_a25322e03c5d2ede|9O3J_2a","routeId":"annojoin:profiles:RMDB2PDB:9O3J"},{"pairId":"9O3J:sequence_000722","profileId":"rmdbv3_exact_e725d5eef6d8041f376c50a69efffa20d38e8df5|top_x_279::seq_bdbca8e2ec23de88|9O3J_2a","routeId":"annojoin:profiles:RMDB2PDB:9O3J"},{"pairId":"9O3J:sequence_000723","profileId":"rmdbv3_exact_24ef3107f6ad9c5ec58b7862a7735c24f2aac475|top_x_279::seq_0187aa51bb0e8619|9O3J_2A","routeId":"annojoin:profiles:RMDB2PDB:9O3J"},{"pairId":"9O3J:sequence_000724","profileId":"rmdbv3_exact_24ef3107f6ad9c5ec58b7862a7735c24f2aac475|top_x_279::seq_0c134195c8b9230c|9O3J_2A","routeId":"annojoin:profiles:RMDB2PDB:9O3J"},{"pairId":"9O3J:sequence_000725","profileId":"rmdbv3_exact_9b64dabf6e9bc18ed812215903db7abf109e3572|top_x_279::seq_25f591394e6fdb62|9O3J_2A","routeId":"annojoin:profiles:RMDB2PDB:9O3J"},{"pairId":"9O3J:sequence_000726","profileId":"rmdbv3_exact_9b64dabf6e9bc18ed812215903db7abf109e3572|top_x_279::seq_27f642212a3e40e8|9O3J_2A","routeId":"annojoin:profiles:RMDB2PDB:9O3J"},{"pairId":"9O3J:sequence_000727","profileId":"rmdbv3_exact_9b64dabf6e9bc18ed812215903db7abf109e3572|top_x_279::seq_6968e0d3ad094421|9O3J_2A","routeId":"annojoin:profiles:RMDB2PDB:9O3J"},{"pairId":"9O3J:sequence_000728","profileId":"rmdbv3_exact_9b64dabf6e9bc18ed812215903db7abf109e3572|top_x_279::seq_b98677e0b2aa9e5c|9O3J_2A","routeId":"annojoin:profiles:RMDB2PDB:9O3J"},{"pairId":"9O3J:sequence_000729","profileId":"rmdbv3_exact_411d5bc633cff6873d2be09737c217825c995a30|top_x_279::seq_2e78c13d1f84a95a|9O3J_2a","routeId":"annojoin:profiles:RMDB2PDB:9O3J"},{"pairId":"9O3J:sequence_000730","profileId":"rmdbv3_exact_411d5bc633cff6873d2be09737c217825c995a30|top_x_279::seq_34e8d06b2b48d8b2|9O3J_2a","routeId":"annojoin:profiles:RMDB2PDB:9O3J"},{"pairId":"9O3J:sequence_000731","profileId":"rmdbv3_exact_411d5bc633cff6873d2be09737c217825c995a30|top_x_279::seq_e717830d3899fcfb|9O3J_2a","routeId":"annojoin:profiles:RMDB2PDB:9O3J"},{"pairId":"9O3J:sequence_000732","profileId":"rmdbv3_exact_411d5bc633cff6873d2be09737c217825c995a30|top_x_279::seq_ebb683e4850210c9|9O3J_2a","routeId":"annojoin:profiles:RMDB2PDB:9O3J"},{"pairId":"9O3J:sequence_000733","profileId":"rmdbv3_exact_505aa9af14379b2d0583ba96a07e4a11713ea51b|top_x_279::seq_7d544572b3f3c551|9O3J_2y","routeId":"annojoin:profiles:RMDB2PDB:9O3J"},{"pairId":"9O3J:sequence_000734","profileId":"rmdbv3_exact_505aa9af14379b2d0583ba96a07e4a11713ea51b|top_x_279::seq_b07792341501ff27|9O3J_2y","routeId":"annojoin:profiles:RMDB2PDB:9O3J"},{"pairId":"9O3J:sequence_000735","profileId":"rmdbv3_exact_65a03d9a22d6418cf860f7c090caaf166edc3f60|top_x_279::seq_569ceb1cdb520004|9O3J_2y","routeId":"annojoin:profiles:RMDB2PDB:9O3J"},{"pairId":"9O3J:sequence_000736","profileId":"rmdbv3_exact_65a03d9a22d6418cf860f7c090caaf166edc3f60|top_x_279::seq_7a58a13adc3c67ad|9O3J_2y","routeId":"annojoin:profiles:RMDB2PDB:9O3J"},{"pairId":"9O3J:sequence_000737","profileId":"rmdbv3_exact_d40bfd448bb689b76cc56f9d9879105134dfb62a|top_x_279::seq_417a14684693648a|9O3J_2y","routeId":"annojoin:profiles:RMDB2PDB:9O3J"},{"pairId":"9O3J:sequence_000738","profileId":"rmdbv3_exact_d40bfd448bb689b76cc56f9d9879105134dfb62a|top_x_279::seq_930326f9d3712c9c|9O3J_2y","routeId":"annojoin:profiles:RMDB2PDB:9O3J"},{"pairId":"9O3J:sequence_000739","profileId":"rmdbv3_exact_6d6f40ff25587cd059516cc8635820a49a3093a6|top_x_279::seq_6cfff9a7b7ace5dd|9O3J_2a","routeId":"annojoin:profiles:RMDB2PDB:9O3J"},{"pairId":"9O3J:sequence_000740","profileId":"rmdbv3_exact_6d6f40ff25587cd059516cc8635820a49a3093a6|top_x_279::seq_b6fe82466b7e69f4|9O3J_2a","routeId":"annojoin:profiles:RMDB2PDB:9O3J"},{"pairId":"9O3J:sequence_000741","profileId":"rmdbv3_exact_4705e8493fbf5ba5f56b71003d83ffc19a935967|top_x_279::seq_dfe31c6096ab1dd1|9O3J_2a","routeId":"annojoin:profiles:RMDB2PDB:9O3J"},{"pairId":"9O3J:sequence_000742","profileId":"rmdbv3_exact_4705e8493fbf5ba5f56b71003d83ffc19a935967|top_x_279::seq_e24417623f7f6915|9O3J_2a","routeId":"annojoin:profiles:RMDB2PDB:9O3J"},{"pairId":"9O3J:sequence_000743","profileId":"rmdbv3_exact_4fea230182835c0e921bb4ead95221acc383ce8e|top_x_279::seq_0b709982e525cb5f|9O3J_2a","routeId":"annojoin:profiles:RMDB2PDB:9O3J"},{"pairId":"9O3J:sequence_000744","profileId":"rmdbv3_exact_4fea230182835c0e921bb4ead95221acc383ce8e|top_x_279::seq_2382e7f3be7c2a9a|9O3J_2a","routeId":"annojoin:profiles:RMDB2PDB:9O3J"},{"pairId":"9O3J:sequence_000745","profileId":"rmdbv3_exact_4fea230182835c0e921bb4ead95221acc383ce8e|top_x_279::seq_4c1c6c2a43086183|9O3J_2a","routeId":"annojoin:profiles:RMDB2PDB:9O3J"},{"pairId":"9O3J:sequence_000746","profileId":"rmdbv3_exact_4fea230182835c0e921bb4ead95221acc383ce8e|top_x_279::seq_af84ec789324ed61|9O3J_2a","routeId":"annojoin:profiles:RMDB2PDB:9O3J"},{"pairId":"9O3J:sequence_000747","profileId":"rmdbv3_exact_f517a2ebd2062df38f61b71931c3b2336742fc2d|top_x_279::seq_5b437184ec2a2db2|9O3J_2a","routeId":"annojoin:profiles:RMDB2PDB:9O3J"},{"pairId":"9O3J:sequence_000748","profileId":"rmdbv3_exact_f517a2ebd2062df38f61b71931c3b2336742fc2d|top_x_279::seq_f1d231444727f842|9O3J_2a","routeId":"annojoin:profiles:RMDB2PDB:9O3J"},{"pairId":"9O3J:sequence_000749","profileId":"rmdbv3_exact_f5c088322c535d8c4ab4d7af44ec70365f862f3a|top_x_279::seq_a935517123f1ac2c|9O3J_2a","routeId":"annojoin:profiles:RMDB2PDB:9O3J"},{"pairId":"9O3J:sequence_000750","profileId":"rmdbv3_exact_f5c088322c535d8c4ab4d7af44ec70365f862f3a|top_x_279::seq_ba8e0b8b1a0839e4|9O3J_2a","routeId":"annojoin:profiles:RMDB2PDB:9O3J"},{"pairId":"9O3J:sequence_000751","profileId":"rmdbv3_exact_f5c088322c535d8c4ab4d7af44ec70365f862f3a|top_x_279::seq_bc1bc6c3df0f1e69|9O3J_2a","routeId":"annojoin:profiles:RMDB2PDB:9O3J"},{"pairId":"9O3J:sequence_000752","profileId":"rmdbv3_exact_f5c088322c535d8c4ab4d7af44ec70365f862f3a|top_x_279::seq_fb843489c3847dab|9O3J_2a","routeId":"annojoin:profiles:RMDB2PDB:9O3J"},{"pairId":"9O3J:sequence_000753","profileId":"rmdbv3_exact_b3023e36463b515484443a68b5d57495b056f796|top_x_279::seq_137e8f3c1913ab1e|9O3J_2a","routeId":"annojoin:profiles:RMDB2PDB:9O3J"},{"pairId":"9O3J:sequence_000754","profileId":"rmdbv3_exact_b3023e36463b515484443a68b5d57495b056f796|top_x_279::seq_2e06aa5f1ab6ab51|9O3J_2a","routeId":"annojoin:profiles:RMDB2PDB:9O3J"},{"pairId":"9O3J:sequence_000755","profileId":"rmdbv3_exact_b3023e36463b515484443a68b5d57495b056f796|top_x_279::seq_c00ba65951201e2e|9O3J_2a","routeId":"annojoin:profiles:RMDB2PDB:9O3J"},{"pairId":"9O3J:sequence_000756","profileId":"rmdbv3_exact_b3023e36463b515484443a68b5d57495b056f796|top_x_279::seq_e87da3c155b5207a|9O3J_2a","routeId":"annojoin:profiles:RMDB2PDB:9O3J"},{"pairId":"9O3J:sequence_000757","profileId":"rmdbv3_exact_52fbd4c696ce5c1699d1bdfa4735e11c5efc64c0|top_x_279::seq_131a29a38978ee58|9O3J_2A","routeId":"annojoin:profiles:RMDB2PDB:9O3J"},{"pairId":"9O3J:sequence_000758","profileId":"rmdbv3_exact_52fbd4c696ce5c1699d1bdfa4735e11c5efc64c0|top_x_279::seq_e6cae6ecf004113d|9O3J_2A","routeId":"annojoin:profiles:RMDB2PDB:9O3J"},{"pairId":"9O3J:sequence_000759","profileId":"rmdbv3_exact_1729c867ed65fd2a0c679a78a85bac7d510e5e1f|top_x_279::seq_45d760d62c6735b7|9O3J_2A","routeId":"annojoin:profiles:RMDB2PDB:9O3J"},{"pairId":"9O3J:sequence_000760","profileId":"rmdbv3_exact_1729c867ed65fd2a0c679a78a85bac7d510e5e1f|top_x_279::seq_baa654b7e414ec93|9O3J_2A","routeId":"annojoin:profiles:RMDB2PDB:9O3J"},{"pairId":"9O3J:sequence_000761","profileId":"rmdbv3_exact_2c34eabfb0b5a5fac7f7cf13bfa18aed906f5842|top_x_279::seq_22aba8533a5c4e30|9O3J_2A","routeId":"annojoin:profiles:RMDB2PDB:9O3J"},{"pairId":"9O3J:sequence_000762","profileId":"rmdbv3_exact_2c34eabfb0b5a5fac7f7cf13bfa18aed906f5842|top_x_279::seq_8894ac11ba0e05d5|9O3J_2A","routeId":"annojoin:profiles:RMDB2PDB:9O3J"},{"pairId":"9O3J:sequence_000763","profileId":"rmdbv3_exact_72c231a6fb95f2ad42cc510478e9331165b934b7|top_x_279::seq_0454f0174d6a3206|9O3J_2A","routeId":"annojoin:profiles:RMDB2PDB:9O3J"},{"pairId":"9O3J:sequence_000764","profileId":"rmdbv3_exact_72c231a6fb95f2ad42cc510478e9331165b934b7|top_x_279::seq_94f0235d13a023bb|9O3J_2A","routeId":"annojoin:profiles:RMDB2PDB:9O3J"},{"pairId":"9O3J:sequence_000765","profileId":"rmdbv3_exact_72c231a6fb95f2ad42cc510478e9331165b934b7|top_x_279::seq_cfbaf93617caaaca|9O3J_2A","routeId":"annojoin:profiles:RMDB2PDB:9O3J"},{"pairId":"9O3J:sequence_000766","profileId":"rmdbv3_exact_72c231a6fb95f2ad42cc510478e9331165b934b7|top_x_279::seq_dabe98589ff63ae1|9O3J_2A","routeId":"annojoin:profiles:RMDB2PDB:9O3J"},{"pairId":"9O3J:sequence_000767","profileId":"rmdbv3_exact_730b32b43cf63b49e75dcae9bb960ad41f6cb8b0|top_x_279::seq_ae8c5d62f0464294|9O3J_2A","routeId":"annojoin:profiles:RMDB2PDB:9O3J"},{"pairId":"9O3J:sequence_000768","profileId":"rmdbv3_exact_730b32b43cf63b49e75dcae9bb960ad41f6cb8b0|top_x_279::seq_b2ef4ec6e5d40594|9O3J_2A","routeId":"annojoin:profiles:RMDB2PDB:9O3J"},{"pairId":"9O3J:sequence_000769","profileId":"rmdbv3_exact_ac429f9aaf121b97ad1e6ffc4f860b9921fb6e49|top_x_279::seq_401719a0541ab52c|9O3J_2A","routeId":"annojoin:profiles:RMDB2PDB:9O3J"},{"pairId":"9O3J:sequence_000770","profileId":"rmdbv3_exact_ac429f9aaf121b97ad1e6ffc4f860b9921fb6e49|top_x_279::seq_609eaa291b6663b6|9O3J_2A","routeId":"annojoin:profiles:RMDB2PDB:9O3J"},{"pairId":"9O3J:sequence_000771","profileId":"rmdbv3_exact_ac429f9aaf121b97ad1e6ffc4f860b9921fb6e49|top_x_279::seq_977384bdf3ca525d|9O3J_2A","routeId":"annojoin:profiles:RMDB2PDB:9O3J"},{"pairId":"9O3J:sequence_000772","profileId":"rmdbv3_exact_ac429f9aaf121b97ad1e6ffc4f860b9921fb6e49|top_x_279::seq_e9293ef37ddc8356|9O3J_2A","routeId":"annojoin:profiles:RMDB2PDB:9O3J"},{"pairId":"9O3J:sequence_000773","profileId":"rmdbv3_exact_afc9c418f44daff32e4ec386133d79567d065311|top_x_279::seq_0678e6e74e3a6e26|9O3J_2A","routeId":"annojoin:profiles:RMDB2PDB:9O3J"},{"pairId":"9O3J:sequence_000774","profileId":"rmdbv3_exact_afc9c418f44daff32e4ec386133d79567d065311|top_x_279::seq_3f4d8ce74830a132|9O3J_2A","routeId":"annojoin:profiles:RMDB2PDB:9O3J"},{"pairId":"9O3J:sequence_000775","profileId":"rmdbv3_exact_afc9c418f44daff32e4ec386133d79567d065311|top_x_279::seq_4b942ce3c3c2703c|9O3J_2A","routeId":"annojoin:profiles:RMDB2PDB:9O3J"},{"pairId":"9O3J:sequence_000776","profileId":"rmdbv3_exact_afc9c418f44daff32e4ec386133d79567d065311|top_x_279::seq_a76033c33310d58a|9O3J_2A","routeId":"annojoin:profiles:RMDB2PDB:9O3J"},{"pairId":"9O3J:sequence_000777","profileId":"rmdbv3_exact_c9a7f03fbb26e534cff98486543add43bb947f81|top_x_279::seq_70d2e3d6f9dd1b06|9O3J_2a","routeId":"annojoin:profiles:RMDB2PDB:9O3J"},{"pairId":"9O3J:sequence_000778","profileId":"rmdbv3_exact_c9a7f03fbb26e534cff98486543add43bb947f81|top_x_279::seq_7d4a0242dbfce5f7|9O3J_2a","routeId":"annojoin:profiles:RMDB2PDB:9O3J"},{"pairId":"9O3J:sequence_000779","profileId":"rmdbv3_exact_198eaab2f5ae5b4ed8105ecb505f3236f87fe7d7|top_x_279::seq_16e28d4a19825ca6|9O3J_2a","routeId":"annojoin:profiles:RMDB2PDB:9O3J"},{"pairId":"9O3J:sequence_000780","profileId":"rmdbv3_exact_198eaab2f5ae5b4ed8105ecb505f3236f87fe7d7|top_x_279::seq_694f3709f14013f5|9O3J_2a","routeId":"annojoin:profiles:RMDB2PDB:9O3J"},{"pairId":"9O3J:sequence_000781","profileId":"rmdbv3_exact_38f1e79060b107f484d01844d48794c4b9aa6b55|top_x_279::seq_2924f877c2bf8cb2|9O3J_2a","routeId":"annojoin:profiles:RMDB2PDB:9O3J"},{"pairId":"9O3J:sequence_000782","profileId":"rmdbv3_exact_38f1e79060b107f484d01844d48794c4b9aa6b55|top_x_279::seq_40b35665481e3fe3|9O3J_2a","routeId":"annojoin:profiles:RMDB2PDB:9O3J"},{"pairId":"9O3J:sequence_000783","profileId":"rmdbv3_exact_6f8cc77c874a9837905f8cb0195155c79f95eb3f|top_x_279::seq_6ee944806ac2deee|9O3J_2a","routeId":"annojoin:profiles:RMDB2PDB:9O3J"},{"pairId":"9O3J:sequence_000784","profileId":"rmdbv3_exact_6f8cc77c874a9837905f8cb0195155c79f95eb3f|top_x_279::seq_a49663e13844e931|9O3J_2a","routeId":"annojoin:profiles:RMDB2PDB:9O3J"},{"pairId":"9O3J:sequence_000785","profileId":"rmdbv3_exact_b3f9b5ff405362d275eac7adbb8abae9f058ce4d|top_x_279::seq_4f64d34abc1797be|9O3J_2a","routeId":"annojoin:profiles:RMDB2PDB:9O3J"},{"pairId":"9O3J:sequence_000786","profileId":"rmdbv3_exact_b3f9b5ff405362d275eac7adbb8abae9f058ce4d|top_x_279::seq_87fc4ed37da349fc|9O3J_2a","routeId":"annojoin:profiles:RMDB2PDB:9O3J"},{"pairId":"9O3J:sequence_000789","profileId":"rmdbv3_exact_482bea301e8d85779aa604acadb08cb275bf5fd1|top_x_279::seq_7bc5e1322f99c5af|9O3J_2a","routeId":"annojoin:profiles:RMDB2PDB:9O3J"},{"pairId":"9O3J:sequence_000790","profileId":"rmdbv3_exact_482bea301e8d85779aa604acadb08cb275bf5fd1|top_x_279::seq_94f73e586f78bd7b|9O3J_2a","routeId":"annojoin:profiles:RMDB2PDB:9O3J"},{"pairId":"9O3J:sequence_000791","profileId":"rmdbv3_exact_b8981d1ea555788d5a5844ea0d6ad822dcb78591|top_x_279::seq_5979938214180af4|9O3J_2a","routeId":"annojoin:profiles:RMDB2PDB:9O3J"},{"pairId":"9O3J:sequence_000792","profileId":"rmdbv3_exact_b8981d1ea555788d5a5844ea0d6ad822dcb78591|top_x_279::seq_621aee04204dc287|9O3J_2a","routeId":"annojoin:profiles:RMDB2PDB:9O3J"},{"pairId":"9O3J:sequence_000793","profileId":"rmdbv3_exact_b8981d1ea555788d5a5844ea0d6ad822dcb78591|top_x_279::seq_63939c7ce825a239|9O3J_2a","routeId":"annojoin:profiles:RMDB2PDB:9O3J"},{"pairId":"9O3J:sequence_000794","profileId":"rmdbv3_exact_b8981d1ea555788d5a5844ea0d6ad822dcb78591|top_x_279::seq_8da65c25bfdaf41b|9O3J_2a","routeId":"annojoin:profiles:RMDB2PDB:9O3J"},{"pairId":"9O3J:sequence_000795","profileId":"rmdbv3_exact_fbb6e05a2130a98de2679d0c41e87fb91c6a1aec|top_x_279::seq_4913dfda6d5b7aea|9O3J_2a","routeId":"annojoin:profiles:RMDB2PDB:9O3J"},{"pairId":"9O3J:sequence_000796","profileId":"rmdbv3_exact_fbb6e05a2130a98de2679d0c41e87fb91c6a1aec|top_x_279::seq_9f180b13f768787a|9O3J_2a","routeId":"annojoin:profiles:RMDB2PDB:9O3J"},{"pairId":"9O3J:sequence_000797","profileId":"rmdbv3_exact_91ebd6c7285a9cfbfe7221e1acdd8dab409c14ba|top_x_279::seq_54e33cfe93867e1b|9O3J_2a","routeId":"annojoin:profiles:RMDB2PDB:9O3J"},{"pairId":"9O3J:sequence_000798","profileId":"rmdbv3_exact_91ebd6c7285a9cfbfe7221e1acdd8dab409c14ba|top_x_279::seq_bf743518d09ff4fd|9O3J_2a","routeId":"annojoin:profiles:RMDB2PDB:9O3J"},{"pairId":"9O3J:sequence_000799","profileId":"rmdbv3_exact_b52c8adb3d13c7e5f7cce7177298c881d29af1b3|top_x_279::seq_098702a5e5453bf5|9O3J_2a","routeId":"annojoin:profiles:RMDB2PDB:9O3J"},{"pairId":"9O3J:sequence_000800","profileId":"rmdbv3_exact_b52c8adb3d13c7e5f7cce7177298c881d29af1b3|top_x_279::seq_7eee6a1e72537fe3|9O3J_2a","routeId":"annojoin:profiles:RMDB2PDB:9O3J"},{"pairId":"9O3J:sequence_000801","profileId":"rmdbv3_exact_b52c8adb3d13c7e5f7cce7177298c881d29af1b3|top_x_279::seq_b9b92f0660a25b69|9O3J_2a","routeId":"annojoin:profiles:RMDB2PDB:9O3J"},{"pairId":"9O3J:sequence_000802","profileId":"rmdbv3_exact_b52c8adb3d13c7e5f7cce7177298c881d29af1b3|top_x_279::seq_e119e1387043c12b|9O3J_2a","routeId":"annojoin:profiles:RMDB2PDB:9O3J"},{"pairId":"9O3J:sequence_000803","profileId":"rmdbv3_exact_5391657b2f31746ca7a931e48ab329a4ed216011|top_x_279::seq_9dee613945432ebe|9O3J_2A","routeId":"annojoin:profiles:RMDB2PDB:9O3J"},{"pairId":"9O3J:sequence_000804","profileId":"rmdbv3_exact_5391657b2f31746ca7a931e48ab329a4ed216011|top_x_279::seq_c12aa74610c13d54|9O3J_2A","routeId":"annojoin:profiles:RMDB2PDB:9O3J"},{"pairId":"9O3J:sequence_000805","profileId":"rmdbv3_exact_866644ee882359b5ed423fb915eb88ecb447f858|top_x_279::seq_07f6737a46a03dcf|9O3J_2A","routeId":"annojoin:profiles:RMDB2PDB:9O3J"},{"pairId":"9O3J:sequence_000806","profileId":"rmdbv3_exact_866644ee882359b5ed423fb915eb88ecb447f858|top_x_279::seq_71faf9650742d3be|9O3J_2A","routeId":"annojoin:profiles:RMDB2PDB:9O3J"},{"pairId":"9O3J:sequence_000807","profileId":"rmdbv3_exact_866644ee882359b5ed423fb915eb88ecb447f858|top_x_279::seq_a9eef8daae0a9f9c|9O3J_2A","routeId":"annojoin:profiles:RMDB2PDB:9O3J"},{"pairId":"9O3J:sequence_000808","profileId":"rmdbv3_exact_866644ee882359b5ed423fb915eb88ecb447f858|top_x_279::seq_c9fa5bdc3695211f|9O3J_2A","routeId":"annojoin:profiles:RMDB2PDB:9O3J"},{"pairId":"9O3J:sequence_000809","profileId":"rmdbv3_exact_46c2304b4a5dbdf5505a9df4e3c4deaa60b0e828|top_x_279::seq_1408bf0783ebf19e|9O3J_2a","routeId":"annojoin:profiles:RMDB2PDB:9O3J"},{"pairId":"9O3J:sequence_000810","profileId":"rmdbv3_exact_46c2304b4a5dbdf5505a9df4e3c4deaa60b0e828|top_x_279::seq_2f73d6599cec9d60|9O3J_2a","routeId":"annojoin:profiles:RMDB2PDB:9O3J"},{"pairId":"9O3J:sequence_000811","profileId":"rmdbv3_exact_46c2304b4a5dbdf5505a9df4e3c4deaa60b0e828|top_x_279::seq_4c24f28221c1bcf1|9O3J_2a","routeId":"annojoin:profiles:RMDB2PDB:9O3J"},{"pairId":"9O3J:sequence_000812","profileId":"rmdbv3_exact_46c2304b4a5dbdf5505a9df4e3c4deaa60b0e828|top_x_279::seq_d41613a2f32c6dc2|9O3J_2a","routeId":"annojoin:profiles:RMDB2PDB:9O3J"},{"pairId":"9O3J:sequence_000813","profileId":"rmdbv3_exact_adf51ec0216bb1028fd658e1193ef7dd9df4cd3b|top_x_279::seq_0e7f421571eb4ff5|9O3J_2a","routeId":"annojoin:profiles:RMDB2PDB:9O3J"},{"pairId":"9O3J:sequence_000814","profileId":"rmdbv3_exact_adf51ec0216bb1028fd658e1193ef7dd9df4cd3b|top_x_279::seq_8abc3bfc9ea42919|9O3J_2a","routeId":"annojoin:profiles:RMDB2PDB:9O3J"},{"pairId":"9O3J:sequence_000815","profileId":"rmdbv3_exact_86ee42b94dc01a1e71a9fb7db2d6e0224a14e336|top_x_279::seq_7b1856185c294f09|9O3J_2y","routeId":"annojoin:profiles:RMDB2PDB:9O3J"},{"pairId":"9O3J:sequence_000816","profileId":"rmdbv3_exact_86ee42b94dc01a1e71a9fb7db2d6e0224a14e336|top_x_279::seq_a4f46d07b2b080fe|9O3J_2y","routeId":"annojoin:profiles:RMDB2PDB:9O3J"},{"pairId":"9O3J:sequence_000817","profileId":"rmdbv3_exact_3801fb113f72e6212f777fcfe737dd4769f52212|top_x_279::seq_a60c91f7c9cd3004|9O3J_2a","routeId":"annojoin:profiles:RMDB2PDB:9O3J"},{"pairId":"9O3J:sequence_000818","profileId":"rmdbv3_exact_3801fb113f72e6212f777fcfe737dd4769f52212|top_x_279::seq_d31cc1f1b91eec90|9O3J_2a","routeId":"annojoin:profiles:RMDB2PDB:9O3J"},{"pairId":"9O3J:sequence_000819","profileId":"rmdbv3_exact_470aabd0d11097863e53e931b6494fe421241c1e|top_x_279::seq_509096ec38c2b3d6|9O3J_2a","routeId":"annojoin:profiles:RMDB2PDB:9O3J"},{"pairId":"9O3J:sequence_000820","profileId":"rmdbv3_exact_7ea65ea40f9569ce211a515bdd0d91dfd2146b1d|top_x_279::seq_24e1566ddf8caad7|9O3J_2a","routeId":"annojoin:profiles:RMDB2PDB:9O3J"},{"pairId":"9O3J:sequence_000821","profileId":"rmdbv3_exact_7ea65ea40f9569ce211a515bdd0d91dfd2146b1d|top_x_279::seq_799102962afbc4c4|9O3J_2a","routeId":"annojoin:profiles:RMDB2PDB:9O3J"}]}
