{"schemaVersion":"annojoin-atlas.v1","version":"V2.1_RMDB_LINE_A_20260617","atlasCaseKey":"RMDB2PDB:4P5J","caseId":"4P5J","routeKey":"memberships","page":2,"pageSize":500,"totalRows":519,"pageCount":2,"rows":[{"pairId":"4P5J:sequence_000596","profileId":"rmdbv3_exact_f64daffe0d968511b0a6baef993e58e13cc288e5|top_x_279::seq_55eb7f12aadf2a66|4P5J_A","routeId":"annojoin:profiles:RMDB2PDB:4P5J"},{"pairId":"4P5J:sequence_000597","profileId":"rmdbv3_exact_f6773d4490bd3903e16fdefbff6c2212a92ea07e|top_x_279::seq_444d2bf7d838c95b|4P5J_A","routeId":"annojoin:profiles:RMDB2PDB:4P5J"},{"pairId":"4P5J:sequence_000598","profileId":"rmdbv3_exact_f6773d4490bd3903e16fdefbff6c2212a92ea07e|top_x_279::seq_7a5145f393fc3f11|4P5J_A","routeId":"annojoin:profiles:RMDB2PDB:4P5J"},{"pairId":"4P5J:sequence_000599","profileId":"rmdbv3_exact_f8a3fb2d611d525db1d9f1f3666b19979b63afaa|top_x_279::seq_00b0746747a30a0b|4P5J_A","routeId":"annojoin:profiles:RMDB2PDB:4P5J"},{"pairId":"4P5J:sequence_000600","profileId":"rmdbv3_exact_f8a3fb2d611d525db1d9f1f3666b19979b63afaa|top_x_279::seq_e15c00fd60259574|4P5J_A","routeId":"annojoin:profiles:RMDB2PDB:4P5J"},{"pairId":"4P5J:sequence_000602","profileId":"rmdbv3_exact_f9eba70e061e27c541a9f6b14091d62def4507f4|top_x_279::seq_e12774613c327de3|4P5J_A","routeId":"annojoin:profiles:RMDB2PDB:4P5J"},{"pairId":"4P5J:sequence_000603","profileId":"rmdbv3_exact_fbaec6eaaceafc41e12d2035331ef2255c4e6b20|top_x_279::seq_59e0d82fa012655c|4P5J_A","routeId":"annojoin:profiles:RMDB2PDB:4P5J"},{"pairId":"4P5J:sequence_000604","profileId":"rmdbv3_exact_fbaec6eaaceafc41e12d2035331ef2255c4e6b20|top_x_279::seq_e738e2cdfacf47aa|4P5J_A","routeId":"annojoin:profiles:RMDB2PDB:4P5J"},{"pairId":"4P5J:sequence_000605","profileId":"rmdbv3_exact_fbeb89c175025aaf7376f938926f3ab87fc68ddb|top_x_279::seq_3c4b1033560abea1|4P5J_A","routeId":"annojoin:profiles:RMDB2PDB:4P5J"},{"pairId":"4P5J:sequence_000606","profileId":"rmdbv3_exact_fbeb89c175025aaf7376f938926f3ab87fc68ddb|top_x_279::seq_be525c471cacda54|4P5J_A","routeId":"annojoin:profiles:RMDB2PDB:4P5J"},{"pairId":"4P5J:sequence_000607","profileId":"rmdbv3_exact_fdcbd767e2a6038a149a01dfb513e34aae0adb45|top_x_279::seq_13689e36de0a65bd|4P5J_A","routeId":"annojoin:profiles:RMDB2PDB:4P5J"},{"pairId":"4P5J:sequence_000608","profileId":"rmdbv3_exact_fdcbd767e2a6038a149a01dfb513e34aae0adb45|top_x_279::seq_b29ae5e59ca763d5|4P5J_A","routeId":"annojoin:profiles:RMDB2PDB:4P5J"},{"pairId":"4P5J:sequence_000611","profileId":"rmdbv3_exact_fe8a0b91d2c7d0d8339a53c926079bd7d8b623d9|top_x_279::seq_6b7bb6da45fed8df|4P5J_A","routeId":"annojoin:profiles:RMDB2PDB:4P5J"},{"pairId":"4P5J:sequence_000612","profileId":"rmdbv3_exact_fe8a0b91d2c7d0d8339a53c926079bd7d8b623d9|top_x_279::seq_fe9414499394a37b|4P5J_A","routeId":"annojoin:profiles:RMDB2PDB:4P5J"},{"pairId":"4P5J:sequence_000613","profileId":"rmdbv3_exact_ff724da97c514333966a74b6c756230f8a4c9734|top_x_279::seq_0ae374d4afb546e0|4P5J_A","routeId":"annojoin:profiles:RMDB2PDB:4P5J"},{"pairId":"4P5J:sequence_000617","profileId":"rmdbv3_exact_8db3e97c68cda9c3b94d75ba2abbd5016f09032e|top_x_279::seq_94ed41156862b5e0|4P5J_A","routeId":"annojoin:profiles:RMDB2PDB:4P5J"},{"pairId":"4P5J:sequence_000619","profileId":"rmdbv3_exact_73ad2857aa80a40d24e4cc2b13ab4be084f45bd3|top_x_279::seq_b68ddc1f3d64acc7|4P5J_A","routeId":"annojoin:profiles:RMDB2PDB:4P5J"},{"pairId":"4P5J:sequence_000625","profileId":"rmdbv3_exact_4f1f94ecf0f960ae37556626d622e96fd21f205b|top_x_279::seq_586ef2ec88194257|4P5J_A","routeId":"annojoin:profiles:RMDB2PDB:4P5J"},{"pairId":"4P5J:sequence_000626","profileId":"rmdbv3_exact_4f1f94ecf0f960ae37556626d622e96fd21f205b|top_x_279::seq_bdcb9bf042bb4474|4P5J_A","routeId":"annojoin:profiles:RMDB2PDB:4P5J"}]}
