{"schemaVersion":"annojoin-atlas.v1","version":"V2.1_RMDB_LINE_A_20260617","atlasCaseKey":"RMDB2PDB:9P4I","caseId":"9P4I","routeKey":"memberships","page":7,"pageSize":500,"totalRows":3067,"pageCount":7,"rows":[{"pairId":"9P4I:sequence_003078","profileId":"rmdbv3_exact_8913c1f14689bc9662a7cd4c0253bea9a00c3d4a|top_x_279::seq_fa53b8eccef3c11d|9P4I_A","routeId":"annojoin:profiles:RMDB2PDB:9P4I"},{"pairId":"9P4I:sequence_003079","profileId":"rmdbv3_exact_89a73ce8ce66111b7f45161d6a06e06684d70aa6|top_x_279::seq_708d56a2267beb7b|9P4I_A","routeId":"annojoin:profiles:RMDB2PDB:9P4I"},{"pairId":"9P4I:sequence_003080","profileId":"rmdbv3_exact_89a73ce8ce66111b7f45161d6a06e06684d70aa6|top_x_279::seq_a3c1dcb5733f56f0|9P4I_A","routeId":"annojoin:profiles:RMDB2PDB:9P4I"},{"pairId":"9P4I:sequence_003081","profileId":"rmdbv3_exact_89a73ce8ce66111b7f45161d6a06e06684d70aa6|top_x_279::seq_b6c1f26b3f9ef801|9P4I_A","routeId":"annojoin:profiles:RMDB2PDB:9P4I"},{"pairId":"9P4I:sequence_003082","profileId":"rmdbv3_exact_89a73ce8ce66111b7f45161d6a06e06684d70aa6|top_x_279::seq_fbc67fca9e89849b|9P4I_A","routeId":"annojoin:profiles:RMDB2PDB:9P4I"},{"pairId":"9P4I:sequence_003083","profileId":"rmdbv3_exact_025ef3e49bdff8ea00a31d1b40adc71f8264243d|top_x_279::seq_64d8e8bc7c340118|9P4I_A","routeId":"annojoin:profiles:RMDB2PDB:9P4I"},{"pairId":"9P4I:sequence_003084","profileId":"rmdbv3_exact_025ef3e49bdff8ea00a31d1b40adc71f8264243d|top_x_279::seq_bc968a69fc6bd352|9P4I_A","routeId":"annojoin:profiles:RMDB2PDB:9P4I"},{"pairId":"9P4I:sequence_003085","profileId":"rmdbv3_exact_025ef3e49bdff8ea00a31d1b40adc71f8264243d|top_x_279::seq_cbe25a13e016bba2|9P4I_A","routeId":"annojoin:profiles:RMDB2PDB:9P4I"},{"pairId":"9P4I:sequence_003086","profileId":"rmdbv3_exact_025ef3e49bdff8ea00a31d1b40adc71f8264243d|top_x_279::seq_e8ef413887fcb634|9P4I_A","routeId":"annojoin:profiles:RMDB2PDB:9P4I"},{"pairId":"9P4I:sequence_003087","profileId":"rmdbv3_exact_1d6e33eb3e84c013e3c861da51b262cb489fecdf|top_x_279::seq_3a21da1b394fdb95|9P4I_A","routeId":"annojoin:profiles:RMDB2PDB:9P4I"},{"pairId":"9P4I:sequence_003088","profileId":"rmdbv3_exact_1d6e33eb3e84c013e3c861da51b262cb489fecdf|top_x_279::seq_a2f62325cf088677|9P4I_A","routeId":"annojoin:profiles:RMDB2PDB:9P4I"},{"pairId":"9P4I:sequence_003089","profileId":"rmdbv3_exact_d09280c3874f98b2e6e2021934cfbfe3055fd82d|top_x_279::seq_1639c86c73a47ec3|9P4I_A","routeId":"annojoin:profiles:RMDB2PDB:9P4I"},{"pairId":"9P4I:sequence_003090","profileId":"rmdbv3_exact_d09280c3874f98b2e6e2021934cfbfe3055fd82d|top_x_279::seq_e855a9f977262988|9P4I_A","routeId":"annojoin:profiles:RMDB2PDB:9P4I"},{"pairId":"9P4I:sequence_003091","profileId":"rmdbv3_exact_efd4cf217f9b57d688a097a712674fd4fa5e21ed|top_x_279::seq_11294f5af1b589e6|9P4I_A","routeId":"annojoin:profiles:RMDB2PDB:9P4I"},{"pairId":"9P4I:sequence_003092","profileId":"rmdbv3_exact_efd4cf217f9b57d688a097a712674fd4fa5e21ed|top_x_279::seq_3b8256b1bc370e2f|9P4I_A","routeId":"annojoin:profiles:RMDB2PDB:9P4I"},{"pairId":"9P4I:sequence_003093","profileId":"rmdbv3_exact_efd4cf217f9b57d688a097a712674fd4fa5e21ed|top_x_279::seq_9ac7363b00b1f9e1|9P4I_A","routeId":"annojoin:profiles:RMDB2PDB:9P4I"},{"pairId":"9P4I:sequence_003094","profileId":"rmdbv3_exact_efd4cf217f9b57d688a097a712674fd4fa5e21ed|top_x_279::seq_a980b3b4deaa8033|9P4I_A","routeId":"annojoin:profiles:RMDB2PDB:9P4I"},{"pairId":"9P4I:sequence_003095","profileId":"rmdbv3_exact_f5ab1b8f40db8830adb2099f095bb82dfa7a7b8c|top_x_279::seq_317c1adf646cd951|9P4I_A","routeId":"annojoin:profiles:RMDB2PDB:9P4I"},{"pairId":"9P4I:sequence_003096","profileId":"rmdbv3_exact_f5ab1b8f40db8830adb2099f095bb82dfa7a7b8c|top_x_279::seq_d924b136c188ac49|9P4I_A","routeId":"annojoin:profiles:RMDB2PDB:9P4I"},{"pairId":"9P4I:sequence_003097","profileId":"rmdbv3_exact_2d41b79768584e1dde09e9e754f714253be9227f|top_x_279::seq_0cc7696b5294c6f5|9P4I_A","routeId":"annojoin:profiles:RMDB2PDB:9P4I"},{"pairId":"9P4I:sequence_003098","profileId":"rmdbv3_exact_2d41b79768584e1dde09e9e754f714253be9227f|top_x_279::seq_71246532d0a0b9f5|9P4I_A","routeId":"annojoin:profiles:RMDB2PDB:9P4I"},{"pairId":"9P4I:sequence_003099","profileId":"rmdbv3_exact_2d41b79768584e1dde09e9e754f714253be9227f|top_x_279::seq_8c6ea0e8068cd5ae|9P4I_A","routeId":"annojoin:profiles:RMDB2PDB:9P4I"},{"pairId":"9P4I:sequence_003100","profileId":"rmdbv3_exact_2d41b79768584e1dde09e9e754f714253be9227f|top_x_279::seq_d0c4b37714affbf2|9P4I_A","routeId":"annojoin:profiles:RMDB2PDB:9P4I"},{"pairId":"9P4I:sequence_003101","profileId":"rmdbv3_exact_824a1c6b275cf504656ef767366cc8bc79c5063b|top_x_279::seq_8752181155c983af|9P4I_A","routeId":"annojoin:profiles:RMDB2PDB:9P4I"},{"pairId":"9P4I:sequence_003102","profileId":"rmdbv3_exact_824a1c6b275cf504656ef767366cc8bc79c5063b|top_x_279::seq_e32560e5eeac8247|9P4I_A","routeId":"annojoin:profiles:RMDB2PDB:9P4I"},{"pairId":"9P4I:sequence_003103","profileId":"rmdbv3_exact_30583b05ec31cdae6c9c1d0a16e3e758658c3a80|top_x_279::seq_5a1dc308d9d22367|9P4I_A","routeId":"annojoin:profiles:RMDB2PDB:9P4I"},{"pairId":"9P4I:sequence_003104","profileId":"rmdbv3_exact_30583b05ec31cdae6c9c1d0a16e3e758658c3a80|top_x_279::seq_c6f6ab57d17a9e8b|9P4I_A","routeId":"annojoin:profiles:RMDB2PDB:9P4I"},{"pairId":"9P4I:sequence_003105","profileId":"rmdbv3_exact_30583b05ec31cdae6c9c1d0a16e3e758658c3a80|top_x_279::seq_d94241491f2f422f|9P4I_A","routeId":"annojoin:profiles:RMDB2PDB:9P4I"},{"pairId":"9P4I:sequence_003106","profileId":"rmdbv3_exact_30583b05ec31cdae6c9c1d0a16e3e758658c3a80|top_x_279::seq_fee528317067ed9d|9P4I_A","routeId":"annojoin:profiles:RMDB2PDB:9P4I"},{"pairId":"9P4I:sequence_003107","profileId":"rmdbv3_exact_57e4d062b7d88a9e97913cce3c43a20527b9cc39|top_x_279::seq_b3d2c335fca56380|9P4I_A","routeId":"annojoin:profiles:RMDB2PDB:9P4I"},{"pairId":"9P4I:sequence_003108","profileId":"rmdbv3_exact_57e4d062b7d88a9e97913cce3c43a20527b9cc39|top_x_279::seq_f3def9cd918c80f2|9P4I_A","routeId":"annojoin:profiles:RMDB2PDB:9P4I"},{"pairId":"9P4I:sequence_003109","profileId":"rmdbv3_exact_9846b60b468ce335af3337aeda4e477f04955211|top_x_279::seq_20476a06ce0bde76|9P4I_A","routeId":"annojoin:profiles:RMDB2PDB:9P4I"},{"pairId":"9P4I:sequence_003110","profileId":"rmdbv3_exact_9846b60b468ce335af3337aeda4e477f04955211|top_x_279::seq_48b15ef67775b4d6|9P4I_A","routeId":"annojoin:profiles:RMDB2PDB:9P4I"},{"pairId":"9P4I:sequence_003111","profileId":"rmdbv3_exact_9846b60b468ce335af3337aeda4e477f04955211|top_x_279::seq_637d5fe75f95669c|9P4I_A","routeId":"annojoin:profiles:RMDB2PDB:9P4I"},{"pairId":"9P4I:sequence_003112","profileId":"rmdbv3_exact_9846b60b468ce335af3337aeda4e477f04955211|top_x_279::seq_f09754d341f55c55|9P4I_A","routeId":"annojoin:profiles:RMDB2PDB:9P4I"},{"pairId":"9P4I:sequence_003113","profileId":"rmdbv3_exact_d8f4886fa7978c18e70c466d21b5d658cc04a381|top_x_279::seq_0bf39dd8723e9705|9P4I_A","routeId":"annojoin:profiles:RMDB2PDB:9P4I"},{"pairId":"9P4I:sequence_003114","profileId":"rmdbv3_exact_d8f4886fa7978c18e70c466d21b5d658cc04a381|top_x_279::seq_1254f2a5217ec2b8|9P4I_A","routeId":"annojoin:profiles:RMDB2PDB:9P4I"},{"pairId":"9P4I:sequence_003115","profileId":"rmdbv3_exact_8490c53d08f55cf7524678b35aa6f76eea6db9fa|top_x_279::seq_567bcbce35530ac5|9P4I_A","routeId":"annojoin:profiles:RMDB2PDB:9P4I"},{"pairId":"9P4I:sequence_003116","profileId":"rmdbv3_exact_8490c53d08f55cf7524678b35aa6f76eea6db9fa|top_x_279::seq_706b54d916fa5b20|9P4I_A","routeId":"annojoin:profiles:RMDB2PDB:9P4I"},{"pairId":"9P4I:sequence_003117","profileId":"rmdbv3_exact_39ec2ee0f8680483a31c7633de95c88e6f427f25|top_x_279::seq_1db8b42e05b22806|9P4I_A","routeId":"annojoin:profiles:RMDB2PDB:9P4I"},{"pairId":"9P4I:sequence_003118","profileId":"rmdbv3_exact_39ec2ee0f8680483a31c7633de95c88e6f427f25|top_x_279::seq_380d957b3bc13fe0|9P4I_A","routeId":"annojoin:profiles:RMDB2PDB:9P4I"},{"pairId":"9P4I:sequence_003119","profileId":"rmdbv3_exact_39ec2ee0f8680483a31c7633de95c88e6f427f25|top_x_279::seq_89a169306b7024e7|9P4I_A","routeId":"annojoin:profiles:RMDB2PDB:9P4I"},{"pairId":"9P4I:sequence_003120","profileId":"rmdbv3_exact_39ec2ee0f8680483a31c7633de95c88e6f427f25|top_x_279::seq_91e5f00800da33fb|9P4I_A","routeId":"annojoin:profiles:RMDB2PDB:9P4I"},{"pairId":"9P4I:sequence_003121","profileId":"rmdbv3_exact_3c3701728d562f4c2471e018d8c46b18e33fad0c|top_x_279::seq_355868d8a32cb41f|9P4I_A","routeId":"annojoin:profiles:RMDB2PDB:9P4I"},{"pairId":"9P4I:sequence_003122","profileId":"rmdbv3_exact_3c3701728d562f4c2471e018d8c46b18e33fad0c|top_x_279::seq_6f0083ac249e0724|9P4I_A","routeId":"annojoin:profiles:RMDB2PDB:9P4I"},{"pairId":"9P4I:sequence_003123","profileId":"rmdbv3_exact_3c3701728d562f4c2471e018d8c46b18e33fad0c|top_x_279::seq_b711ae4442656e16|9P4I_A","routeId":"annojoin:profiles:RMDB2PDB:9P4I"},{"pairId":"9P4I:sequence_003124","profileId":"rmdbv3_exact_3c3701728d562f4c2471e018d8c46b18e33fad0c|top_x_279::seq_d0515d11b3fb3fb5|9P4I_A","routeId":"annojoin:profiles:RMDB2PDB:9P4I"},{"pairId":"9P4I:sequence_003125","profileId":"rmdbv3_exact_59ebce38d2a17261e89cbca179b197917beebcc2|top_x_279::seq_30b8ffaa47c2f11b|9P4I_A","routeId":"annojoin:profiles:RMDB2PDB:9P4I"},{"pairId":"9P4I:sequence_003126","profileId":"rmdbv3_exact_59ebce38d2a17261e89cbca179b197917beebcc2|top_x_279::seq_9ea3831f009fe72e|9P4I_A","routeId":"annojoin:profiles:RMDB2PDB:9P4I"},{"pairId":"9P4I:sequence_003127","profileId":"rmdbv3_exact_8a0aa73da3f84c7c97e2f29f9d31489e1fbefeb5|top_x_279::seq_2f9db546d778eca6|9P4I_A","routeId":"annojoin:profiles:RMDB2PDB:9P4I"},{"pairId":"9P4I:sequence_003128","profileId":"rmdbv3_exact_8a0aa73da3f84c7c97e2f29f9d31489e1fbefeb5|top_x_279::seq_7754a51cc56a3a3f|9P4I_A","routeId":"annojoin:profiles:RMDB2PDB:9P4I"},{"pairId":"9P4I:sequence_003129","profileId":"rmdbv3_exact_8a0aa73da3f84c7c97e2f29f9d31489e1fbefeb5|top_x_279::seq_94229ca123a322bf|9P4I_A","routeId":"annojoin:profiles:RMDB2PDB:9P4I"},{"pairId":"9P4I:sequence_003130","profileId":"rmdbv3_exact_8a0aa73da3f84c7c97e2f29f9d31489e1fbefeb5|top_x_279::seq_bad8c54914f21340|9P4I_A","routeId":"annojoin:profiles:RMDB2PDB:9P4I"},{"pairId":"9P4I:sequence_003131","profileId":"rmdbv3_exact_fb7c4f41d792fd83e74d13851081d1df4a318b14|top_x_279::seq_05e2473b94980150|9P4I_A","routeId":"annojoin:profiles:RMDB2PDB:9P4I"},{"pairId":"9P4I:sequence_003132","profileId":"rmdbv3_exact_fb7c4f41d792fd83e74d13851081d1df4a318b14|top_x_279::seq_dc1c6e0d0971df69|9P4I_A","routeId":"annojoin:profiles:RMDB2PDB:9P4I"},{"pairId":"9P4I:sequence_003133","profileId":"rmdbv3_exact_0672ab5b2060ad8e2287d4420ab505ac861430ca|top_x_279::seq_11cb5c1e723e780b|9P4I_A","routeId":"annojoin:profiles:RMDB2PDB:9P4I"},{"pairId":"9P4I:sequence_003134","profileId":"rmdbv3_exact_0672ab5b2060ad8e2287d4420ab505ac861430ca|top_x_279::seq_4b014d1dc587a0d5|9P4I_A","routeId":"annojoin:profiles:RMDB2PDB:9P4I"},{"pairId":"9P4I:sequence_003135","profileId":"rmdbv3_exact_0672ab5b2060ad8e2287d4420ab505ac861430ca|top_x_279::seq_7c53d9ac02be8c43|9P4I_A","routeId":"annojoin:profiles:RMDB2PDB:9P4I"},{"pairId":"9P4I:sequence_003136","profileId":"rmdbv3_exact_0672ab5b2060ad8e2287d4420ab505ac861430ca|top_x_279::seq_fb2109c6e777a855|9P4I_A","routeId":"annojoin:profiles:RMDB2PDB:9P4I"},{"pairId":"9P4I:sequence_003137","profileId":"rmdbv3_exact_f65e7e8bfbe32ca03af5bb59d800f3717188a241|top_x_279::seq_bd60932c7c935488|9P4I_A","routeId":"annojoin:profiles:RMDB2PDB:9P4I"},{"pairId":"9P4I:sequence_003138","profileId":"rmdbv3_exact_f65e7e8bfbe32ca03af5bb59d800f3717188a241|top_x_279::seq_e7d48ef20fb2bf3f|9P4I_A","routeId":"annojoin:profiles:RMDB2PDB:9P4I"},{"pairId":"9P4I:sequence_003139","profileId":"rmdbv3_exact_471164db6e08f7dfcbbbeb928aef52eb39c9bebc|top_x_279::seq_07e84044ed179fef|9P4I_A","routeId":"annojoin:profiles:RMDB2PDB:9P4I"},{"pairId":"9P4I:sequence_003140","profileId":"rmdbv3_exact_471164db6e08f7dfcbbbeb928aef52eb39c9bebc|top_x_279::seq_51ab8df8546b9815|9P4I_A","routeId":"annojoin:profiles:RMDB2PDB:9P4I"},{"pairId":"9P4I:sequence_003141","profileId":"rmdbv3_exact_471164db6e08f7dfcbbbeb928aef52eb39c9bebc|top_x_279::seq_7959928c826b0cbc|9P4I_A","routeId":"annojoin:profiles:RMDB2PDB:9P4I"},{"pairId":"9P4I:sequence_003142","profileId":"rmdbv3_exact_471164db6e08f7dfcbbbeb928aef52eb39c9bebc|top_x_279::seq_aa2f5bb277f2bad0|9P4I_A","routeId":"annojoin:profiles:RMDB2PDB:9P4I"},{"pairId":"9P4I:sequence_003143","profileId":"rmdbv3_exact_76bb155c96af858f46d9e68287db22f87de317b8|top_x_279::seq_51bbccc02421876e|9P4I_A","routeId":"annojoin:profiles:RMDB2PDB:9P4I"},{"pairId":"9P4I:sequence_003144","profileId":"rmdbv3_exact_76bb155c96af858f46d9e68287db22f87de317b8|top_x_279::seq_6b367c7008c10f5b|9P4I_A","routeId":"annojoin:profiles:RMDB2PDB:9P4I"}]}
