{"schemaVersion":"annojoin-atlas.v1","version":"V2.1_RMDB_LINE_A_20260617","atlasCaseKey":"RMDB2PDB:4P5J","caseId":"4P5J","routeKey":"conflicts","page":2,"pageSize":500,"totalRows":519,"pageCount":2,"rows":[{"id":"RMDB2PDB|conflict|pairseg_4P5J_sequence_000596","routeId":"annojoin:conflict:RMDB2PDB:pairseg_4P5J_sequence_000596","type":"structure_signal_discordance_candidate","status":"candidate","fecClaimCeiling":"","claimScope":"","lssStatus":"LSS_MODERATE_CANDIDATE","reviewPriorityHint":"review_lss_signal_context"},{"id":"RMDB2PDB|conflict|pairseg_4P5J_sequence_000597","routeId":"annojoin:conflict:RMDB2PDB:pairseg_4P5J_sequence_000597","type":"structure_signal_discordance_candidate","status":"none_detected","fecClaimCeiling":"","claimScope":"","lssStatus":"LSS_WEAK","reviewPriorityHint":"no_conflict_review_priority"},{"id":"RMDB2PDB|conflict|pairseg_4P5J_sequence_000598","routeId":"annojoin:conflict:RMDB2PDB:pairseg_4P5J_sequence_000598","type":"structure_signal_discordance_candidate","status":"none_detected","fecClaimCeiling":"","claimScope":"","lssStatus":"LSS_NOT_SUPPORTED","reviewPriorityHint":"no_conflict_review_priority"},{"id":"RMDB2PDB|conflict|pairseg_4P5J_sequence_000599","routeId":"annojoin:conflict:RMDB2PDB:pairseg_4P5J_sequence_000599","type":"structure_signal_discordance_candidate","status":"candidate","fecClaimCeiling":"","claimScope":"","lssStatus":"LSS_MODERATE_CANDIDATE","reviewPriorityHint":"review_lss_signal_context"},{"id":"RMDB2PDB|conflict|pairseg_4P5J_sequence_000600","routeId":"annojoin:conflict:RMDB2PDB:pairseg_4P5J_sequence_000600","type":"structure_signal_discordance_candidate","status":"candidate","fecClaimCeiling":"","claimScope":"","lssStatus":"LSS_MODERATE_CANDIDATE","reviewPriorityHint":"review_lss_signal_context"},{"id":"RMDB2PDB|conflict|pairseg_4P5J_sequence_000602","routeId":"annojoin:conflict:RMDB2PDB:pairseg_4P5J_sequence_000602","type":"structure_signal_discordance_candidate","status":"none_detected","fecClaimCeiling":"","claimScope":"","lssStatus":"LSS_WEAK","reviewPriorityHint":"no_conflict_review_priority"},{"id":"RMDB2PDB|conflict|pairseg_4P5J_sequence_000603","routeId":"annojoin:conflict:RMDB2PDB:pairseg_4P5J_sequence_000603","type":"structure_signal_discordance_candidate","status":"none_detected","fecClaimCeiling":"","claimScope":"","lssStatus":"LSS_NOT_SUPPORTED","reviewPriorityHint":"no_conflict_review_priority"},{"id":"RMDB2PDB|conflict|pairseg_4P5J_sequence_000604","routeId":"annojoin:conflict:RMDB2PDB:pairseg_4P5J_sequence_000604","type":"structure_signal_discordance_candidate","status":"candidate","fecClaimCeiling":"","claimScope":"","lssStatus":"LSS_MODERATE_CANDIDATE","reviewPriorityHint":"review_lss_signal_context"},{"id":"RMDB2PDB|conflict|pairseg_4P5J_sequence_000605","routeId":"annojoin:conflict:RMDB2PDB:pairseg_4P5J_sequence_000605","type":"structure_signal_discordance_candidate","status":"none_detected","fecClaimCeiling":"","claimScope":"","lssStatus":"LSS_WEAK","reviewPriorityHint":"no_conflict_review_priority"},{"id":"RMDB2PDB|conflict|pairseg_4P5J_sequence_000606","routeId":"annojoin:conflict:RMDB2PDB:pairseg_4P5J_sequence_000606","type":"structure_signal_discordance_candidate","status":"none_detected","fecClaimCeiling":"","claimScope":"","lssStatus":"LSS_WEAK","reviewPriorityHint":"no_conflict_review_priority"},{"id":"RMDB2PDB|conflict|pairseg_4P5J_sequence_000607","routeId":"annojoin:conflict:RMDB2PDB:pairseg_4P5J_sequence_000607","type":"structure_signal_discordance_candidate","status":"candidate","fecClaimCeiling":"","claimScope":"","lssStatus":"LSS_MODERATE_CANDIDATE","reviewPriorityHint":"review_lss_signal_context"},{"id":"RMDB2PDB|conflict|pairseg_4P5J_sequence_000608","routeId":"annojoin:conflict:RMDB2PDB:pairseg_4P5J_sequence_000608","type":"structure_signal_discordance_candidate","status":"none_detected","fecClaimCeiling":"","claimScope":"","lssStatus":"LSS_NOT_SUPPORTED","reviewPriorityHint":"no_conflict_review_priority"},{"id":"RMDB2PDB|conflict|pairseg_4P5J_sequence_000611","routeId":"annojoin:conflict:RMDB2PDB:pairseg_4P5J_sequence_000611","type":"structure_signal_discordance_candidate","status":"none_detected","fecClaimCeiling":"","claimScope":"","lssStatus":"LSS_WEAK","reviewPriorityHint":"no_conflict_review_priority"},{"id":"RMDB2PDB|conflict|pairseg_4P5J_sequence_000612","routeId":"annojoin:conflict:RMDB2PDB:pairseg_4P5J_sequence_000612","type":"structure_signal_discordance_candidate","status":"candidate","fecClaimCeiling":"","claimScope":"","lssStatus":"LSS_MODERATE_CANDIDATE","reviewPriorityHint":"review_lss_signal_context"},{"id":"RMDB2PDB|conflict|pairseg_4P5J_sequence_000613","routeId":"annojoin:conflict:RMDB2PDB:pairseg_4P5J_sequence_000613","type":"structure_signal_discordance_candidate","status":"none_detected","fecClaimCeiling":"","claimScope":"","lssStatus":"LSS_WEAK","reviewPriorityHint":"no_conflict_review_priority"},{"id":"RMDB2PDB|conflict|pairseg_4P5J_sequence_000617","routeId":"annojoin:conflict:RMDB2PDB:pairseg_4P5J_sequence_000617","type":"structure_signal_discordance_candidate","status":"none_detected","fecClaimCeiling":"","claimScope":"","lssStatus":"LSS_UNDERPOWERED","reviewPriorityHint":"no_conflict_review_priority"},{"id":"RMDB2PDB|conflict|pairseg_4P5J_sequence_000619","routeId":"annojoin:conflict:RMDB2PDB:pairseg_4P5J_sequence_000619","type":"structure_signal_discordance_candidate","status":"none_detected","fecClaimCeiling":"","claimScope":"","lssStatus":"LSS_NOT_EVALUABLE","reviewPriorityHint":"no_conflict_review_priority"},{"id":"RMDB2PDB|conflict|pairseg_4P5J_sequence_000625","routeId":"annojoin:conflict:RMDB2PDB:pairseg_4P5J_sequence_000625","type":"structure_signal_discordance_candidate","status":"none_detected","fecClaimCeiling":"","claimScope":"","lssStatus":"LSS_NOT_EVALUABLE","reviewPriorityHint":"no_conflict_review_priority"},{"id":"RMDB2PDB|conflict|pairseg_4P5J_sequence_000626","routeId":"annojoin:conflict:RMDB2PDB:pairseg_4P5J_sequence_000626","type":"structure_signal_discordance_candidate","status":"none_detected","fecClaimCeiling":"","claimScope":"","lssStatus":"LSS_NOT_EVALUABLE","reviewPriorityHint":"no_conflict_review_priority"}]}
