{"schemaVersion":"annojoin-atlas.v1","version":"V2.1_RMDB_LINE_A_20260617","atlasCaseKey":"RMDB2PDB:9P4I","caseId":"9P4I","routeKey":"track-routes","page":7,"pageSize":500,"totalRows":3067,"pageCount":7,"rows":[{"profileId":"data-rna-structures/data-rna-structures/RFMREP_DMS_0000.rdat#55035","trackRouteId":"annojoin:track:RMDB2PDB:pairseg_9P4I_sequence_003078","trackDataPath":"ANNOCONFIDENCE/assay_numeric_usability_annotation.tsv","trackSchemaId":"assay_numeric_usability_annotation","supports1d":true,"supportsTable":true,"colorPolicyId":"rmdb_reactivity_low_mid_high_v1"},{"profileId":"data-rna-structures/data-rna-structures/RFMREP_DMS_0000.rdat#34687","trackRouteId":"annojoin:track:RMDB2PDB:pairseg_9P4I_sequence_003079","trackDataPath":"ANNOCONFIDENCE/assay_numeric_usability_annotation.tsv","trackSchemaId":"assay_numeric_usability_annotation","supports1d":true,"supportsTable":true,"colorPolicyId":"rmdb_reactivity_low_mid_high_v1"},{"profileId":"data-rna-structures/data-rna-structures/RFM100_2A3_0000.rdat#3146","trackRouteId":"annojoin:track:RMDB2PDB:pairseg_9P4I_sequence_003080","trackDataPath":"ANNOCONFIDENCE/assay_numeric_usability_annotation.tsv","trackSchemaId":"assay_numeric_usability_annotation","supports1d":true,"supportsTable":true,"colorPolicyId":"rmdb_reactivity_low_mid_high_v1"},{"profileId":"data-rna-structures/data-rna-structures/RFMREP_2A3_0000.rdat#34687","trackRouteId":"annojoin:track:RMDB2PDB:pairseg_9P4I_sequence_003081","trackDataPath":"ANNOCONFIDENCE/assay_numeric_usability_annotation.tsv","trackSchemaId":"assay_numeric_usability_annotation","supports1d":true,"supportsTable":true,"colorPolicyId":"rmdb_reactivity_low_mid_high_v1"},{"profileId":"data-rna-structures/data-rna-structures/RFM100_DMS_0000.rdat#3146","trackRouteId":"annojoin:track:RMDB2PDB:pairseg_9P4I_sequence_003082","trackDataPath":"ANNOCONFIDENCE/assay_numeric_usability_annotation.tsv","trackSchemaId":"assay_numeric_usability_annotation","supports1d":true,"supportsTable":true,"colorPolicyId":"rmdb_reactivity_low_mid_high_v1"},{"profileId":"data-rna-structures/data-rna-structures/RFMREP_DMS_0000.rdat#34682","trackRouteId":"annojoin:track:RMDB2PDB:pairseg_9P4I_sequence_003083","trackDataPath":"ANNOCONFIDENCE/assay_numeric_usability_annotation.tsv","trackSchemaId":"assay_numeric_usability_annotation","supports1d":true,"supportsTable":true,"colorPolicyId":"rmdb_reactivity_low_mid_high_v1"},{"profileId":"data-rna-structures/data-rna-structures/RFM100_DMS_0000.rdat#3142","trackRouteId":"annojoin:track:RMDB2PDB:pairseg_9P4I_sequence_003084","trackDataPath":"ANNOCONFIDENCE/assay_numeric_usability_annotation.tsv","trackSchemaId":"assay_numeric_usability_annotation","supports1d":true,"supportsTable":true,"colorPolicyId":"rmdb_reactivity_low_mid_high_v1"},{"profileId":"data-rna-structures/data-rna-structures/RFM100_2A3_0000.rdat#3142","trackRouteId":"annojoin:track:RMDB2PDB:pairseg_9P4I_sequence_003085","trackDataPath":"ANNOCONFIDENCE/assay_numeric_usability_annotation.tsv","trackSchemaId":"assay_numeric_usability_annotation","supports1d":true,"supportsTable":true,"colorPolicyId":"rmdb_reactivity_low_mid_high_v1"},{"profileId":"data-rna-structures/data-rna-structures/RFMREP_2A3_0000.rdat#34682","trackRouteId":"annojoin:track:RMDB2PDB:pairseg_9P4I_sequence_003086","trackDataPath":"ANNOCONFIDENCE/assay_numeric_usability_annotation.tsv","trackSchemaId":"assay_numeric_usability_annotation","supports1d":true,"supportsTable":true,"colorPolicyId":"rmdb_reactivity_low_mid_high_v1"},{"profileId":"data-rna-structures/data-rna-structures/RFMREP_2A3_0000.rdat#55030","trackRouteId":"annojoin:track:RMDB2PDB:pairseg_9P4I_sequence_003087","trackDataPath":"ANNOCONFIDENCE/assay_numeric_usability_annotation.tsv","trackSchemaId":"assay_numeric_usability_annotation","supports1d":true,"supportsTable":true,"colorPolicyId":"rmdb_reactivity_low_mid_high_v1"},{"profileId":"data-rna-structures/data-rna-structures/RFMREP_DMS_0000.rdat#55030","trackRouteId":"annojoin:track:RMDB2PDB:pairseg_9P4I_sequence_003088","trackDataPath":"ANNOCONFIDENCE/assay_numeric_usability_annotation.tsv","trackSchemaId":"assay_numeric_usability_annotation","supports1d":true,"supportsTable":true,"colorPolicyId":"rmdb_reactivity_low_mid_high_v1"},{"profileId":"data-eterna/data-eterna/OK2TRN_DMS_0000.rdat#84160","trackRouteId":"annojoin:track:RMDB2PDB:pairseg_9P4I_sequence_003089","trackDataPath":"ANNOCONFIDENCE/assay_numeric_usability_annotation.tsv","trackSchemaId":"assay_numeric_usability_annotation","supports1d":true,"supportsTable":true,"colorPolicyId":"rmdb_reactivity_low_mid_high_v1"},{"profileId":"data-eterna/data-eterna/OK2TRN_2A3_0000.rdat#84160","trackRouteId":"annojoin:track:RMDB2PDB:pairseg_9P4I_sequence_003090","trackDataPath":"ANNOCONFIDENCE/assay_numeric_usability_annotation.tsv","trackSchemaId":"assay_numeric_usability_annotation","supports1d":true,"supportsTable":true,"colorPolicyId":"rmdb_reactivity_low_mid_high_v1"},{"profileId":"data-rna-structures/data-rna-structures/RFM100_DMS_0000.rdat#7427","trackRouteId":"annojoin:track:RMDB2PDB:pairseg_9P4I_sequence_003091","trackDataPath":"ANNOCONFIDENCE/assay_numeric_usability_annotation.tsv","trackSchemaId":"assay_numeric_usability_annotation","supports1d":true,"supportsTable":true,"colorPolicyId":"rmdb_reactivity_low_mid_high_v1"},{"profileId":"data-rna-structures/data-rna-structures/RFMREP_2A3_0000.rdat#30395","trackRouteId":"annojoin:track:RMDB2PDB:pairseg_9P4I_sequence_003092","trackDataPath":"ANNOCONFIDENCE/assay_numeric_usability_annotation.tsv","trackSchemaId":"assay_numeric_usability_annotation","supports1d":true,"supportsTable":true,"colorPolicyId":"rmdb_reactivity_low_mid_high_v1"},{"profileId":"data-rna-structures/data-rna-structures/RFM100_2A3_0000.rdat#7427","trackRouteId":"annojoin:track:RMDB2PDB:pairseg_9P4I_sequence_003093","trackDataPath":"ANNOCONFIDENCE/assay_numeric_usability_annotation.tsv","trackSchemaId":"assay_numeric_usability_annotation","supports1d":true,"supportsTable":true,"colorPolicyId":"rmdb_reactivity_low_mid_high_v1"},{"profileId":"data-rna-structures/data-rna-structures/RFMREP_DMS_0000.rdat#30395","trackRouteId":"annojoin:track:RMDB2PDB:pairseg_9P4I_sequence_003094","trackDataPath":"ANNOCONFIDENCE/assay_numeric_usability_annotation.tsv","trackSchemaId":"assay_numeric_usability_annotation","supports1d":true,"supportsTable":true,"colorPolicyId":"rmdb_reactivity_low_mid_high_v1"},{"profileId":"data-rna-structures/data-rna-structures/RFMREP_DMS_0000.rdat#71091","trackRouteId":"annojoin:track:RMDB2PDB:pairseg_9P4I_sequence_003095","trackDataPath":"ANNOCONFIDENCE/assay_numeric_usability_annotation.tsv","trackSchemaId":"assay_numeric_usability_annotation","supports1d":true,"supportsTable":true,"colorPolicyId":"rmdb_reactivity_low_mid_high_v1"},{"profileId":"data-rna-structures/data-rna-structures/RFMREP_2A3_0000.rdat#71091","trackRouteId":"annojoin:track:RMDB2PDB:pairseg_9P4I_sequence_003096","trackDataPath":"ANNOCONFIDENCE/assay_numeric_usability_annotation.tsv","trackSchemaId":"assay_numeric_usability_annotation","supports1d":true,"supportsTable":true,"colorPolicyId":"rmdb_reactivity_low_mid_high_v1"},{"profileId":"data-rna-structures/data-rna-structures/RFM100_DMS_0000.rdat#563","trackRouteId":"annojoin:track:RMDB2PDB:pairseg_9P4I_sequence_003097","trackDataPath":"ANNOCONFIDENCE/assay_numeric_usability_annotation.tsv","trackSchemaId":"assay_numeric_usability_annotation","supports1d":true,"supportsTable":true,"colorPolicyId":"rmdb_reactivity_low_mid_high_v1"},{"profileId":"data-rna-structures/data-rna-structures/RFM100_2A3_0000.rdat#563","trackRouteId":"annojoin:track:RMDB2PDB:pairseg_9P4I_sequence_003098","trackDataPath":"ANNOCONFIDENCE/assay_numeric_usability_annotation.tsv","trackSchemaId":"assay_numeric_usability_annotation","supports1d":true,"supportsTable":true,"colorPolicyId":"rmdb_reactivity_low_mid_high_v1"},{"profileId":"data-rna-structures/data-rna-structures/RFMREP_DMS_0000.rdat#37270","trackRouteId":"annojoin:track:RMDB2PDB:pairseg_9P4I_sequence_003099","trackDataPath":"ANNOCONFIDENCE/assay_numeric_usability_annotation.tsv","trackSchemaId":"assay_numeric_usability_annotation","supports1d":true,"supportsTable":true,"colorPolicyId":"rmdb_reactivity_low_mid_high_v1"},{"profileId":"data-rna-structures/data-rna-structures/RFMREP_2A3_0000.rdat#37270","trackRouteId":"annojoin:track:RMDB2PDB:pairseg_9P4I_sequence_003100","trackDataPath":"ANNOCONFIDENCE/assay_numeric_usability_annotation.tsv","trackSchemaId":"assay_numeric_usability_annotation","supports1d":true,"supportsTable":true,"colorPolicyId":"rmdb_reactivity_low_mid_high_v1"},{"profileId":"data-rna-structures/data-rna-structures/RFMREP_2A3_0000.rdat#48802","trackRouteId":"annojoin:track:RMDB2PDB:pairseg_9P4I_sequence_003101","trackDataPath":"ANNOCONFIDENCE/assay_numeric_usability_annotation.tsv","trackSchemaId":"assay_numeric_usability_annotation","supports1d":true,"supportsTable":true,"colorPolicyId":"rmdb_reactivity_low_mid_high_v1"},{"profileId":"data-rna-structures/data-rna-structures/RFMREP_DMS_0000.rdat#48802","trackRouteId":"annojoin:track:RMDB2PDB:pairseg_9P4I_sequence_003102","trackDataPath":"ANNOCONFIDENCE/assay_numeric_usability_annotation.tsv","trackSchemaId":"assay_numeric_usability_annotation","supports1d":true,"supportsTable":true,"colorPolicyId":"rmdb_reactivity_low_mid_high_v1"},{"profileId":"data-rna-structures/data-rna-structures/RFMREP_2A3_0000.rdat#30394","trackRouteId":"annojoin:track:RMDB2PDB:pairseg_9P4I_sequence_003103","trackDataPath":"ANNOCONFIDENCE/assay_numeric_usability_annotation.tsv","trackSchemaId":"assay_numeric_usability_annotation","supports1d":true,"supportsTable":true,"colorPolicyId":"rmdb_reactivity_low_mid_high_v1"},{"profileId":"data-rna-structures/data-rna-structures/RFM100_DMS_0000.rdat#7430","trackRouteId":"annojoin:track:RMDB2PDB:pairseg_9P4I_sequence_003104","trackDataPath":"ANNOCONFIDENCE/assay_numeric_usability_annotation.tsv","trackSchemaId":"assay_numeric_usability_annotation","supports1d":true,"supportsTable":true,"colorPolicyId":"rmdb_reactivity_low_mid_high_v1"},{"profileId":"data-rna-structures/data-rna-structures/RFM100_2A3_0000.rdat#7430","trackRouteId":"annojoin:track:RMDB2PDB:pairseg_9P4I_sequence_003105","trackDataPath":"ANNOCONFIDENCE/assay_numeric_usability_annotation.tsv","trackSchemaId":"assay_numeric_usability_annotation","supports1d":true,"supportsTable":true,"colorPolicyId":"rmdb_reactivity_low_mid_high_v1"},{"profileId":"data-rna-structures/data-rna-structures/RFMREP_DMS_0000.rdat#30394","trackRouteId":"annojoin:track:RMDB2PDB:pairseg_9P4I_sequence_003106","trackDataPath":"ANNOCONFIDENCE/assay_numeric_usability_annotation.tsv","trackSchemaId":"assay_numeric_usability_annotation","supports1d":true,"supportsTable":true,"colorPolicyId":"rmdb_reactivity_low_mid_high_v1"},{"profileId":"data-rna-structures/data-rna-structures/RFMREP_2A3_0000.rdat#71090","trackRouteId":"annojoin:track:RMDB2PDB:pairseg_9P4I_sequence_003107","trackDataPath":"ANNOCONFIDENCE/assay_numeric_usability_annotation.tsv","trackSchemaId":"assay_numeric_usability_annotation","supports1d":true,"supportsTable":true,"colorPolicyId":"rmdb_reactivity_low_mid_high_v1"},{"profileId":"data-rna-structures/data-rna-structures/RFMREP_DMS_0000.rdat#71090","trackRouteId":"annojoin:track:RMDB2PDB:pairseg_9P4I_sequence_003108","trackDataPath":"ANNOCONFIDENCE/assay_numeric_usability_annotation.tsv","trackSchemaId":"assay_numeric_usability_annotation","supports1d":true,"supportsTable":true,"colorPolicyId":"rmdb_reactivity_low_mid_high_v1"},{"profileId":"data-rna-structures/data-rna-structures/RFM100_DMS_0000.rdat#3145","trackRouteId":"annojoin:track:RMDB2PDB:pairseg_9P4I_sequence_003109","trackDataPath":"ANNOCONFIDENCE/assay_numeric_usability_annotation.tsv","trackSchemaId":"assay_numeric_usability_annotation","supports1d":true,"supportsTable":true,"colorPolicyId":"rmdb_reactivity_low_mid_high_v1"},{"profileId":"data-rna-structures/data-rna-structures/RFM100_2A3_0000.rdat#3145","trackRouteId":"annojoin:track:RMDB2PDB:pairseg_9P4I_sequence_003110","trackDataPath":"ANNOCONFIDENCE/assay_numeric_usability_annotation.tsv","trackSchemaId":"assay_numeric_usability_annotation","supports1d":true,"supportsTable":true,"colorPolicyId":"rmdb_reactivity_low_mid_high_v1"},{"profileId":"data-rna-structures/data-rna-structures/RFMREP_DMS_0000.rdat#34688","trackRouteId":"annojoin:track:RMDB2PDB:pairseg_9P4I_sequence_003111","trackDataPath":"ANNOCONFIDENCE/assay_numeric_usability_annotation.tsv","trackSchemaId":"assay_numeric_usability_annotation","supports1d":true,"supportsTable":true,"colorPolicyId":"rmdb_reactivity_low_mid_high_v1"},{"profileId":"data-rna-structures/data-rna-structures/RFMREP_2A3_0000.rdat#34688","trackRouteId":"annojoin:track:RMDB2PDB:pairseg_9P4I_sequence_003112","trackDataPath":"ANNOCONFIDENCE/assay_numeric_usability_annotation.tsv","trackSchemaId":"assay_numeric_usability_annotation","supports1d":true,"supportsTable":true,"colorPolicyId":"rmdb_reactivity_low_mid_high_v1"},{"profileId":"data-rna-structures/data-rna-structures/RFMREP_2A3_0000.rdat#55036","trackRouteId":"annojoin:track:RMDB2PDB:pairseg_9P4I_sequence_003113","trackDataPath":"ANNOCONFIDENCE/assay_numeric_usability_annotation.tsv","trackSchemaId":"assay_numeric_usability_annotation","supports1d":true,"supportsTable":true,"colorPolicyId":"rmdb_reactivity_low_mid_high_v1"},{"profileId":"data-rna-structures/data-rna-structures/RFMREP_DMS_0000.rdat#55036","trackRouteId":"annojoin:track:RMDB2PDB:pairseg_9P4I_sequence_003114","trackDataPath":"ANNOCONFIDENCE/assay_numeric_usability_annotation.tsv","trackSchemaId":"assay_numeric_usability_annotation","supports1d":true,"supportsTable":true,"colorPolicyId":"rmdb_reactivity_low_mid_high_v1"},{"profileId":"data-rna-structures/data-rna-structures/RFMREP_2A3_0000.rdat#57645","trackRouteId":"annojoin:track:RMDB2PDB:pairseg_9P4I_sequence_003115","trackDataPath":"ANNOCONFIDENCE/assay_numeric_usability_annotation.tsv","trackSchemaId":"assay_numeric_usability_annotation","supports1d":true,"supportsTable":true,"colorPolicyId":"rmdb_reactivity_low_mid_high_v1"},{"profileId":"data-rna-structures/data-rna-structures/RFMREP_DMS_0000.rdat#57645","trackRouteId":"annojoin:track:RMDB2PDB:pairseg_9P4I_sequence_003116","trackDataPath":"ANNOCONFIDENCE/assay_numeric_usability_annotation.tsv","trackSchemaId":"assay_numeric_usability_annotation","supports1d":true,"supportsTable":true,"colorPolicyId":"rmdb_reactivity_low_mid_high_v1"},{"profileId":"data-rna-structures/data-rna-structures/RFMREP_2A3_0000.rdat#37146","trackRouteId":"annojoin:track:RMDB2PDB:pairseg_9P4I_sequence_003117","trackDataPath":"ANNOCONFIDENCE/assay_numeric_usability_annotation.tsv","trackSchemaId":"assay_numeric_usability_annotation","supports1d":true,"supportsTable":true,"colorPolicyId":"rmdb_reactivity_low_mid_high_v1"},{"profileId":"data-rna-structures/data-rna-structures/RFM100_DMS_0000.rdat#684","trackRouteId":"annojoin:track:RMDB2PDB:pairseg_9P4I_sequence_003118","trackDataPath":"ANNOCONFIDENCE/assay_numeric_usability_annotation.tsv","trackSchemaId":"assay_numeric_usability_annotation","supports1d":true,"supportsTable":true,"colorPolicyId":"rmdb_reactivity_low_mid_high_v1"},{"profileId":"data-rna-structures/data-rna-structures/RFM100_2A3_0000.rdat#684","trackRouteId":"annojoin:track:RMDB2PDB:pairseg_9P4I_sequence_003119","trackDataPath":"ANNOCONFIDENCE/assay_numeric_usability_annotation.tsv","trackSchemaId":"assay_numeric_usability_annotation","supports1d":true,"supportsTable":true,"colorPolicyId":"rmdb_reactivity_low_mid_high_v1"},{"profileId":"data-rna-structures/data-rna-structures/RFMREP_DMS_0000.rdat#37146","trackRouteId":"annojoin:track:RMDB2PDB:pairseg_9P4I_sequence_003120","trackDataPath":"ANNOCONFIDENCE/assay_numeric_usability_annotation.tsv","trackSchemaId":"assay_numeric_usability_annotation","supports1d":true,"supportsTable":true,"colorPolicyId":"rmdb_reactivity_low_mid_high_v1"},{"profileId":"data-rna-structures/data-rna-structures/RFMREP_2A3_0000.rdat#37147","trackRouteId":"annojoin:track:RMDB2PDB:pairseg_9P4I_sequence_003121","trackDataPath":"ANNOCONFIDENCE/assay_numeric_usability_annotation.tsv","trackSchemaId":"assay_numeric_usability_annotation","supports1d":true,"supportsTable":true,"colorPolicyId":"rmdb_reactivity_low_mid_high_v1"},{"profileId":"data-rna-structures/data-rna-structures/RFM100_DMS_0000.rdat#686","trackRouteId":"annojoin:track:RMDB2PDB:pairseg_9P4I_sequence_003122","trackDataPath":"ANNOCONFIDENCE/assay_numeric_usability_annotation.tsv","trackSchemaId":"assay_numeric_usability_annotation","supports1d":true,"supportsTable":true,"colorPolicyId":"rmdb_reactivity_low_mid_high_v1"},{"profileId":"data-rna-structures/data-rna-structures/RFMREP_DMS_0000.rdat#37147","trackRouteId":"annojoin:track:RMDB2PDB:pairseg_9P4I_sequence_003123","trackDataPath":"ANNOCONFIDENCE/assay_numeric_usability_annotation.tsv","trackSchemaId":"assay_numeric_usability_annotation","supports1d":true,"supportsTable":true,"colorPolicyId":"rmdb_reactivity_low_mid_high_v1"},{"profileId":"data-rna-structures/data-rna-structures/RFM100_2A3_0000.rdat#686","trackRouteId":"annojoin:track:RMDB2PDB:pairseg_9P4I_sequence_003124","trackDataPath":"ANNOCONFIDENCE/assay_numeric_usability_annotation.tsv","trackSchemaId":"assay_numeric_usability_annotation","supports1d":true,"supportsTable":true,"colorPolicyId":"rmdb_reactivity_low_mid_high_v1"},{"profileId":"data-rna-structures/data-rna-structures/RFMREP_2A3_0000.rdat#57647","trackRouteId":"annojoin:track:RMDB2PDB:pairseg_9P4I_sequence_003125","trackDataPath":"ANNOCONFIDENCE/assay_numeric_usability_annotation.tsv","trackSchemaId":"assay_numeric_usability_annotation","supports1d":true,"supportsTable":true,"colorPolicyId":"rmdb_reactivity_low_mid_high_v1"},{"profileId":"data-rna-structures/data-rna-structures/RFMREP_DMS_0000.rdat#57647","trackRouteId":"annojoin:track:RMDB2PDB:pairseg_9P4I_sequence_003126","trackDataPath":"ANNOCONFIDENCE/assay_numeric_usability_annotation.tsv","trackSchemaId":"assay_numeric_usability_annotation","supports1d":true,"supportsTable":true,"colorPolicyId":"rmdb_reactivity_low_mid_high_v1"},{"profileId":"data-rna-structures/data-rna-structures/RFM100_2A3_0000.rdat#683","trackRouteId":"annojoin:track:RMDB2PDB:pairseg_9P4I_sequence_003127","trackDataPath":"ANNOCONFIDENCE/assay_numeric_usability_annotation.tsv","trackSchemaId":"assay_numeric_usability_annotation","supports1d":true,"supportsTable":true,"colorPolicyId":"rmdb_reactivity_low_mid_high_v1"},{"profileId":"data-rna-structures/data-rna-structures/RFMREP_DMS_0000.rdat#37145","trackRouteId":"annojoin:track:RMDB2PDB:pairseg_9P4I_sequence_003128","trackDataPath":"ANNOCONFIDENCE/assay_numeric_usability_annotation.tsv","trackSchemaId":"assay_numeric_usability_annotation","supports1d":true,"supportsTable":true,"colorPolicyId":"rmdb_reactivity_low_mid_high_v1"},{"profileId":"data-rna-structures/data-rna-structures/RFMREP_2A3_0000.rdat#37145","trackRouteId":"annojoin:track:RMDB2PDB:pairseg_9P4I_sequence_003129","trackDataPath":"ANNOCONFIDENCE/assay_numeric_usability_annotation.tsv","trackSchemaId":"assay_numeric_usability_annotation","supports1d":true,"supportsTable":true,"colorPolicyId":"rmdb_reactivity_low_mid_high_v1"},{"profileId":"data-rna-structures/data-rna-structures/RFM100_DMS_0000.rdat#683","trackRouteId":"annojoin:track:RMDB2PDB:pairseg_9P4I_sequence_003130","trackDataPath":"ANNOCONFIDENCE/assay_numeric_usability_annotation.tsv","trackSchemaId":"assay_numeric_usability_annotation","supports1d":true,"supportsTable":true,"colorPolicyId":"rmdb_reactivity_low_mid_high_v1"},{"profileId":"data-rna-structures/data-rna-structures/RFMREP_DMS_0000.rdat#57646","trackRouteId":"annojoin:track:RMDB2PDB:pairseg_9P4I_sequence_003131","trackDataPath":"ANNOCONFIDENCE/assay_numeric_usability_annotation.tsv","trackSchemaId":"assay_numeric_usability_annotation","supports1d":true,"supportsTable":true,"colorPolicyId":"rmdb_reactivity_low_mid_high_v1"},{"profileId":"data-rna-structures/data-rna-structures/RFMREP_2A3_0000.rdat#57646","trackRouteId":"annojoin:track:RMDB2PDB:pairseg_9P4I_sequence_003132","trackDataPath":"ANNOCONFIDENCE/assay_numeric_usability_annotation.tsv","trackSchemaId":"assay_numeric_usability_annotation","supports1d":true,"supportsTable":true,"colorPolicyId":"rmdb_reactivity_low_mid_high_v1"},{"profileId":"data-rna-structures/data-rna-structures/RFM100_2A3_0000.rdat#568","trackRouteId":"annojoin:track:RMDB2PDB:pairseg_9P4I_sequence_003133","trackDataPath":"ANNOCONFIDENCE/assay_numeric_usability_annotation.tsv","trackSchemaId":"assay_numeric_usability_annotation","supports1d":true,"supportsTable":true,"colorPolicyId":"rmdb_reactivity_low_mid_high_v1"},{"profileId":"data-rna-structures/data-rna-structures/RFMREP_DMS_0000.rdat#37269","trackRouteId":"annojoin:track:RMDB2PDB:pairseg_9P4I_sequence_003134","trackDataPath":"ANNOCONFIDENCE/assay_numeric_usability_annotation.tsv","trackSchemaId":"assay_numeric_usability_annotation","supports1d":true,"supportsTable":true,"colorPolicyId":"rmdb_reactivity_low_mid_high_v1"},{"profileId":"data-rna-structures/data-rna-structures/RFMREP_2A3_0000.rdat#37269","trackRouteId":"annojoin:track:RMDB2PDB:pairseg_9P4I_sequence_003135","trackDataPath":"ANNOCONFIDENCE/assay_numeric_usability_annotation.tsv","trackSchemaId":"assay_numeric_usability_annotation","supports1d":true,"supportsTable":true,"colorPolicyId":"rmdb_reactivity_low_mid_high_v1"},{"profileId":"data-rna-structures/data-rna-structures/RFM100_DMS_0000.rdat#568","trackRouteId":"annojoin:track:RMDB2PDB:pairseg_9P4I_sequence_003136","trackDataPath":"ANNOCONFIDENCE/assay_numeric_usability_annotation.tsv","trackSchemaId":"assay_numeric_usability_annotation","supports1d":true,"supportsTable":true,"colorPolicyId":"rmdb_reactivity_low_mid_high_v1"},{"profileId":"data-eterna/data-eterna/OK2TRN_2A3_0000.rdat#76702","trackRouteId":"annojoin:track:RMDB2PDB:pairseg_9P4I_sequence_003137","trackDataPath":"ANNOCONFIDENCE/assay_numeric_usability_annotation.tsv","trackSchemaId":"assay_numeric_usability_annotation","supports1d":true,"supportsTable":true,"colorPolicyId":"rmdb_reactivity_low_mid_high_v1"},{"profileId":"data-eterna/data-eterna/OK2TRN_DMS_0000.rdat#76702","trackRouteId":"annojoin:track:RMDB2PDB:pairseg_9P4I_sequence_003138","trackDataPath":"ANNOCONFIDENCE/assay_numeric_usability_annotation.tsv","trackSchemaId":"assay_numeric_usability_annotation","supports1d":true,"supportsTable":true,"colorPolicyId":"rmdb_reactivity_low_mid_high_v1"},{"profileId":"data-rna-structures/data-rna-structures/RFM100_DMS_0000.rdat#776","trackRouteId":"annojoin:track:RMDB2PDB:pairseg_9P4I_sequence_003139","trackDataPath":"ANNOCONFIDENCE/assay_numeric_usability_annotation.tsv","trackSchemaId":"assay_numeric_usability_annotation","supports1d":true,"supportsTable":true,"colorPolicyId":"rmdb_reactivity_low_mid_high_v1"},{"profileId":"data-rna-structures/data-rna-structures/RFMREP_DMS_0000.rdat#37057","trackRouteId":"annojoin:track:RMDB2PDB:pairseg_9P4I_sequence_003140","trackDataPath":"ANNOCONFIDENCE/assay_numeric_usability_annotation.tsv","trackSchemaId":"assay_numeric_usability_annotation","supports1d":true,"supportsTable":true,"colorPolicyId":"rmdb_reactivity_low_mid_high_v1"},{"profileId":"data-rna-structures/data-rna-structures/RFM100_2A3_0000.rdat#776","trackRouteId":"annojoin:track:RMDB2PDB:pairseg_9P4I_sequence_003141","trackDataPath":"ANNOCONFIDENCE/assay_numeric_usability_annotation.tsv","trackSchemaId":"assay_numeric_usability_annotation","supports1d":true,"supportsTable":true,"colorPolicyId":"rmdb_reactivity_low_mid_high_v1"},{"profileId":"data-rna-structures/data-rna-structures/RFMREP_2A3_0000.rdat#37057","trackRouteId":"annojoin:track:RMDB2PDB:pairseg_9P4I_sequence_003142","trackDataPath":"ANNOCONFIDENCE/assay_numeric_usability_annotation.tsv","trackSchemaId":"assay_numeric_usability_annotation","supports1d":true,"supportsTable":true,"colorPolicyId":"rmdb_reactivity_low_mid_high_v1"},{"profileId":"data-rna-structures/data-rna-structures/RFMREP_2A3_0000.rdat#50869","trackRouteId":"annojoin:track:RMDB2PDB:pairseg_9P4I_sequence_003143","trackDataPath":"ANNOCONFIDENCE/assay_numeric_usability_annotation.tsv","trackSchemaId":"assay_numeric_usability_annotation","supports1d":true,"supportsTable":true,"colorPolicyId":"rmdb_reactivity_low_mid_high_v1"},{"profileId":"data-rna-structures/data-rna-structures/RFMREP_DMS_0000.rdat#50869","trackRouteId":"annojoin:track:RMDB2PDB:pairseg_9P4I_sequence_003144","trackDataPath":"ANNOCONFIDENCE/assay_numeric_usability_annotation.tsv","trackSchemaId":"assay_numeric_usability_annotation","supports1d":true,"supportsTable":true,"colorPolicyId":"rmdb_reactivity_low_mid_high_v1"}]}
