{"schemaVersion":"annojoin-atlas.v1","version":"V2.1_RMDB_LINE_A_20260617","atlasCaseKey":"RMDB2PDB:8B2L","caseId":"8B2L","routeKey":"track-routes","page":2,"pageSize":500,"totalRows":532,"pageCount":2,"rows":[{"profileId":"data-rna-structures/data-rna-structures/RFMREP_2A3_0001.rdat#8689","trackRouteId":"annojoin:track:RMDB2PDB:pairseg_8B2L_sequence_000566","trackDataPath":"ANNOCONFIDENCE/assay_numeric_usability_annotation.tsv","trackSchemaId":"assay_numeric_usability_annotation","supports1d":true,"supportsTable":true,"colorPolicyId":"rmdb_reactivity_low_mid_high_v1"},{"profileId":"data-rna-structures/data-rna-structures/RFMREP_2A3_0001.rdat#8704","trackRouteId":"annojoin:track:RMDB2PDB:pairseg_8B2L_sequence_000567","trackDataPath":"ANNOCONFIDENCE/assay_numeric_usability_annotation.tsv","trackSchemaId":"assay_numeric_usability_annotation","supports1d":true,"supportsTable":true,"colorPolicyId":"rmdb_reactivity_low_mid_high_v1"},{"profileId":"data-rna-structures/data-rna-structures/RFMREP_DMS_0000.rdat#73728","trackRouteId":"annojoin:track:RMDB2PDB:pairseg_8B2L_sequence_000569","trackDataPath":"ANNOCONFIDENCE/assay_numeric_usability_annotation.tsv","trackSchemaId":"assay_numeric_usability_annotation","supports1d":true,"supportsTable":true,"colorPolicyId":"rmdb_reactivity_low_mid_high_v1"},{"profileId":"data-rna-structures/data-rna-structures/RFMREP_2A3_0000.rdat#73728","trackRouteId":"annojoin:track:RMDB2PDB:pairseg_8B2L_sequence_000570","trackDataPath":"ANNOCONFIDENCE/assay_numeric_usability_annotation.tsv","trackSchemaId":"assay_numeric_usability_annotation","supports1d":true,"supportsTable":true,"colorPolicyId":"rmdb_reactivity_low_mid_high_v1"},{"profileId":"data-rna-structures/data-rna-structures/RFMREP_DMS_0001.rdat#8690","trackRouteId":"annojoin:track:RMDB2PDB:pairseg_8B2L_sequence_000571","trackDataPath":"ANNOCONFIDENCE/assay_numeric_usability_annotation.tsv","trackSchemaId":"assay_numeric_usability_annotation","supports1d":true,"supportsTable":true,"colorPolicyId":"rmdb_reactivity_low_mid_high_v1"},{"profileId":"data-rna-structures/data-rna-structures/RFMREP_2A3_0001.rdat#8690","trackRouteId":"annojoin:track:RMDB2PDB:pairseg_8B2L_sequence_000572","trackDataPath":"ANNOCONFIDENCE/assay_numeric_usability_annotation.tsv","trackSchemaId":"assay_numeric_usability_annotation","supports1d":true,"supportsTable":true,"colorPolicyId":"rmdb_reactivity_low_mid_high_v1"},{"profileId":"data-rna-structures/data-rna-structures/RFMREP_2A3_0001.rdat#8695","trackRouteId":"annojoin:track:RMDB2PDB:pairseg_8B2L_sequence_000573","trackDataPath":"ANNOCONFIDENCE/assay_numeric_usability_annotation.tsv","trackSchemaId":"assay_numeric_usability_annotation","supports1d":true,"supportsTable":true,"colorPolicyId":"rmdb_reactivity_low_mid_high_v1"},{"profileId":"data-rna-structures/data-rna-structures/RFMREP_DMS_0001.rdat#8695","trackRouteId":"annojoin:track:RMDB2PDB:pairseg_8B2L_sequence_000574","trackDataPath":"ANNOCONFIDENCE/assay_numeric_usability_annotation.tsv","trackSchemaId":"assay_numeric_usability_annotation","supports1d":true,"supportsTable":true,"colorPolicyId":"rmdb_reactivity_low_mid_high_v1"},{"profileId":"data-eterna/data-eterna/OK1LIB_2A3_0000.rdat#12176","trackRouteId":"annojoin:track:RMDB2PDB:pairseg_8B2L_sequence_000575","trackDataPath":"ANNOCONFIDENCE/assay_numeric_usability_annotation.tsv","trackSchemaId":"assay_numeric_usability_annotation","supports1d":true,"supportsTable":true,"colorPolicyId":"rmdb_reactivity_low_mid_high_v1"},{"profileId":"data-eterna/data-eterna/OK1LIB_DMS_0000.rdat#12176","trackRouteId":"annojoin:track:RMDB2PDB:pairseg_8B2L_sequence_000576","trackDataPath":"ANNOCONFIDENCE/assay_numeric_usability_annotation.tsv","trackSchemaId":"assay_numeric_usability_annotation","supports1d":true,"supportsTable":true,"colorPolicyId":"rmdb_reactivity_low_mid_high_v1"},{"profileId":"data-eterna/data-eterna/OK1LIB_2A3_0000.rdat#12214","trackRouteId":"annojoin:track:RMDB2PDB:pairseg_8B2L_sequence_000577","trackDataPath":"ANNOCONFIDENCE/assay_numeric_usability_annotation.tsv","trackSchemaId":"assay_numeric_usability_annotation","supports1d":true,"supportsTable":true,"colorPolicyId":"rmdb_reactivity_low_mid_high_v1"},{"profileId":"data-eterna/data-eterna/OK1LIB_DMS_0000.rdat#12214","trackRouteId":"annojoin:track:RMDB2PDB:pairseg_8B2L_sequence_000578","trackDataPath":"ANNOCONFIDENCE/assay_numeric_usability_annotation.tsv","trackSchemaId":"assay_numeric_usability_annotation","supports1d":true,"supportsTable":true,"colorPolicyId":"rmdb_reactivity_low_mid_high_v1"},{"profileId":"data-eterna/data-eterna/OK1LIB_2A3_0000.rdat#12190","trackRouteId":"annojoin:track:RMDB2PDB:pairseg_8B2L_sequence_000579","trackDataPath":"ANNOCONFIDENCE/assay_numeric_usability_annotation.tsv","trackSchemaId":"assay_numeric_usability_annotation","supports1d":true,"supportsTable":true,"colorPolicyId":"rmdb_reactivity_low_mid_high_v1"},{"profileId":"data-eterna/data-eterna/OK1LIB_DMS_0000.rdat#12190","trackRouteId":"annojoin:track:RMDB2PDB:pairseg_8B2L_sequence_000580","trackDataPath":"ANNOCONFIDENCE/assay_numeric_usability_annotation.tsv","trackSchemaId":"assay_numeric_usability_annotation","supports1d":true,"supportsTable":true,"colorPolicyId":"rmdb_reactivity_low_mid_high_v1"},{"profileId":"data-eterna/data-eterna/OK3TST_2A3_0003.rdat#64318","trackRouteId":"annojoin:track:RMDB2PDB:pairseg_8B2L_sequence_000581","trackDataPath":"ANNOCONFIDENCE/assay_numeric_usability_annotation.tsv","trackSchemaId":"assay_numeric_usability_annotation","supports1d":true,"supportsTable":true,"colorPolicyId":"rmdb_reactivity_low_mid_high_v1"},{"profileId":"data-eterna/data-eterna/OK3TST_DMS_0003.rdat#64318","trackRouteId":"annojoin:track:RMDB2PDB:pairseg_8B2L_sequence_000582","trackDataPath":"ANNOCONFIDENCE/assay_numeric_usability_annotation.tsv","trackSchemaId":"assay_numeric_usability_annotation","supports1d":true,"supportsTable":true,"colorPolicyId":"rmdb_reactivity_low_mid_high_v1"},{"profileId":"data-eterna/data-eterna/OK3TST_DMS_0003.rdat#62945","trackRouteId":"annojoin:track:RMDB2PDB:pairseg_8B2L_sequence_000583","trackDataPath":"ANNOCONFIDENCE/assay_numeric_usability_annotation.tsv","trackSchemaId":"assay_numeric_usability_annotation","supports1d":true,"supportsTable":true,"colorPolicyId":"rmdb_reactivity_low_mid_high_v1"},{"profileId":"data-eterna/data-eterna/OK3TST_2A3_0003.rdat#62945","trackRouteId":"annojoin:track:RMDB2PDB:pairseg_8B2L_sequence_000584","trackDataPath":"ANNOCONFIDENCE/assay_numeric_usability_annotation.tsv","trackSchemaId":"assay_numeric_usability_annotation","supports1d":true,"supportsTable":true,"colorPolicyId":"rmdb_reactivity_low_mid_high_v1"},{"profileId":"data-eterna/data-eterna/OK3TST_DMS_0003.rdat#62944","trackRouteId":"annojoin:track:RMDB2PDB:pairseg_8B2L_sequence_000587","trackDataPath":"ANNOCONFIDENCE/assay_numeric_usability_annotation.tsv","trackSchemaId":"assay_numeric_usability_annotation","supports1d":true,"supportsTable":true,"colorPolicyId":"rmdb_reactivity_low_mid_high_v1"},{"profileId":"data-eterna/data-eterna/OK3TST_2A3_0003.rdat#62944","trackRouteId":"annojoin:track:RMDB2PDB:pairseg_8B2L_sequence_000588","trackDataPath":"ANNOCONFIDENCE/assay_numeric_usability_annotation.tsv","trackSchemaId":"assay_numeric_usability_annotation","supports1d":true,"supportsTable":true,"colorPolicyId":"rmdb_reactivity_low_mid_high_v1"},{"profileId":"data-eterna/data-eterna/OK3TST_DMS_0003.rdat#62946","trackRouteId":"annojoin:track:RMDB2PDB:pairseg_8B2L_sequence_000589","trackDataPath":"ANNOCONFIDENCE/assay_numeric_usability_annotation.tsv","trackSchemaId":"assay_numeric_usability_annotation","supports1d":true,"supportsTable":true,"colorPolicyId":"rmdb_reactivity_low_mid_high_v1"},{"profileId":"data-eterna/data-eterna/OK3TST_2A3_0003.rdat#62946","trackRouteId":"annojoin:track:RMDB2PDB:pairseg_8B2L_sequence_000590","trackDataPath":"ANNOCONFIDENCE/assay_numeric_usability_annotation.tsv","trackSchemaId":"assay_numeric_usability_annotation","supports1d":true,"supportsTable":true,"colorPolicyId":"rmdb_reactivity_low_mid_high_v1"},{"profileId":"data-eterna/data-eterna/OK3TST_DMS_0003.rdat#64319","trackRouteId":"annojoin:track:RMDB2PDB:pairseg_8B2L_sequence_000591","trackDataPath":"ANNOCONFIDENCE/assay_numeric_usability_annotation.tsv","trackSchemaId":"assay_numeric_usability_annotation","supports1d":true,"supportsTable":true,"colorPolicyId":"rmdb_reactivity_low_mid_high_v1"},{"profileId":"data-eterna/data-eterna/OK3TST_2A3_0003.rdat#64319","trackRouteId":"annojoin:track:RMDB2PDB:pairseg_8B2L_sequence_000592","trackDataPath":"ANNOCONFIDENCE/assay_numeric_usability_annotation.tsv","trackSchemaId":"assay_numeric_usability_annotation","supports1d":true,"supportsTable":true,"colorPolicyId":"rmdb_reactivity_low_mid_high_v1"},{"profileId":"data-eterna/data-eterna/OK1LIB_2A3_0000.rdat#12208","trackRouteId":"annojoin:track:RMDB2PDB:pairseg_8B2L_sequence_000593","trackDataPath":"ANNOCONFIDENCE/assay_numeric_usability_annotation.tsv","trackSchemaId":"assay_numeric_usability_annotation","supports1d":true,"supportsTable":true,"colorPolicyId":"rmdb_reactivity_low_mid_high_v1"},{"profileId":"data-eterna/data-eterna/OK1LIB_DMS_0000.rdat#12208","trackRouteId":"annojoin:track:RMDB2PDB:pairseg_8B2L_sequence_000594","trackDataPath":"ANNOCONFIDENCE/assay_numeric_usability_annotation.tsv","trackSchemaId":"assay_numeric_usability_annotation","supports1d":true,"supportsTable":true,"colorPolicyId":"rmdb_reactivity_low_mid_high_v1"},{"profileId":"data-rna-structures/data-rna-structures/RFM100_2A3_0000.rdat#2809","trackRouteId":"annojoin:track:RMDB2PDB:pairseg_8B2L_sequence_000595","trackDataPath":"ANNOCONFIDENCE/assay_numeric_usability_annotation.tsv","trackSchemaId":"assay_numeric_usability_annotation","supports1d":true,"supportsTable":true,"colorPolicyId":"rmdb_reactivity_low_mid_high_v1"},{"profileId":"data-rna-structures/data-rna-structures/RFMREP_2A3_0000.rdat#35025","trackRouteId":"annojoin:track:RMDB2PDB:pairseg_8B2L_sequence_000596","trackDataPath":"ANNOCONFIDENCE/assay_numeric_usability_annotation.tsv","trackSchemaId":"assay_numeric_usability_annotation","supports1d":true,"supportsTable":true,"colorPolicyId":"rmdb_reactivity_low_mid_high_v1"},{"profileId":"data-rna-structures/data-rna-structures/RFM100_DMS_0000.rdat#2809","trackRouteId":"annojoin:track:RMDB2PDB:pairseg_8B2L_sequence_000597","trackDataPath":"ANNOCONFIDENCE/assay_numeric_usability_annotation.tsv","trackSchemaId":"assay_numeric_usability_annotation","supports1d":true,"supportsTable":true,"colorPolicyId":"rmdb_reactivity_low_mid_high_v1"},{"profileId":"data-rna-structures/data-rna-structures/RFMREP_DMS_0000.rdat#35025","trackRouteId":"annojoin:track:RMDB2PDB:pairseg_8B2L_sequence_000598","trackDataPath":"ANNOCONFIDENCE/assay_numeric_usability_annotation.tsv","trackSchemaId":"assay_numeric_usability_annotation","supports1d":true,"supportsTable":true,"colorPolicyId":"rmdb_reactivity_low_mid_high_v1"},{"profileId":"data-rna-structures/data-rna-structures/RFMREP_DMS_0000.rdat#42149","trackRouteId":"annojoin:track:RMDB2PDB:pairseg_8B2L_sequence_000599","trackDataPath":"ANNOCONFIDENCE/assay_numeric_usability_annotation.tsv","trackSchemaId":"assay_numeric_usability_annotation","supports1d":true,"supportsTable":true,"colorPolicyId":"rmdb_reactivity_low_mid_high_v1"},{"profileId":"data-rna-structures/data-rna-structures/RFMREP_2A3_0000.rdat#42149","trackRouteId":"annojoin:track:RMDB2PDB:pairseg_8B2L_sequence_000600","trackDataPath":"ANNOCONFIDENCE/assay_numeric_usability_annotation.tsv","trackSchemaId":"assay_numeric_usability_annotation","supports1d":true,"supportsTable":true,"colorPolicyId":"rmdb_reactivity_low_mid_high_v1"}]}
