{"schemaVersion":"annojoin-atlas.v1","version":"V2.1_RMDB_LINE_A_20260617","atlasCaseKey":"RMDB2PDB:5ZEY","caseId":"5ZEY","routeKey":"track-routes","page":2,"pageSize":500,"totalRows":513,"pageCount":2,"rows":[{"profileId":"data-eterna/data-eterna/OK1LIB_DMS_0000.rdat#77043","trackRouteId":"annojoin:track:RMDB2PDB:pairseg_5ZEY_sequence_000574","trackDataPath":"ANNOCONFIDENCE/assay_numeric_usability_annotation.tsv","trackSchemaId":"assay_numeric_usability_annotation","supports1d":true,"supportsTable":true,"colorPolicyId":"rmdb_reactivity_low_mid_high_v1"},{"profileId":"data-eterna/data-eterna/OK1LIB_DMS_0000.rdat#77067","trackRouteId":"annojoin:track:RMDB2PDB:pairseg_5ZEY_sequence_000575","trackDataPath":"ANNOCONFIDENCE/assay_numeric_usability_annotation.tsv","trackSchemaId":"assay_numeric_usability_annotation","supports1d":true,"supportsTable":true,"colorPolicyId":"rmdb_reactivity_low_mid_high_v1"},{"profileId":"data-eterna/data-eterna/OK1LIB_2A3_0000.rdat#77067","trackRouteId":"annojoin:track:RMDB2PDB:pairseg_5ZEY_sequence_000576","trackDataPath":"ANNOCONFIDENCE/assay_numeric_usability_annotation.tsv","trackSchemaId":"assay_numeric_usability_annotation","supports1d":true,"supportsTable":true,"colorPolicyId":"rmdb_reactivity_low_mid_high_v1"},{"profileId":"data-eterna/data-eterna/OK1LIB_2A3_0000.rdat#77009","trackRouteId":"annojoin:track:RMDB2PDB:pairseg_5ZEY_sequence_000577","trackDataPath":"ANNOCONFIDENCE/assay_numeric_usability_annotation.tsv","trackSchemaId":"assay_numeric_usability_annotation","supports1d":true,"supportsTable":true,"colorPolicyId":"rmdb_reactivity_low_mid_high_v1"},{"profileId":"data-eterna/data-eterna/OK1LIB_DMS_0000.rdat#77009","trackRouteId":"annojoin:track:RMDB2PDB:pairseg_5ZEY_sequence_000578","trackDataPath":"ANNOCONFIDENCE/assay_numeric_usability_annotation.tsv","trackSchemaId":"assay_numeric_usability_annotation","supports1d":true,"supportsTable":true,"colorPolicyId":"rmdb_reactivity_low_mid_high_v1"},{"profileId":"data-eterna/data-eterna/OK1LIB_2A3_0000.rdat#76995","trackRouteId":"annojoin:track:RMDB2PDB:pairseg_5ZEY_sequence_000579","trackDataPath":"ANNOCONFIDENCE/assay_numeric_usability_annotation.tsv","trackSchemaId":"assay_numeric_usability_annotation","supports1d":true,"supportsTable":true,"colorPolicyId":"rmdb_reactivity_low_mid_high_v1"},{"profileId":"data-eterna/data-eterna/OK1LIB_DMS_0000.rdat#76995","trackRouteId":"annojoin:track:RMDB2PDB:pairseg_5ZEY_sequence_000580","trackDataPath":"ANNOCONFIDENCE/assay_numeric_usability_annotation.tsv","trackSchemaId":"assay_numeric_usability_annotation","supports1d":true,"supportsTable":true,"colorPolicyId":"rmdb_reactivity_low_mid_high_v1"},{"profileId":"data-eterna/data-eterna/OK1LIB_2A3_0000.rdat#77118","trackRouteId":"annojoin:track:RMDB2PDB:pairseg_5ZEY_sequence_000581","trackDataPath":"ANNOCONFIDENCE/assay_numeric_usability_annotation.tsv","trackSchemaId":"assay_numeric_usability_annotation","supports1d":true,"supportsTable":true,"colorPolicyId":"rmdb_reactivity_low_mid_high_v1"},{"profileId":"data-eterna/data-eterna/OK1LIB_DMS_0000.rdat#77118","trackRouteId":"annojoin:track:RMDB2PDB:pairseg_5ZEY_sequence_000582","trackDataPath":"ANNOCONFIDENCE/assay_numeric_usability_annotation.tsv","trackSchemaId":"assay_numeric_usability_annotation","supports1d":true,"supportsTable":true,"colorPolicyId":"rmdb_reactivity_low_mid_high_v1"},{"profileId":"data-eterna/data-eterna/OK1LIB_DMS_0000.rdat#77064","trackRouteId":"annojoin:track:RMDB2PDB:pairseg_5ZEY_sequence_000583","trackDataPath":"ANNOCONFIDENCE/assay_numeric_usability_annotation.tsv","trackSchemaId":"assay_numeric_usability_annotation","supports1d":true,"supportsTable":true,"colorPolicyId":"rmdb_reactivity_low_mid_high_v1"},{"profileId":"data-eterna/data-eterna/OK1LIB_2A3_0000.rdat#77064","trackRouteId":"annojoin:track:RMDB2PDB:pairseg_5ZEY_sequence_000584","trackDataPath":"ANNOCONFIDENCE/assay_numeric_usability_annotation.tsv","trackSchemaId":"assay_numeric_usability_annotation","supports1d":true,"supportsTable":true,"colorPolicyId":"rmdb_reactivity_low_mid_high_v1"},{"profileId":"data-eterna/data-eterna/OK1LIB_DMS_0000.rdat#77677","trackRouteId":"annojoin:track:RMDB2PDB:pairseg_5ZEY_sequence_000585","trackDataPath":"ANNOCONFIDENCE/assay_numeric_usability_annotation.tsv","trackSchemaId":"assay_numeric_usability_annotation","supports1d":true,"supportsTable":true,"colorPolicyId":"rmdb_reactivity_low_mid_high_v1"},{"profileId":"data-eterna/data-eterna/OK1LIB_2A3_0000.rdat#77677","trackRouteId":"annojoin:track:RMDB2PDB:pairseg_5ZEY_sequence_000586","trackDataPath":"ANNOCONFIDENCE/assay_numeric_usability_annotation.tsv","trackSchemaId":"assay_numeric_usability_annotation","supports1d":true,"supportsTable":true,"colorPolicyId":"rmdb_reactivity_low_mid_high_v1"}]}
