{"schemaVersion":"annojoin-atlas.v1","version":"V2.1_RMDB_LINE_A_20260617","atlasCaseKey":"RMDB2PDB:6FZ0","caseId":"6FZ0","routeKey":"memberships","page":2,"pageSize":500,"totalRows":565,"pageCount":2,"rows":[{"pairId":"6FZ0:sequence_000545","profileId":"rmdbv3_exact_cb618c4748ba9999a312a16d21964ad8e60ed3a8|top_x_279::seq_42bf3889d6fc9be1|6FZ0_A","routeId":"annojoin:profiles:RMDB2PDB:6FZ0"},{"pairId":"6FZ0:sequence_000546","profileId":"rmdbv3_exact_cb618c4748ba9999a312a16d21964ad8e60ed3a8|top_x_279::seq_4fb426e8a4d609ad|6FZ0_A","routeId":"annojoin:profiles:RMDB2PDB:6FZ0"},{"pairId":"6FZ0:sequence_000547","profileId":"rmdbv3_exact_cc5617525b3bb39ae9cda430789ee55d283cc56a|top_x_279::seq_675b7194b20e2caf|6FZ0_A","routeId":"annojoin:profiles:RMDB2PDB:6FZ0"},{"pairId":"6FZ0:sequence_000548","profileId":"rmdbv3_exact_cc5617525b3bb39ae9cda430789ee55d283cc56a|top_x_279::seq_b8dceaae30c4774e|6FZ0_A","routeId":"annojoin:profiles:RMDB2PDB:6FZ0"},{"pairId":"6FZ0:sequence_000549","profileId":"rmdbv3_exact_d05ae310def86dcc7b460fdcb4af003e38cc9ecb|top_x_279::seq_562b440cf12fa3c8|6FZ0_A","routeId":"annojoin:profiles:RMDB2PDB:6FZ0"},{"pairId":"6FZ0:sequence_000550","profileId":"rmdbv3_exact_d05ae310def86dcc7b460fdcb4af003e38cc9ecb|top_x_279::seq_f743cd8bbe438828|6FZ0_A","routeId":"annojoin:profiles:RMDB2PDB:6FZ0"},{"pairId":"6FZ0:sequence_000551","profileId":"rmdbv3_exact_d3ac06f8f554bfecd2e8f8e711ed92874671df25|top_x_279::seq_3da2b8a496c82954|6FZ0_A","routeId":"annojoin:profiles:RMDB2PDB:6FZ0"},{"pairId":"6FZ0:sequence_000552","profileId":"rmdbv3_exact_d3ac06f8f554bfecd2e8f8e711ed92874671df25|top_x_279::seq_7a7093f8f8224067|6FZ0_A","routeId":"annojoin:profiles:RMDB2PDB:6FZ0"},{"pairId":"6FZ0:sequence_000554","profileId":"rmdbv3_exact_d4baf112a6701c0e4947c3515f6292f986c0893d|top_x_279::seq_6beef6837fe8c0fb|6FZ0_A","routeId":"annojoin:profiles:RMDB2PDB:6FZ0"},{"pairId":"6FZ0:sequence_000555","profileId":"rmdbv3_exact_d70ce401b348b7ec39e1c3273c2ec5a4ee067056|top_x_279::seq_04ff8c932c1a64eb|6FZ0_A","routeId":"annojoin:profiles:RMDB2PDB:6FZ0"},{"pairId":"6FZ0:sequence_000556","profileId":"rmdbv3_exact_d70ce401b348b7ec39e1c3273c2ec5a4ee067056|top_x_279::seq_80837d5b25f4adc4|6FZ0_A","routeId":"annojoin:profiles:RMDB2PDB:6FZ0"},{"pairId":"6FZ0:sequence_000557","profileId":"rmdbv3_exact_d897567d32a284f29f6dd77450e56b30b3bd8189|top_x_279::seq_06559fbbfc6dde5e|6FZ0_A","routeId":"annojoin:profiles:RMDB2PDB:6FZ0"},{"pairId":"6FZ0:sequence_000558","profileId":"rmdbv3_exact_d897567d32a284f29f6dd77450e56b30b3bd8189|top_x_279::seq_b8862285e37a8cba|6FZ0_A","routeId":"annojoin:profiles:RMDB2PDB:6FZ0"},{"pairId":"6FZ0:sequence_000559","profileId":"rmdbv3_exact_d9fad3a69de92e5099767b2ba7deecd66929f494|top_x_279::seq_06390b60f610141f|6FZ0_A","routeId":"annojoin:profiles:RMDB2PDB:6FZ0"},{"pairId":"6FZ0:sequence_000560","profileId":"rmdbv3_exact_d9fad3a69de92e5099767b2ba7deecd66929f494|top_x_279::seq_11eb989ec06829e9|6FZ0_A","routeId":"annojoin:profiles:RMDB2PDB:6FZ0"},{"pairId":"6FZ0:sequence_000561","profileId":"rmdbv3_exact_dc6a910ee3575782ee1bf4836f5e63829db6fee6|top_x_279::seq_62ff6f83b7220a85|6FZ0_A","routeId":"annojoin:profiles:RMDB2PDB:6FZ0"},{"pairId":"6FZ0:sequence_000562","profileId":"rmdbv3_exact_dc6a910ee3575782ee1bf4836f5e63829db6fee6|top_x_279::seq_99f1d541c816e84a|6FZ0_A","routeId":"annojoin:profiles:RMDB2PDB:6FZ0"},{"pairId":"6FZ0:sequence_000563","profileId":"rmdbv3_exact_dd1f656cfc7137f5d4ecca3614daabb98da4a033|top_x_279::seq_61b9d626094266a9|6FZ0_A","routeId":"annojoin:profiles:RMDB2PDB:6FZ0"},{"pairId":"6FZ0:sequence_000564","profileId":"rmdbv3_exact_dd1f656cfc7137f5d4ecca3614daabb98da4a033|top_x_279::seq_ddb545bba0b58d19|6FZ0_A","routeId":"annojoin:profiles:RMDB2PDB:6FZ0"},{"pairId":"6FZ0:sequence_000565","profileId":"rmdbv3_exact_dea06012fd95f0a41c60e2546b380f60a323f15f|top_x_279::seq_5ebe1c707a1f6220|6FZ0_A","routeId":"annojoin:profiles:RMDB2PDB:6FZ0"},{"pairId":"6FZ0:sequence_000566","profileId":"rmdbv3_exact_dea06012fd95f0a41c60e2546b380f60a323f15f|top_x_279::seq_b72ca604495c6f29|6FZ0_A","routeId":"annojoin:profiles:RMDB2PDB:6FZ0"},{"pairId":"6FZ0:sequence_000567","profileId":"rmdbv3_exact_e015db1c7088476369792f9b9a5df1ff80933d6a|top_x_279::seq_3ba310493ed4c805|6FZ0_A","routeId":"annojoin:profiles:RMDB2PDB:6FZ0"},{"pairId":"6FZ0:sequence_000568","profileId":"rmdbv3_exact_e015db1c7088476369792f9b9a5df1ff80933d6a|top_x_279::seq_c383d4f4b49877bb|6FZ0_A","routeId":"annojoin:profiles:RMDB2PDB:6FZ0"},{"pairId":"6FZ0:sequence_000569","profileId":"rmdbv3_exact_e45f90ca1425d4a46647daaae4e8363c5d8dc59d|top_x_279::seq_27d377bdbb258b97|6FZ0_A","routeId":"annojoin:profiles:RMDB2PDB:6FZ0"},{"pairId":"6FZ0:sequence_000570","profileId":"rmdbv3_exact_e45f90ca1425d4a46647daaae4e8363c5d8dc59d|top_x_279::seq_62bec344d2064c07|6FZ0_A","routeId":"annojoin:profiles:RMDB2PDB:6FZ0"},{"pairId":"6FZ0:sequence_000571","profileId":"rmdbv3_exact_e6404aad8e39bd95b5d655dc5ea2e8e943411716|top_x_279::seq_1f27818b092651bf|6FZ0_A","routeId":"annojoin:profiles:RMDB2PDB:6FZ0"},{"pairId":"6FZ0:sequence_000572","profileId":"rmdbv3_exact_e6404aad8e39bd95b5d655dc5ea2e8e943411716|top_x_279::seq_501680941e674672|6FZ0_A","routeId":"annojoin:profiles:RMDB2PDB:6FZ0"},{"pairId":"6FZ0:sequence_000573","profileId":"rmdbv3_exact_e6d2c8f5095a64b52a4e9033609e9f3e57b6058a|top_x_279::seq_51ca8ecefe78ae33|6FZ0_A","routeId":"annojoin:profiles:RMDB2PDB:6FZ0"},{"pairId":"6FZ0:sequence_000574","profileId":"rmdbv3_exact_e6d2c8f5095a64b52a4e9033609e9f3e57b6058a|top_x_279::seq_daa89fac4cf30601|6FZ0_A","routeId":"annojoin:profiles:RMDB2PDB:6FZ0"},{"pairId":"6FZ0:sequence_000575","profileId":"rmdbv3_exact_e9b958ed855ea5f11213a7719207e4cc748460b1|top_x_279::seq_c5e6e5f10ddd59da|6FZ0_A","routeId":"annojoin:profiles:RMDB2PDB:6FZ0"},{"pairId":"6FZ0:sequence_000576","profileId":"rmdbv3_exact_e9b958ed855ea5f11213a7719207e4cc748460b1|top_x_279::seq_e4041ec2c4f27a74|6FZ0_A","routeId":"annojoin:profiles:RMDB2PDB:6FZ0"},{"pairId":"6FZ0:sequence_000577","profileId":"rmdbv3_exact_eafed7391ef20545be7ebeabdb52d10778c0e92a|top_x_279::seq_206a9fffff96c0d4|6FZ0_A","routeId":"annojoin:profiles:RMDB2PDB:6FZ0"},{"pairId":"6FZ0:sequence_000578","profileId":"rmdbv3_exact_eafed7391ef20545be7ebeabdb52d10778c0e92a|top_x_279::seq_3374f1146f917954|6FZ0_A","routeId":"annojoin:profiles:RMDB2PDB:6FZ0"},{"pairId":"6FZ0:sequence_000579","profileId":"rmdbv3_exact_edb4a940a6cd8494181a1aa3d69d0557eedd814d|top_x_279::seq_12bf7fd4d2905bb9|6FZ0_A","routeId":"annojoin:profiles:RMDB2PDB:6FZ0"},{"pairId":"6FZ0:sequence_000580","profileId":"rmdbv3_exact_edb4a940a6cd8494181a1aa3d69d0557eedd814d|top_x_279::seq_1ed1770bafc7e99b|6FZ0_A","routeId":"annojoin:profiles:RMDB2PDB:6FZ0"},{"pairId":"6FZ0:sequence_000581","profileId":"rmdbv3_exact_edcce4bc1edaf90b31de5be71b0e5c115a0052cb|top_x_279::seq_2a16e4103ed94881|6FZ0_A","routeId":"annojoin:profiles:RMDB2PDB:6FZ0"},{"pairId":"6FZ0:sequence_000582","profileId":"rmdbv3_exact_edcce4bc1edaf90b31de5be71b0e5c115a0052cb|top_x_279::seq_66dfe82196f0120d|6FZ0_A","routeId":"annojoin:profiles:RMDB2PDB:6FZ0"},{"pairId":"6FZ0:sequence_000583","profileId":"rmdbv3_exact_ee6e30903a681f9221196cfa54a9bef4a905b05b|top_x_279::seq_05fe37048e9332cc|6FZ0_A","routeId":"annojoin:profiles:RMDB2PDB:6FZ0"},{"pairId":"6FZ0:sequence_000584","profileId":"rmdbv3_exact_ee6e30903a681f9221196cfa54a9bef4a905b05b|top_x_279::seq_1c8c9f0b51a335e8|6FZ0_A","routeId":"annojoin:profiles:RMDB2PDB:6FZ0"},{"pairId":"6FZ0:sequence_000587","profileId":"rmdbv3_exact_ef84955aabcd65f66e211b79baadf21a46d5a28a|top_x_279::seq_21eb94b007deb0f3|6FZ0_A","routeId":"annojoin:profiles:RMDB2PDB:6FZ0"},{"pairId":"6FZ0:sequence_000588","profileId":"rmdbv3_exact_ef84955aabcd65f66e211b79baadf21a46d5a28a|top_x_279::seq_a0c2276c436a31ee|6FZ0_A","routeId":"annojoin:profiles:RMDB2PDB:6FZ0"},{"pairId":"6FZ0:sequence_000589","profileId":"rmdbv3_exact_f0a05aa3a2d9eecfc8e1cee48b23a332b7075745|top_x_279::seq_05f39d443b6d35d2|6FZ0_A","routeId":"annojoin:profiles:RMDB2PDB:6FZ0"},{"pairId":"6FZ0:sequence_000590","profileId":"rmdbv3_exact_f0a05aa3a2d9eecfc8e1cee48b23a332b7075745|top_x_279::seq_36285c305975b9ac|6FZ0_A","routeId":"annojoin:profiles:RMDB2PDB:6FZ0"},{"pairId":"6FZ0:sequence_000591","profileId":"rmdbv3_exact_f231986fec73faa68526a2d1e01ba1e2207d49da|top_x_279::seq_2f1978774c6bbe89|6FZ0_A","routeId":"annojoin:profiles:RMDB2PDB:6FZ0"},{"pairId":"6FZ0:sequence_000592","profileId":"rmdbv3_exact_f231986fec73faa68526a2d1e01ba1e2207d49da|top_x_279::seq_62909346b0fe13ac|6FZ0_A","routeId":"annojoin:profiles:RMDB2PDB:6FZ0"},{"pairId":"6FZ0:sequence_000593","profileId":"rmdbv3_exact_f507dd157c9254ca91e8fc2ed2c8ba876b6885ff|top_x_279::seq_72cf2f577b27996e|6FZ0_A","routeId":"annojoin:profiles:RMDB2PDB:6FZ0"},{"pairId":"6FZ0:sequence_000594","profileId":"rmdbv3_exact_f507dd157c9254ca91e8fc2ed2c8ba876b6885ff|top_x_279::seq_ab494bd8dea7e2c8|6FZ0_A","routeId":"annojoin:profiles:RMDB2PDB:6FZ0"},{"pairId":"6FZ0:sequence_000595","profileId":"rmdbv3_exact_f55f0d3fcb901ef915dbb2115302251f8e0fbbd7|top_x_279::seq_325a64af9d213a7a|6FZ0_A","routeId":"annojoin:profiles:RMDB2PDB:6FZ0"},{"pairId":"6FZ0:sequence_000596","profileId":"rmdbv3_exact_f55f0d3fcb901ef915dbb2115302251f8e0fbbd7|top_x_279::seq_9a42775e1b37aad9|6FZ0_A","routeId":"annojoin:profiles:RMDB2PDB:6FZ0"},{"pairId":"6FZ0:sequence_000597","profileId":"rmdbv3_exact_f5d59acd29ca6faddcc06cca92d6d203dfefffc8|top_x_279::seq_34f97ab8fa2d74e3|6FZ0_A","routeId":"annojoin:profiles:RMDB2PDB:6FZ0"},{"pairId":"6FZ0:sequence_000598","profileId":"rmdbv3_exact_f5d59acd29ca6faddcc06cca92d6d203dfefffc8|top_x_279::seq_abad3bf48f415b36|6FZ0_A","routeId":"annojoin:profiles:RMDB2PDB:6FZ0"},{"pairId":"6FZ0:sequence_000599","profileId":"rmdbv3_exact_f6eb829c4ace68f6c75110be854b517d79e6cdde|top_x_279::seq_39d8bcefa195dba8|6FZ0_A","routeId":"annojoin:profiles:RMDB2PDB:6FZ0"},{"pairId":"6FZ0:sequence_000600","profileId":"rmdbv3_exact_f6eb829c4ace68f6c75110be854b517d79e6cdde|top_x_279::seq_5ee1bb7f96d35284|6FZ0_A","routeId":"annojoin:profiles:RMDB2PDB:6FZ0"},{"pairId":"6FZ0:sequence_000601","profileId":"rmdbv3_exact_f7291973657bccdacc46cdb8157c208e3071708f|top_x_279::seq_3ed870125a3f10c8|6FZ0_A","routeId":"annojoin:profiles:RMDB2PDB:6FZ0"},{"pairId":"6FZ0:sequence_000602","profileId":"rmdbv3_exact_f7291973657bccdacc46cdb8157c208e3071708f|top_x_279::seq_8f4398bcbde3944d|6FZ0_A","routeId":"annojoin:profiles:RMDB2PDB:6FZ0"},{"pairId":"6FZ0:sequence_000603","profileId":"rmdbv3_exact_f80dbffb278daebb463a2ec5735e0d83a100333f|top_x_279::seq_b0fadc07376d394f|6FZ0_A","routeId":"annojoin:profiles:RMDB2PDB:6FZ0"},{"pairId":"6FZ0:sequence_000604","profileId":"rmdbv3_exact_f80dbffb278daebb463a2ec5735e0d83a100333f|top_x_279::seq_da7dbb172b297a90|6FZ0_A","routeId":"annojoin:profiles:RMDB2PDB:6FZ0"},{"pairId":"6FZ0:sequence_000605","profileId":"rmdbv3_exact_f90e2b25ff84ec331ea00a30b6a1f30eb749c8ba|top_x_279::seq_40ec50694adc9ba4|6FZ0_A","routeId":"annojoin:profiles:RMDB2PDB:6FZ0"},{"pairId":"6FZ0:sequence_000606","profileId":"rmdbv3_exact_f90e2b25ff84ec331ea00a30b6a1f30eb749c8ba|top_x_279::seq_4ad35ad18fa3ce1c|6FZ0_A","routeId":"annojoin:profiles:RMDB2PDB:6FZ0"},{"pairId":"6FZ0:sequence_000607","profileId":"rmdbv3_exact_fbff552ff4d6f7f7556b538b1533ba38d4ba3d32|top_x_279::seq_35da8f7de8f79203|6FZ0_A","routeId":"annojoin:profiles:RMDB2PDB:6FZ0"},{"pairId":"6FZ0:sequence_000608","profileId":"rmdbv3_exact_fbff552ff4d6f7f7556b538b1533ba38d4ba3d32|top_x_279::seq_a85cf46e7b904167|6FZ0_A","routeId":"annojoin:profiles:RMDB2PDB:6FZ0"},{"pairId":"6FZ0:sequence_000609","profileId":"rmdbv3_exact_fc790c7017ddb8a05313a5b0a2d5d42ad7a79293|top_x_279::seq_3f9c0bc6071a0e00|6FZ0_A","routeId":"annojoin:profiles:RMDB2PDB:6FZ0"},{"pairId":"6FZ0:sequence_000610","profileId":"rmdbv3_exact_fc790c7017ddb8a05313a5b0a2d5d42ad7a79293|top_x_279::seq_b714f6fe212283ca|6FZ0_A","routeId":"annojoin:profiles:RMDB2PDB:6FZ0"},{"pairId":"6FZ0:sequence_000611","profileId":"rmdbv3_exact_fc9cb51799614882be05f3c33b3bca7a8ff0be01|top_x_279::seq_ce7e7c080b35ea90|6FZ0_A","routeId":"annojoin:profiles:RMDB2PDB:6FZ0"},{"pairId":"6FZ0:sequence_000612","profileId":"rmdbv3_exact_fc9cb51799614882be05f3c33b3bca7a8ff0be01|top_x_279::seq_f6d3fcd9e4efb7b1|6FZ0_A","routeId":"annojoin:profiles:RMDB2PDB:6FZ0"}]}
