{"schemaVersion":"annojoin-atlas.v1","version":"V2.1_RMDB_LINE_A_20260617","atlasCaseKey":"RMDB2PDB:6VVJ","caseId":"6VVJ","routeKey":"conflicts","page":2,"pageSize":500,"totalRows":567,"pageCount":2,"rows":[{"id":"RMDB2PDB|conflict|pairseg_6VVJ_sequence_000603","routeId":"annojoin:conflict:RMDB2PDB:pairseg_6VVJ_sequence_000603","type":"structure_signal_discordance_candidate","status":"none_detected","fecClaimCeiling":"","claimScope":"","lssStatus":"LSS_NOT_EVALUABLE","reviewPriorityHint":"no_conflict_review_priority"},{"id":"RMDB2PDB|conflict|pairseg_6VVJ_sequence_000604","routeId":"annojoin:conflict:RMDB2PDB:pairseg_6VVJ_sequence_000604","type":"structure_signal_discordance_candidate","status":"none_detected","fecClaimCeiling":"","claimScope":"","lssStatus":"LSS_NOT_EVALUABLE","reviewPriorityHint":"no_conflict_review_priority"},{"id":"RMDB2PDB|conflict|pairseg_6VVJ_sequence_000609","routeId":"annojoin:conflict:RMDB2PDB:pairseg_6VVJ_sequence_000609","type":"structure_signal_discordance_candidate","status":"none_detected","fecClaimCeiling":"","claimScope":"","lssStatus":"LSS_NOT_EVALUABLE","reviewPriorityHint":"no_conflict_review_priority"},{"id":"RMDB2PDB|conflict|pairseg_6VVJ_sequence_000610","routeId":"annojoin:conflict:RMDB2PDB:pairseg_6VVJ_sequence_000610","type":"structure_signal_discordance_candidate","status":"none_detected","fecClaimCeiling":"","claimScope":"","lssStatus":"LSS_NOT_EVALUABLE","reviewPriorityHint":"no_conflict_review_priority"},{"id":"RMDB2PDB|conflict|pairseg_6VVJ_sequence_000611","routeId":"annojoin:conflict:RMDB2PDB:pairseg_6VVJ_sequence_000611","type":"structure_signal_discordance_candidate","status":"none_detected","fecClaimCeiling":"","claimScope":"","lssStatus":"LSS_NOT_EVALUABLE","reviewPriorityHint":"no_conflict_review_priority"},{"id":"RMDB2PDB|conflict|pairseg_6VVJ_sequence_000612","routeId":"annojoin:conflict:RMDB2PDB:pairseg_6VVJ_sequence_000612","type":"structure_signal_discordance_candidate","status":"none_detected","fecClaimCeiling":"","claimScope":"","lssStatus":"LSS_NOT_EVALUABLE","reviewPriorityHint":"no_conflict_review_priority"},{"id":"RMDB2PDB|conflict|pairseg_6VVJ_sequence_000617","routeId":"annojoin:conflict:RMDB2PDB:pairseg_6VVJ_sequence_000617","type":"structure_signal_discordance_candidate","status":"none_detected","fecClaimCeiling":"","claimScope":"","lssStatus":"LSS_NOT_EVALUABLE","reviewPriorityHint":"no_conflict_review_priority"},{"id":"RMDB2PDB|conflict|pairseg_6VVJ_sequence_000618","routeId":"annojoin:conflict:RMDB2PDB:pairseg_6VVJ_sequence_000618","type":"structure_signal_discordance_candidate","status":"none_detected","fecClaimCeiling":"","claimScope":"","lssStatus":"LSS_NOT_EVALUABLE","reviewPriorityHint":"no_conflict_review_priority"},{"id":"RMDB2PDB|conflict|pairseg_6VVJ_sequence_000619","routeId":"annojoin:conflict:RMDB2PDB:pairseg_6VVJ_sequence_000619","type":"structure_signal_discordance_candidate","status":"none_detected","fecClaimCeiling":"","claimScope":"","lssStatus":"LSS_NOT_EVALUABLE","reviewPriorityHint":"no_conflict_review_priority"},{"id":"RMDB2PDB|conflict|pairseg_6VVJ_sequence_000620","routeId":"annojoin:conflict:RMDB2PDB:pairseg_6VVJ_sequence_000620","type":"structure_signal_discordance_candidate","status":"none_detected","fecClaimCeiling":"","claimScope":"","lssStatus":"LSS_NOT_EVALUABLE","reviewPriorityHint":"no_conflict_review_priority"},{"id":"RMDB2PDB|conflict|pairseg_6VVJ_sequence_000621","routeId":"annojoin:conflict:RMDB2PDB:pairseg_6VVJ_sequence_000621","type":"structure_signal_discordance_candidate","status":"none_detected","fecClaimCeiling":"","claimScope":"","lssStatus":"LSS_NOT_EVALUABLE","reviewPriorityHint":"no_conflict_review_priority"},{"id":"RMDB2PDB|conflict|pairseg_6VVJ_sequence_000622","routeId":"annojoin:conflict:RMDB2PDB:pairseg_6VVJ_sequence_000622","type":"structure_signal_discordance_candidate","status":"none_detected","fecClaimCeiling":"","claimScope":"","lssStatus":"LSS_NOT_EVALUABLE","reviewPriorityHint":"no_conflict_review_priority"},{"id":"RMDB2PDB|conflict|pairseg_6VVJ_sequence_000625","routeId":"annojoin:conflict:RMDB2PDB:pairseg_6VVJ_sequence_000625","type":"structure_signal_discordance_candidate","status":"none_detected","fecClaimCeiling":"","claimScope":"","lssStatus":"LSS_NOT_EVALUABLE","reviewPriorityHint":"no_conflict_review_priority"},{"id":"RMDB2PDB|conflict|pairseg_6VVJ_sequence_000626","routeId":"annojoin:conflict:RMDB2PDB:pairseg_6VVJ_sequence_000626","type":"structure_signal_discordance_candidate","status":"none_detected","fecClaimCeiling":"","claimScope":"","lssStatus":"LSS_NOT_EVALUABLE","reviewPriorityHint":"no_conflict_review_priority"},{"id":"RMDB2PDB|conflict|pairseg_6VVJ_sequence_000627","routeId":"annojoin:conflict:RMDB2PDB:pairseg_6VVJ_sequence_000627","type":"structure_signal_discordance_candidate","status":"none_detected","fecClaimCeiling":"","claimScope":"","lssStatus":"LSS_NOT_EVALUABLE","reviewPriorityHint":"no_conflict_review_priority"},{"id":"RMDB2PDB|conflict|pairseg_6VVJ_sequence_000628","routeId":"annojoin:conflict:RMDB2PDB:pairseg_6VVJ_sequence_000628","type":"structure_signal_discordance_candidate","status":"none_detected","fecClaimCeiling":"","claimScope":"","lssStatus":"LSS_NOT_EVALUABLE","reviewPriorityHint":"no_conflict_review_priority"},{"id":"RMDB2PDB|conflict|pairseg_6VVJ_sequence_000629","routeId":"annojoin:conflict:RMDB2PDB:pairseg_6VVJ_sequence_000629","type":"structure_signal_discordance_candidate","status":"none_detected","fecClaimCeiling":"","claimScope":"","lssStatus":"LSS_NOT_EVALUABLE","reviewPriorityHint":"no_conflict_review_priority"},{"id":"RMDB2PDB|conflict|pairseg_6VVJ_sequence_000630","routeId":"annojoin:conflict:RMDB2PDB:pairseg_6VVJ_sequence_000630","type":"structure_signal_discordance_candidate","status":"none_detected","fecClaimCeiling":"","claimScope":"","lssStatus":"LSS_NOT_EVALUABLE","reviewPriorityHint":"no_conflict_review_priority"},{"id":"RMDB2PDB|conflict|pairseg_6VVJ_sequence_000631","routeId":"annojoin:conflict:RMDB2PDB:pairseg_6VVJ_sequence_000631","type":"structure_signal_discordance_candidate","status":"none_detected","fecClaimCeiling":"","claimScope":"","lssStatus":"LSS_NOT_EVALUABLE","reviewPriorityHint":"no_conflict_review_priority"},{"id":"RMDB2PDB|conflict|pairseg_6VVJ_sequence_000632","routeId":"annojoin:conflict:RMDB2PDB:pairseg_6VVJ_sequence_000632","type":"structure_signal_discordance_candidate","status":"none_detected","fecClaimCeiling":"","claimScope":"","lssStatus":"LSS_NOT_EVALUABLE","reviewPriorityHint":"no_conflict_review_priority"},{"id":"RMDB2PDB|conflict|pairseg_6VVJ_sequence_000633","routeId":"annojoin:conflict:RMDB2PDB:pairseg_6VVJ_sequence_000633","type":"structure_signal_discordance_candidate","status":"none_detected","fecClaimCeiling":"","claimScope":"","lssStatus":"LSS_NOT_EVALUABLE","reviewPriorityHint":"no_conflict_review_priority"},{"id":"RMDB2PDB|conflict|pairseg_6VVJ_sequence_000634","routeId":"annojoin:conflict:RMDB2PDB:pairseg_6VVJ_sequence_000634","type":"structure_signal_discordance_candidate","status":"none_detected","fecClaimCeiling":"","claimScope":"","lssStatus":"LSS_NOT_EVALUABLE","reviewPriorityHint":"no_conflict_review_priority"},{"id":"RMDB2PDB|conflict|pairseg_6VVJ_sequence_000635","routeId":"annojoin:conflict:RMDB2PDB:pairseg_6VVJ_sequence_000635","type":"structure_signal_discordance_candidate","status":"none_detected","fecClaimCeiling":"","claimScope":"","lssStatus":"LSS_NOT_EVALUABLE","reviewPriorityHint":"no_conflict_review_priority"},{"id":"RMDB2PDB|conflict|pairseg_6VVJ_sequence_000636","routeId":"annojoin:conflict:RMDB2PDB:pairseg_6VVJ_sequence_000636","type":"structure_signal_discordance_candidate","status":"none_detected","fecClaimCeiling":"","claimScope":"","lssStatus":"LSS_NOT_EVALUABLE","reviewPriorityHint":"no_conflict_review_priority"},{"id":"RMDB2PDB|conflict|pairseg_6VVJ_sequence_000637","routeId":"annojoin:conflict:RMDB2PDB:pairseg_6VVJ_sequence_000637","type":"structure_signal_discordance_candidate","status":"none_detected","fecClaimCeiling":"","claimScope":"","lssStatus":"LSS_NOT_EVALUABLE","reviewPriorityHint":"no_conflict_review_priority"},{"id":"RMDB2PDB|conflict|pairseg_6VVJ_sequence_000638","routeId":"annojoin:conflict:RMDB2PDB:pairseg_6VVJ_sequence_000638","type":"structure_signal_discordance_candidate","status":"none_detected","fecClaimCeiling":"","claimScope":"","lssStatus":"LSS_NOT_EVALUABLE","reviewPriorityHint":"no_conflict_review_priority"},{"id":"RMDB2PDB|conflict|pairseg_6VVJ_sequence_000642","routeId":"annojoin:conflict:RMDB2PDB:pairseg_6VVJ_sequence_000642","type":"structure_signal_discordance_candidate","status":"none_detected","fecClaimCeiling":"","claimScope":"","lssStatus":"LSS_NOT_EVALUABLE","reviewPriorityHint":"no_conflict_review_priority"},{"id":"RMDB2PDB|conflict|pairseg_6VVJ_sequence_000647","routeId":"annojoin:conflict:RMDB2PDB:pairseg_6VVJ_sequence_000647","type":"structure_signal_discordance_candidate","status":"none_detected","fecClaimCeiling":"","claimScope":"","lssStatus":"LSS_NOT_EVALUABLE","reviewPriorityHint":"no_conflict_review_priority"},{"id":"RMDB2PDB|conflict|pairseg_6VVJ_sequence_000648","routeId":"annojoin:conflict:RMDB2PDB:pairseg_6VVJ_sequence_000648","type":"structure_signal_discordance_candidate","status":"none_detected","fecClaimCeiling":"","claimScope":"","lssStatus":"LSS_NOT_EVALUABLE","reviewPriorityHint":"no_conflict_review_priority"},{"id":"RMDB2PDB|conflict|pairseg_6VVJ_sequence_000649","routeId":"annojoin:conflict:RMDB2PDB:pairseg_6VVJ_sequence_000649","type":"structure_signal_discordance_candidate","status":"none_detected","fecClaimCeiling":"","claimScope":"","lssStatus":"LSS_NOT_EVALUABLE","reviewPriorityHint":"no_conflict_review_priority"},{"id":"RMDB2PDB|conflict|pairseg_6VVJ_sequence_000650","routeId":"annojoin:conflict:RMDB2PDB:pairseg_6VVJ_sequence_000650","type":"structure_signal_discordance_candidate","status":"none_detected","fecClaimCeiling":"","claimScope":"","lssStatus":"LSS_NOT_EVALUABLE","reviewPriorityHint":"no_conflict_review_priority"},{"id":"RMDB2PDB|conflict|pairseg_6VVJ_sequence_000651","routeId":"annojoin:conflict:RMDB2PDB:pairseg_6VVJ_sequence_000651","type":"structure_signal_discordance_candidate","status":"none_detected","fecClaimCeiling":"","claimScope":"","lssStatus":"LSS_NOT_EVALUABLE","reviewPriorityHint":"no_conflict_review_priority"},{"id":"RMDB2PDB|conflict|pairseg_6VVJ_sequence_000652","routeId":"annojoin:conflict:RMDB2PDB:pairseg_6VVJ_sequence_000652","type":"structure_signal_discordance_candidate","status":"none_detected","fecClaimCeiling":"","claimScope":"","lssStatus":"LSS_NOT_EVALUABLE","reviewPriorityHint":"no_conflict_review_priority"},{"id":"RMDB2PDB|conflict|pairseg_6VVJ_sequence_000653","routeId":"annojoin:conflict:RMDB2PDB:pairseg_6VVJ_sequence_000653","type":"structure_signal_discordance_candidate","status":"none_detected","fecClaimCeiling":"","claimScope":"","lssStatus":"LSS_NOT_EVALUABLE","reviewPriorityHint":"no_conflict_review_priority"},{"id":"RMDB2PDB|conflict|pairseg_6VVJ_sequence_000654","routeId":"annojoin:conflict:RMDB2PDB:pairseg_6VVJ_sequence_000654","type":"structure_signal_discordance_candidate","status":"none_detected","fecClaimCeiling":"","claimScope":"","lssStatus":"LSS_NOT_EVALUABLE","reviewPriorityHint":"no_conflict_review_priority"},{"id":"RMDB2PDB|conflict|pairseg_6VVJ_sequence_000655","routeId":"annojoin:conflict:RMDB2PDB:pairseg_6VVJ_sequence_000655","type":"structure_signal_discordance_candidate","status":"none_detected","fecClaimCeiling":"","claimScope":"","lssStatus":"LSS_NOT_EVALUABLE","reviewPriorityHint":"no_conflict_review_priority"},{"id":"RMDB2PDB|conflict|pairseg_6VVJ_sequence_000656","routeId":"annojoin:conflict:RMDB2PDB:pairseg_6VVJ_sequence_000656","type":"structure_signal_discordance_candidate","status":"none_detected","fecClaimCeiling":"","claimScope":"","lssStatus":"LSS_NOT_EVALUABLE","reviewPriorityHint":"no_conflict_review_priority"},{"id":"RMDB2PDB|conflict|pairseg_6VVJ_sequence_000661","routeId":"annojoin:conflict:RMDB2PDB:pairseg_6VVJ_sequence_000661","type":"structure_signal_discordance_candidate","status":"none_detected","fecClaimCeiling":"","claimScope":"","lssStatus":"LSS_NOT_EVALUABLE","reviewPriorityHint":"no_conflict_review_priority"},{"id":"RMDB2PDB|conflict|pairseg_6VVJ_sequence_000662","routeId":"annojoin:conflict:RMDB2PDB:pairseg_6VVJ_sequence_000662","type":"structure_signal_discordance_candidate","status":"none_detected","fecClaimCeiling":"","claimScope":"","lssStatus":"LSS_NOT_EVALUABLE","reviewPriorityHint":"no_conflict_review_priority"},{"id":"RMDB2PDB|conflict|pairseg_6VVJ_sequence_000663","routeId":"annojoin:conflict:RMDB2PDB:pairseg_6VVJ_sequence_000663","type":"structure_signal_discordance_candidate","status":"none_detected","fecClaimCeiling":"","claimScope":"","lssStatus":"LSS_NOT_EVALUABLE","reviewPriorityHint":"no_conflict_review_priority"},{"id":"RMDB2PDB|conflict|pairseg_6VVJ_sequence_000664","routeId":"annojoin:conflict:RMDB2PDB:pairseg_6VVJ_sequence_000664","type":"structure_signal_discordance_candidate","status":"none_detected","fecClaimCeiling":"","claimScope":"","lssStatus":"LSS_NOT_EVALUABLE","reviewPriorityHint":"no_conflict_review_priority"},{"id":"RMDB2PDB|conflict|pairseg_6VVJ_sequence_000666","routeId":"annojoin:conflict:RMDB2PDB:pairseg_6VVJ_sequence_000666","type":"structure_signal_discordance_candidate","status":"none_detected","fecClaimCeiling":"","claimScope":"","lssStatus":"LSS_NOT_EVALUABLE","reviewPriorityHint":"no_conflict_review_priority"},{"id":"RMDB2PDB|conflict|pairseg_6VVJ_sequence_000669","routeId":"annojoin:conflict:RMDB2PDB:pairseg_6VVJ_sequence_000669","type":"structure_signal_discordance_candidate","status":"none_detected","fecClaimCeiling":"","claimScope":"","lssStatus":"LSS_NOT_EVALUABLE","reviewPriorityHint":"no_conflict_review_priority"},{"id":"RMDB2PDB|conflict|pairseg_6VVJ_sequence_000670","routeId":"annojoin:conflict:RMDB2PDB:pairseg_6VVJ_sequence_000670","type":"structure_signal_discordance_candidate","status":"none_detected","fecClaimCeiling":"","claimScope":"","lssStatus":"LSS_NOT_EVALUABLE","reviewPriorityHint":"no_conflict_review_priority"},{"id":"RMDB2PDB|conflict|pairseg_6VVJ_sequence_000675","routeId":"annojoin:conflict:RMDB2PDB:pairseg_6VVJ_sequence_000675","type":"structure_signal_discordance_candidate","status":"none_detected","fecClaimCeiling":"","claimScope":"","lssStatus":"LSS_NOT_EVALUABLE","reviewPriorityHint":"no_conflict_review_priority"},{"id":"RMDB2PDB|conflict|pairseg_6VVJ_sequence_000676","routeId":"annojoin:conflict:RMDB2PDB:pairseg_6VVJ_sequence_000676","type":"structure_signal_discordance_candidate","status":"none_detected","fecClaimCeiling":"","claimScope":"","lssStatus":"LSS_NOT_EVALUABLE","reviewPriorityHint":"no_conflict_review_priority"},{"id":"RMDB2PDB|conflict|pairseg_6VVJ_sequence_000677","routeId":"annojoin:conflict:RMDB2PDB:pairseg_6VVJ_sequence_000677","type":"structure_signal_discordance_candidate","status":"none_detected","fecClaimCeiling":"","claimScope":"","lssStatus":"LSS_NOT_EVALUABLE","reviewPriorityHint":"no_conflict_review_priority"},{"id":"RMDB2PDB|conflict|pairseg_6VVJ_sequence_000678","routeId":"annojoin:conflict:RMDB2PDB:pairseg_6VVJ_sequence_000678","type":"structure_signal_discordance_candidate","status":"none_detected","fecClaimCeiling":"","claimScope":"","lssStatus":"LSS_NOT_EVALUABLE","reviewPriorityHint":"no_conflict_review_priority"},{"id":"RMDB2PDB|conflict|pairseg_6VVJ_sequence_000679","routeId":"annojoin:conflict:RMDB2PDB:pairseg_6VVJ_sequence_000679","type":"structure_signal_discordance_candidate","status":"none_detected","fecClaimCeiling":"","claimScope":"","lssStatus":"LSS_NOT_EVALUABLE","reviewPriorityHint":"no_conflict_review_priority"},{"id":"RMDB2PDB|conflict|pairseg_6VVJ_sequence_000680","routeId":"annojoin:conflict:RMDB2PDB:pairseg_6VVJ_sequence_000680","type":"structure_signal_discordance_candidate","status":"none_detected","fecClaimCeiling":"","claimScope":"","lssStatus":"LSS_NOT_EVALUABLE","reviewPriorityHint":"no_conflict_review_priority"},{"id":"RMDB2PDB|conflict|pairseg_6VVJ_sequence_000681","routeId":"annojoin:conflict:RMDB2PDB:pairseg_6VVJ_sequence_000681","type":"structure_signal_discordance_candidate","status":"none_detected","fecClaimCeiling":"","claimScope":"","lssStatus":"LSS_NOT_EVALUABLE","reviewPriorityHint":"no_conflict_review_priority"},{"id":"RMDB2PDB|conflict|pairseg_6VVJ_sequence_000682","routeId":"annojoin:conflict:RMDB2PDB:pairseg_6VVJ_sequence_000682","type":"structure_signal_discordance_candidate","status":"none_detected","fecClaimCeiling":"","claimScope":"","lssStatus":"LSS_NOT_EVALUABLE","reviewPriorityHint":"no_conflict_review_priority"},{"id":"RMDB2PDB|conflict|pairseg_6VVJ_sequence_000683","routeId":"annojoin:conflict:RMDB2PDB:pairseg_6VVJ_sequence_000683","type":"structure_signal_discordance_candidate","status":"none_detected","fecClaimCeiling":"","claimScope":"","lssStatus":"LSS_NOT_EVALUABLE","reviewPriorityHint":"no_conflict_review_priority"},{"id":"RMDB2PDB|conflict|pairseg_6VVJ_sequence_000684","routeId":"annojoin:conflict:RMDB2PDB:pairseg_6VVJ_sequence_000684","type":"structure_signal_discordance_candidate","status":"none_detected","fecClaimCeiling":"","claimScope":"","lssStatus":"LSS_NOT_EVALUABLE","reviewPriorityHint":"no_conflict_review_priority"},{"id":"RMDB2PDB|conflict|pairseg_6VVJ_sequence_000685","routeId":"annojoin:conflict:RMDB2PDB:pairseg_6VVJ_sequence_000685","type":"structure_signal_discordance_candidate","status":"none_detected","fecClaimCeiling":"","claimScope":"","lssStatus":"LSS_NOT_EVALUABLE","reviewPriorityHint":"no_conflict_review_priority"},{"id":"RMDB2PDB|conflict|pairseg_6VVJ_sequence_000686","routeId":"annojoin:conflict:RMDB2PDB:pairseg_6VVJ_sequence_000686","type":"structure_signal_discordance_candidate","status":"none_detected","fecClaimCeiling":"","claimScope":"","lssStatus":"LSS_NOT_EVALUABLE","reviewPriorityHint":"no_conflict_review_priority"},{"id":"RMDB2PDB|conflict|pairseg_6VVJ_sequence_000687","routeId":"annojoin:conflict:RMDB2PDB:pairseg_6VVJ_sequence_000687","type":"structure_signal_discordance_candidate","status":"none_detected","fecClaimCeiling":"","claimScope":"","lssStatus":"LSS_NOT_EVALUABLE","reviewPriorityHint":"no_conflict_review_priority"},{"id":"RMDB2PDB|conflict|pairseg_6VVJ_sequence_000691","routeId":"annojoin:conflict:RMDB2PDB:pairseg_6VVJ_sequence_000691","type":"structure_signal_discordance_candidate","status":"none_detected","fecClaimCeiling":"","claimScope":"","lssStatus":"LSS_NOT_EVALUABLE","reviewPriorityHint":"no_conflict_review_priority"},{"id":"RMDB2PDB|conflict|pairseg_6VVJ_sequence_000692","routeId":"annojoin:conflict:RMDB2PDB:pairseg_6VVJ_sequence_000692","type":"structure_signal_discordance_candidate","status":"none_detected","fecClaimCeiling":"","claimScope":"","lssStatus":"LSS_NOT_EVALUABLE","reviewPriorityHint":"no_conflict_review_priority"},{"id":"RMDB2PDB|conflict|pairseg_6VVJ_sequence_000693","routeId":"annojoin:conflict:RMDB2PDB:pairseg_6VVJ_sequence_000693","type":"structure_signal_discordance_candidate","status":"none_detected","fecClaimCeiling":"","claimScope":"","lssStatus":"LSS_NOT_EVALUABLE","reviewPriorityHint":"no_conflict_review_priority"},{"id":"RMDB2PDB|conflict|pairseg_6VVJ_sequence_000694","routeId":"annojoin:conflict:RMDB2PDB:pairseg_6VVJ_sequence_000694","type":"structure_signal_discordance_candidate","status":"none_detected","fecClaimCeiling":"","claimScope":"","lssStatus":"LSS_NOT_EVALUABLE","reviewPriorityHint":"no_conflict_review_priority"},{"id":"RMDB2PDB|conflict|pairseg_6VVJ_sequence_000695","routeId":"annojoin:conflict:RMDB2PDB:pairseg_6VVJ_sequence_000695","type":"structure_signal_discordance_candidate","status":"none_detected","fecClaimCeiling":"","claimScope":"","lssStatus":"LSS_NOT_EVALUABLE","reviewPriorityHint":"no_conflict_review_priority"},{"id":"RMDB2PDB|conflict|pairseg_6VVJ_sequence_000696","routeId":"annojoin:conflict:RMDB2PDB:pairseg_6VVJ_sequence_000696","type":"structure_signal_discordance_candidate","status":"none_detected","fecClaimCeiling":"","claimScope":"","lssStatus":"LSS_NOT_EVALUABLE","reviewPriorityHint":"no_conflict_review_priority"},{"id":"RMDB2PDB|conflict|pairseg_6VVJ_sequence_000697","routeId":"annojoin:conflict:RMDB2PDB:pairseg_6VVJ_sequence_000697","type":"structure_signal_discordance_candidate","status":"none_detected","fecClaimCeiling":"","claimScope":"","lssStatus":"LSS_NOT_EVALUABLE","reviewPriorityHint":"no_conflict_review_priority"},{"id":"RMDB2PDB|conflict|pairseg_6VVJ_sequence_000698","routeId":"annojoin:conflict:RMDB2PDB:pairseg_6VVJ_sequence_000698","type":"structure_signal_discordance_candidate","status":"none_detected","fecClaimCeiling":"","claimScope":"","lssStatus":"LSS_NOT_EVALUABLE","reviewPriorityHint":"no_conflict_review_priority"},{"id":"RMDB2PDB|conflict|pairseg_6VVJ_sequence_000699","routeId":"annojoin:conflict:RMDB2PDB:pairseg_6VVJ_sequence_000699","type":"structure_signal_discordance_candidate","status":"none_detected","fecClaimCeiling":"","claimScope":"","lssStatus":"LSS_NOT_EVALUABLE","reviewPriorityHint":"no_conflict_review_priority"},{"id":"RMDB2PDB|conflict|pairseg_6VVJ_sequence_000700","routeId":"annojoin:conflict:RMDB2PDB:pairseg_6VVJ_sequence_000700","type":"structure_signal_discordance_candidate","status":"none_detected","fecClaimCeiling":"","claimScope":"","lssStatus":"LSS_NOT_EVALUABLE","reviewPriorityHint":"no_conflict_review_priority"}]}
