{"schemaVersion":"annojoin-atlas.v1","version":"V2.1_RMDB_LINE_A_20260617","atlasCaseKey":"RMDB2PDB:8QO4","caseId":"8QO4","routeKey":"track-routes","page":2,"pageSize":500,"totalRows":576,"pageCount":2,"rows":[{"profileId":"data-rna-structures/data-rna-structures/SRSBCV_DMS_0002.rdat#45918","trackRouteId":"annojoin:track:RMDB2PDB:pairseg_8QO4_sequence_000503","trackDataPath":"ANNOCONFIDENCE/assay_numeric_usability_annotation.tsv","trackSchemaId":"assay_numeric_usability_annotation","supports1d":true,"supportsTable":true,"colorPolicyId":"rmdb_reactivity_low_mid_high_v1"},{"profileId":"data-rna-structures/data-rna-structures/SRSBCV_2A3_0002.rdat#45918","trackRouteId":"annojoin:track:RMDB2PDB:pairseg_8QO4_sequence_000504","trackDataPath":"ANNOCONFIDENCE/assay_numeric_usability_annotation.tsv","trackSchemaId":"assay_numeric_usability_annotation","supports1d":true,"supportsTable":true,"colorPolicyId":"rmdb_reactivity_low_mid_high_v1"},{"profileId":"data-rna-structures/data-rna-structures/SRSBCV_DMS_0002.rdat#45901","trackRouteId":"annojoin:track:RMDB2PDB:pairseg_8QO4_sequence_000505","trackDataPath":"ANNOCONFIDENCE/assay_numeric_usability_annotation.tsv","trackSchemaId":"assay_numeric_usability_annotation","supports1d":true,"supportsTable":true,"colorPolicyId":"rmdb_reactivity_low_mid_high_v1"},{"profileId":"data-rna-structures/data-rna-structures/SRSBCV_2A3_0002.rdat#45901","trackRouteId":"annojoin:track:RMDB2PDB:pairseg_8QO4_sequence_000506","trackDataPath":"ANNOCONFIDENCE/assay_numeric_usability_annotation.tsv","trackSchemaId":"assay_numeric_usability_annotation","supports1d":true,"supportsTable":true,"colorPolicyId":"rmdb_reactivity_low_mid_high_v1"},{"profileId":"data-rna-structures/data-rna-structures/SRSBCV_DMS_0001.rdat#16139","trackRouteId":"annojoin:track:RMDB2PDB:pairseg_8QO4_sequence_000507","trackDataPath":"ANNOCONFIDENCE/assay_numeric_usability_annotation.tsv","trackSchemaId":"assay_numeric_usability_annotation","supports1d":true,"supportsTable":true,"colorPolicyId":"rmdb_reactivity_low_mid_high_v1"},{"profileId":"data-rna-structures/data-rna-structures/SRSBCV_2A3_0001.rdat#16139","trackRouteId":"annojoin:track:RMDB2PDB:pairseg_8QO4_sequence_000508","trackDataPath":"ANNOCONFIDENCE/assay_numeric_usability_annotation.tsv","trackSchemaId":"assay_numeric_usability_annotation","supports1d":true,"supportsTable":true,"colorPolicyId":"rmdb_reactivity_low_mid_high_v1"},{"profileId":"data-rna-structures/data-rna-structures/SRSBCV_2A3_0000.rdat#55703","trackRouteId":"annojoin:track:RMDB2PDB:pairseg_8QO4_sequence_000509","trackDataPath":"ANNOCONFIDENCE/assay_numeric_usability_annotation.tsv","trackSchemaId":"assay_numeric_usability_annotation","supports1d":true,"supportsTable":true,"colorPolicyId":"rmdb_reactivity_low_mid_high_v1"},{"profileId":"data-rna-structures/data-rna-structures/SRSBCV_DMS_0000.rdat#55703","trackRouteId":"annojoin:track:RMDB2PDB:pairseg_8QO4_sequence_000510","trackDataPath":"ANNOCONFIDENCE/assay_numeric_usability_annotation.tsv","trackSchemaId":"assay_numeric_usability_annotation","supports1d":true,"supportsTable":true,"colorPolicyId":"rmdb_reactivity_low_mid_high_v1"},{"profileId":"data-rna-structures/data-rna-structures/SRSBCV_DMS_0000.rdat#55720","trackRouteId":"annojoin:track:RMDB2PDB:pairseg_8QO4_sequence_000511","trackDataPath":"ANNOCONFIDENCE/assay_numeric_usability_annotation.tsv","trackSchemaId":"assay_numeric_usability_annotation","supports1d":true,"supportsTable":true,"colorPolicyId":"rmdb_reactivity_low_mid_high_v1"},{"profileId":"data-rna-structures/data-rna-structures/SRSBCV_2A3_0000.rdat#55720","trackRouteId":"annojoin:track:RMDB2PDB:pairseg_8QO4_sequence_000512","trackDataPath":"ANNOCONFIDENCE/assay_numeric_usability_annotation.tsv","trackSchemaId":"assay_numeric_usability_annotation","supports1d":true,"supportsTable":true,"colorPolicyId":"rmdb_reactivity_low_mid_high_v1"},{"profileId":"data-rna-structures/data-rna-structures/15KLIB_2A3_0000.rdat#9814","trackRouteId":"annojoin:track:RMDB2PDB:pairseg_8QO4_sequence_000513","trackDataPath":"ANNOCONFIDENCE/assay_numeric_usability_annotation.tsv","trackSchemaId":"assay_numeric_usability_annotation","supports1d":true,"supportsTable":true,"colorPolicyId":"rmdb_reactivity_low_mid_high_v1"},{"profileId":"data-rna-structures/data-rna-structures/VIR15K_2A3_0002.rdat#7813","trackRouteId":"annojoin:track:RMDB2PDB:pairseg_8QO4_sequence_000514","trackDataPath":"ANNOCONFIDENCE/assay_numeric_usability_annotation.tsv","trackSchemaId":"assay_numeric_usability_annotation","supports1d":true,"supportsTable":true,"colorPolicyId":"rmdb_reactivity_low_mid_high_v1"},{"profileId":"data-rna-structures/data-rna-structures/15KLIB_DMS_0000.rdat#9814","trackRouteId":"annojoin:track:RMDB2PDB:pairseg_8QO4_sequence_000515","trackDataPath":"ANNOCONFIDENCE/assay_numeric_usability_annotation.tsv","trackSchemaId":"assay_numeric_usability_annotation","supports1d":true,"supportsTable":true,"colorPolicyId":"rmdb_reactivity_low_mid_high_v1"},{"profileId":"data-rna-structures/data-rna-structures/VIR15K_DMS_0001.rdat#7813","trackRouteId":"annojoin:track:RMDB2PDB:pairseg_8QO4_sequence_000516","trackDataPath":"ANNOCONFIDENCE/assay_numeric_usability_annotation.tsv","trackSchemaId":"assay_numeric_usability_annotation","supports1d":true,"supportsTable":true,"colorPolicyId":"rmdb_reactivity_low_mid_high_v1"},{"profileId":"data-rna-structures/data-rna-structures/15KREP_DMS_0000.rdat#8954","trackRouteId":"annojoin:track:RMDB2PDB:pairseg_8QO4_sequence_000517","trackDataPath":"ANNOCONFIDENCE/assay_numeric_usability_annotation.tsv","trackSchemaId":"assay_numeric_usability_annotation","supports1d":true,"supportsTable":true,"colorPolicyId":"rmdb_reactivity_low_mid_high_v1"},{"profileId":"data-rna-structures/data-rna-structures/15KREP_2A3_0000.rdat#8954","trackRouteId":"annojoin:track:RMDB2PDB:pairseg_8QO4_sequence_000518","trackDataPath":"ANNOCONFIDENCE/assay_numeric_usability_annotation.tsv","trackSchemaId":"assay_numeric_usability_annotation","supports1d":true,"supportsTable":true,"colorPolicyId":"rmdb_reactivity_low_mid_high_v1"},{"profileId":"data-rna-structures/data-rna-structures/VIRWIN_DMS_0000.rdat#34800","trackRouteId":"annojoin:track:RMDB2PDB:pairseg_8QO4_sequence_000519","trackDataPath":"ANNOCONFIDENCE/assay_numeric_usability_annotation.tsv","trackSchemaId":"assay_numeric_usability_annotation","supports1d":true,"supportsTable":true,"colorPolicyId":"rmdb_reactivity_low_mid_high_v1"},{"profileId":"data-rna-structures/data-rna-structures/VIRWIN_2A3_0000.rdat#34800","trackRouteId":"annojoin:track:RMDB2PDB:pairseg_8QO4_sequence_000520","trackDataPath":"ANNOCONFIDENCE/assay_numeric_usability_annotation.tsv","trackSchemaId":"assay_numeric_usability_annotation","supports1d":true,"supportsTable":true,"colorPolicyId":"rmdb_reactivity_low_mid_high_v1"},{"profileId":"data-rna-structures/data-rna-structures/15KREP_2A3_0001.rdat#31447","trackRouteId":"annojoin:track:RMDB2PDB:pairseg_8QO4_sequence_000521","trackDataPath":"ANNOCONFIDENCE/assay_numeric_usability_annotation.tsv","trackSchemaId":"assay_numeric_usability_annotation","supports1d":true,"supportsTable":true,"colorPolicyId":"rmdb_reactivity_low_mid_high_v1"},{"profileId":"data-rna-structures/data-rna-structures/15KREP_DMS_0001.rdat#31447","trackRouteId":"annojoin:track:RMDB2PDB:pairseg_8QO4_sequence_000522","trackDataPath":"ANNOCONFIDENCE/assay_numeric_usability_annotation.tsv","trackSchemaId":"assay_numeric_usability_annotation","supports1d":true,"supportsTable":true,"colorPolicyId":"rmdb_reactivity_low_mid_high_v1"},{"profileId":"data-rna-structures/data-rna-structures/SRSBCV_2A3_0001.rdat#69171","trackRouteId":"annojoin:track:RMDB2PDB:pairseg_8QO4_sequence_000523","trackDataPath":"ANNOCONFIDENCE/assay_numeric_usability_annotation.tsv","trackSchemaId":"assay_numeric_usability_annotation","supports1d":true,"supportsTable":true,"colorPolicyId":"rmdb_reactivity_low_mid_high_v1"},{"profileId":"data-rna-structures/data-rna-structures/SRSBCV_DMS_0001.rdat#69171","trackRouteId":"annojoin:track:RMDB2PDB:pairseg_8QO4_sequence_000524","trackDataPath":"ANNOCONFIDENCE/assay_numeric_usability_annotation.tsv","trackSchemaId":"assay_numeric_usability_annotation","supports1d":true,"supportsTable":true,"colorPolicyId":"rmdb_reactivity_low_mid_high_v1"},{"profileId":"data-rna-structures/data-rna-structures/SRSBCV_2A3_0002.rdat#23150","trackRouteId":"annojoin:track:RMDB2PDB:pairseg_8QO4_sequence_000525","trackDataPath":"ANNOCONFIDENCE/assay_numeric_usability_annotation.tsv","trackSchemaId":"assay_numeric_usability_annotation","supports1d":true,"supportsTable":true,"colorPolicyId":"rmdb_reactivity_low_mid_high_v1"},{"profileId":"data-rna-structures/data-rna-structures/SRSBCV_DMS_0002.rdat#23150","trackRouteId":"annojoin:track:RMDB2PDB:pairseg_8QO4_sequence_000526","trackDataPath":"ANNOCONFIDENCE/assay_numeric_usability_annotation.tsv","trackSchemaId":"assay_numeric_usability_annotation","supports1d":true,"supportsTable":true,"colorPolicyId":"rmdb_reactivity_low_mid_high_v1"},{"profileId":"data-rna-structures/data-rna-structures/15KREP_DMS_0001.rdat#31446","trackRouteId":"annojoin:track:RMDB2PDB:pairseg_8QO4_sequence_000527","trackDataPath":"ANNOCONFIDENCE/assay_numeric_usability_annotation.tsv","trackSchemaId":"assay_numeric_usability_annotation","supports1d":true,"supportsTable":true,"colorPolicyId":"rmdb_reactivity_low_mid_high_v1"},{"profileId":"data-rna-structures/data-rna-structures/15KREP_2A3_0001.rdat#31446","trackRouteId":"annojoin:track:RMDB2PDB:pairseg_8QO4_sequence_000528","trackDataPath":"ANNOCONFIDENCE/assay_numeric_usability_annotation.tsv","trackSchemaId":"assay_numeric_usability_annotation","supports1d":true,"supportsTable":true,"colorPolicyId":"rmdb_reactivity_low_mid_high_v1"},{"profileId":"data-rna-structures/data-rna-structures/15KREP_2A3_0001.rdat#31448","trackRouteId":"annojoin:track:RMDB2PDB:pairseg_8QO4_sequence_000529","trackDataPath":"ANNOCONFIDENCE/assay_numeric_usability_annotation.tsv","trackSchemaId":"assay_numeric_usability_annotation","supports1d":true,"supportsTable":true,"colorPolicyId":"rmdb_reactivity_low_mid_high_v1"},{"profileId":"data-rna-structures/data-rna-structures/15KREP_DMS_0001.rdat#31448","trackRouteId":"annojoin:track:RMDB2PDB:pairseg_8QO4_sequence_000530","trackDataPath":"ANNOCONFIDENCE/assay_numeric_usability_annotation.tsv","trackSchemaId":"assay_numeric_usability_annotation","supports1d":true,"supportsTable":true,"colorPolicyId":"rmdb_reactivity_low_mid_high_v1"},{"profileId":"data-rna-structures/data-rna-structures/15KREP_2A3_0001.rdat#31445","trackRouteId":"annojoin:track:RMDB2PDB:pairseg_8QO4_sequence_000531","trackDataPath":"ANNOCONFIDENCE/assay_numeric_usability_annotation.tsv","trackSchemaId":"assay_numeric_usability_annotation","supports1d":true,"supportsTable":true,"colorPolicyId":"rmdb_reactivity_low_mid_high_v1"},{"profileId":"data-rna-structures/data-rna-structures/15KREP_DMS_0001.rdat#31445","trackRouteId":"annojoin:track:RMDB2PDB:pairseg_8QO4_sequence_000532","trackDataPath":"ANNOCONFIDENCE/assay_numeric_usability_annotation.tsv","trackSchemaId":"assay_numeric_usability_annotation","supports1d":true,"supportsTable":true,"colorPolicyId":"rmdb_reactivity_low_mid_high_v1"},{"profileId":"data-rna-structures/data-rna-structures/SRSBCV_2A3_0000.rdat#21252","trackRouteId":"annojoin:track:RMDB2PDB:pairseg_8QO4_sequence_000533","trackDataPath":"ANNOCONFIDENCE/assay_numeric_usability_annotation.tsv","trackSchemaId":"assay_numeric_usability_annotation","supports1d":true,"supportsTable":true,"colorPolicyId":"rmdb_reactivity_low_mid_high_v1"},{"profileId":"data-rna-structures/data-rna-structures/SRSBCV_DMS_0000.rdat#21252","trackRouteId":"annojoin:track:RMDB2PDB:pairseg_8QO4_sequence_000534","trackDataPath":"ANNOCONFIDENCE/assay_numeric_usability_annotation.tsv","trackSchemaId":"assay_numeric_usability_annotation","supports1d":true,"supportsTable":true,"colorPolicyId":"rmdb_reactivity_low_mid_high_v1"},{"profileId":"data-rna-structures/data-rna-structures/SRSBCV_2A3_0000.rdat#23217","trackRouteId":"annojoin:track:RMDB2PDB:pairseg_8QO4_sequence_000535","trackDataPath":"ANNOCONFIDENCE/assay_numeric_usability_annotation.tsv","trackSchemaId":"assay_numeric_usability_annotation","supports1d":true,"supportsTable":true,"colorPolicyId":"rmdb_reactivity_low_mid_high_v1"},{"profileId":"data-rna-structures/data-rna-structures/SRSBCV_DMS_0000.rdat#23217","trackRouteId":"annojoin:track:RMDB2PDB:pairseg_8QO4_sequence_000536","trackDataPath":"ANNOCONFIDENCE/assay_numeric_usability_annotation.tsv","trackSchemaId":"assay_numeric_usability_annotation","supports1d":true,"supportsTable":true,"colorPolicyId":"rmdb_reactivity_low_mid_high_v1"},{"profileId":"data-rna-structures/data-rna-structures/15KREP_DMS_0001.rdat#31373","trackRouteId":"annojoin:track:RMDB2PDB:pairseg_8QO4_sequence_000537","trackDataPath":"ANNOCONFIDENCE/assay_numeric_usability_annotation.tsv","trackSchemaId":"assay_numeric_usability_annotation","supports1d":true,"supportsTable":true,"colorPolicyId":"rmdb_reactivity_low_mid_high_v1"},{"profileId":"data-rna-structures/data-rna-structures/15KREP_2A3_0001.rdat#31373","trackRouteId":"annojoin:track:RMDB2PDB:pairseg_8QO4_sequence_000538","trackDataPath":"ANNOCONFIDENCE/assay_numeric_usability_annotation.tsv","trackSchemaId":"assay_numeric_usability_annotation","supports1d":true,"supportsTable":true,"colorPolicyId":"rmdb_reactivity_low_mid_high_v1"},{"profileId":"data-rna-structures/data-rna-structures/15KREP_DMS_0001.rdat#31375","trackRouteId":"annojoin:track:RMDB2PDB:pairseg_8QO4_sequence_000539","trackDataPath":"ANNOCONFIDENCE/assay_numeric_usability_annotation.tsv","trackSchemaId":"assay_numeric_usability_annotation","supports1d":true,"supportsTable":true,"colorPolicyId":"rmdb_reactivity_low_mid_high_v1"},{"profileId":"data-rna-structures/data-rna-structures/15KREP_2A3_0001.rdat#31375","trackRouteId":"annojoin:track:RMDB2PDB:pairseg_8QO4_sequence_000540","trackDataPath":"ANNOCONFIDENCE/assay_numeric_usability_annotation.tsv","trackSchemaId":"assay_numeric_usability_annotation","supports1d":true,"supportsTable":true,"colorPolicyId":"rmdb_reactivity_low_mid_high_v1"},{"profileId":"data-rna-structures/data-rna-structures/SRSBCV_DMS_0000.rdat#28167","trackRouteId":"annojoin:track:RMDB2PDB:pairseg_8QO4_sequence_000541","trackDataPath":"ANNOCONFIDENCE/assay_numeric_usability_annotation.tsv","trackSchemaId":"assay_numeric_usability_annotation","supports1d":true,"supportsTable":true,"colorPolicyId":"rmdb_reactivity_low_mid_high_v1"},{"profileId":"data-rna-structures/data-rna-structures/SRSBCV_2A3_0000.rdat#28167","trackRouteId":"annojoin:track:RMDB2PDB:pairseg_8QO4_sequence_000542","trackDataPath":"ANNOCONFIDENCE/assay_numeric_usability_annotation.tsv","trackSchemaId":"assay_numeric_usability_annotation","supports1d":true,"supportsTable":true,"colorPolicyId":"rmdb_reactivity_low_mid_high_v1"},{"profileId":"data-rna-structures/data-rna-structures/VIRWIN_2A3_0000.rdat#53755","trackRouteId":"annojoin:track:RMDB2PDB:pairseg_8QO4_sequence_000543","trackDataPath":"ANNOCONFIDENCE/assay_numeric_usability_annotation.tsv","trackSchemaId":"assay_numeric_usability_annotation","supports1d":true,"supportsTable":true,"colorPolicyId":"rmdb_reactivity_low_mid_high_v1"},{"profileId":"data-rna-structures/data-rna-structures/VIRWIN_DMS_0000.rdat#53755","trackRouteId":"annojoin:track:RMDB2PDB:pairseg_8QO4_sequence_000544","trackDataPath":"ANNOCONFIDENCE/assay_numeric_usability_annotation.tsv","trackSchemaId":"assay_numeric_usability_annotation","supports1d":true,"supportsTable":true,"colorPolicyId":"rmdb_reactivity_low_mid_high_v1"},{"profileId":"data-rna-structures/data-rna-structures/SRSBCV_DMS_0000.rdat#8177","trackRouteId":"annojoin:track:RMDB2PDB:pairseg_8QO4_sequence_000545","trackDataPath":"ANNOCONFIDENCE/assay_numeric_usability_annotation.tsv","trackSchemaId":"assay_numeric_usability_annotation","supports1d":true,"supportsTable":true,"colorPolicyId":"rmdb_reactivity_low_mid_high_v1"},{"profileId":"data-rna-structures/data-rna-structures/SRSBCV_2A3_0000.rdat#8177","trackRouteId":"annojoin:track:RMDB2PDB:pairseg_8QO4_sequence_000546","trackDataPath":"ANNOCONFIDENCE/assay_numeric_usability_annotation.tsv","trackSchemaId":"assay_numeric_usability_annotation","supports1d":true,"supportsTable":true,"colorPolicyId":"rmdb_reactivity_low_mid_high_v1"},{"profileId":"data-rna-structures/data-rna-structures/SRSBCV_2A3_0000.rdat#25842","trackRouteId":"annojoin:track:RMDB2PDB:pairseg_8QO4_sequence_000547","trackDataPath":"ANNOCONFIDENCE/assay_numeric_usability_annotation.tsv","trackSchemaId":"assay_numeric_usability_annotation","supports1d":true,"supportsTable":true,"colorPolicyId":"rmdb_reactivity_low_mid_high_v1"},{"profileId":"data-rna-structures/data-rna-structures/SRSBCV_DMS_0000.rdat#25842","trackRouteId":"annojoin:track:RMDB2PDB:pairseg_8QO4_sequence_000548","trackDataPath":"ANNOCONFIDENCE/assay_numeric_usability_annotation.tsv","trackSchemaId":"assay_numeric_usability_annotation","supports1d":true,"supportsTable":true,"colorPolicyId":"rmdb_reactivity_low_mid_high_v1"},{"profileId":"data-rna-structures/data-rna-structures/SRSBCV_DMS_0000.rdat#49048","trackRouteId":"annojoin:track:RMDB2PDB:pairseg_8QO4_sequence_000549","trackDataPath":"ANNOCONFIDENCE/assay_numeric_usability_annotation.tsv","trackSchemaId":"assay_numeric_usability_annotation","supports1d":true,"supportsTable":true,"colorPolicyId":"rmdb_reactivity_low_mid_high_v1"},{"profileId":"data-rna-structures/data-rna-structures/SRSBCV_2A3_0000.rdat#49048","trackRouteId":"annojoin:track:RMDB2PDB:pairseg_8QO4_sequence_000550","trackDataPath":"ANNOCONFIDENCE/assay_numeric_usability_annotation.tsv","trackSchemaId":"assay_numeric_usability_annotation","supports1d":true,"supportsTable":true,"colorPolicyId":"rmdb_reactivity_low_mid_high_v1"},{"profileId":"data-rna-structures/data-rna-structures/SRSBCV_2A3_0000.rdat#49030","trackRouteId":"annojoin:track:RMDB2PDB:pairseg_8QO4_sequence_000551","trackDataPath":"ANNOCONFIDENCE/assay_numeric_usability_annotation.tsv","trackSchemaId":"assay_numeric_usability_annotation","supports1d":true,"supportsTable":true,"colorPolicyId":"rmdb_reactivity_low_mid_high_v1"},{"profileId":"data-rna-structures/data-rna-structures/SRSBCV_DMS_0000.rdat#49030","trackRouteId":"annojoin:track:RMDB2PDB:pairseg_8QO4_sequence_000552","trackDataPath":"ANNOCONFIDENCE/assay_numeric_usability_annotation.tsv","trackSchemaId":"assay_numeric_usability_annotation","supports1d":true,"supportsTable":true,"colorPolicyId":"rmdb_reactivity_low_mid_high_v1"},{"profileId":"data-rna-structures/data-rna-structures/SRSBCV_DMS_0000.rdat#25824","trackRouteId":"annojoin:track:RMDB2PDB:pairseg_8QO4_sequence_000553","trackDataPath":"ANNOCONFIDENCE/assay_numeric_usability_annotation.tsv","trackSchemaId":"assay_numeric_usability_annotation","supports1d":true,"supportsTable":true,"colorPolicyId":"rmdb_reactivity_low_mid_high_v1"},{"profileId":"data-rna-structures/data-rna-structures/SRSBCV_2A3_0000.rdat#25824","trackRouteId":"annojoin:track:RMDB2PDB:pairseg_8QO4_sequence_000554","trackDataPath":"ANNOCONFIDENCE/assay_numeric_usability_annotation.tsv","trackSchemaId":"assay_numeric_usability_annotation","supports1d":true,"supportsTable":true,"colorPolicyId":"rmdb_reactivity_low_mid_high_v1"},{"profileId":"data-rna-structures/data-rna-structures/15KREP_DMS_0001.rdat#31376","trackRouteId":"annojoin:track:RMDB2PDB:pairseg_8QO4_sequence_000555","trackDataPath":"ANNOCONFIDENCE/assay_numeric_usability_annotation.tsv","trackSchemaId":"assay_numeric_usability_annotation","supports1d":true,"supportsTable":true,"colorPolicyId":"rmdb_reactivity_low_mid_high_v1"},{"profileId":"data-rna-structures/data-rna-structures/15KREP_2A3_0001.rdat#31376","trackRouteId":"annojoin:track:RMDB2PDB:pairseg_8QO4_sequence_000556","trackDataPath":"ANNOCONFIDENCE/assay_numeric_usability_annotation.tsv","trackSchemaId":"assay_numeric_usability_annotation","supports1d":true,"supportsTable":true,"colorPolicyId":"rmdb_reactivity_low_mid_high_v1"},{"profileId":"data-rna-structures/data-rna-structures/VIRWIN_DMS_0000.rdat#53737","trackRouteId":"annojoin:track:RMDB2PDB:pairseg_8QO4_sequence_000557","trackDataPath":"ANNOCONFIDENCE/assay_numeric_usability_annotation.tsv","trackSchemaId":"assay_numeric_usability_annotation","supports1d":true,"supportsTable":true,"colorPolicyId":"rmdb_reactivity_low_mid_high_v1"},{"profileId":"data-rna-structures/data-rna-structures/VIRWIN_2A3_0000.rdat#53737","trackRouteId":"annojoin:track:RMDB2PDB:pairseg_8QO4_sequence_000558","trackDataPath":"ANNOCONFIDENCE/assay_numeric_usability_annotation.tsv","trackSchemaId":"assay_numeric_usability_annotation","supports1d":true,"supportsTable":true,"colorPolicyId":"rmdb_reactivity_low_mid_high_v1"},{"profileId":"data-rna-structures/data-rna-structures/SRSBCV_2A3_0001.rdat#69153","trackRouteId":"annojoin:track:RMDB2PDB:pairseg_8QO4_sequence_000559","trackDataPath":"ANNOCONFIDENCE/assay_numeric_usability_annotation.tsv","trackSchemaId":"assay_numeric_usability_annotation","supports1d":true,"supportsTable":true,"colorPolicyId":"rmdb_reactivity_low_mid_high_v1"},{"profileId":"data-rna-structures/data-rna-structures/SRSBCV_DMS_0001.rdat#69153","trackRouteId":"annojoin:track:RMDB2PDB:pairseg_8QO4_sequence_000560","trackDataPath":"ANNOCONFIDENCE/assay_numeric_usability_annotation.tsv","trackSchemaId":"assay_numeric_usability_annotation","supports1d":true,"supportsTable":true,"colorPolicyId":"rmdb_reactivity_low_mid_high_v1"},{"profileId":"data-rna-structures/data-rna-structures/VIRWIN_DMS_0000.rdat#34782","trackRouteId":"annojoin:track:RMDB2PDB:pairseg_8QO4_sequence_000561","trackDataPath":"ANNOCONFIDENCE/assay_numeric_usability_annotation.tsv","trackSchemaId":"assay_numeric_usability_annotation","supports1d":true,"supportsTable":true,"colorPolicyId":"rmdb_reactivity_low_mid_high_v1"},{"profileId":"data-rna-structures/data-rna-structures/VIRWIN_2A3_0000.rdat#34782","trackRouteId":"annojoin:track:RMDB2PDB:pairseg_8QO4_sequence_000562","trackDataPath":"ANNOCONFIDENCE/assay_numeric_usability_annotation.tsv","trackSchemaId":"assay_numeric_usability_annotation","supports1d":true,"supportsTable":true,"colorPolicyId":"rmdb_reactivity_low_mid_high_v1"},{"profileId":"data-rna-structures/data-rna-structures/SRSBCV_DMS_0000.rdat#28149","trackRouteId":"annojoin:track:RMDB2PDB:pairseg_8QO4_sequence_000563","trackDataPath":"ANNOCONFIDENCE/assay_numeric_usability_annotation.tsv","trackSchemaId":"assay_numeric_usability_annotation","supports1d":true,"supportsTable":true,"colorPolicyId":"rmdb_reactivity_low_mid_high_v1"},{"profileId":"data-rna-structures/data-rna-structures/SRSBCV_2A3_0000.rdat#28149","trackRouteId":"annojoin:track:RMDB2PDB:pairseg_8QO4_sequence_000564","trackDataPath":"ANNOCONFIDENCE/assay_numeric_usability_annotation.tsv","trackSchemaId":"assay_numeric_usability_annotation","supports1d":true,"supportsTable":true,"colorPolicyId":"rmdb_reactivity_low_mid_high_v1"},{"profileId":"data-rna-structures/data-rna-structures/15KLIB_2A3_0000.rdat#9796","trackRouteId":"annojoin:track:RMDB2PDB:pairseg_8QO4_sequence_000565","trackDataPath":"ANNOCONFIDENCE/assay_numeric_usability_annotation.tsv","trackSchemaId":"assay_numeric_usability_annotation","supports1d":true,"supportsTable":true,"colorPolicyId":"rmdb_reactivity_low_mid_high_v1"},{"profileId":"data-rna-structures/data-rna-structures/VIR15K_DMS_0001.rdat#7795","trackRouteId":"annojoin:track:RMDB2PDB:pairseg_8QO4_sequence_000566","trackDataPath":"ANNOCONFIDENCE/assay_numeric_usability_annotation.tsv","trackSchemaId":"assay_numeric_usability_annotation","supports1d":true,"supportsTable":true,"colorPolicyId":"rmdb_reactivity_low_mid_high_v1"},{"profileId":"data-rna-structures/data-rna-structures/VIR15K_2A3_0002.rdat#7795","trackRouteId":"annojoin:track:RMDB2PDB:pairseg_8QO4_sequence_000567","trackDataPath":"ANNOCONFIDENCE/assay_numeric_usability_annotation.tsv","trackSchemaId":"assay_numeric_usability_annotation","supports1d":true,"supportsTable":true,"colorPolicyId":"rmdb_reactivity_low_mid_high_v1"},{"profileId":"data-rna-structures/data-rna-structures/15KLIB_DMS_0000.rdat#9796","trackRouteId":"annojoin:track:RMDB2PDB:pairseg_8QO4_sequence_000568","trackDataPath":"ANNOCONFIDENCE/assay_numeric_usability_annotation.tsv","trackSchemaId":"assay_numeric_usability_annotation","supports1d":true,"supportsTable":true,"colorPolicyId":"rmdb_reactivity_low_mid_high_v1"},{"profileId":"data-rna-structures/data-rna-structures/SRSBCV_DMS_0000.rdat#8176","trackRouteId":"annojoin:track:RMDB2PDB:pairseg_8QO4_sequence_000569","trackDataPath":"ANNOCONFIDENCE/assay_numeric_usability_annotation.tsv","trackSchemaId":"assay_numeric_usability_annotation","supports1d":true,"supportsTable":true,"colorPolicyId":"rmdb_reactivity_low_mid_high_v1"},{"profileId":"data-rna-structures/data-rna-structures/SRSBCV_2A3_0000.rdat#8176","trackRouteId":"annojoin:track:RMDB2PDB:pairseg_8QO4_sequence_000570","trackDataPath":"ANNOCONFIDENCE/assay_numeric_usability_annotation.tsv","trackSchemaId":"assay_numeric_usability_annotation","supports1d":true,"supportsTable":true,"colorPolicyId":"rmdb_reactivity_low_mid_high_v1"},{"profileId":"data-rna-structures/data-rna-structures/15KREP_2A3_0001.rdat#31374","trackRouteId":"annojoin:track:RMDB2PDB:pairseg_8QO4_sequence_000571","trackDataPath":"ANNOCONFIDENCE/assay_numeric_usability_annotation.tsv","trackSchemaId":"assay_numeric_usability_annotation","supports1d":true,"supportsTable":true,"colorPolicyId":"rmdb_reactivity_low_mid_high_v1"},{"profileId":"data-rna-structures/data-rna-structures/15KREP_DMS_0001.rdat#31374","trackRouteId":"annojoin:track:RMDB2PDB:pairseg_8QO4_sequence_000572","trackDataPath":"ANNOCONFIDENCE/assay_numeric_usability_annotation.tsv","trackSchemaId":"assay_numeric_usability_annotation","supports1d":true,"supportsTable":true,"colorPolicyId":"rmdb_reactivity_low_mid_high_v1"},{"profileId":"data-rna-structures/data-rna-structures/SRSBCV_DMS_0002.rdat#23132","trackRouteId":"annojoin:track:RMDB2PDB:pairseg_8QO4_sequence_000573","trackDataPath":"ANNOCONFIDENCE/assay_numeric_usability_annotation.tsv","trackSchemaId":"assay_numeric_usability_annotation","supports1d":true,"supportsTable":true,"colorPolicyId":"rmdb_reactivity_low_mid_high_v1"},{"profileId":"data-rna-structures/data-rna-structures/SRSBCV_2A3_0002.rdat#23132","trackRouteId":"annojoin:track:RMDB2PDB:pairseg_8QO4_sequence_000574","trackDataPath":"ANNOCONFIDENCE/assay_numeric_usability_annotation.tsv","trackSchemaId":"assay_numeric_usability_annotation","supports1d":true,"supportsTable":true,"colorPolicyId":"rmdb_reactivity_low_mid_high_v1"},{"profileId":"data-rna-structures/data-rna-structures/15KREP_DMS_0000.rdat#8936","trackRouteId":"annojoin:track:RMDB2PDB:pairseg_8QO4_sequence_000575","trackDataPath":"ANNOCONFIDENCE/assay_numeric_usability_annotation.tsv","trackSchemaId":"assay_numeric_usability_annotation","supports1d":true,"supportsTable":true,"colorPolicyId":"rmdb_reactivity_low_mid_high_v1"},{"profileId":"data-rna-structures/data-rna-structures/15KREP_2A3_0000.rdat#8936","trackRouteId":"annojoin:track:RMDB2PDB:pairseg_8QO4_sequence_000576","trackDataPath":"ANNOCONFIDENCE/assay_numeric_usability_annotation.tsv","trackSchemaId":"assay_numeric_usability_annotation","supports1d":true,"supportsTable":true,"colorPolicyId":"rmdb_reactivity_low_mid_high_v1"},{"profileId":"data-rna-structures/data-rna-structures/SRSBCV_DMS_0000.rdat#34174","trackRouteId":"annojoin:track:RMDB2PDB:pairseg_8QO4_sequence_000577","trackDataPath":"ANNOCONFIDENCE/assay_numeric_usability_annotation.tsv","trackSchemaId":"assay_numeric_usability_annotation","supports1d":true,"supportsTable":true,"colorPolicyId":"rmdb_reactivity_low_mid_high_v1"},{"profileId":"data-rna-structures/data-rna-structures/SRSBCV_2A3_0000.rdat#34174","trackRouteId":"annojoin:track:RMDB2PDB:pairseg_8QO4_sequence_000578","trackDataPath":"ANNOCONFIDENCE/assay_numeric_usability_annotation.tsv","trackSchemaId":"assay_numeric_usability_annotation","supports1d":true,"supportsTable":true,"colorPolicyId":"rmdb_reactivity_low_mid_high_v1"}]}
