{"schemaVersion":"annojoin-atlas.v1","version":"V2.1_RMDB_LINE_A_20260617","atlasCaseKey":"RMDB2PDB:8QO2","caseId":"8QO2","routeKey":"memberships","page":2,"pageSize":500,"totalRows":628,"pageCount":2,"rows":[{"pairId":"8QO2:sequence_000508","profileId":"rmdbv3_exact_892143861110af63899d1a2d48d056b9e8791ffb|top_x_279::seq_bded6e6e34006032|8QO2_A","routeId":"annojoin:profiles:RMDB2PDB:8QO2"},{"pairId":"8QO2:sequence_000509","profileId":"rmdbv3_exact_80d97ddd890b21fb9e9df5d1658daed0e254136f|top_x_279::seq_02ba9fd8f740680f|8QO2_A","routeId":"annojoin:profiles:RMDB2PDB:8QO2"},{"pairId":"8QO2:sequence_000510","profileId":"rmdbv3_exact_80d97ddd890b21fb9e9df5d1658daed0e254136f|top_x_279::seq_4bb2b8bb5dd0663c|8QO2_A","routeId":"annojoin:profiles:RMDB2PDB:8QO2"},{"pairId":"8QO2:sequence_000511","profileId":"rmdbv3_exact_ad2c2328d44e335bce8b95df04966f97b1b9541b|top_x_279::seq_0369d80afba7e7c4|8QO2_A","routeId":"annojoin:profiles:RMDB2PDB:8QO2"},{"pairId":"8QO2:sequence_000512","profileId":"rmdbv3_exact_ad2c2328d44e335bce8b95df04966f97b1b9541b|top_x_279::seq_1ea86dc438678061|8QO2_A","routeId":"annojoin:profiles:RMDB2PDB:8QO2"},{"pairId":"8QO2:sequence_000513","profileId":"rmdbv3_exact_945bdf52213c73f6b9ff29986438e0c541453bd3|top_x_279::seq_79b509ea43f86438|8QO2_A","routeId":"annojoin:profiles:RMDB2PDB:8QO2"},{"pairId":"8QO2:sequence_000514","profileId":"rmdbv3_exact_945bdf52213c73f6b9ff29986438e0c541453bd3|top_x_279::seq_8d9f97ec280e3bc5|8QO2_A","routeId":"annojoin:profiles:RMDB2PDB:8QO2"},{"pairId":"8QO2:sequence_000515","profileId":"rmdbv3_exact_32b0d091eb2784ecd3dceb285f95c654311eb164|top_x_279::seq_cec07540b87a4a03|8QO2_A","routeId":"annojoin:profiles:RMDB2PDB:8QO2"},{"pairId":"8QO2:sequence_000516","profileId":"rmdbv3_exact_32b0d091eb2784ecd3dceb285f95c654311eb164|top_x_279::seq_dbdeba9cd34220c9|8QO2_A","routeId":"annojoin:profiles:RMDB2PDB:8QO2"},{"pairId":"8QO2:sequence_000517","profileId":"rmdbv3_exact_5ccf06e7e6a5a4a39103411c42700bf4fad5982c|top_x_279::seq_aff9d5d42c4c88ed|8QO2_A","routeId":"annojoin:profiles:RMDB2PDB:8QO2"},{"pairId":"8QO2:sequence_000518","profileId":"rmdbv3_exact_5ccf06e7e6a5a4a39103411c42700bf4fad5982c|top_x_279::seq_fde8c62109b3c843|8QO2_A","routeId":"annojoin:profiles:RMDB2PDB:8QO2"},{"pairId":"8QO2:sequence_000519","profileId":"rmdbv3_exact_defc4bbead31dc695f0c1e2551bc3698caecede7|top_x_279::seq_986ebb9364c4431d|8QO2_A","routeId":"annojoin:profiles:RMDB2PDB:8QO2"},{"pairId":"8QO2:sequence_000520","profileId":"rmdbv3_exact_defc4bbead31dc695f0c1e2551bc3698caecede7|top_x_279::seq_c944b07721433011|8QO2_A","routeId":"annojoin:profiles:RMDB2PDB:8QO2"},{"pairId":"8QO2:sequence_000521","profileId":"rmdbv3_exact_e0688c377fee47b64a6607d5ec71c1782d860334|top_x_279::seq_56c3b136b04e73e6|8QO2_A","routeId":"annojoin:profiles:RMDB2PDB:8QO2"},{"pairId":"8QO2:sequence_000522","profileId":"rmdbv3_exact_e0688c377fee47b64a6607d5ec71c1782d860334|top_x_279::seq_c4e5d075205bafe0|8QO2_A","routeId":"annojoin:profiles:RMDB2PDB:8QO2"},{"pairId":"8QO2:sequence_000523","profileId":"rmdbv3_exact_b7f4fae90cdfa4931a1c10aa1964f70145635165|top_x_279::seq_37f1256f6930348f|8QO2_A","routeId":"annojoin:profiles:RMDB2PDB:8QO2"},{"pairId":"8QO2:sequence_000524","profileId":"rmdbv3_exact_b7f4fae90cdfa4931a1c10aa1964f70145635165|top_x_279::seq_b504e147cc9d85eb|8QO2_A","routeId":"annojoin:profiles:RMDB2PDB:8QO2"},{"pairId":"8QO2:sequence_000525","profileId":"rmdbv3_exact_aa37c19af07d56c9b41f8fbf348cd31a1c741310|top_x_279::seq_60820885880a8d6d|8QO2_A","routeId":"annojoin:profiles:RMDB2PDB:8QO2"},{"pairId":"8QO2:sequence_000526","profileId":"rmdbv3_exact_aa37c19af07d56c9b41f8fbf348cd31a1c741310|top_x_279::seq_e695652abe5a7f42|8QO2_A","routeId":"annojoin:profiles:RMDB2PDB:8QO2"},{"pairId":"8QO2:sequence_000527","profileId":"rmdbv3_exact_ce5e06111b17395f262e2d48151853f57b6cde37|top_x_279::seq_15cd7417defb9131|8QO2_A","routeId":"annojoin:profiles:RMDB2PDB:8QO2"},{"pairId":"8QO2:sequence_000528","profileId":"rmdbv3_exact_ce5e06111b17395f262e2d48151853f57b6cde37|top_x_279::seq_ceae340748861a95|8QO2_A","routeId":"annojoin:profiles:RMDB2PDB:8QO2"},{"pairId":"8QO2:sequence_000529","profileId":"rmdbv3_exact_ea353c82be6b1acedc45d4a94ba78cd7cb263269|top_x_279::seq_0865cd243f587494|8QO2_A","routeId":"annojoin:profiles:RMDB2PDB:8QO2"},{"pairId":"8QO2:sequence_000530","profileId":"rmdbv3_exact_ea353c82be6b1acedc45d4a94ba78cd7cb263269|top_x_279::seq_49f6641aaa501cac|8QO2_A","routeId":"annojoin:profiles:RMDB2PDB:8QO2"},{"pairId":"8QO2:sequence_000531","profileId":"rmdbv3_exact_ce064f0cc9521d4c8594b3462a90dadf37977b38|top_x_279::seq_9fbbaf192a035d07|8QO2_A","routeId":"annojoin:profiles:RMDB2PDB:8QO2"},{"pairId":"8QO2:sequence_000532","profileId":"rmdbv3_exact_ce064f0cc9521d4c8594b3462a90dadf37977b38|top_x_279::seq_a7ba3da476f503cd|8QO2_A","routeId":"annojoin:profiles:RMDB2PDB:8QO2"},{"pairId":"8QO2:sequence_000533","profileId":"rmdbv3_exact_b5638592f7336ac6a88800c364f3b8101348950d|top_x_279::seq_4f413a3b685373df|8QO2_A","routeId":"annojoin:profiles:RMDB2PDB:8QO2"},{"pairId":"8QO2:sequence_000534","profileId":"rmdbv3_exact_b5638592f7336ac6a88800c364f3b8101348950d|top_x_279::seq_c80261b125ed6454|8QO2_A","routeId":"annojoin:profiles:RMDB2PDB:8QO2"},{"pairId":"8QO2:sequence_000535","profileId":"rmdbv3_exact_52b8b7fa31ab38604e227eff3303841c4d8b1ea8|top_x_279::seq_c62a02d427c949c4|8QO2_A","routeId":"annojoin:profiles:RMDB2PDB:8QO2"},{"pairId":"8QO2:sequence_000536","profileId":"rmdbv3_exact_52b8b7fa31ab38604e227eff3303841c4d8b1ea8|top_x_279::seq_d453e68238a88da8|8QO2_A","routeId":"annojoin:profiles:RMDB2PDB:8QO2"},{"pairId":"8QO2:sequence_000537","profileId":"rmdbv3_exact_2acde06c6a89ef899dde25399aaf1cabe022f555|top_x_279::seq_6120e72578490e73|8QO2_A","routeId":"annojoin:profiles:RMDB2PDB:8QO2"},{"pairId":"8QO2:sequence_000538","profileId":"rmdbv3_exact_2acde06c6a89ef899dde25399aaf1cabe022f555|top_x_279::seq_792b8fd4ba5f2da9|8QO2_A","routeId":"annojoin:profiles:RMDB2PDB:8QO2"},{"pairId":"8QO2:sequence_000539","profileId":"rmdbv3_exact_25a38b4701475a79c44183ba13677e732a5024bc|top_x_279::seq_a7df83f7f9656ba2|8QO2_A","routeId":"annojoin:profiles:RMDB2PDB:8QO2"},{"pairId":"8QO2:sequence_000540","profileId":"rmdbv3_exact_25a38b4701475a79c44183ba13677e732a5024bc|top_x_279::seq_ad13fadfeeeb0355|8QO2_A","routeId":"annojoin:profiles:RMDB2PDB:8QO2"},{"pairId":"8QO2:sequence_000541","profileId":"rmdbv3_exact_79da4a5457d38c9ff3f2ca1056794936c3735124|top_x_279::seq_3526fd5ddbe85203|8QO2_A","routeId":"annojoin:profiles:RMDB2PDB:8QO2"},{"pairId":"8QO2:sequence_000542","profileId":"rmdbv3_exact_79da4a5457d38c9ff3f2ca1056794936c3735124|top_x_279::seq_3a6e5c277ba73700|8QO2_A","routeId":"annojoin:profiles:RMDB2PDB:8QO2"},{"pairId":"8QO2:sequence_000543","profileId":"rmdbv3_exact_2717fed95517e1c02f8de63f1e218108ff7fa8c2|top_x_279::seq_2ddca238f8bb8ddf|8QO2_A","routeId":"annojoin:profiles:RMDB2PDB:8QO2"},{"pairId":"8QO2:sequence_000544","profileId":"rmdbv3_exact_2717fed95517e1c02f8de63f1e218108ff7fa8c2|top_x_279::seq_841a129dbd1bf871|8QO2_A","routeId":"annojoin:profiles:RMDB2PDB:8QO2"},{"pairId":"8QO2:sequence_000545","profileId":"rmdbv3_exact_50b1633ed6ec5bbc0e62f43a1cb5229241b07d57|top_x_279::seq_3df32362b7a3aea9|8QO2_A","routeId":"annojoin:profiles:RMDB2PDB:8QO2"},{"pairId":"8QO2:sequence_000546","profileId":"rmdbv3_exact_50b1633ed6ec5bbc0e62f43a1cb5229241b07d57|top_x_279::seq_de9a7b61d82e4531|8QO2_A","routeId":"annojoin:profiles:RMDB2PDB:8QO2"},{"pairId":"8QO2:sequence_000547","profileId":"rmdbv3_exact_9de0626488bfb0e09be605167b1ac3499dacade9|top_x_279::seq_1a4e978f22ad1695|8QO2_A","routeId":"annojoin:profiles:RMDB2PDB:8QO2"},{"pairId":"8QO2:sequence_000548","profileId":"rmdbv3_exact_9de0626488bfb0e09be605167b1ac3499dacade9|top_x_279::seq_86923832ff49911d|8QO2_A","routeId":"annojoin:profiles:RMDB2PDB:8QO2"},{"pairId":"8QO2:sequence_000549","profileId":"rmdbv3_exact_70332eabcb70916cbeec41743419ad99f2a0ff19|top_x_279::seq_75a38e01fd1e0800|8QO2_A","routeId":"annojoin:profiles:RMDB2PDB:8QO2"},{"pairId":"8QO2:sequence_000550","profileId":"rmdbv3_exact_70332eabcb70916cbeec41743419ad99f2a0ff19|top_x_279::seq_9e0b7a5697431403|8QO2_A","routeId":"annojoin:profiles:RMDB2PDB:8QO2"},{"pairId":"8QO2:sequence_000551","profileId":"rmdbv3_exact_18a78349d4e3523ed0e8b9f41895de4a8b3dd72d|top_x_279::seq_6a61e9e8b579cfda|8QO2_A","routeId":"annojoin:profiles:RMDB2PDB:8QO2"},{"pairId":"8QO2:sequence_000552","profileId":"rmdbv3_exact_18a78349d4e3523ed0e8b9f41895de4a8b3dd72d|top_x_279::seq_e314a2d18a3c6096|8QO2_A","routeId":"annojoin:profiles:RMDB2PDB:8QO2"},{"pairId":"8QO2:sequence_000553","profileId":"rmdbv3_exact_041ada6819c3cb402d9e07b649875d5d7b85ca4e|top_x_279::seq_43339b39e7a9d360|8QO2_A","routeId":"annojoin:profiles:RMDB2PDB:8QO2"},{"pairId":"8QO2:sequence_000554","profileId":"rmdbv3_exact_041ada6819c3cb402d9e07b649875d5d7b85ca4e|top_x_279::seq_c066d1862c8ffb97|8QO2_A","routeId":"annojoin:profiles:RMDB2PDB:8QO2"},{"pairId":"8QO2:sequence_000555","profileId":"rmdbv3_exact_9d6dd9ad3f99b74f664bb5678fd366013155a7c4|top_x_279::seq_9135ded0203dd88b|8QO2_A","routeId":"annojoin:profiles:RMDB2PDB:8QO2"},{"pairId":"8QO2:sequence_000556","profileId":"rmdbv3_exact_9d6dd9ad3f99b74f664bb5678fd366013155a7c4|top_x_279::seq_fe5109afbba703b3|8QO2_A","routeId":"annojoin:profiles:RMDB2PDB:8QO2"},{"pairId":"8QO2:sequence_000557","profileId":"rmdbv3_exact_1ede95833358fd2538e802e291625c021009ff0f|top_x_279::seq_5148dabb2f0b05d3|8QO2_A","routeId":"annojoin:profiles:RMDB2PDB:8QO2"},{"pairId":"8QO2:sequence_000558","profileId":"rmdbv3_exact_1ede95833358fd2538e802e291625c021009ff0f|top_x_279::seq_d8536a389eb361f2|8QO2_A","routeId":"annojoin:profiles:RMDB2PDB:8QO2"},{"pairId":"8QO2:sequence_000559","profileId":"rmdbv3_exact_1a8b6d04b033fed602f376db6156a740c1db6208|top_x_279::seq_1bceb0616573b4cf|8QO2_A","routeId":"annojoin:profiles:RMDB2PDB:8QO2"},{"pairId":"8QO2:sequence_000560","profileId":"rmdbv3_exact_1a8b6d04b033fed602f376db6156a740c1db6208|top_x_279::seq_7ce59d4d156261a8|8QO2_A","routeId":"annojoin:profiles:RMDB2PDB:8QO2"},{"pairId":"8QO2:sequence_000562","profileId":"rmdbv3_exact_7c3cfd2b6433f730ab5f059948e117e2f4897eed|top_x_279::seq_4e82dfb7c7fb2172|8QO2_A","routeId":"annojoin:profiles:RMDB2PDB:8QO2"},{"pairId":"8QO2:sequence_000563","profileId":"rmdbv3_exact_cc24672b6f294de838382d4b961735868049a0d0|top_x_279::seq_4e07749243b0473a|8QO2_A","routeId":"annojoin:profiles:RMDB2PDB:8QO2"},{"pairId":"8QO2:sequence_000564","profileId":"rmdbv3_exact_cc24672b6f294de838382d4b961735868049a0d0|top_x_279::seq_8c93f27df7758a93|8QO2_A","routeId":"annojoin:profiles:RMDB2PDB:8QO2"},{"pairId":"8QO2:sequence_000565","profileId":"rmdbv3_exact_d0bc62c23bcfe7111e472fd89a79de05c2dd5582|top_x_279::seq_606c49ec7d4e754f|8QO2_A","routeId":"annojoin:profiles:RMDB2PDB:8QO2"},{"pairId":"8QO2:sequence_000566","profileId":"rmdbv3_exact_d0bc62c23bcfe7111e472fd89a79de05c2dd5582|top_x_279::seq_aa75cc088b6c38b6|8QO2_A","routeId":"annojoin:profiles:RMDB2PDB:8QO2"},{"pairId":"8QO2:sequence_000567","profileId":"rmdbv3_exact_e75219db2091b2c530df19301f5df265c5f6402e|top_x_279::seq_b3b68408e7c33627|8QO2_A","routeId":"annojoin:profiles:RMDB2PDB:8QO2"},{"pairId":"8QO2:sequence_000568","profileId":"rmdbv3_exact_e75219db2091b2c530df19301f5df265c5f6402e|top_x_279::seq_ec381476f3fe9cba|8QO2_A","routeId":"annojoin:profiles:RMDB2PDB:8QO2"},{"pairId":"8QO2:sequence_000569","profileId":"rmdbv3_exact_cbdc984a65851429123fa69dd8c71abb436f4cb8|top_x_279::seq_c2744260a607a49d|8QO2_A","routeId":"annojoin:profiles:RMDB2PDB:8QO2"},{"pairId":"8QO2:sequence_000570","profileId":"rmdbv3_exact_cbdc984a65851429123fa69dd8c71abb436f4cb8|top_x_279::seq_e67a589025a0f138|8QO2_A","routeId":"annojoin:profiles:RMDB2PDB:8QO2"},{"pairId":"8QO2:sequence_000571","profileId":"rmdbv3_exact_3e1d6c1ebed440f209811f6f18350145d158417d|top_x_279::seq_6b810e71ad2bdca1|8QO2_A","routeId":"annojoin:profiles:RMDB2PDB:8QO2"},{"pairId":"8QO2:sequence_000572","profileId":"rmdbv3_exact_3e1d6c1ebed440f209811f6f18350145d158417d|top_x_279::seq_e0216c28196afba7|8QO2_A","routeId":"annojoin:profiles:RMDB2PDB:8QO2"},{"pairId":"8QO2:sequence_000573","profileId":"rmdbv3_exact_97e035b779abf5faf3c7629c5ecdc33332cd9fba|top_x_279::seq_a61f0cd65d54e2c7|8QO2_A","routeId":"annojoin:profiles:RMDB2PDB:8QO2"},{"pairId":"8QO2:sequence_000574","profileId":"rmdbv3_exact_97e035b779abf5faf3c7629c5ecdc33332cd9fba|top_x_279::seq_e3c978bf1365fedf|8QO2_A","routeId":"annojoin:profiles:RMDB2PDB:8QO2"},{"pairId":"8QO2:sequence_000575","profileId":"rmdbv3_exact_c86975d6dc70ee6d97bbc5eef4b9bdf7d859bee6|top_x_279::seq_33aa73cbdff73d5f|8QO2_A","routeId":"annojoin:profiles:RMDB2PDB:8QO2"},{"pairId":"8QO2:sequence_000576","profileId":"rmdbv3_exact_c86975d6dc70ee6d97bbc5eef4b9bdf7d859bee6|top_x_279::seq_ed7a44e64f1e2b52|8QO2_A","routeId":"annojoin:profiles:RMDB2PDB:8QO2"},{"pairId":"8QO2:sequence_000577","profileId":"rmdbv3_exact_cb8660233950dfde073e3e09c120dffe20a038d6|top_x_279::seq_21dcb4245749c4a1|8QO2_A","routeId":"annojoin:profiles:RMDB2PDB:8QO2"},{"pairId":"8QO2:sequence_000578","profileId":"rmdbv3_exact_cb8660233950dfde073e3e09c120dffe20a038d6|top_x_279::seq_5da5201841a52783|8QO2_A","routeId":"annojoin:profiles:RMDB2PDB:8QO2"},{"pairId":"8QO2:sequence_000579","profileId":"rmdbv3_exact_d14b69c2fc5cf847d01eb45fe50d25161e799f86|top_x_279::seq_3f11da3339c96e74|8QO2_A","routeId":"annojoin:profiles:RMDB2PDB:8QO2"},{"pairId":"8QO2:sequence_000580","profileId":"rmdbv3_exact_d14b69c2fc5cf847d01eb45fe50d25161e799f86|top_x_279::seq_fd03bb689e7c2a46|8QO2_A","routeId":"annojoin:profiles:RMDB2PDB:8QO2"},{"pairId":"8QO2:sequence_000581","profileId":"rmdbv3_exact_ae0a207c784b7a5b2b37cbcb0ac4a20640d42780|top_x_279::seq_41e847a8f73b4161|8QO2_A","routeId":"annojoin:profiles:RMDB2PDB:8QO2"},{"pairId":"8QO2:sequence_000582","profileId":"rmdbv3_exact_ae0a207c784b7a5b2b37cbcb0ac4a20640d42780|top_x_279::seq_c945f17bdfaadad4|8QO2_A","routeId":"annojoin:profiles:RMDB2PDB:8QO2"},{"pairId":"8QO2:sequence_000583","profileId":"rmdbv3_exact_3826dad730aafe464e90fc74d0825bbaa60cfc42|top_x_279::seq_7c3d0a283041af0b|8QO2_A","routeId":"annojoin:profiles:RMDB2PDB:8QO2"},{"pairId":"8QO2:sequence_000584","profileId":"rmdbv3_exact_3826dad730aafe464e90fc74d0825bbaa60cfc42|top_x_279::seq_c595d1d009e69071|8QO2_A","routeId":"annojoin:profiles:RMDB2PDB:8QO2"},{"pairId":"8QO2:sequence_000585","profileId":"rmdbv3_exact_b6e839f9a2b10de084b01301a9044c72e74222d9|top_x_279::seq_1bff0f6630016c13|8QO2_A","routeId":"annojoin:profiles:RMDB2PDB:8QO2"},{"pairId":"8QO2:sequence_000586","profileId":"rmdbv3_exact_b6e839f9a2b10de084b01301a9044c72e74222d9|top_x_279::seq_2ee9a0afdfd3492d|8QO2_A","routeId":"annojoin:profiles:RMDB2PDB:8QO2"},{"pairId":"8QO2:sequence_000587","profileId":"rmdbv3_exact_d891a54a8e2954bffeec4ad026c66c0d6782ff48|top_x_279::seq_2a8b2539abc4eadf|8QO2_A","routeId":"annojoin:profiles:RMDB2PDB:8QO2"},{"pairId":"8QO2:sequence_000588","profileId":"rmdbv3_exact_d891a54a8e2954bffeec4ad026c66c0d6782ff48|top_x_279::seq_f3e825b13f8afc72|8QO2_A","routeId":"annojoin:profiles:RMDB2PDB:8QO2"},{"pairId":"8QO2:sequence_000589","profileId":"rmdbv3_exact_e48b48488bd8f1830e8ac928c213a0dce869be2f|top_x_279::seq_740630f836cd9c03|8QO2_A","routeId":"annojoin:profiles:RMDB2PDB:8QO2"},{"pairId":"8QO2:sequence_000590","profileId":"rmdbv3_exact_e48b48488bd8f1830e8ac928c213a0dce869be2f|top_x_279::seq_d3e92e79475a76b0|8QO2_A","routeId":"annojoin:profiles:RMDB2PDB:8QO2"},{"pairId":"8QO2:sequence_000591","profileId":"rmdbv3_exact_54d68d2ebba19f5bad7998152258fdbe204813ec|top_x_279::seq_283c9113c1930e9c|8QO2_A","routeId":"annojoin:profiles:RMDB2PDB:8QO2"},{"pairId":"8QO2:sequence_000592","profileId":"rmdbv3_exact_54d68d2ebba19f5bad7998152258fdbe204813ec|top_x_279::seq_6fe679831fab8feb|8QO2_A","routeId":"annojoin:profiles:RMDB2PDB:8QO2"},{"pairId":"8QO2:sequence_000593","profileId":"rmdbv3_exact_1092f85cd93f93cf11df0a6f6a42992415532f8c|top_x_279::seq_80cc61b62d65881b|8QO2_A","routeId":"annojoin:profiles:RMDB2PDB:8QO2"},{"pairId":"8QO2:sequence_000594","profileId":"rmdbv3_exact_1092f85cd93f93cf11df0a6f6a42992415532f8c|top_x_279::seq_c27ff7f62ab8a373|8QO2_A","routeId":"annojoin:profiles:RMDB2PDB:8QO2"},{"pairId":"8QO2:sequence_000595","profileId":"rmdbv3_exact_35c2605f807a8bcfdb8c5c8de6e56dcc93db96e2|top_x_279::seq_aaa8eb64965d0e92|8QO2_A","routeId":"annojoin:profiles:RMDB2PDB:8QO2"},{"pairId":"8QO2:sequence_000596","profileId":"rmdbv3_exact_35c2605f807a8bcfdb8c5c8de6e56dcc93db96e2|top_x_279::seq_f9b53b07d66cf709|8QO2_A","routeId":"annojoin:profiles:RMDB2PDB:8QO2"},{"pairId":"8QO2:sequence_000597","profileId":"rmdbv3_exact_b79738ecd6d249c9cf7a9f9a75575266e4a70e88|top_x_279::seq_53d339a5251a0d5c|8QO2_A","routeId":"annojoin:profiles:RMDB2PDB:8QO2"},{"pairId":"8QO2:sequence_000598","profileId":"rmdbv3_exact_b79738ecd6d249c9cf7a9f9a75575266e4a70e88|top_x_279::seq_a02f0833d9f53347|8QO2_A","routeId":"annojoin:profiles:RMDB2PDB:8QO2"},{"pairId":"8QO2:sequence_000599","profileId":"rmdbv3_exact_4b68ce0762426cf40ab8242638e1340ebf354c0a|top_x_279::seq_2cb2901ed6362861|8QO2_A","routeId":"annojoin:profiles:RMDB2PDB:8QO2"},{"pairId":"8QO2:sequence_000600","profileId":"rmdbv3_exact_4b68ce0762426cf40ab8242638e1340ebf354c0a|top_x_279::seq_47876a3970876156|8QO2_A","routeId":"annojoin:profiles:RMDB2PDB:8QO2"},{"pairId":"8QO2:sequence_000601","profileId":"rmdbv3_exact_d07b21823b3e51db2de9f0c795ebcd1037b4ffbf|top_x_279::seq_250b9d226cf8e469|8QO2_A","routeId":"annojoin:profiles:RMDB2PDB:8QO2"},{"pairId":"8QO2:sequence_000602","profileId":"rmdbv3_exact_d07b21823b3e51db2de9f0c795ebcd1037b4ffbf|top_x_279::seq_382bda1ce3f9ed44|8QO2_A","routeId":"annojoin:profiles:RMDB2PDB:8QO2"},{"pairId":"8QO2:sequence_000603","profileId":"rmdbv3_exact_b0f538caed773b514630912f9b2b6e66a7f30ee9|top_x_279::seq_7a02bb7ba3396fcf|8QO2_A","routeId":"annojoin:profiles:RMDB2PDB:8QO2"},{"pairId":"8QO2:sequence_000604","profileId":"rmdbv3_exact_b0f538caed773b514630912f9b2b6e66a7f30ee9|top_x_279::seq_9fb7c843eee1eeab|8QO2_A","routeId":"annojoin:profiles:RMDB2PDB:8QO2"},{"pairId":"8QO2:sequence_000605","profileId":"rmdbv3_exact_e65fc28b96a434aa0ae43791ba9c3532c297df12|top_x_279::seq_c148a6a6bbade3ce|8QO2_A","routeId":"annojoin:profiles:RMDB2PDB:8QO2"},{"pairId":"8QO2:sequence_000606","profileId":"rmdbv3_exact_e65fc28b96a434aa0ae43791ba9c3532c297df12|top_x_279::seq_c4ce226533f29907|8QO2_A","routeId":"annojoin:profiles:RMDB2PDB:8QO2"},{"pairId":"8QO2:sequence_000607","profileId":"rmdbv3_exact_59ceb25d1b668ef16286cd4f2d62e4faa15b455b|top_x_279::seq_3570e289c922d189|8QO2_A","routeId":"annojoin:profiles:RMDB2PDB:8QO2"},{"pairId":"8QO2:sequence_000608","profileId":"rmdbv3_exact_59ceb25d1b668ef16286cd4f2d62e4faa15b455b|top_x_279::seq_a767067386c4f855|8QO2_A","routeId":"annojoin:profiles:RMDB2PDB:8QO2"},{"pairId":"8QO2:sequence_000609","profileId":"rmdbv3_exact_3f9315bfe5a228f55783d1be6545e09e8e15d18f|top_x_279::seq_05b515bb3c82b82b|8QO2_A","routeId":"annojoin:profiles:RMDB2PDB:8QO2"},{"pairId":"8QO2:sequence_000610","profileId":"rmdbv3_exact_3f9315bfe5a228f55783d1be6545e09e8e15d18f|top_x_279::seq_c9ebdd661620fa30|8QO2_A","routeId":"annojoin:profiles:RMDB2PDB:8QO2"},{"pairId":"8QO2:sequence_000611","profileId":"rmdbv3_exact_4adfd8bbd71ba2b07403901cdfcd942023639428|top_x_279::seq_72b535a22dd522bd|8QO2_A","routeId":"annojoin:profiles:RMDB2PDB:8QO2"},{"pairId":"8QO2:sequence_000612","profileId":"rmdbv3_exact_4adfd8bbd71ba2b07403901cdfcd942023639428|top_x_279::seq_ece24b54156bc430|8QO2_A","routeId":"annojoin:profiles:RMDB2PDB:8QO2"},{"pairId":"8QO2:sequence_000613","profileId":"rmdbv3_exact_8345af04044c1d43b274b6a39ef30add6c64bdb8|top_x_279::seq_6607190d133c87ba|8QO2_A","routeId":"annojoin:profiles:RMDB2PDB:8QO2"},{"pairId":"8QO2:sequence_000614","profileId":"rmdbv3_exact_8345af04044c1d43b274b6a39ef30add6c64bdb8|top_x_279::seq_6ce25e3adc9a4193|8QO2_A","routeId":"annojoin:profiles:RMDB2PDB:8QO2"},{"pairId":"8QO2:sequence_000615","profileId":"rmdbv3_exact_ebe547f12f7654e6d10b46ac920997ca412f0b1b|top_x_279::seq_12135657ac7c26bd|8QO2_A","routeId":"annojoin:profiles:RMDB2PDB:8QO2"},{"pairId":"8QO2:sequence_000616","profileId":"rmdbv3_exact_ebe547f12f7654e6d10b46ac920997ca412f0b1b|top_x_279::seq_df101c4cb7c60d9a|8QO2_A","routeId":"annojoin:profiles:RMDB2PDB:8QO2"},{"pairId":"8QO2:sequence_000617","profileId":"rmdbv3_exact_21b30b5b3d040aa43110b893b564ff1c77022e94|top_x_279::seq_0385df03734c790f|8QO2_A","routeId":"annojoin:profiles:RMDB2PDB:8QO2"},{"pairId":"8QO2:sequence_000618","profileId":"rmdbv3_exact_21b30b5b3d040aa43110b893b564ff1c77022e94|top_x_279::seq_9e4de178d721ba1d|8QO2_A","routeId":"annojoin:profiles:RMDB2PDB:8QO2"},{"pairId":"8QO2:sequence_000619","profileId":"rmdbv3_exact_38c8e0aba1e38e38565dd96e077c5a9e115ed1b3|top_x_279::seq_24c9b8a6a50f13ee|8QO2_A","routeId":"annojoin:profiles:RMDB2PDB:8QO2"},{"pairId":"8QO2:sequence_000620","profileId":"rmdbv3_exact_38c8e0aba1e38e38565dd96e077c5a9e115ed1b3|top_x_279::seq_5b253479ec3d5c43|8QO2_A","routeId":"annojoin:profiles:RMDB2PDB:8QO2"},{"pairId":"8QO2:sequence_000621","profileId":"rmdbv3_exact_dde2c999475b423805ecddfe4eab25b75e1ed3eb|top_x_279::seq_26b47a6f11774d43|8QO2_A","routeId":"annojoin:profiles:RMDB2PDB:8QO2"},{"pairId":"8QO2:sequence_000622","profileId":"rmdbv3_exact_dde2c999475b423805ecddfe4eab25b75e1ed3eb|top_x_279::seq_ecc58f5cffb93b13|8QO2_A","routeId":"annojoin:profiles:RMDB2PDB:8QO2"},{"pairId":"8QO2:sequence_000623","profileId":"rmdbv3_exact_f471086ff2cf7160acbc0d0b50e0b69ea6c37d3a|top_x_279::seq_b21fcdb7cf975512|8QO2_A","routeId":"annojoin:profiles:RMDB2PDB:8QO2"},{"pairId":"8QO2:sequence_000624","profileId":"rmdbv3_exact_f471086ff2cf7160acbc0d0b50e0b69ea6c37d3a|top_x_279::seq_e990313c41f4aff5|8QO2_A","routeId":"annojoin:profiles:RMDB2PDB:8QO2"},{"pairId":"8QO2:sequence_000625","profileId":"rmdbv3_exact_f5f35d72fe1d2825404baacd69d3ecfde8209698|top_x_279::seq_92ad696a9c627715|8QO2_A","routeId":"annojoin:profiles:RMDB2PDB:8QO2"},{"pairId":"8QO2:sequence_000626","profileId":"rmdbv3_exact_f5f35d72fe1d2825404baacd69d3ecfde8209698|top_x_279::seq_e1072af0d85713dc|8QO2_A","routeId":"annojoin:profiles:RMDB2PDB:8QO2"},{"pairId":"8QO2:sequence_000627","profileId":"rmdbv3_exact_172e82080dccdcbb26acb9719e4c25305a884344|top_x_279::seq_b7c197534d0f22d7|8QO2_A","routeId":"annojoin:profiles:RMDB2PDB:8QO2"},{"pairId":"8QO2:sequence_000628","profileId":"rmdbv3_exact_172e82080dccdcbb26acb9719e4c25305a884344|top_x_279::seq_d29326fb66a6d462|8QO2_A","routeId":"annojoin:profiles:RMDB2PDB:8QO2"},{"pairId":"8QO2:sequence_000629","profileId":"rmdbv3_exact_314e9cd4ffad9f8ed741c1d690a52d7f30c48216|top_x_279::seq_0b9d3fbb0f874f82|8QO2_A","routeId":"annojoin:profiles:RMDB2PDB:8QO2"},{"pairId":"8QO2:sequence_000630","profileId":"rmdbv3_exact_314e9cd4ffad9f8ed741c1d690a52d7f30c48216|top_x_279::seq_50b56b90546aeff6|8QO2_A","routeId":"annojoin:profiles:RMDB2PDB:8QO2"},{"pairId":"8QO2:sequence_000631","profileId":"rmdbv3_exact_b50a873590b3f10148a79f46dde61a7f55f55875|top_x_279::seq_6160e016cc299b88|8QO2_A","routeId":"annojoin:profiles:RMDB2PDB:8QO2"},{"pairId":"8QO2:sequence_000632","profileId":"rmdbv3_exact_b50a873590b3f10148a79f46dde61a7f55f55875|top_x_279::seq_fe75075baf30dde5|8QO2_A","routeId":"annojoin:profiles:RMDB2PDB:8QO2"},{"pairId":"8QO2:sequence_000633","profileId":"rmdbv3_exact_bc16c70eed782b159d3eddbd97560a61d3722544|top_x_279::seq_09967189323ce150|8QO2_A","routeId":"annojoin:profiles:RMDB2PDB:8QO2"},{"pairId":"8QO2:sequence_000634","profileId":"rmdbv3_exact_bc16c70eed782b159d3eddbd97560a61d3722544|top_x_279::seq_4886d803f7998806|8QO2_A","routeId":"annojoin:profiles:RMDB2PDB:8QO2"},{"pairId":"8QO2:sequence_000635","profileId":"rmdbv3_exact_15b69284286dc4010f9b574b997d943499c6e076|top_x_279::seq_1f61001c873925be|8QO2_A","routeId":"annojoin:profiles:RMDB2PDB:8QO2"},{"pairId":"8QO2:sequence_000636","profileId":"rmdbv3_exact_15b69284286dc4010f9b574b997d943499c6e076|top_x_279::seq_e90edd21017d28de|8QO2_A","routeId":"annojoin:profiles:RMDB2PDB:8QO2"}]}
