{"schemaVersion":"annojoin-atlas.v1","version":"V2.1_RMDB_LINE_A_20260617","atlasCaseKey":"RMDB2PDB:7UVV","caseId":"7UVV","routeKey":"memberships","page":2,"pageSize":500,"totalRows":502,"pageCount":2,"rows":[{"pairId":"7UVV:sequence_000567","profileId":"rmdbv3_exact_a232b38b66537a68c6f0c7c711efd085a02573fa|top_x_279::seq_2ee46f53621b3741|7UVV_a","routeId":"annojoin:profiles:RMDB2PDB:7UVV"},{"pairId":"7UVV:sequence_000568","profileId":"rmdbv3_exact_a232b38b66537a68c6f0c7c711efd085a02573fa|top_x_279::seq_bde39752445e4870|7UVV_a","routeId":"annojoin:profiles:RMDB2PDB:7UVV"}]}
