{"schemaVersion":"annojoin-atlas.v1","version":"V2.1_RMDB_LINE_A_20260617","atlasCaseKey":"RMDB2PDB:8B2L","caseId":"8B2L","routeKey":"conflicts","page":2,"pageSize":500,"totalRows":532,"pageCount":2,"rows":[{"id":"RMDB2PDB|conflict|pairseg_8B2L_sequence_000566","routeId":"annojoin:conflict:RMDB2PDB:pairseg_8B2L_sequence_000566","type":"structure_signal_discordance_candidate","status":"none_detected","fecClaimCeiling":"","claimScope":"","lssStatus":"LSS_NOT_EVALUABLE","reviewPriorityHint":"no_conflict_review_priority"},{"id":"RMDB2PDB|conflict|pairseg_8B2L_sequence_000567","routeId":"annojoin:conflict:RMDB2PDB:pairseg_8B2L_sequence_000567","type":"structure_signal_discordance_candidate","status":"none_detected","fecClaimCeiling":"","claimScope":"","lssStatus":"LSS_NOT_EVALUABLE","reviewPriorityHint":"no_conflict_review_priority"},{"id":"RMDB2PDB|conflict|pairseg_8B2L_sequence_000569","routeId":"annojoin:conflict:RMDB2PDB:pairseg_8B2L_sequence_000569","type":"structure_signal_discordance_candidate","status":"none_detected","fecClaimCeiling":"","claimScope":"","lssStatus":"LSS_NOT_EVALUABLE","reviewPriorityHint":"no_conflict_review_priority"},{"id":"RMDB2PDB|conflict|pairseg_8B2L_sequence_000570","routeId":"annojoin:conflict:RMDB2PDB:pairseg_8B2L_sequence_000570","type":"structure_signal_discordance_candidate","status":"none_detected","fecClaimCeiling":"","claimScope":"","lssStatus":"LSS_NOT_EVALUABLE","reviewPriorityHint":"no_conflict_review_priority"},{"id":"RMDB2PDB|conflict|pairseg_8B2L_sequence_000571","routeId":"annojoin:conflict:RMDB2PDB:pairseg_8B2L_sequence_000571","type":"structure_signal_discordance_candidate","status":"none_detected","fecClaimCeiling":"","claimScope":"","lssStatus":"LSS_NOT_EVALUABLE","reviewPriorityHint":"no_conflict_review_priority"},{"id":"RMDB2PDB|conflict|pairseg_8B2L_sequence_000572","routeId":"annojoin:conflict:RMDB2PDB:pairseg_8B2L_sequence_000572","type":"structure_signal_discordance_candidate","status":"none_detected","fecClaimCeiling":"","claimScope":"","lssStatus":"LSS_NOT_EVALUABLE","reviewPriorityHint":"no_conflict_review_priority"},{"id":"RMDB2PDB|conflict|pairseg_8B2L_sequence_000573","routeId":"annojoin:conflict:RMDB2PDB:pairseg_8B2L_sequence_000573","type":"structure_signal_discordance_candidate","status":"none_detected","fecClaimCeiling":"","claimScope":"","lssStatus":"LSS_NOT_EVALUABLE","reviewPriorityHint":"no_conflict_review_priority"},{"id":"RMDB2PDB|conflict|pairseg_8B2L_sequence_000574","routeId":"annojoin:conflict:RMDB2PDB:pairseg_8B2L_sequence_000574","type":"structure_signal_discordance_candidate","status":"none_detected","fecClaimCeiling":"","claimScope":"","lssStatus":"LSS_NOT_EVALUABLE","reviewPriorityHint":"no_conflict_review_priority"},{"id":"RMDB2PDB|conflict|pairseg_8B2L_sequence_000575","routeId":"annojoin:conflict:RMDB2PDB:pairseg_8B2L_sequence_000575","type":"structure_signal_discordance_candidate","status":"none_detected","fecClaimCeiling":"","claimScope":"","lssStatus":"LSS_NOT_EVALUABLE","reviewPriorityHint":"no_conflict_review_priority"},{"id":"RMDB2PDB|conflict|pairseg_8B2L_sequence_000576","routeId":"annojoin:conflict:RMDB2PDB:pairseg_8B2L_sequence_000576","type":"structure_signal_discordance_candidate","status":"none_detected","fecClaimCeiling":"","claimScope":"","lssStatus":"LSS_NOT_EVALUABLE","reviewPriorityHint":"no_conflict_review_priority"},{"id":"RMDB2PDB|conflict|pairseg_8B2L_sequence_000577","routeId":"annojoin:conflict:RMDB2PDB:pairseg_8B2L_sequence_000577","type":"structure_signal_discordance_candidate","status":"none_detected","fecClaimCeiling":"","claimScope":"","lssStatus":"LSS_NOT_EVALUABLE","reviewPriorityHint":"no_conflict_review_priority"},{"id":"RMDB2PDB|conflict|pairseg_8B2L_sequence_000578","routeId":"annojoin:conflict:RMDB2PDB:pairseg_8B2L_sequence_000578","type":"structure_signal_discordance_candidate","status":"none_detected","fecClaimCeiling":"","claimScope":"","lssStatus":"LSS_NOT_EVALUABLE","reviewPriorityHint":"no_conflict_review_priority"},{"id":"RMDB2PDB|conflict|pairseg_8B2L_sequence_000579","routeId":"annojoin:conflict:RMDB2PDB:pairseg_8B2L_sequence_000579","type":"structure_signal_discordance_candidate","status":"none_detected","fecClaimCeiling":"","claimScope":"","lssStatus":"LSS_NOT_EVALUABLE","reviewPriorityHint":"no_conflict_review_priority"},{"id":"RMDB2PDB|conflict|pairseg_8B2L_sequence_000580","routeId":"annojoin:conflict:RMDB2PDB:pairseg_8B2L_sequence_000580","type":"structure_signal_discordance_candidate","status":"none_detected","fecClaimCeiling":"","claimScope":"","lssStatus":"LSS_NOT_EVALUABLE","reviewPriorityHint":"no_conflict_review_priority"},{"id":"RMDB2PDB|conflict|pairseg_8B2L_sequence_000581","routeId":"annojoin:conflict:RMDB2PDB:pairseg_8B2L_sequence_000581","type":"structure_signal_discordance_candidate","status":"none_detected","fecClaimCeiling":"","claimScope":"","lssStatus":"LSS_NOT_EVALUABLE","reviewPriorityHint":"no_conflict_review_priority"},{"id":"RMDB2PDB|conflict|pairseg_8B2L_sequence_000582","routeId":"annojoin:conflict:RMDB2PDB:pairseg_8B2L_sequence_000582","type":"structure_signal_discordance_candidate","status":"none_detected","fecClaimCeiling":"","claimScope":"","lssStatus":"LSS_NOT_EVALUABLE","reviewPriorityHint":"no_conflict_review_priority"},{"id":"RMDB2PDB|conflict|pairseg_8B2L_sequence_000583","routeId":"annojoin:conflict:RMDB2PDB:pairseg_8B2L_sequence_000583","type":"structure_signal_discordance_candidate","status":"none_detected","fecClaimCeiling":"","claimScope":"","lssStatus":"LSS_NOT_EVALUABLE","reviewPriorityHint":"no_conflict_review_priority"},{"id":"RMDB2PDB|conflict|pairseg_8B2L_sequence_000584","routeId":"annojoin:conflict:RMDB2PDB:pairseg_8B2L_sequence_000584","type":"structure_signal_discordance_candidate","status":"none_detected","fecClaimCeiling":"","claimScope":"","lssStatus":"LSS_NOT_EVALUABLE","reviewPriorityHint":"no_conflict_review_priority"},{"id":"RMDB2PDB|conflict|pairseg_8B2L_sequence_000587","routeId":"annojoin:conflict:RMDB2PDB:pairseg_8B2L_sequence_000587","type":"structure_signal_discordance_candidate","status":"none_detected","fecClaimCeiling":"","claimScope":"","lssStatus":"LSS_NOT_EVALUABLE","reviewPriorityHint":"no_conflict_review_priority"},{"id":"RMDB2PDB|conflict|pairseg_8B2L_sequence_000588","routeId":"annojoin:conflict:RMDB2PDB:pairseg_8B2L_sequence_000588","type":"structure_signal_discordance_candidate","status":"none_detected","fecClaimCeiling":"","claimScope":"","lssStatus":"LSS_NOT_EVALUABLE","reviewPriorityHint":"no_conflict_review_priority"},{"id":"RMDB2PDB|conflict|pairseg_8B2L_sequence_000589","routeId":"annojoin:conflict:RMDB2PDB:pairseg_8B2L_sequence_000589","type":"structure_signal_discordance_candidate","status":"none_detected","fecClaimCeiling":"","claimScope":"","lssStatus":"LSS_NOT_EVALUABLE","reviewPriorityHint":"no_conflict_review_priority"},{"id":"RMDB2PDB|conflict|pairseg_8B2L_sequence_000590","routeId":"annojoin:conflict:RMDB2PDB:pairseg_8B2L_sequence_000590","type":"structure_signal_discordance_candidate","status":"none_detected","fecClaimCeiling":"","claimScope":"","lssStatus":"LSS_NOT_EVALUABLE","reviewPriorityHint":"no_conflict_review_priority"},{"id":"RMDB2PDB|conflict|pairseg_8B2L_sequence_000591","routeId":"annojoin:conflict:RMDB2PDB:pairseg_8B2L_sequence_000591","type":"structure_signal_discordance_candidate","status":"none_detected","fecClaimCeiling":"","claimScope":"","lssStatus":"LSS_NOT_EVALUABLE","reviewPriorityHint":"no_conflict_review_priority"},{"id":"RMDB2PDB|conflict|pairseg_8B2L_sequence_000592","routeId":"annojoin:conflict:RMDB2PDB:pairseg_8B2L_sequence_000592","type":"structure_signal_discordance_candidate","status":"none_detected","fecClaimCeiling":"","claimScope":"","lssStatus":"LSS_NOT_EVALUABLE","reviewPriorityHint":"no_conflict_review_priority"},{"id":"RMDB2PDB|conflict|pairseg_8B2L_sequence_000593","routeId":"annojoin:conflict:RMDB2PDB:pairseg_8B2L_sequence_000593","type":"structure_signal_discordance_candidate","status":"none_detected","fecClaimCeiling":"","claimScope":"","lssStatus":"LSS_UNDERPOWERED","reviewPriorityHint":"no_conflict_review_priority"},{"id":"RMDB2PDB|conflict|pairseg_8B2L_sequence_000594","routeId":"annojoin:conflict:RMDB2PDB:pairseg_8B2L_sequence_000594","type":"structure_signal_discordance_candidate","status":"none_detected","fecClaimCeiling":"","claimScope":"","lssStatus":"LSS_UNDERPOWERED","reviewPriorityHint":"no_conflict_review_priority"},{"id":"RMDB2PDB|conflict|pairseg_8B2L_sequence_000595","routeId":"annojoin:conflict:RMDB2PDB:pairseg_8B2L_sequence_000595","type":"structure_signal_discordance_candidate","status":"none_detected","fecClaimCeiling":"","claimScope":"","lssStatus":"LSS_NOT_EVALUABLE","reviewPriorityHint":"no_conflict_review_priority"},{"id":"RMDB2PDB|conflict|pairseg_8B2L_sequence_000596","routeId":"annojoin:conflict:RMDB2PDB:pairseg_8B2L_sequence_000596","type":"structure_signal_discordance_candidate","status":"none_detected","fecClaimCeiling":"","claimScope":"","lssStatus":"LSS_NOT_EVALUABLE","reviewPriorityHint":"no_conflict_review_priority"},{"id":"RMDB2PDB|conflict|pairseg_8B2L_sequence_000597","routeId":"annojoin:conflict:RMDB2PDB:pairseg_8B2L_sequence_000597","type":"structure_signal_discordance_candidate","status":"none_detected","fecClaimCeiling":"","claimScope":"","lssStatus":"LSS_NOT_EVALUABLE","reviewPriorityHint":"no_conflict_review_priority"},{"id":"RMDB2PDB|conflict|pairseg_8B2L_sequence_000598","routeId":"annojoin:conflict:RMDB2PDB:pairseg_8B2L_sequence_000598","type":"structure_signal_discordance_candidate","status":"none_detected","fecClaimCeiling":"","claimScope":"","lssStatus":"LSS_NOT_EVALUABLE","reviewPriorityHint":"no_conflict_review_priority"},{"id":"RMDB2PDB|conflict|pairseg_8B2L_sequence_000599","routeId":"annojoin:conflict:RMDB2PDB:pairseg_8B2L_sequence_000599","type":"structure_signal_discordance_candidate","status":"none_detected","fecClaimCeiling":"","claimScope":"","lssStatus":"LSS_NOT_EVALUABLE","reviewPriorityHint":"no_conflict_review_priority"},{"id":"RMDB2PDB|conflict|pairseg_8B2L_sequence_000600","routeId":"annojoin:conflict:RMDB2PDB:pairseg_8B2L_sequence_000600","type":"structure_signal_discordance_candidate","status":"none_detected","fecClaimCeiling":"","claimScope":"","lssStatus":"LSS_NOT_EVALUABLE","reviewPriorityHint":"no_conflict_review_priority"}]}
