{"schemaVersion":"annojoin-atlas.v1","version":"V2.1_RMDB_LINE_A_20260617","atlasCaseKey":"RMDB2PDB:2K96","caseId":"2K96","routeKey":"memberships","page":2,"pageSize":500,"totalRows":558,"pageCount":2,"rows":[{"pairId":"2K96:sequence_000506","profileId":"rmdbv3_exact_fe0cdee8fc4b45cead3ae2d07e465dbc71522cb0|top_x_279::seq_cc6c8329bb295a46|2K96_A","routeId":"annojoin:profiles:RMDB2PDB:2K96"},{"pairId":"2K96:sequence_000507","profileId":"rmdbv3_exact_04a985bf8af495e965179f81d0a7f83b0c304fe3|top_x_279::seq_1fa1003a85b32c5b|2K96_A","routeId":"annojoin:profiles:RMDB2PDB:2K96"},{"pairId":"2K96:sequence_000508","profileId":"rmdbv3_exact_04a985bf8af495e965179f81d0a7f83b0c304fe3|top_x_279::seq_b35141e6d28e8d09|2K96_A","routeId":"annojoin:profiles:RMDB2PDB:2K96"},{"pairId":"2K96:sequence_000509","profileId":"rmdbv3_exact_0ddce5c90a9ea49d40274156327b708d81b97f00|top_x_279::seq_aa60fed7d4f44814|2K96_A","routeId":"annojoin:profiles:RMDB2PDB:2K96"},{"pairId":"2K96:sequence_000510","profileId":"rmdbv3_exact_0ddce5c90a9ea49d40274156327b708d81b97f00|top_x_279::seq_b7af2aca723240df|2K96_A","routeId":"annojoin:profiles:RMDB2PDB:2K96"},{"pairId":"2K96:sequence_000511","profileId":"rmdbv3_exact_0f16b4220df4f4720b5bdf295e25161e79e6f3ba|top_x_279::seq_2f49cff7cbf75c86|2K96_A","routeId":"annojoin:profiles:RMDB2PDB:2K96"},{"pairId":"2K96:sequence_000512","profileId":"rmdbv3_exact_0f16b4220df4f4720b5bdf295e25161e79e6f3ba|top_x_279::seq_72d3a326d329cf39|2K96_A","routeId":"annojoin:profiles:RMDB2PDB:2K96"},{"pairId":"2K96:sequence_000513","profileId":"rmdbv3_exact_17d0e86812526f9301d758bd070df0046326e898|top_x_279::seq_4aaf0c6ab356d040|2K96_A","routeId":"annojoin:profiles:RMDB2PDB:2K96"},{"pairId":"2K96:sequence_000514","profileId":"rmdbv3_exact_17d0e86812526f9301d758bd070df0046326e898|top_x_279::seq_f10aa5b024385fe4|2K96_A","routeId":"annojoin:profiles:RMDB2PDB:2K96"},{"pairId":"2K96:sequence_000515","profileId":"rmdbv3_exact_2c03cf95d2fe3ae7ce15a79d40f5d597d8174e02|top_x_279::seq_1cf52c19e8ff8aae|2K96_A","routeId":"annojoin:profiles:RMDB2PDB:2K96"},{"pairId":"2K96:sequence_000516","profileId":"rmdbv3_exact_2c03cf95d2fe3ae7ce15a79d40f5d597d8174e02|top_x_279::seq_93a3f287264a2288|2K96_A","routeId":"annojoin:profiles:RMDB2PDB:2K96"},{"pairId":"2K96:sequence_000517","profileId":"rmdbv3_exact_302506c8a77f78789953efc8d4b7e6d532e5a29e|top_x_279::seq_6ef6b5df31add526|2K96_A","routeId":"annojoin:profiles:RMDB2PDB:2K96"},{"pairId":"2K96:sequence_000518","profileId":"rmdbv3_exact_302506c8a77f78789953efc8d4b7e6d532e5a29e|top_x_279::seq_78ccf7e56a92b01b|2K96_A","routeId":"annojoin:profiles:RMDB2PDB:2K96"},{"pairId":"2K96:sequence_000519","profileId":"rmdbv3_exact_34a4e2298cc1cb99ea376ba3770959f50c51d5dd|top_x_279::seq_815d7f804b81dcdb|2K96_A","routeId":"annojoin:profiles:RMDB2PDB:2K96"},{"pairId":"2K96:sequence_000520","profileId":"rmdbv3_exact_34a4e2298cc1cb99ea376ba3770959f50c51d5dd|top_x_279::seq_e8f801b83e3d14ab|2K96_A","routeId":"annojoin:profiles:RMDB2PDB:2K96"},{"pairId":"2K96:sequence_000521","profileId":"rmdbv3_exact_36e3b450aa5818748ad806f472b4e37707a81b9d|top_x_279::seq_04cd42c3904fa059|2K96_A","routeId":"annojoin:profiles:RMDB2PDB:2K96"},{"pairId":"2K96:sequence_000522","profileId":"rmdbv3_exact_36e3b450aa5818748ad806f472b4e37707a81b9d|top_x_279::seq_90b4c234b7377e16|2K96_A","routeId":"annojoin:profiles:RMDB2PDB:2K96"},{"pairId":"2K96:sequence_000523","profileId":"rmdbv3_exact_391018389098044c611a951a453c3286ddeb81af|top_x_279::seq_033f9b196a855a1a|2K96_A","routeId":"annojoin:profiles:RMDB2PDB:2K96"},{"pairId":"2K96:sequence_000524","profileId":"rmdbv3_exact_391018389098044c611a951a453c3286ddeb81af|top_x_279::seq_2e13d359965a5e9f|2K96_A","routeId":"annojoin:profiles:RMDB2PDB:2K96"},{"pairId":"2K96:sequence_000525","profileId":"rmdbv3_exact_53b8ebf015750b0fe936af17f9bac0bd42f2b940|top_x_279::seq_1816a47c8b52e005|2K96_A","routeId":"annojoin:profiles:RMDB2PDB:2K96"},{"pairId":"2K96:sequence_000526","profileId":"rmdbv3_exact_53b8ebf015750b0fe936af17f9bac0bd42f2b940|top_x_279::seq_cdd1b58e4099ee89|2K96_A","routeId":"annojoin:profiles:RMDB2PDB:2K96"},{"pairId":"2K96:sequence_000527","profileId":"rmdbv3_exact_642846fa95765a05d15d5b763fe5dacc1b5cdc9f|top_x_279::seq_162126c47cddd40b|2K96_A","routeId":"annojoin:profiles:RMDB2PDB:2K96"},{"pairId":"2K96:sequence_000528","profileId":"rmdbv3_exact_642846fa95765a05d15d5b763fe5dacc1b5cdc9f|top_x_279::seq_f752422ab63102ca|2K96_A","routeId":"annojoin:profiles:RMDB2PDB:2K96"},{"pairId":"2K96:sequence_000529","profileId":"rmdbv3_exact_690d770f8a73efd6540730f668fdc7190abff171|top_x_279::seq_829c847f06f67259|2K96_A","routeId":"annojoin:profiles:RMDB2PDB:2K96"},{"pairId":"2K96:sequence_000530","profileId":"rmdbv3_exact_690d770f8a73efd6540730f668fdc7190abff171|top_x_279::seq_d3a85c728bd867ca|2K96_A","routeId":"annojoin:profiles:RMDB2PDB:2K96"},{"pairId":"2K96:sequence_000531","profileId":"rmdbv3_exact_77599291e42025759c491fb0c450745a4aa76225|top_x_279::seq_0f393255d597fd20|2K96_A","routeId":"annojoin:profiles:RMDB2PDB:2K96"},{"pairId":"2K96:sequence_000532","profileId":"rmdbv3_exact_77599291e42025759c491fb0c450745a4aa76225|top_x_279::seq_cbbea88a0d668a67|2K96_A","routeId":"annojoin:profiles:RMDB2PDB:2K96"},{"pairId":"2K96:sequence_000533","profileId":"rmdbv3_exact_77bbde947ac00b626a20f0105c7781aeb7405cf6|top_x_279::seq_2600c6afc9c8742b|2K96_A","routeId":"annojoin:profiles:RMDB2PDB:2K96"},{"pairId":"2K96:sequence_000534","profileId":"rmdbv3_exact_77bbde947ac00b626a20f0105c7781aeb7405cf6|top_x_279::seq_c60ad8a56112b227|2K96_A","routeId":"annojoin:profiles:RMDB2PDB:2K96"},{"pairId":"2K96:sequence_000535","profileId":"rmdbv3_exact_7b4982be863ff83f70ab9c1460eb1c9d8a7f4d97|top_x_279::seq_06cb49879d2e8ad8|2K96_A","routeId":"annojoin:profiles:RMDB2PDB:2K96"},{"pairId":"2K96:sequence_000536","profileId":"rmdbv3_exact_7b4982be863ff83f70ab9c1460eb1c9d8a7f4d97|top_x_279::seq_78d44da3424752c9|2K96_A","routeId":"annojoin:profiles:RMDB2PDB:2K96"},{"pairId":"2K96:sequence_000537","profileId":"rmdbv3_exact_7f146bf5075e039884a55c837804137b55bba796|top_x_279::seq_7ae2de7a88791fb1|2K96_A","routeId":"annojoin:profiles:RMDB2PDB:2K96"},{"pairId":"2K96:sequence_000538","profileId":"rmdbv3_exact_7f146bf5075e039884a55c837804137b55bba796|top_x_279::seq_d13810def6f70c46|2K96_A","routeId":"annojoin:profiles:RMDB2PDB:2K96"},{"pairId":"2K96:sequence_000539","profileId":"rmdbv3_exact_8737e90c7f0df408a0b9fb2968a35cebba3deef2|top_x_279::seq_3d2f29aafa9389cf|2K96_A","routeId":"annojoin:profiles:RMDB2PDB:2K96"},{"pairId":"2K96:sequence_000540","profileId":"rmdbv3_exact_8737e90c7f0df408a0b9fb2968a35cebba3deef2|top_x_279::seq_676f3b39d6ae5906|2K96_A","routeId":"annojoin:profiles:RMDB2PDB:2K96"},{"pairId":"2K96:sequence_000541","profileId":"rmdbv3_exact_9329e67758a3c21c0cf44db38f11e0e2d9533b30|top_x_279::seq_10b89f52360090ff|2K96_A","routeId":"annojoin:profiles:RMDB2PDB:2K96"},{"pairId":"2K96:sequence_000542","profileId":"rmdbv3_exact_9329e67758a3c21c0cf44db38f11e0e2d9533b30|top_x_279::seq_7f6546afc2f29531|2K96_A","routeId":"annojoin:profiles:RMDB2PDB:2K96"},{"pairId":"2K96:sequence_000543","profileId":"rmdbv3_exact_baf1a93f754d70beb24de1fc65f2bda22aba61a9|top_x_279::seq_3eeb39885667da58|2K96_A","routeId":"annojoin:profiles:RMDB2PDB:2K96"},{"pairId":"2K96:sequence_000544","profileId":"rmdbv3_exact_baf1a93f754d70beb24de1fc65f2bda22aba61a9|top_x_279::seq_4c164f160ea3affe|2K96_A","routeId":"annojoin:profiles:RMDB2PDB:2K96"},{"pairId":"2K96:sequence_000545","profileId":"rmdbv3_exact_c2d56dfdcf57935f910fc3eda58c799bde1dc9a0|top_x_279::seq_30dbda7d9491cb4d|2K96_A","routeId":"annojoin:profiles:RMDB2PDB:2K96"},{"pairId":"2K96:sequence_000546","profileId":"rmdbv3_exact_c2d56dfdcf57935f910fc3eda58c799bde1dc9a0|top_x_279::seq_a2d42c3883e937eb|2K96_A","routeId":"annojoin:profiles:RMDB2PDB:2K96"},{"pairId":"2K96:sequence_000547","profileId":"rmdbv3_exact_c39869a00395cdddc2bc0d9eb3868d56457bff86|top_x_279::seq_155ae62f5e4731fe|2K96_A","routeId":"annojoin:profiles:RMDB2PDB:2K96"},{"pairId":"2K96:sequence_000548","profileId":"rmdbv3_exact_c39869a00395cdddc2bc0d9eb3868d56457bff86|top_x_279::seq_7605951aa869db1f|2K96_A","routeId":"annojoin:profiles:RMDB2PDB:2K96"},{"pairId":"2K96:sequence_000549","profileId":"rmdbv3_exact_c587e6fef70904ae780261ccb3b39c8b9a81c673|top_x_279::seq_12948263807a37c1|2K96_A","routeId":"annojoin:profiles:RMDB2PDB:2K96"},{"pairId":"2K96:sequence_000550","profileId":"rmdbv3_exact_c587e6fef70904ae780261ccb3b39c8b9a81c673|top_x_279::seq_30563d7835c11890|2K96_A","routeId":"annojoin:profiles:RMDB2PDB:2K96"},{"pairId":"2K96:sequence_000551","profileId":"rmdbv3_exact_e75d1ea7eeaf0e1a1ed6709b7b2f8305e8adaf6c|top_x_279::seq_415aa581f3db6fd6|2K96_A","routeId":"annojoin:profiles:RMDB2PDB:2K96"},{"pairId":"2K96:sequence_000552","profileId":"rmdbv3_exact_e75d1ea7eeaf0e1a1ed6709b7b2f8305e8adaf6c|top_x_279::seq_8b206ca9f78830c7|2K96_A","routeId":"annojoin:profiles:RMDB2PDB:2K96"},{"pairId":"2K96:sequence_000553","profileId":"rmdbv3_exact_e976765af972312e4051e565091f7e46a214cb29|top_x_279::seq_ec2c9cb62ac36111|2K96_A","routeId":"annojoin:profiles:RMDB2PDB:2K96"},{"pairId":"2K96:sequence_000554","profileId":"rmdbv3_exact_e976765af972312e4051e565091f7e46a214cb29|top_x_279::seq_fa7f73cb8e42bd6b|2K96_A","routeId":"annojoin:profiles:RMDB2PDB:2K96"},{"pairId":"2K96:sequence_000555","profileId":"rmdbv3_exact_eb44e925818be9a18d986c1a8d6ff69fbe32b06b|top_x_279::seq_b6d3d0aa0fc0dfeb|2K96_A","routeId":"annojoin:profiles:RMDB2PDB:2K96"},{"pairId":"2K96:sequence_000556","profileId":"rmdbv3_exact_eb44e925818be9a18d986c1a8d6ff69fbe32b06b|top_x_279::seq_ba272138a2bf4517|2K96_A","routeId":"annojoin:profiles:RMDB2PDB:2K96"},{"pairId":"2K96:sequence_000557","profileId":"rmdbv3_exact_f190355b32dbe8947d89b1ee62f4bef372b489d9|top_x_279::seq_1b5c213e7237ecb3|2K96_A","routeId":"annojoin:profiles:RMDB2PDB:2K96"},{"pairId":"2K96:sequence_000558","profileId":"rmdbv3_exact_f190355b32dbe8947d89b1ee62f4bef372b489d9|top_x_279::seq_309e396420caa21f|2K96_A","routeId":"annojoin:profiles:RMDB2PDB:2K96"},{"pairId":"2K96:sequence_000559","profileId":"rmdbv3_exact_f1c77fb8bba0bb9c5369756e71c45c5fbae85880|top_x_279::seq_e42e110dfe77be17|2K96_A","routeId":"annojoin:profiles:RMDB2PDB:2K96"},{"pairId":"2K96:sequence_000560","profileId":"rmdbv3_exact_f1c77fb8bba0bb9c5369756e71c45c5fbae85880|top_x_279::seq_ecd4ba39b26b94c3|2K96_A","routeId":"annojoin:profiles:RMDB2PDB:2K96"},{"pairId":"2K96:sequence_000561","profileId":"rmdbv3_exact_598366429ca9c95ab5fe9960f562b9a12b75a4f8|top_x_279::seq_5a6acc83683c7adf|2K96_A","routeId":"annojoin:profiles:RMDB2PDB:2K96"},{"pairId":"2K96:sequence_000565","profileId":"rmdbv3_exact_598366429ca9c95ab5fe9960f562b9a12b75a4f8|top_x_279::seq_79ce23c49f355030|2K96_A","routeId":"annojoin:profiles:RMDB2PDB:2K96"},{"pairId":"2K96:sequence_000566","profileId":"rmdbv3_exact_598366429ca9c95ab5fe9960f562b9a12b75a4f8|top_x_279::seq_fec13a77b75a1384|2K96_A","routeId":"annojoin:profiles:RMDB2PDB:2K96"}]}
