{"schemaVersion":"annojoin-atlas.v1","version":"V2.1_RMDB_LINE_A_20260617","atlasCaseKey":"RMDB2PDB:1XJR","caseId":"1XJR","routeKey":"conflicts","page":2,"pageSize":500,"totalRows":511,"pageCount":2,"rows":[{"id":"RMDB2PDB|conflict|pairseg_1XJR_sequence_000636","routeId":"annojoin:conflict:RMDB2PDB:pairseg_1XJR_sequence_000636","type":"structure_signal_discordance_candidate","status":"none_detected","fecClaimCeiling":"","claimScope":"","lssStatus":"LSS_NOT_EVALUABLE","reviewPriorityHint":"no_conflict_review_priority"},{"id":"RMDB2PDB|conflict|pairseg_1XJR_sequence_000637","routeId":"annojoin:conflict:RMDB2PDB:pairseg_1XJR_sequence_000637","type":"structure_signal_discordance_candidate","status":"none_detected","fecClaimCeiling":"","claimScope":"","lssStatus":"LSS_NOT_SUPPORTED","reviewPriorityHint":"no_conflict_review_priority"},{"id":"RMDB2PDB|conflict|pairseg_1XJR_sequence_000638","routeId":"annojoin:conflict:RMDB2PDB:pairseg_1XJR_sequence_000638","type":"structure_signal_discordance_candidate","status":"none_detected","fecClaimCeiling":"","claimScope":"","lssStatus":"LSS_UNDERPOWERED","reviewPriorityHint":"no_conflict_review_priority"},{"id":"RMDB2PDB|conflict|pairseg_1XJR_sequence_000641","routeId":"annojoin:conflict:RMDB2PDB:pairseg_1XJR_sequence_000641","type":"structure_signal_discordance_candidate","status":"none_detected","fecClaimCeiling":"","claimScope":"","lssStatus":"LSS_UNDERPOWERED","reviewPriorityHint":"no_conflict_review_priority"},{"id":"RMDB2PDB|conflict|pairseg_1XJR_sequence_000642","routeId":"annojoin:conflict:RMDB2PDB:pairseg_1XJR_sequence_000642","type":"structure_signal_discordance_candidate","status":"none_detected","fecClaimCeiling":"","claimScope":"","lssStatus":"LSS_NOT_SUPPORTED","reviewPriorityHint":"no_conflict_review_priority"},{"id":"RMDB2PDB|conflict|pairseg_1XJR_sequence_000643","routeId":"annojoin:conflict:RMDB2PDB:pairseg_1XJR_sequence_000643","type":"structure_signal_discordance_candidate","status":"none_detected","fecClaimCeiling":"","claimScope":"","lssStatus":"LSS_DISCORDANT","reviewPriorityHint":"no_conflict_review_priority"},{"id":"RMDB2PDB|conflict|pairseg_1XJR_sequence_000644","routeId":"annojoin:conflict:RMDB2PDB:pairseg_1XJR_sequence_000644","type":"structure_signal_discordance_candidate","status":"none_detected","fecClaimCeiling":"","claimScope":"","lssStatus":"LSS_UNDERPOWERED","reviewPriorityHint":"no_conflict_review_priority"},{"id":"RMDB2PDB|conflict|pairseg_1XJR_sequence_000645","routeId":"annojoin:conflict:RMDB2PDB:pairseg_1XJR_sequence_000645","type":"structure_signal_discordance_candidate","status":"none_detected","fecClaimCeiling":"","claimScope":"","lssStatus":"LSS_UNDERPOWERED","reviewPriorityHint":"no_conflict_review_priority"},{"id":"RMDB2PDB|conflict|pairseg_1XJR_sequence_000646","routeId":"annojoin:conflict:RMDB2PDB:pairseg_1XJR_sequence_000646","type":"structure_signal_discordance_candidate","status":"none_detected","fecClaimCeiling":"","claimScope":"","lssStatus":"LSS_WEAK","reviewPriorityHint":"no_conflict_review_priority"},{"id":"RMDB2PDB|conflict|pairseg_1XJR_sequence_000647","routeId":"annojoin:conflict:RMDB2PDB:pairseg_1XJR_sequence_000647","type":"structure_signal_discordance_candidate","status":"none_detected","fecClaimCeiling":"","claimScope":"","lssStatus":"LSS_UNDERPOWERED","reviewPriorityHint":"no_conflict_review_priority"},{"id":"RMDB2PDB|conflict|pairseg_1XJR_sequence_000648","routeId":"annojoin:conflict:RMDB2PDB:pairseg_1XJR_sequence_000648","type":"structure_signal_discordance_candidate","status":"none_detected","fecClaimCeiling":"","claimScope":"","lssStatus":"LSS_DISCORDANT","reviewPriorityHint":"no_conflict_review_priority"}]}
