{"schemaVersion":"annojoin-atlas.v1","version":"V2.1_RMDB_LINE_A_20260617","atlasCaseKey":"RMDB2PDB:7KD1","caseId":"7KD1","routeKey":"memberships","page":3,"pageSize":500,"totalRows":1088,"pageCount":3,"rows":[{"pairId":"7KD1:sequence_001005","profileId":"rmdbv3_exact_d27e959483e45d6bfd0a904cceeb2dc79e656f63|top_x_279::seq_5dd330c3e741b79a|7KD1_A","routeId":"annojoin:profiles:RMDB2PDB:7KD1"},{"pairId":"7KD1:sequence_001006","profileId":"rmdbv3_exact_d27e959483e45d6bfd0a904cceeb2dc79e656f63|top_x_279::seq_6907b9810c2b2f5d|7KD1_A","routeId":"annojoin:profiles:RMDB2PDB:7KD1"},{"pairId":"7KD1:sequence_001007","profileId":"rmdbv3_exact_d2fd93dcd8a5e838d621f81aad4b5eeb2689678f|top_x_279::seq_c21bf99342f0bdd9|7KD1_A","routeId":"annojoin:profiles:RMDB2PDB:7KD1"},{"pairId":"7KD1:sequence_001008","profileId":"rmdbv3_exact_d333402fcab4c9a0b960396354d151783172cf32|top_x_279::seq_5ba585a3b46cfa8d|7KD1_A","routeId":"annojoin:profiles:RMDB2PDB:7KD1"},{"pairId":"7KD1:sequence_001009","profileId":"rmdbv3_exact_d333402fcab4c9a0b960396354d151783172cf32|top_x_279::seq_bd6012096a246373|7KD1_A","routeId":"annojoin:profiles:RMDB2PDB:7KD1"},{"pairId":"7KD1:sequence_001010","profileId":"rmdbv3_exact_d8ebe9cdbcad4f2443cbce012e8a622cf82e2392|top_x_279::seq_4dfb4b840d4557ae|7KD1_A","routeId":"annojoin:profiles:RMDB2PDB:7KD1"},{"pairId":"7KD1:sequence_001011","profileId":"rmdbv3_exact_dc371fc6cd33eff483aa211225464966d739240d|top_x_279::seq_5621ffb1ede011c1|7KD1_A","routeId":"annojoin:profiles:RMDB2PDB:7KD1"},{"pairId":"7KD1:sequence_001012","profileId":"rmdbv3_exact_dc371fc6cd33eff483aa211225464966d739240d|top_x_279::seq_bd1caf1c2ebdb2bb|7KD1_A","routeId":"annojoin:profiles:RMDB2PDB:7KD1"},{"pairId":"7KD1:sequence_001013","profileId":"rmdbv3_exact_e0c9adceb7cff3afa869aa5f13b1ab813eadfd19|top_x_279::seq_a5e7304e4f615aff|7KD1_A","routeId":"annojoin:profiles:RMDB2PDB:7KD1"},{"pairId":"7KD1:sequence_001014","profileId":"rmdbv3_exact_e714201f364cf742f1bca4be427d2a96c8ab059a|top_x_279::seq_7d85c6f13589ab1e|7KD1_A","routeId":"annojoin:profiles:RMDB2PDB:7KD1"},{"pairId":"7KD1:sequence_001015","profileId":"rmdbv3_exact_e714201f364cf742f1bca4be427d2a96c8ab059a|top_x_279::seq_87520160d041fa8b|7KD1_A","routeId":"annojoin:profiles:RMDB2PDB:7KD1"},{"pairId":"7KD1:sequence_001016","profileId":"rmdbv3_exact_ef23b1437626d63d5f5c5e7ad7f1640403698533|top_x_279::seq_4c274b7e2a4dba63|7KD1_A","routeId":"annojoin:profiles:RMDB2PDB:7KD1"},{"pairId":"7KD1:sequence_001017","profileId":"rmdbv3_exact_ef23b1437626d63d5f5c5e7ad7f1640403698533|top_x_279::seq_529801e0d4d0daad|7KD1_A","routeId":"annojoin:profiles:RMDB2PDB:7KD1"},{"pairId":"7KD1:sequence_001018","profileId":"rmdbv3_exact_f8e90bd1a3b923e51c1b340d5723b44325803cc0|top_x_279::seq_0ce401962cba4b53|7KD1_A","routeId":"annojoin:profiles:RMDB2PDB:7KD1"},{"pairId":"7KD1:sequence_001019","profileId":"rmdbv3_exact_4c48b02a5ea556c40f44c62fd788a84200e6b3cd|top_x_279::seq_f743db4c4730bb84|7KD1_A","routeId":"annojoin:profiles:RMDB2PDB:7KD1"},{"pairId":"7KD1:sequence_001020","profileId":"rmdbv3_exact_090413618b919c1f52c87fe0eadde8556dbae0a4|top_x_279::seq_8203393a8119e56b|7KD1_A","routeId":"annojoin:profiles:RMDB2PDB:7KD1"},{"pairId":"7KD1:sequence_001021","profileId":"rmdbv3_exact_0a0904ca21bae06886d8bb23dde14435f5779f00|top_x_279::seq_c63045555f23b7dd|7KD1_A","routeId":"annojoin:profiles:RMDB2PDB:7KD1"},{"pairId":"7KD1:sequence_001022","profileId":"rmdbv3_exact_0cb0bbaa97bb6f8d41293a19a107f0be8f9a9e63|top_x_279::seq_4337fc70ddc96f94|7KD1_A","routeId":"annojoin:profiles:RMDB2PDB:7KD1"},{"pairId":"7KD1:sequence_001023","profileId":"rmdbv3_exact_21962d4ba1c1a81ed110978c33cf18ab61accaa7|top_x_279::seq_8c38fa899d304017|7KD1_A","routeId":"annojoin:profiles:RMDB2PDB:7KD1"},{"pairId":"7KD1:sequence_001024","profileId":"rmdbv3_exact_234b9c57e9ec8a836685ab85ae2c735e858571b2|top_x_279::seq_5bf46c06f4e81bb2|7KD1_A","routeId":"annojoin:profiles:RMDB2PDB:7KD1"},{"pairId":"7KD1:sequence_001025","profileId":"rmdbv3_exact_41ee41b93af6f99ac1be0a4e6c3c48dfd806aa55|top_x_279::seq_ccd14f49767d0c16|7KD1_A","routeId":"annojoin:profiles:RMDB2PDB:7KD1"},{"pairId":"7KD1:sequence_001026","profileId":"rmdbv3_exact_534d6575ff210afbff1520332a4b73798924fe7a|top_x_279::seq_c23ffbd88d435a94|7KD1_A","routeId":"annojoin:profiles:RMDB2PDB:7KD1"},{"pairId":"7KD1:sequence_001027","profileId":"rmdbv3_exact_5867f2dc9de75e1e8daf84e474f9c552891349cb|top_x_279::seq_d548dc69ee4866c0|7KD1_A","routeId":"annojoin:profiles:RMDB2PDB:7KD1"},{"pairId":"7KD1:sequence_001028","profileId":"rmdbv3_exact_5f655187314c4b34bd4d656b98f95bd64ca1f3d0|top_x_279::seq_e83b3c3284d11d63|7KD1_A","routeId":"annojoin:profiles:RMDB2PDB:7KD1"},{"pairId":"7KD1:sequence_001029","profileId":"rmdbv3_exact_798ec45ae4173ab2ca22b8b34d692596604f606a|top_x_279::seq_4bf8dc52fc6d71ea|7KD1_A","routeId":"annojoin:profiles:RMDB2PDB:7KD1"},{"pairId":"7KD1:sequence_001030","profileId":"rmdbv3_exact_7a1b91f7aaa9e6938c4a07a17866fac686a79ff7|top_x_279::seq_2f5345f4102cb7c9|7KD1_A","routeId":"annojoin:profiles:RMDB2PDB:7KD1"},{"pairId":"7KD1:sequence_001031","profileId":"rmdbv3_exact_7cc32fc3b62d37adc4d46914e137c14242372331|top_x_279::seq_e0c90acb102b9b0c|7KD1_A","routeId":"annojoin:profiles:RMDB2PDB:7KD1"},{"pairId":"7KD1:sequence_001032","profileId":"rmdbv3_exact_7f9464816e59cb5bb84b5fec6091c8ace48fdc28|top_x_279::seq_e5e8cd105b0593f4|7KD1_A","routeId":"annojoin:profiles:RMDB2PDB:7KD1"},{"pairId":"7KD1:sequence_001033","profileId":"rmdbv3_exact_af193a51992adf93be79dbe87d3265f693cb5b60|top_x_279::seq_5aa86e8b1b495819|7KD1_A","routeId":"annojoin:profiles:RMDB2PDB:7KD1"},{"pairId":"7KD1:sequence_001034","profileId":"rmdbv3_exact_b26fffd9fc24e0d59fe4d50e93a027a61c481304|top_x_279::seq_257a48d9d97b643e|7KD1_A","routeId":"annojoin:profiles:RMDB2PDB:7KD1"},{"pairId":"7KD1:sequence_001035","profileId":"rmdbv3_exact_b8d71a273e262103cd0d8f46326c52ffdfdd7c04|top_x_279::seq_7beb3d40dff9fe27|7KD1_A","routeId":"annojoin:profiles:RMDB2PDB:7KD1"},{"pairId":"7KD1:sequence_001036","profileId":"rmdbv3_exact_befe2b58d6b674b2142e1484e09f2a14f8b4dd4a|top_x_279::seq_f718c85bce23d5b0|7KD1_A","routeId":"annojoin:profiles:RMDB2PDB:7KD1"},{"pairId":"7KD1:sequence_001037","profileId":"rmdbv3_exact_c3acd5c8e454d9fa606c47cf7f7dafee3e08ec24|top_x_279::seq_2579db5345dd24e7|7KD1_A","routeId":"annojoin:profiles:RMDB2PDB:7KD1"},{"pairId":"7KD1:sequence_001038","profileId":"rmdbv3_exact_c85296efa773c0527e0744109c15f1049d1e3906|top_x_279::seq_a6191dc08c99d049|7KD1_A","routeId":"annojoin:profiles:RMDB2PDB:7KD1"},{"pairId":"7KD1:sequence_001039","profileId":"rmdbv3_exact_e7f89c7873a1de9e87f8e5b7c37193b824898c43|top_x_279::seq_5a9bdd4287f535e5|7KD1_A","routeId":"annojoin:profiles:RMDB2PDB:7KD1"},{"pairId":"7KD1:sequence_001040","profileId":"rmdbv3_exact_f332d9dfd5d3b1ac371ec1e9aa1d251a8d9163dd|top_x_279::seq_e99cc048f9868563|7KD1_A","routeId":"annojoin:profiles:RMDB2PDB:7KD1"},{"pairId":"7KD1:sequence_001041","profileId":"rmdbv3_exact_fe967d48d1aafb29fcccf12872c14171c6170052|top_x_279::seq_b5fba6dc3b6daeb5|7KD1_A","routeId":"annojoin:profiles:RMDB2PDB:7KD1"},{"pairId":"7KD1:sequence_001042","profileId":"rmdbv3_exact_66e4cf8cd696873267bb0568b35c0f87afca00ca|top_x_279::seq_b1e349dd34c6f6d0|7KD1_A","routeId":"annojoin:profiles:RMDB2PDB:7KD1"},{"pairId":"7KD1:sequence_001043","profileId":"rmdbv3_exact_0d7416709db32ba2583a99435e6a9b7b8b6e8860|top_x_279::seq_0a0b816f4bd216d1|7KD1_A","routeId":"annojoin:profiles:RMDB2PDB:7KD1"},{"pairId":"7KD1:sequence_001044","profileId":"rmdbv3_exact_109684638725cec054d1ef18acc46c9a5bc4b632|top_x_279::seq_2ed5a27b837efe8d|7KD1_A","routeId":"annojoin:profiles:RMDB2PDB:7KD1"},{"pairId":"7KD1:sequence_001045","profileId":"rmdbv3_exact_3a4a34f6e1552addc5ff639afe6a8f68b481d82f|top_x_279::seq_ed8e034e6c6b8a29|7KD1_A","routeId":"annojoin:profiles:RMDB2PDB:7KD1"},{"pairId":"7KD1:sequence_001046","profileId":"rmdbv3_exact_4271a1c239bcc50cff9aa043e2147f8a7a1cfca4|top_x_279::seq_a2e22cfd37ee330a|7KD1_A","routeId":"annojoin:profiles:RMDB2PDB:7KD1"},{"pairId":"7KD1:sequence_001047","profileId":"rmdbv3_exact_53c3f7717f02b8cd78cc35744989ef08ebbcc389|top_x_279::seq_c5b6bc12a00ef52d|7KD1_A","routeId":"annojoin:profiles:RMDB2PDB:7KD1"},{"pairId":"7KD1:sequence_001048","profileId":"rmdbv3_exact_56d9e35ce4d2335d84aa217c1be4c817fdd69b7e|top_x_279::seq_8dc46fd8c78b73a0|7KD1_A","routeId":"annojoin:profiles:RMDB2PDB:7KD1"},{"pairId":"7KD1:sequence_001049","profileId":"rmdbv3_exact_58845ee4046476365e7bfa0c2ac57910c308dc09|top_x_279::seq_a17c7050cddbca38|7KD1_A","routeId":"annojoin:profiles:RMDB2PDB:7KD1"},{"pairId":"7KD1:sequence_001050","profileId":"rmdbv3_exact_5ca6a2eb34b3f822fa478fb9d7da330016b83ea3|top_x_279::seq_81f28317d7f824ca|7KD1_A","routeId":"annojoin:profiles:RMDB2PDB:7KD1"},{"pairId":"7KD1:sequence_001051","profileId":"rmdbv3_exact_6181e29df8f9bdf6e6a10ee61414d41b6872a522|top_x_279::seq_5325306b896b4f2f|7KD1_A","routeId":"annojoin:profiles:RMDB2PDB:7KD1"},{"pairId":"7KD1:sequence_001052","profileId":"rmdbv3_exact_68fda795f47f8744c60c9fe23f26bd0448c4a377|top_x_279::seq_de6c6278dbb99835|7KD1_A","routeId":"annojoin:profiles:RMDB2PDB:7KD1"},{"pairId":"7KD1:sequence_001053","profileId":"rmdbv3_exact_692178dfa1c801f98386a43558d6dacfb80b7c05|top_x_279::seq_6297bf84b7f0b833|7KD1_A","routeId":"annojoin:profiles:RMDB2PDB:7KD1"},{"pairId":"7KD1:sequence_001054","profileId":"rmdbv3_exact_75e0399ab5cb8d2ebe42b14d8954024e64a0505c|top_x_279::seq_90e7eb10efa200f3|7KD1_A","routeId":"annojoin:profiles:RMDB2PDB:7KD1"},{"pairId":"7KD1:sequence_001055","profileId":"rmdbv3_exact_88fe7139d63e6c8f761dff13cf417b125bfb9314|top_x_279::seq_b8363ec521b4b777|7KD1_A","routeId":"annojoin:profiles:RMDB2PDB:7KD1"},{"pairId":"7KD1:sequence_001056","profileId":"rmdbv3_exact_a0df08b091e8c230e51875d4c05ed3b2376c2fc5|top_x_279::seq_dc4a40221dd50d20|7KD1_A","routeId":"annojoin:profiles:RMDB2PDB:7KD1"},{"pairId":"7KD1:sequence_001057","profileId":"rmdbv3_exact_ab232d2d962aa9974e39bed4264a371f930da273|top_x_279::seq_4cbabe95a3b579f8|7KD1_A","routeId":"annojoin:profiles:RMDB2PDB:7KD1"},{"pairId":"7KD1:sequence_001058","profileId":"rmdbv3_exact_b4e455aa6d34fb1ef24848ccce5b3d38f13ddbd9|top_x_279::seq_d7fd1d675800e74b|7KD1_A","routeId":"annojoin:profiles:RMDB2PDB:7KD1"},{"pairId":"7KD1:sequence_001059","profileId":"rmdbv3_exact_dad861bb01e4636aa5709f32d819f028d87ad098|top_x_279::seq_1ff2a82591623f4a|7KD1_A","routeId":"annojoin:profiles:RMDB2PDB:7KD1"},{"pairId":"7KD1:sequence_001060","profileId":"rmdbv3_exact_e7c623fa4700b93f06f6da1ac90d58a1b28f577f|top_x_279::seq_49120c624dfca91f|7KD1_A","routeId":"annojoin:profiles:RMDB2PDB:7KD1"},{"pairId":"7KD1:sequence_001061","profileId":"rmdbv3_exact_edd60494052b719f0620ba99192a0427bf4d7da2|top_x_279::seq_79fef8c6b98f2f47|7KD1_A","routeId":"annojoin:profiles:RMDB2PDB:7KD1"},{"pairId":"7KD1:sequence_001062","profileId":"rmdbv3_exact_185de570ef7be4445ab8941f55f39dba03082d67|top_x_279::seq_2dfbbe8a4c2a0ac7|7KD1_A","routeId":"annojoin:profiles:RMDB2PDB:7KD1"},{"pairId":"7KD1:sequence_001063","profileId":"rmdbv3_exact_079979ea12fb31f82d03dc1bf600526b74ec7501|top_x_279::seq_3011c3283531b345|7KD1_A","routeId":"annojoin:profiles:RMDB2PDB:7KD1"},{"pairId":"7KD1:sequence_001064","profileId":"rmdbv3_exact_08b0ef746df56b1d75b39c459caf5284fbd13791|top_x_279::seq_19e8299c6371695e|7KD1_A","routeId":"annojoin:profiles:RMDB2PDB:7KD1"},{"pairId":"7KD1:sequence_001065","profileId":"rmdbv3_exact_0b6e9c06998ebc966bb52457c624df6ae8c7941c|top_x_279::seq_45038f723a069435|7KD1_A","routeId":"annojoin:profiles:RMDB2PDB:7KD1"},{"pairId":"7KD1:sequence_001066","profileId":"rmdbv3_exact_3090176f95cc14594967bd2f604d10db9a28dee8|top_x_279::seq_c24746f337213722|7KD1_A","routeId":"annojoin:profiles:RMDB2PDB:7KD1"},{"pairId":"7KD1:sequence_001067","profileId":"rmdbv3_exact_314f294da31639268c32dd30b7498a9fc3c06430|top_x_279::seq_26f020d827733a1f|7KD1_A","routeId":"annojoin:profiles:RMDB2PDB:7KD1"},{"pairId":"7KD1:sequence_001068","profileId":"rmdbv3_exact_4d45e8bc80c9a281e06e5e80c40eeab8ff1d27bb|top_x_279::seq_85cb243759ff1a81|7KD1_A","routeId":"annojoin:profiles:RMDB2PDB:7KD1"},{"pairId":"7KD1:sequence_001069","profileId":"rmdbv3_exact_5250610898275fa097761de5035d3ef648f9838d|top_x_279::seq_14cfc6649fda0d97|7KD1_A","routeId":"annojoin:profiles:RMDB2PDB:7KD1"},{"pairId":"7KD1:sequence_001070","profileId":"rmdbv3_exact_7575a9e69539115949e3813d5da100c364ae7e7b|top_x_279::seq_030318663eff19ea|7KD1_A","routeId":"annojoin:profiles:RMDB2PDB:7KD1"},{"pairId":"7KD1:sequence_001071","profileId":"rmdbv3_exact_814c10135ca5f9168190fc1f99cd63db5cb5ef7f|top_x_279::seq_82e0f4a453014c35|7KD1_A","routeId":"annojoin:profiles:RMDB2PDB:7KD1"},{"pairId":"7KD1:sequence_001072","profileId":"rmdbv3_exact_8705c552990cda2ccab88e834f9d71783b28fafb|top_x_279::seq_fd87c093216b1035|7KD1_A","routeId":"annojoin:profiles:RMDB2PDB:7KD1"},{"pairId":"7KD1:sequence_001073","profileId":"rmdbv3_exact_987e5a39c0c798c85f53a8cb38143a7efc2d7daa|top_x_279::seq_2fac482c57be89b3|7KD1_A","routeId":"annojoin:profiles:RMDB2PDB:7KD1"},{"pairId":"7KD1:sequence_001074","profileId":"rmdbv3_exact_a5fd84e63e5e3693d4fb83f1228a77f35eb51ceb|top_x_279::seq_44fceba0f4e64c03|7KD1_A","routeId":"annojoin:profiles:RMDB2PDB:7KD1"},{"pairId":"7KD1:sequence_001075","profileId":"rmdbv3_exact_a6e06d41dc9fbd1f716d814475520f86d6ec79cf|top_x_279::seq_82b9c9b18db22d0a|7KD1_A","routeId":"annojoin:profiles:RMDB2PDB:7KD1"},{"pairId":"7KD1:sequence_001076","profileId":"rmdbv3_exact_a8c4446581be6c1c3c3bd5412924c39c81a47d7e|top_x_279::seq_2587d22ee6f4f3d5|7KD1_A","routeId":"annojoin:profiles:RMDB2PDB:7KD1"},{"pairId":"7KD1:sequence_001077","profileId":"rmdbv3_exact_aa9ee40d18ee0b41625c3cc94b0ead38de200b65|top_x_279::seq_5042a9bf2c09c233|7KD1_A","routeId":"annojoin:profiles:RMDB2PDB:7KD1"},{"pairId":"7KD1:sequence_001078","profileId":"rmdbv3_exact_ba05c8d132d7e6708e37eb1986d83b34d6f512d0|top_x_279::seq_d62dfcae14195b4a|7KD1_A","routeId":"annojoin:profiles:RMDB2PDB:7KD1"},{"pairId":"7KD1:sequence_001079","profileId":"rmdbv3_exact_c1aee77fe039a2d6e3658106dd8aa72d9e31bf82|top_x_279::seq_b9d879aad5df8cbb|7KD1_A","routeId":"annojoin:profiles:RMDB2PDB:7KD1"},{"pairId":"7KD1:sequence_001080","profileId":"rmdbv3_exact_c2c4dacad38aa1db4bf23c8246048451e1eafa6b|top_x_279::seq_384030f342ed89fa|7KD1_A","routeId":"annojoin:profiles:RMDB2PDB:7KD1"},{"pairId":"7KD1:sequence_001081","profileId":"rmdbv3_exact_ef50ca886bbd65a30e73dbb8c06bc480094b13b3|top_x_279::seq_e671dc648754496e|7KD1_A","routeId":"annojoin:profiles:RMDB2PDB:7KD1"},{"pairId":"7KD1:sequence_001082","profileId":"rmdbv3_exact_ff2773d91f987644061a196fdd8574674547a912|top_x_279::seq_511af8d86de1a69f|7KD1_A","routeId":"annojoin:profiles:RMDB2PDB:7KD1"},{"pairId":"7KD1:sequence_001083","profileId":"rmdbv3_exact_678fbc67fb331c6c04df9bf384469db4e27c4722|top_x_279::seq_3b6d899b84d59bc3|7KD1_A","routeId":"annojoin:profiles:RMDB2PDB:7KD1"},{"pairId":"7KD1:sequence_001084","profileId":"rmdbv3_exact_ec2749e2b539503004a7f751ff90758d927e780c|top_x_279::seq_0d9e30697de67171|7KD1_A","routeId":"annojoin:profiles:RMDB2PDB:7KD1"},{"pairId":"7KD1:sequence_001085","profileId":"rmdbv3_exact_0ca106258e7aacc4eadcc3a88da90ebdcce47347|top_x_279::seq_3cfc5fd942d3963d|7KD1_A","routeId":"annojoin:profiles:RMDB2PDB:7KD1"},{"pairId":"7KD1:sequence_001086","profileId":"rmdbv3_exact_0cb64c072ea0249b29f56f91067053d1f78c7a60|top_x_279::seq_610c821744f69d6f|7KD1_A","routeId":"annojoin:profiles:RMDB2PDB:7KD1"},{"pairId":"7KD1:sequence_001087","profileId":"rmdbv3_exact_781474e78d6b7e427eddae2a7ad5704067087494|top_x_279::seq_4a5ef0e02fd98a8a|7KD1_A","routeId":"annojoin:profiles:RMDB2PDB:7KD1"},{"pairId":"7KD1:sequence_001088","profileId":"rmdbv3_exact_42a7afcf56acf188d3602c30bf182450f4719616|top_x_279::seq_b97da3ad06b82e47|7KD1_A","routeId":"annojoin:profiles:RMDB2PDB:7KD1"},{"pairId":"7KD1:sequence_001089","profileId":"rmdbv3_exact_5f754c1124867a7965ed780f6226df379dd83957|top_x_279::seq_5308bf1bb987913a|7KD1_A","routeId":"annojoin:profiles:RMDB2PDB:7KD1"},{"pairId":"7KD1:sequence_001090","profileId":"rmdbv3_exact_c9682ce751590b5d206c61eeb361e113d14addaa|top_x_279::seq_daa603a362e27219|7KD1_A","routeId":"annojoin:profiles:RMDB2PDB:7KD1"},{"pairId":"7KD1:sequence_001091","profileId":"rmdbv3_exact_a146d52a777eea00e7ecd438d7ed5a9be8336ace|top_x_279::seq_b1ba71c91727395c|7KD1_A","routeId":"annojoin:profiles:RMDB2PDB:7KD1"},{"pairId":"7KD1:sequence_001092","profileId":"rmdbv3_exact_a2a58b7224f83a9b2dfd702f1ce6f6bafad63621|top_x_279::seq_38f3c27e1bdf2f87|7KD1_A","routeId":"annojoin:profiles:RMDB2PDB:7KD1"}]}
