{"schemaVersion":"annojoin-atlas.v1","version":"V2.1_RMDB_LINE_A_20260617","atlasCaseKey":"RMDB2PDB:8T2P","caseId":"8T2P","routeKey":"structure-routes","page":2,"pageSize":500,"totalRows":546,"pageCount":2,"rows":[{"structureFilePath":"CONFIDENCE/10_structure_context/alpha_full_20260615/mmcif_inputs_from_132/8t2p.cif","structureUrl":"/api/annojoin/structure?path=CONFIDENCE%2F10_structure_context%2Falpha_full_20260615%2Fmmcif_inputs_from_132%2F8t2p.cif","structureFileFormat":"mmCIF","residueColoringDataPath":"ANNOCONFIDENCE/mapping_uncertainty_annotation.tsv","viewerCompatibility":"coordinate-key residue coloring","colorPolicyId":"rmdb_reactivity_low_mid_high_v1","coordinateKeyColumn":"pdb_residue_coordinate_key","valueColumn":"reactivity_value","routeAvailabilityStatus":"","blockerCode":"","blockerReason":""},{"structureFilePath":"CONFIDENCE/10_structure_context/alpha_full_20260615/mmcif_inputs_from_132/8t2p.cif","structureUrl":"/api/annojoin/structure?path=CONFIDENCE%2F10_structure_context%2Falpha_full_20260615%2Fmmcif_inputs_from_132%2F8t2p.cif","structureFileFormat":"mmCIF","residueColoringDataPath":"ANNOCONFIDENCE/mapping_uncertainty_annotation.tsv","viewerCompatibility":"coordinate-key residue coloring","colorPolicyId":"rmdb_reactivity_low_mid_high_v1","coordinateKeyColumn":"pdb_residue_coordinate_key","valueColumn":"reactivity_value","routeAvailabilityStatus":"","blockerCode":"","blockerReason":""},{"structureFilePath":"CONFIDENCE/10_structure_context/alpha_full_20260615/mmcif_inputs_from_132/8t2p.cif","structureUrl":"/api/annojoin/structure?path=CONFIDENCE%2F10_structure_context%2Falpha_full_20260615%2Fmmcif_inputs_from_132%2F8t2p.cif","structureFileFormat":"mmCIF","residueColoringDataPath":"ANNOCONFIDENCE/mapping_uncertainty_annotation.tsv","viewerCompatibility":"coordinate-key residue coloring","colorPolicyId":"rmdb_reactivity_low_mid_high_v1","coordinateKeyColumn":"pdb_residue_coordinate_key","valueColumn":"reactivity_value","routeAvailabilityStatus":"","blockerCode":"","blockerReason":""},{"structureFilePath":"CONFIDENCE/10_structure_context/alpha_full_20260615/mmcif_inputs_from_132/8t2p.cif","structureUrl":"/api/annojoin/structure?path=CONFIDENCE%2F10_structure_context%2Falpha_full_20260615%2Fmmcif_inputs_from_132%2F8t2p.cif","structureFileFormat":"mmCIF","residueColoringDataPath":"ANNOCONFIDENCE/mapping_uncertainty_annotation.tsv","viewerCompatibility":"coordinate-key residue coloring","colorPolicyId":"rmdb_reactivity_low_mid_high_v1","coordinateKeyColumn":"pdb_residue_coordinate_key","valueColumn":"reactivity_value","routeAvailabilityStatus":"","blockerCode":"","blockerReason":""},{"structureFilePath":"CONFIDENCE/10_structure_context/alpha_full_20260615/mmcif_inputs_from_132/8t2p.cif","structureUrl":"/api/annojoin/structure?path=CONFIDENCE%2F10_structure_context%2Falpha_full_20260615%2Fmmcif_inputs_from_132%2F8t2p.cif","structureFileFormat":"mmCIF","residueColoringDataPath":"ANNOCONFIDENCE/mapping_uncertainty_annotation.tsv","viewerCompatibility":"coordinate-key residue coloring","colorPolicyId":"rmdb_reactivity_low_mid_high_v1","coordinateKeyColumn":"pdb_residue_coordinate_key","valueColumn":"reactivity_value","routeAvailabilityStatus":"","blockerCode":"","blockerReason":""},{"structureFilePath":"CONFIDENCE/10_structure_context/alpha_full_20260615/mmcif_inputs_from_132/8t2p.cif","structureUrl":"/api/annojoin/structure?path=CONFIDENCE%2F10_structure_context%2Falpha_full_20260615%2Fmmcif_inputs_from_132%2F8t2p.cif","structureFileFormat":"mmCIF","residueColoringDataPath":"ANNOCONFIDENCE/mapping_uncertainty_annotation.tsv","viewerCompatibility":"coordinate-key residue coloring","colorPolicyId":"rmdb_reactivity_low_mid_high_v1","coordinateKeyColumn":"pdb_residue_coordinate_key","valueColumn":"reactivity_value","routeAvailabilityStatus":"","blockerCode":"","blockerReason":""},{"structureFilePath":"CONFIDENCE/10_structure_context/alpha_full_20260615/mmcif_inputs_from_132/8t2p.cif","structureUrl":"/api/annojoin/structure?path=CONFIDENCE%2F10_structure_context%2Falpha_full_20260615%2Fmmcif_inputs_from_132%2F8t2p.cif","structureFileFormat":"mmCIF","residueColoringDataPath":"ANNOCONFIDENCE/mapping_uncertainty_annotation.tsv","viewerCompatibility":"coordinate-key residue coloring","colorPolicyId":"rmdb_reactivity_low_mid_high_v1","coordinateKeyColumn":"pdb_residue_coordinate_key","valueColumn":"reactivity_value","routeAvailabilityStatus":"","blockerCode":"","blockerReason":""},{"structureFilePath":"CONFIDENCE/10_structure_context/alpha_full_20260615/mmcif_inputs_from_132/8t2p.cif","structureUrl":"/api/annojoin/structure?path=CONFIDENCE%2F10_structure_context%2Falpha_full_20260615%2Fmmcif_inputs_from_132%2F8t2p.cif","structureFileFormat":"mmCIF","residueColoringDataPath":"ANNOCONFIDENCE/mapping_uncertainty_annotation.tsv","viewerCompatibility":"coordinate-key residue coloring","colorPolicyId":"rmdb_reactivity_low_mid_high_v1","coordinateKeyColumn":"pdb_residue_coordinate_key","valueColumn":"reactivity_value","routeAvailabilityStatus":"","blockerCode":"","blockerReason":""},{"structureFilePath":"CONFIDENCE/10_structure_context/alpha_full_20260615/mmcif_inputs_from_132/8t2p.cif","structureUrl":"/api/annojoin/structure?path=CONFIDENCE%2F10_structure_context%2Falpha_full_20260615%2Fmmcif_inputs_from_132%2F8t2p.cif","structureFileFormat":"mmCIF","residueColoringDataPath":"ANNOCONFIDENCE/mapping_uncertainty_annotation.tsv","viewerCompatibility":"coordinate-key residue coloring","colorPolicyId":"rmdb_reactivity_low_mid_high_v1","coordinateKeyColumn":"pdb_residue_coordinate_key","valueColumn":"reactivity_value","routeAvailabilityStatus":"","blockerCode":"","blockerReason":""},{"structureFilePath":"CONFIDENCE/10_structure_context/alpha_full_20260615/mmcif_inputs_from_132/8t2p.cif","structureUrl":"/api/annojoin/structure?path=CONFIDENCE%2F10_structure_context%2Falpha_full_20260615%2Fmmcif_inputs_from_132%2F8t2p.cif","structureFileFormat":"mmCIF","residueColoringDataPath":"ANNOCONFIDENCE/mapping_uncertainty_annotation.tsv","viewerCompatibility":"coordinate-key residue coloring","colorPolicyId":"rmdb_reactivity_low_mid_high_v1","coordinateKeyColumn":"pdb_residue_coordinate_key","valueColumn":"reactivity_value","routeAvailabilityStatus":"","blockerCode":"","blockerReason":""},{"structureFilePath":"CONFIDENCE/10_structure_context/alpha_full_20260615/mmcif_inputs_from_132/8t2p.cif","structureUrl":"/api/annojoin/structure?path=CONFIDENCE%2F10_structure_context%2Falpha_full_20260615%2Fmmcif_inputs_from_132%2F8t2p.cif","structureFileFormat":"mmCIF","residueColoringDataPath":"ANNOCONFIDENCE/mapping_uncertainty_annotation.tsv","viewerCompatibility":"coordinate-key residue coloring","colorPolicyId":"rmdb_reactivity_low_mid_high_v1","coordinateKeyColumn":"pdb_residue_coordinate_key","valueColumn":"reactivity_value","routeAvailabilityStatus":"","blockerCode":"","blockerReason":""},{"structureFilePath":"CONFIDENCE/10_structure_context/alpha_full_20260615/mmcif_inputs_from_132/8t2p.cif","structureUrl":"/api/annojoin/structure?path=CONFIDENCE%2F10_structure_context%2Falpha_full_20260615%2Fmmcif_inputs_from_132%2F8t2p.cif","structureFileFormat":"mmCIF","residueColoringDataPath":"ANNOCONFIDENCE/mapping_uncertainty_annotation.tsv","viewerCompatibility":"coordinate-key residue coloring","colorPolicyId":"rmdb_reactivity_low_mid_high_v1","coordinateKeyColumn":"pdb_residue_coordinate_key","valueColumn":"reactivity_value","routeAvailabilityStatus":"","blockerCode":"","blockerReason":""},{"structureFilePath":"CONFIDENCE/10_structure_context/alpha_full_20260615/mmcif_inputs_from_132/8t2p.cif","structureUrl":"/api/annojoin/structure?path=CONFIDENCE%2F10_structure_context%2Falpha_full_20260615%2Fmmcif_inputs_from_132%2F8t2p.cif","structureFileFormat":"mmCIF","residueColoringDataPath":"ANNOCONFIDENCE/mapping_uncertainty_annotation.tsv","viewerCompatibility":"coordinate-key residue coloring","colorPolicyId":"rmdb_reactivity_low_mid_high_v1","coordinateKeyColumn":"pdb_residue_coordinate_key","valueColumn":"reactivity_value","routeAvailabilityStatus":"","blockerCode":"","blockerReason":""},{"structureFilePath":"CONFIDENCE/10_structure_context/alpha_full_20260615/mmcif_inputs_from_132/8t2p.cif","structureUrl":"/api/annojoin/structure?path=CONFIDENCE%2F10_structure_context%2Falpha_full_20260615%2Fmmcif_inputs_from_132%2F8t2p.cif","structureFileFormat":"mmCIF","residueColoringDataPath":"ANNOCONFIDENCE/mapping_uncertainty_annotation.tsv","viewerCompatibility":"coordinate-key residue coloring","colorPolicyId":"rmdb_reactivity_low_mid_high_v1","coordinateKeyColumn":"pdb_residue_coordinate_key","valueColumn":"reactivity_value","routeAvailabilityStatus":"","blockerCode":"","blockerReason":""},{"structureFilePath":"CONFIDENCE/10_structure_context/alpha_full_20260615/mmcif_inputs_from_132/8t2p.cif","structureUrl":"/api/annojoin/structure?path=CONFIDENCE%2F10_structure_context%2Falpha_full_20260615%2Fmmcif_inputs_from_132%2F8t2p.cif","structureFileFormat":"mmCIF","residueColoringDataPath":"ANNOCONFIDENCE/mapping_uncertainty_annotation.tsv","viewerCompatibility":"coordinate-key residue coloring","colorPolicyId":"rmdb_reactivity_low_mid_high_v1","coordinateKeyColumn":"pdb_residue_coordinate_key","valueColumn":"reactivity_value","routeAvailabilityStatus":"","blockerCode":"","blockerReason":""},{"structureFilePath":"CONFIDENCE/10_structure_context/alpha_full_20260615/mmcif_inputs_from_132/8t2p.cif","structureUrl":"/api/annojoin/structure?path=CONFIDENCE%2F10_structure_context%2Falpha_full_20260615%2Fmmcif_inputs_from_132%2F8t2p.cif","structureFileFormat":"mmCIF","residueColoringDataPath":"ANNOCONFIDENCE/mapping_uncertainty_annotation.tsv","viewerCompatibility":"coordinate-key residue coloring","colorPolicyId":"rmdb_reactivity_low_mid_high_v1","coordinateKeyColumn":"pdb_residue_coordinate_key","valueColumn":"reactivity_value","routeAvailabilityStatus":"","blockerCode":"","blockerReason":""},{"structureFilePath":"CONFIDENCE/10_structure_context/alpha_full_20260615/mmcif_inputs_from_132/8t2p.cif","structureUrl":"/api/annojoin/structure?path=CONFIDENCE%2F10_structure_context%2Falpha_full_20260615%2Fmmcif_inputs_from_132%2F8t2p.cif","structureFileFormat":"mmCIF","residueColoringDataPath":"ANNOCONFIDENCE/mapping_uncertainty_annotation.tsv","viewerCompatibility":"coordinate-key residue coloring","colorPolicyId":"rmdb_reactivity_low_mid_high_v1","coordinateKeyColumn":"pdb_residue_coordinate_key","valueColumn":"reactivity_value","routeAvailabilityStatus":"","blockerCode":"","blockerReason":""},{"structureFilePath":"CONFIDENCE/10_structure_context/alpha_full_20260615/mmcif_inputs_from_132/8t2p.cif","structureUrl":"/api/annojoin/structure?path=CONFIDENCE%2F10_structure_context%2Falpha_full_20260615%2Fmmcif_inputs_from_132%2F8t2p.cif","structureFileFormat":"mmCIF","residueColoringDataPath":"ANNOCONFIDENCE/mapping_uncertainty_annotation.tsv","viewerCompatibility":"coordinate-key residue coloring","colorPolicyId":"rmdb_reactivity_low_mid_high_v1","coordinateKeyColumn":"pdb_residue_coordinate_key","valueColumn":"reactivity_value","routeAvailabilityStatus":"","blockerCode":"","blockerReason":""},{"structureFilePath":"CONFIDENCE/10_structure_context/alpha_full_20260615/mmcif_inputs_from_132/8t2p.cif","structureUrl":"/api/annojoin/structure?path=CONFIDENCE%2F10_structure_context%2Falpha_full_20260615%2Fmmcif_inputs_from_132%2F8t2p.cif","structureFileFormat":"mmCIF","residueColoringDataPath":"ANNOCONFIDENCE/mapping_uncertainty_annotation.tsv","viewerCompatibility":"coordinate-key residue coloring","colorPolicyId":"rmdb_reactivity_low_mid_high_v1","coordinateKeyColumn":"pdb_residue_coordinate_key","valueColumn":"reactivity_value","routeAvailabilityStatus":"","blockerCode":"","blockerReason":""},{"structureFilePath":"CONFIDENCE/10_structure_context/alpha_full_20260615/mmcif_inputs_from_132/8t2p.cif","structureUrl":"/api/annojoin/structure?path=CONFIDENCE%2F10_structure_context%2Falpha_full_20260615%2Fmmcif_inputs_from_132%2F8t2p.cif","structureFileFormat":"mmCIF","residueColoringDataPath":"ANNOCONFIDENCE/mapping_uncertainty_annotation.tsv","viewerCompatibility":"coordinate-key residue coloring","colorPolicyId":"rmdb_reactivity_low_mid_high_v1","coordinateKeyColumn":"pdb_residue_coordinate_key","valueColumn":"reactivity_value","routeAvailabilityStatus":"","blockerCode":"","blockerReason":""},{"structureFilePath":"CONFIDENCE/10_structure_context/alpha_full_20260615/mmcif_inputs_from_132/8t2p.cif","structureUrl":"/api/annojoin/structure?path=CONFIDENCE%2F10_structure_context%2Falpha_full_20260615%2Fmmcif_inputs_from_132%2F8t2p.cif","structureFileFormat":"mmCIF","residueColoringDataPath":"ANNOCONFIDENCE/mapping_uncertainty_annotation.tsv","viewerCompatibility":"coordinate-key residue coloring","colorPolicyId":"rmdb_reactivity_low_mid_high_v1","coordinateKeyColumn":"pdb_residue_coordinate_key","valueColumn":"reactivity_value","routeAvailabilityStatus":"","blockerCode":"","blockerReason":""},{"structureFilePath":"CONFIDENCE/10_structure_context/alpha_full_20260615/mmcif_inputs_from_132/8t2p.cif","structureUrl":"/api/annojoin/structure?path=CONFIDENCE%2F10_structure_context%2Falpha_full_20260615%2Fmmcif_inputs_from_132%2F8t2p.cif","structureFileFormat":"mmCIF","residueColoringDataPath":"ANNOCONFIDENCE/mapping_uncertainty_annotation.tsv","viewerCompatibility":"coordinate-key residue coloring","colorPolicyId":"rmdb_reactivity_low_mid_high_v1","coordinateKeyColumn":"pdb_residue_coordinate_key","valueColumn":"reactivity_value","routeAvailabilityStatus":"","blockerCode":"","blockerReason":""},{"structureFilePath":"CONFIDENCE/10_structure_context/alpha_full_20260615/mmcif_inputs_from_132/8t2p.cif","structureUrl":"/api/annojoin/structure?path=CONFIDENCE%2F10_structure_context%2Falpha_full_20260615%2Fmmcif_inputs_from_132%2F8t2p.cif","structureFileFormat":"mmCIF","residueColoringDataPath":"ANNOCONFIDENCE/mapping_uncertainty_annotation.tsv","viewerCompatibility":"coordinate-key residue coloring","colorPolicyId":"rmdb_reactivity_low_mid_high_v1","coordinateKeyColumn":"pdb_residue_coordinate_key","valueColumn":"reactivity_value","routeAvailabilityStatus":"","blockerCode":"","blockerReason":""},{"structureFilePath":"CONFIDENCE/10_structure_context/alpha_full_20260615/mmcif_inputs_from_132/8t2p.cif","structureUrl":"/api/annojoin/structure?path=CONFIDENCE%2F10_structure_context%2Falpha_full_20260615%2Fmmcif_inputs_from_132%2F8t2p.cif","structureFileFormat":"mmCIF","residueColoringDataPath":"ANNOCONFIDENCE/mapping_uncertainty_annotation.tsv","viewerCompatibility":"coordinate-key residue coloring","colorPolicyId":"rmdb_reactivity_low_mid_high_v1","coordinateKeyColumn":"pdb_residue_coordinate_key","valueColumn":"reactivity_value","routeAvailabilityStatus":"","blockerCode":"","blockerReason":""},{"structureFilePath":"CONFIDENCE/10_structure_context/alpha_full_20260615/mmcif_inputs_from_132/8t2p.cif","structureUrl":"/api/annojoin/structure?path=CONFIDENCE%2F10_structure_context%2Falpha_full_20260615%2Fmmcif_inputs_from_132%2F8t2p.cif","structureFileFormat":"mmCIF","residueColoringDataPath":"ANNOCONFIDENCE/mapping_uncertainty_annotation.tsv","viewerCompatibility":"coordinate-key residue coloring","colorPolicyId":"rmdb_reactivity_low_mid_high_v1","coordinateKeyColumn":"pdb_residue_coordinate_key","valueColumn":"reactivity_value","routeAvailabilityStatus":"","blockerCode":"","blockerReason":""},{"structureFilePath":"CONFIDENCE/10_structure_context/alpha_full_20260615/mmcif_inputs_from_132/8t2p.cif","structureUrl":"/api/annojoin/structure?path=CONFIDENCE%2F10_structure_context%2Falpha_full_20260615%2Fmmcif_inputs_from_132%2F8t2p.cif","structureFileFormat":"mmCIF","residueColoringDataPath":"ANNOCONFIDENCE/mapping_uncertainty_annotation.tsv","viewerCompatibility":"coordinate-key residue coloring","colorPolicyId":"rmdb_reactivity_low_mid_high_v1","coordinateKeyColumn":"pdb_residue_coordinate_key","valueColumn":"reactivity_value","routeAvailabilityStatus":"","blockerCode":"","blockerReason":""},{"structureFilePath":"CONFIDENCE/10_structure_context/alpha_full_20260615/mmcif_inputs_from_132/8t2p.cif","structureUrl":"/api/annojoin/structure?path=CONFIDENCE%2F10_structure_context%2Falpha_full_20260615%2Fmmcif_inputs_from_132%2F8t2p.cif","structureFileFormat":"mmCIF","residueColoringDataPath":"ANNOCONFIDENCE/mapping_uncertainty_annotation.tsv","viewerCompatibility":"coordinate-key residue coloring","colorPolicyId":"rmdb_reactivity_low_mid_high_v1","coordinateKeyColumn":"pdb_residue_coordinate_key","valueColumn":"reactivity_value","routeAvailabilityStatus":"","blockerCode":"","blockerReason":""},{"structureFilePath":"CONFIDENCE/10_structure_context/alpha_full_20260615/mmcif_inputs_from_132/8t2p.cif","structureUrl":"/api/annojoin/structure?path=CONFIDENCE%2F10_structure_context%2Falpha_full_20260615%2Fmmcif_inputs_from_132%2F8t2p.cif","structureFileFormat":"mmCIF","residueColoringDataPath":"ANNOCONFIDENCE/mapping_uncertainty_annotation.tsv","viewerCompatibility":"coordinate-key residue coloring","colorPolicyId":"rmdb_reactivity_low_mid_high_v1","coordinateKeyColumn":"pdb_residue_coordinate_key","valueColumn":"reactivity_value","routeAvailabilityStatus":"","blockerCode":"","blockerReason":""},{"structureFilePath":"CONFIDENCE/10_structure_context/alpha_full_20260615/mmcif_inputs_from_132/8t2p.cif","structureUrl":"/api/annojoin/structure?path=CONFIDENCE%2F10_structure_context%2Falpha_full_20260615%2Fmmcif_inputs_from_132%2F8t2p.cif","structureFileFormat":"mmCIF","residueColoringDataPath":"ANNOCONFIDENCE/mapping_uncertainty_annotation.tsv","viewerCompatibility":"coordinate-key residue coloring","colorPolicyId":"rmdb_reactivity_low_mid_high_v1","coordinateKeyColumn":"pdb_residue_coordinate_key","valueColumn":"reactivity_value","routeAvailabilityStatus":"","blockerCode":"","blockerReason":""},{"structureFilePath":"CONFIDENCE/10_structure_context/alpha_full_20260615/mmcif_inputs_from_132/8t2p.cif","structureUrl":"/api/annojoin/structure?path=CONFIDENCE%2F10_structure_context%2Falpha_full_20260615%2Fmmcif_inputs_from_132%2F8t2p.cif","structureFileFormat":"mmCIF","residueColoringDataPath":"ANNOCONFIDENCE/mapping_uncertainty_annotation.tsv","viewerCompatibility":"coordinate-key residue coloring","colorPolicyId":"rmdb_reactivity_low_mid_high_v1","coordinateKeyColumn":"pdb_residue_coordinate_key","valueColumn":"reactivity_value","routeAvailabilityStatus":"","blockerCode":"","blockerReason":""},{"structureFilePath":"CONFIDENCE/10_structure_context/alpha_full_20260615/mmcif_inputs_from_132/8t2p.cif","structureUrl":"/api/annojoin/structure?path=CONFIDENCE%2F10_structure_context%2Falpha_full_20260615%2Fmmcif_inputs_from_132%2F8t2p.cif","structureFileFormat":"mmCIF","residueColoringDataPath":"ANNOCONFIDENCE/mapping_uncertainty_annotation.tsv","viewerCompatibility":"coordinate-key residue coloring","colorPolicyId":"rmdb_reactivity_low_mid_high_v1","coordinateKeyColumn":"pdb_residue_coordinate_key","valueColumn":"reactivity_value","routeAvailabilityStatus":"","blockerCode":"","blockerReason":""},{"structureFilePath":"CONFIDENCE/10_structure_context/alpha_full_20260615/mmcif_inputs_from_132/8t2p.cif","structureUrl":"/api/annojoin/structure?path=CONFIDENCE%2F10_structure_context%2Falpha_full_20260615%2Fmmcif_inputs_from_132%2F8t2p.cif","structureFileFormat":"mmCIF","residueColoringDataPath":"ANNOCONFIDENCE/mapping_uncertainty_annotation.tsv","viewerCompatibility":"coordinate-key residue coloring","colorPolicyId":"rmdb_reactivity_low_mid_high_v1","coordinateKeyColumn":"pdb_residue_coordinate_key","valueColumn":"reactivity_value","routeAvailabilityStatus":"","blockerCode":"","blockerReason":""},{"structureFilePath":"CONFIDENCE/10_structure_context/alpha_full_20260615/mmcif_inputs_from_132/8t2p.cif","structureUrl":"/api/annojoin/structure?path=CONFIDENCE%2F10_structure_context%2Falpha_full_20260615%2Fmmcif_inputs_from_132%2F8t2p.cif","structureFileFormat":"mmCIF","residueColoringDataPath":"ANNOCONFIDENCE/mapping_uncertainty_annotation.tsv","viewerCompatibility":"coordinate-key residue coloring","colorPolicyId":"rmdb_reactivity_low_mid_high_v1","coordinateKeyColumn":"pdb_residue_coordinate_key","valueColumn":"reactivity_value","routeAvailabilityStatus":"","blockerCode":"","blockerReason":""},{"structureFilePath":"CONFIDENCE/10_structure_context/alpha_full_20260615/mmcif_inputs_from_132/8t2p.cif","structureUrl":"/api/annojoin/structure?path=CONFIDENCE%2F10_structure_context%2Falpha_full_20260615%2Fmmcif_inputs_from_132%2F8t2p.cif","structureFileFormat":"mmCIF","residueColoringDataPath":"ANNOCONFIDENCE/mapping_uncertainty_annotation.tsv","viewerCompatibility":"coordinate-key residue coloring","colorPolicyId":"rmdb_reactivity_low_mid_high_v1","coordinateKeyColumn":"pdb_residue_coordinate_key","valueColumn":"reactivity_value","routeAvailabilityStatus":"","blockerCode":"","blockerReason":""},{"structureFilePath":"CONFIDENCE/10_structure_context/alpha_full_20260615/mmcif_inputs_from_132/8t2p.cif","structureUrl":"/api/annojoin/structure?path=CONFIDENCE%2F10_structure_context%2Falpha_full_20260615%2Fmmcif_inputs_from_132%2F8t2p.cif","structureFileFormat":"mmCIF","residueColoringDataPath":"ANNOCONFIDENCE/mapping_uncertainty_annotation.tsv","viewerCompatibility":"coordinate-key residue coloring","colorPolicyId":"rmdb_reactivity_low_mid_high_v1","coordinateKeyColumn":"pdb_residue_coordinate_key","valueColumn":"reactivity_value","routeAvailabilityStatus":"","blockerCode":"","blockerReason":""},{"structureFilePath":"CONFIDENCE/10_structure_context/alpha_full_20260615/mmcif_inputs_from_132/8t2p.cif","structureUrl":"/api/annojoin/structure?path=CONFIDENCE%2F10_structure_context%2Falpha_full_20260615%2Fmmcif_inputs_from_132%2F8t2p.cif","structureFileFormat":"mmCIF","residueColoringDataPath":"ANNOCONFIDENCE/mapping_uncertainty_annotation.tsv","viewerCompatibility":"coordinate-key residue coloring","colorPolicyId":"rmdb_reactivity_low_mid_high_v1","coordinateKeyColumn":"pdb_residue_coordinate_key","valueColumn":"reactivity_value","routeAvailabilityStatus":"","blockerCode":"","blockerReason":""},{"structureFilePath":"CONFIDENCE/10_structure_context/alpha_full_20260615/mmcif_inputs_from_132/8t2p.cif","structureUrl":"/api/annojoin/structure?path=CONFIDENCE%2F10_structure_context%2Falpha_full_20260615%2Fmmcif_inputs_from_132%2F8t2p.cif","structureFileFormat":"mmCIF","residueColoringDataPath":"ANNOCONFIDENCE/mapping_uncertainty_annotation.tsv","viewerCompatibility":"coordinate-key residue coloring","colorPolicyId":"rmdb_reactivity_low_mid_high_v1","coordinateKeyColumn":"pdb_residue_coordinate_key","valueColumn":"reactivity_value","routeAvailabilityStatus":"","blockerCode":"","blockerReason":""},{"structureFilePath":"CONFIDENCE/10_structure_context/alpha_full_20260615/mmcif_inputs_from_132/8t2p.cif","structureUrl":"/api/annojoin/structure?path=CONFIDENCE%2F10_structure_context%2Falpha_full_20260615%2Fmmcif_inputs_from_132%2F8t2p.cif","structureFileFormat":"mmCIF","residueColoringDataPath":"ANNOCONFIDENCE/mapping_uncertainty_annotation.tsv","viewerCompatibility":"coordinate-key residue coloring","colorPolicyId":"rmdb_reactivity_low_mid_high_v1","coordinateKeyColumn":"pdb_residue_coordinate_key","valueColumn":"reactivity_value","routeAvailabilityStatus":"","blockerCode":"","blockerReason":""},{"structureFilePath":"CONFIDENCE/10_structure_context/alpha_full_20260615/mmcif_inputs_from_132/8t2p.cif","structureUrl":"/api/annojoin/structure?path=CONFIDENCE%2F10_structure_context%2Falpha_full_20260615%2Fmmcif_inputs_from_132%2F8t2p.cif","structureFileFormat":"mmCIF","residueColoringDataPath":"ANNOCONFIDENCE/mapping_uncertainty_annotation.tsv","viewerCompatibility":"coordinate-key residue coloring","colorPolicyId":"rmdb_reactivity_low_mid_high_v1","coordinateKeyColumn":"pdb_residue_coordinate_key","valueColumn":"reactivity_value","routeAvailabilityStatus":"","blockerCode":"","blockerReason":""},{"structureFilePath":"CONFIDENCE/10_structure_context/alpha_full_20260615/mmcif_inputs_from_132/8t2p.cif","structureUrl":"/api/annojoin/structure?path=CONFIDENCE%2F10_structure_context%2Falpha_full_20260615%2Fmmcif_inputs_from_132%2F8t2p.cif","structureFileFormat":"mmCIF","residueColoringDataPath":"ANNOCONFIDENCE/mapping_uncertainty_annotation.tsv","viewerCompatibility":"coordinate-key residue coloring","colorPolicyId":"rmdb_reactivity_low_mid_high_v1","coordinateKeyColumn":"pdb_residue_coordinate_key","valueColumn":"reactivity_value","routeAvailabilityStatus":"","blockerCode":"","blockerReason":""},{"structureFilePath":"CONFIDENCE/10_structure_context/alpha_full_20260615/mmcif_inputs_from_132/8t2p.cif","structureUrl":"/api/annojoin/structure?path=CONFIDENCE%2F10_structure_context%2Falpha_full_20260615%2Fmmcif_inputs_from_132%2F8t2p.cif","structureFileFormat":"mmCIF","residueColoringDataPath":"ANNOCONFIDENCE/mapping_uncertainty_annotation.tsv","viewerCompatibility":"coordinate-key residue coloring","colorPolicyId":"rmdb_reactivity_low_mid_high_v1","coordinateKeyColumn":"pdb_residue_coordinate_key","valueColumn":"reactivity_value","routeAvailabilityStatus":"","blockerCode":"","blockerReason":""},{"structureFilePath":"CONFIDENCE/10_structure_context/alpha_full_20260615/mmcif_inputs_from_132/8t2p.cif","structureUrl":"/api/annojoin/structure?path=CONFIDENCE%2F10_structure_context%2Falpha_full_20260615%2Fmmcif_inputs_from_132%2F8t2p.cif","structureFileFormat":"mmCIF","residueColoringDataPath":"ANNOCONFIDENCE/mapping_uncertainty_annotation.tsv","viewerCompatibility":"coordinate-key residue coloring","colorPolicyId":"rmdb_reactivity_low_mid_high_v1","coordinateKeyColumn":"pdb_residue_coordinate_key","valueColumn":"reactivity_value","routeAvailabilityStatus":"","blockerCode":"","blockerReason":""},{"structureFilePath":"CONFIDENCE/10_structure_context/alpha_full_20260615/mmcif_inputs_from_132/8t2p.cif","structureUrl":"/api/annojoin/structure?path=CONFIDENCE%2F10_structure_context%2Falpha_full_20260615%2Fmmcif_inputs_from_132%2F8t2p.cif","structureFileFormat":"mmCIF","residueColoringDataPath":"ANNOCONFIDENCE/mapping_uncertainty_annotation.tsv","viewerCompatibility":"coordinate-key residue coloring","colorPolicyId":"rmdb_reactivity_low_mid_high_v1","coordinateKeyColumn":"pdb_residue_coordinate_key","valueColumn":"reactivity_value","routeAvailabilityStatus":"","blockerCode":"","blockerReason":""},{"structureFilePath":"CONFIDENCE/10_structure_context/alpha_full_20260615/mmcif_inputs_from_132/8t2p.cif","structureUrl":"/api/annojoin/structure?path=CONFIDENCE%2F10_structure_context%2Falpha_full_20260615%2Fmmcif_inputs_from_132%2F8t2p.cif","structureFileFormat":"mmCIF","residueColoringDataPath":"ANNOCONFIDENCE/mapping_uncertainty_annotation.tsv","viewerCompatibility":"coordinate-key residue coloring","colorPolicyId":"rmdb_reactivity_low_mid_high_v1","coordinateKeyColumn":"pdb_residue_coordinate_key","valueColumn":"reactivity_value","routeAvailabilityStatus":"","blockerCode":"","blockerReason":""},{"structureFilePath":"CONFIDENCE/10_structure_context/alpha_full_20260615/mmcif_inputs_from_132/8t2p.cif","structureUrl":"/api/annojoin/structure?path=CONFIDENCE%2F10_structure_context%2Falpha_full_20260615%2Fmmcif_inputs_from_132%2F8t2p.cif","structureFileFormat":"mmCIF","residueColoringDataPath":"ANNOCONFIDENCE/mapping_uncertainty_annotation.tsv","viewerCompatibility":"coordinate-key residue coloring","colorPolicyId":"rmdb_reactivity_low_mid_high_v1","coordinateKeyColumn":"pdb_residue_coordinate_key","valueColumn":"reactivity_value","routeAvailabilityStatus":"","blockerCode":"","blockerReason":""},{"structureFilePath":"CONFIDENCE/10_structure_context/alpha_full_20260615/mmcif_inputs_from_132/8t2p.cif","structureUrl":"/api/annojoin/structure?path=CONFIDENCE%2F10_structure_context%2Falpha_full_20260615%2Fmmcif_inputs_from_132%2F8t2p.cif","structureFileFormat":"mmCIF","residueColoringDataPath":"ANNOCONFIDENCE/mapping_uncertainty_annotation.tsv","viewerCompatibility":"coordinate-key residue coloring","colorPolicyId":"rmdb_reactivity_low_mid_high_v1","coordinateKeyColumn":"pdb_residue_coordinate_key","valueColumn":"reactivity_value","routeAvailabilityStatus":"","blockerCode":"","blockerReason":""}]}
