{"schemaVersion":"annojoin-atlas.v1","version":"V2.1_RMDB_LINE_A_20260617","atlasCaseKey":"RMDB2PDB:7UVV","caseId":"7UVV","routeKey":"track-routes","page":2,"pageSize":500,"totalRows":502,"pageCount":2,"rows":[{"profileId":"data-rna-structures/data-rna-structures/RFMREP_2A3_0001.rdat#4541","trackRouteId":"annojoin:track:RMDB2PDB:pairseg_7UVV_sequence_000567","trackDataPath":"ANNOCONFIDENCE/assay_numeric_usability_annotation.tsv","trackSchemaId":"assay_numeric_usability_annotation","supports1d":true,"supportsTable":true,"colorPolicyId":"rmdb_reactivity_low_mid_high_v1"},{"profileId":"data-rna-structures/data-rna-structures/RFMREP_DMS_0001.rdat#4541","trackRouteId":"annojoin:track:RMDB2PDB:pairseg_7UVV_sequence_000568","trackDataPath":"ANNOCONFIDENCE/assay_numeric_usability_annotation.tsv","trackSchemaId":"assay_numeric_usability_annotation","supports1d":true,"supportsTable":true,"colorPolicyId":"rmdb_reactivity_low_mid_high_v1"}]}
