{"schemaVersion":"annojoin-atlas.v1","version":"V2.1_RMDB_LINE_A_20260617","atlasCaseKey":"RMDB2PDB:5MYJ","caseId":"5MYJ","routeKey":"memberships","page":2,"pageSize":500,"totalRows":614,"pageCount":2,"rows":[{"pairId":"5MYJ:sequence_000573","profileId":"rmdbv3_exact_a1fd1a18636aa7275de457f94c50f03d1d373923|top_x_279::seq_2c952c0d29c0e604|5MYJ_BA","routeId":"annojoin:profiles:RMDB2PDB:5MYJ"},{"pairId":"5MYJ:sequence_000574","profileId":"rmdbv3_exact_a1fd1a18636aa7275de457f94c50f03d1d373923|top_x_279::seq_ac54d24e562ef9cc|5MYJ_BA","routeId":"annojoin:profiles:RMDB2PDB:5MYJ"},{"pairId":"5MYJ:sequence_000575","profileId":"rmdbv3_exact_fbd63e605353d2a9078efa5b5653090dd55b128b|top_x_279::seq_36ef1e061010543c|5MYJ_BA","routeId":"annojoin:profiles:RMDB2PDB:5MYJ"},{"pairId":"5MYJ:sequence_000576","profileId":"rmdbv3_exact_fbd63e605353d2a9078efa5b5653090dd55b128b|top_x_279::seq_d1e3f793975e6278|5MYJ_BA","routeId":"annojoin:profiles:RMDB2PDB:5MYJ"},{"pairId":"5MYJ:sequence_000577","profileId":"rmdbv3_exact_5ed5227f653e00025f07d42f4fe78286dcc62729|top_x_279::seq_6a1be6ed04788a98|5MYJ_AA","routeId":"annojoin:profiles:RMDB2PDB:5MYJ"},{"pairId":"5MYJ:sequence_000578","profileId":"rmdbv3_exact_5ed5227f653e00025f07d42f4fe78286dcc62729|top_x_279::seq_db01926b05566468|5MYJ_AA","routeId":"annojoin:profiles:RMDB2PDB:5MYJ"},{"pairId":"5MYJ:sequence_000579","profileId":"rmdbv3_exact_e042f7baa34d18666afc9a04daa467cbd03d8d1e|top_x_279::seq_1e5568f17dcff4c9|5MYJ_AA","routeId":"annojoin:profiles:RMDB2PDB:5MYJ"},{"pairId":"5MYJ:sequence_000580","profileId":"rmdbv3_exact_e042f7baa34d18666afc9a04daa467cbd03d8d1e|top_x_279::seq_4098694f3c781277|5MYJ_AA","routeId":"annojoin:profiles:RMDB2PDB:5MYJ"},{"pairId":"5MYJ:sequence_000581","profileId":"rmdbv3_exact_76ec2b866a56740b8bc4e6874a3669b170f2baa2|top_x_279::seq_23def2510564e171|5MYJ_BA","routeId":"annojoin:profiles:RMDB2PDB:5MYJ"},{"pairId":"5MYJ:sequence_000582","profileId":"rmdbv3_exact_76ec2b866a56740b8bc4e6874a3669b170f2baa2|top_x_279::seq_d5b24ef5f40368a3|5MYJ_BA","routeId":"annojoin:profiles:RMDB2PDB:5MYJ"},{"pairId":"5MYJ:sequence_000583","profileId":"rmdbv3_exact_52b6817e65eec2bec4308610c429d14e268820cd|top_x_279::seq_78a681b999d69005|5MYJ_BA","routeId":"annojoin:profiles:RMDB2PDB:5MYJ"},{"pairId":"5MYJ:sequence_000584","profileId":"rmdbv3_exact_52b6817e65eec2bec4308610c429d14e268820cd|top_x_279::seq_d3d7f0d139bb1ef8|5MYJ_BA","routeId":"annojoin:profiles:RMDB2PDB:5MYJ"},{"pairId":"5MYJ:sequence_000585","profileId":"rmdbv3_exact_552b0e3c7fb02eb36778ea94b425e4636f442c70|top_x_279::seq_3907ef44a11f25bc|5MYJ_BA","routeId":"annojoin:profiles:RMDB2PDB:5MYJ"},{"pairId":"5MYJ:sequence_000586","profileId":"rmdbv3_exact_552b0e3c7fb02eb36778ea94b425e4636f442c70|top_x_279::seq_e6672a1964cbdc8a|5MYJ_BA","routeId":"annojoin:profiles:RMDB2PDB:5MYJ"},{"pairId":"5MYJ:sequence_000587","profileId":"rmdbv3_exact_cc85067b005f73559b84323fc1cd4d01c748a6b5|top_x_279::seq_2a493d86aaaa9d82|5MYJ_BA","routeId":"annojoin:profiles:RMDB2PDB:5MYJ"},{"pairId":"5MYJ:sequence_000588","profileId":"rmdbv3_exact_cc85067b005f73559b84323fc1cd4d01c748a6b5|top_x_279::seq_2fa0694763966bf3|5MYJ_BA","routeId":"annojoin:profiles:RMDB2PDB:5MYJ"},{"pairId":"5MYJ:sequence_000589","profileId":"rmdbv3_exact_d3ee58c879a17462e31933b9f93f90b2afbe1b04|top_x_279::seq_062e9e32f333aa0e|5MYJ_BA","routeId":"annojoin:profiles:RMDB2PDB:5MYJ"},{"pairId":"5MYJ:sequence_000590","profileId":"rmdbv3_exact_d3ee58c879a17462e31933b9f93f90b2afbe1b04|top_x_279::seq_531d6b6be9950e45|5MYJ_BA","routeId":"annojoin:profiles:RMDB2PDB:5MYJ"},{"pairId":"5MYJ:sequence_000591","profileId":"rmdbv3_exact_0e07938f28977c8ef3ac1c1a16ba26afae32d5cd|top_x_279::seq_75ffcaa1e96c4be6|5MYJ_BA","routeId":"annojoin:profiles:RMDB2PDB:5MYJ"},{"pairId":"5MYJ:sequence_000592","profileId":"rmdbv3_exact_0e07938f28977c8ef3ac1c1a16ba26afae32d5cd|top_x_279::seq_b7be961fed35b1ba|5MYJ_BA","routeId":"annojoin:profiles:RMDB2PDB:5MYJ"},{"pairId":"5MYJ:sequence_000593","profileId":"rmdbv3_exact_3c285a77ffcaf133f99e4abe6e729fc08c8313e4|top_x_279::seq_d1d5054868e3c240|5MYJ_BA","routeId":"annojoin:profiles:RMDB2PDB:5MYJ"},{"pairId":"5MYJ:sequence_000594","profileId":"rmdbv3_exact_3c285a77ffcaf133f99e4abe6e729fc08c8313e4|top_x_279::seq_e3f6ee52c2c57275|5MYJ_BA","routeId":"annojoin:profiles:RMDB2PDB:5MYJ"},{"pairId":"5MYJ:sequence_000595","profileId":"rmdbv3_exact_4525d6d45a05055389c7ce4403014d2ee70b2da1|top_x_279::seq_00751100d88952bf|5MYJ_BA","routeId":"annojoin:profiles:RMDB2PDB:5MYJ"},{"pairId":"5MYJ:sequence_000596","profileId":"rmdbv3_exact_4525d6d45a05055389c7ce4403014d2ee70b2da1|top_x_279::seq_0e4358cf5a96efc4|5MYJ_BA","routeId":"annojoin:profiles:RMDB2PDB:5MYJ"},{"pairId":"5MYJ:sequence_000597","profileId":"rmdbv3_exact_a5919456d07adfc13f4f31e308b4ced6b82067a1|top_x_279::seq_685d9e1b6f345dc9|5MYJ_BA","routeId":"annojoin:profiles:RMDB2PDB:5MYJ"},{"pairId":"5MYJ:sequence_000598","profileId":"rmdbv3_exact_a5919456d07adfc13f4f31e308b4ced6b82067a1|top_x_279::seq_f9108c1433f50610|5MYJ_BA","routeId":"annojoin:profiles:RMDB2PDB:5MYJ"},{"pairId":"5MYJ:sequence_000599","profileId":"rmdbv3_exact_6fb5780b07cb03b7e8d1b173aa6a12184b800fa0|top_x_279::seq_8530a17ef0a58501|5MYJ_BA","routeId":"annojoin:profiles:RMDB2PDB:5MYJ"},{"pairId":"5MYJ:sequence_000600","profileId":"rmdbv3_exact_6fb5780b07cb03b7e8d1b173aa6a12184b800fa0|top_x_279::seq_eab9fb76687839ad|5MYJ_BA","routeId":"annojoin:profiles:RMDB2PDB:5MYJ"},{"pairId":"5MYJ:sequence_000601","profileId":"rmdbv3_exact_bfbbc52a98aa0c2d6346ddd6b4387ea88652bb4f|top_x_279::seq_d5a7f72379f82aff|5MYJ_BA","routeId":"annojoin:profiles:RMDB2PDB:5MYJ"},{"pairId":"5MYJ:sequence_000602","profileId":"rmdbv3_exact_bfbbc52a98aa0c2d6346ddd6b4387ea88652bb4f|top_x_279::seq_fac8759afcb3cc2a|5MYJ_BA","routeId":"annojoin:profiles:RMDB2PDB:5MYJ"},{"pairId":"5MYJ:sequence_000603","profileId":"rmdbv3_exact_0e7673df1995782740190d4af6f8bfb19f24d17e|top_x_279::seq_7135c90618e63dad|5MYJ_BA","routeId":"annojoin:profiles:RMDB2PDB:5MYJ"},{"pairId":"5MYJ:sequence_000604","profileId":"rmdbv3_exact_0e7673df1995782740190d4af6f8bfb19f24d17e|top_x_279::seq_d4bece0bf4ff1a5e|5MYJ_BA","routeId":"annojoin:profiles:RMDB2PDB:5MYJ"},{"pairId":"5MYJ:sequence_000605","profileId":"rmdbv3_exact_602c5e014bcf59cab4beffd89095fff3a45057d9|top_x_279::seq_2100d9ccb5034183|5MYJ_BA","routeId":"annojoin:profiles:RMDB2PDB:5MYJ"},{"pairId":"5MYJ:sequence_000606","profileId":"rmdbv3_exact_602c5e014bcf59cab4beffd89095fff3a45057d9|top_x_279::seq_8b32cf5a1260cb4f|5MYJ_BA","routeId":"annojoin:profiles:RMDB2PDB:5MYJ"},{"pairId":"5MYJ:sequence_000607","profileId":"rmdbv3_exact_880c276c3d19776e1da99a64e2f0071014ccb41e|top_x_279::seq_0a012242cf8afe23|5MYJ_BA","routeId":"annojoin:profiles:RMDB2PDB:5MYJ"},{"pairId":"5MYJ:sequence_000608","profileId":"rmdbv3_exact_880c276c3d19776e1da99a64e2f0071014ccb41e|top_x_279::seq_b6073c71be06374d|5MYJ_BA","routeId":"annojoin:profiles:RMDB2PDB:5MYJ"},{"pairId":"5MYJ:sequence_000609","profileId":"rmdbv3_exact_4d3b420f3e9f63c9da2a5b2fea461daa7787dc02|top_x_279::seq_85fa64e6b70879bb|5MYJ_BA","routeId":"annojoin:profiles:RMDB2PDB:5MYJ"},{"pairId":"5MYJ:sequence_000610","profileId":"rmdbv3_exact_4d3b420f3e9f63c9da2a5b2fea461daa7787dc02|top_x_279::seq_88c0f34a3875534b|5MYJ_BA","routeId":"annojoin:profiles:RMDB2PDB:5MYJ"},{"pairId":"5MYJ:sequence_000611","profileId":"rmdbv3_exact_93b5df638d4235b079c299d39c5b6349ee9e47de|top_x_279::seq_01cf7bb8483a23ae|5MYJ_BA","routeId":"annojoin:profiles:RMDB2PDB:5MYJ"},{"pairId":"5MYJ:sequence_000612","profileId":"rmdbv3_exact_93b5df638d4235b079c299d39c5b6349ee9e47de|top_x_279::seq_19bfd3cfe83cbb14|5MYJ_BA","routeId":"annojoin:profiles:RMDB2PDB:5MYJ"},{"pairId":"5MYJ:sequence_000613","profileId":"rmdbv3_exact_b12ef0d119a4551538f3058ae7909c2f8056b852|top_x_279::seq_69e57d566bdb4e1f|5MYJ_BA","routeId":"annojoin:profiles:RMDB2PDB:5MYJ"},{"pairId":"5MYJ:sequence_000614","profileId":"rmdbv3_exact_b12ef0d119a4551538f3058ae7909c2f8056b852|top_x_279::seq_baf643f6efb2ad55|5MYJ_BA","routeId":"annojoin:profiles:RMDB2PDB:5MYJ"},{"pairId":"5MYJ:sequence_000615","profileId":"rmdbv3_exact_3761152df74cf8dc78fc1226057a65d0789f872c|top_x_279::seq_53b70989e4cc3876|5MYJ_BA","routeId":"annojoin:profiles:RMDB2PDB:5MYJ"},{"pairId":"5MYJ:sequence_000616","profileId":"rmdbv3_exact_3761152df74cf8dc78fc1226057a65d0789f872c|top_x_279::seq_f6a05994a1e6c0e6|5MYJ_BA","routeId":"annojoin:profiles:RMDB2PDB:5MYJ"},{"pairId":"5MYJ:sequence_000617","profileId":"rmdbv3_exact_23c2b4cdf9e079f5b209c04151e9ce14f68e6e2d|top_x_279::seq_03bd89d25cc10956|5MYJ_BA","routeId":"annojoin:profiles:RMDB2PDB:5MYJ"},{"pairId":"5MYJ:sequence_000618","profileId":"rmdbv3_exact_23c2b4cdf9e079f5b209c04151e9ce14f68e6e2d|top_x_279::seq_506e18c4d99091a5|5MYJ_BA","routeId":"annojoin:profiles:RMDB2PDB:5MYJ"},{"pairId":"5MYJ:sequence_000619","profileId":"rmdbv3_exact_a9d879f07709e324f37203b5a2ee1af068a9ff12|top_x_279::seq_625aa7ddb7858db1|5MYJ_BA","routeId":"annojoin:profiles:RMDB2PDB:5MYJ"},{"pairId":"5MYJ:sequence_000620","profileId":"rmdbv3_exact_a9d879f07709e324f37203b5a2ee1af068a9ff12|top_x_279::seq_cc7e1078f17b145c|5MYJ_BA","routeId":"annojoin:profiles:RMDB2PDB:5MYJ"},{"pairId":"5MYJ:sequence_000621","profileId":"rmdbv3_exact_1a7793ccbfe5042d81d5c3eb63a2fcd248fd4dc7|top_x_279::seq_3559ff247e3f35ab|5MYJ_BA","routeId":"annojoin:profiles:RMDB2PDB:5MYJ"},{"pairId":"5MYJ:sequence_000622","profileId":"rmdbv3_exact_1a7793ccbfe5042d81d5c3eb63a2fcd248fd4dc7|top_x_279::seq_eae2a60418484758|5MYJ_BA","routeId":"annojoin:profiles:RMDB2PDB:5MYJ"},{"pairId":"5MYJ:sequence_000623","profileId":"rmdbv3_exact_42f2e2817352d98062178c97e7658913ffcce83d|top_x_279::seq_a7ceeb95eb1c5faa|5MYJ_BA","routeId":"annojoin:profiles:RMDB2PDB:5MYJ"},{"pairId":"5MYJ:sequence_000624","profileId":"rmdbv3_exact_42f2e2817352d98062178c97e7658913ffcce83d|top_x_279::seq_aec4bdd5875d9ab8|5MYJ_BA","routeId":"annojoin:profiles:RMDB2PDB:5MYJ"},{"pairId":"5MYJ:sequence_000625","profileId":"rmdbv3_exact_7b1383266f2ac932b80e46261c91822b762d2a8a|top_x_279::seq_0a8d2a93fe9827ef|5MYJ_BA","routeId":"annojoin:profiles:RMDB2PDB:5MYJ"},{"pairId":"5MYJ:sequence_000626","profileId":"rmdbv3_exact_7b1383266f2ac932b80e46261c91822b762d2a8a|top_x_279::seq_6e7ff39c0e82809c|5MYJ_BA","routeId":"annojoin:profiles:RMDB2PDB:5MYJ"},{"pairId":"5MYJ:sequence_000627","profileId":"rmdbv3_exact_80822cfa107146fa73d72be087d35f9b01b5c949|top_x_279::seq_c0b05e839914d457|5MYJ_BA","routeId":"annojoin:profiles:RMDB2PDB:5MYJ"},{"pairId":"5MYJ:sequence_000628","profileId":"rmdbv3_exact_80822cfa107146fa73d72be087d35f9b01b5c949|top_x_279::seq_caac8765b52ad610|5MYJ_BA","routeId":"annojoin:profiles:RMDB2PDB:5MYJ"},{"pairId":"5MYJ:sequence_000629","profileId":"rmdbv3_exact_842adae4e569d99f41ee74414ddf1c5bd2b1d1b4|top_x_279::seq_c8cb02dbd6ce0994|5MYJ_BA","routeId":"annojoin:profiles:RMDB2PDB:5MYJ"},{"pairId":"5MYJ:sequence_000630","profileId":"rmdbv3_exact_842adae4e569d99f41ee74414ddf1c5bd2b1d1b4|top_x_279::seq_fe88bd31231f43f9|5MYJ_BA","routeId":"annojoin:profiles:RMDB2PDB:5MYJ"},{"pairId":"5MYJ:sequence_000631","profileId":"rmdbv3_exact_cd199c99d8058c96fec0738f02b2745fab190510|top_x_279::seq_36185b72eabf752c|5MYJ_AA","routeId":"annojoin:profiles:RMDB2PDB:5MYJ"},{"pairId":"5MYJ:sequence_000632","profileId":"rmdbv3_exact_cd199c99d8058c96fec0738f02b2745fab190510|top_x_279::seq_56a3b54d23ead6e2|5MYJ_AA","routeId":"annojoin:profiles:RMDB2PDB:5MYJ"},{"pairId":"5MYJ:sequence_000633","profileId":"rmdbv3_exact_cd199c99d8058c96fec0738f02b2745fab190510|top_x_279::seq_940df15850b40a53|5MYJ_AA","routeId":"annojoin:profiles:RMDB2PDB:5MYJ"},{"pairId":"5MYJ:sequence_000634","profileId":"rmdbv3_exact_cd199c99d8058c96fec0738f02b2745fab190510|top_x_279::seq_b3a687057110c73b|5MYJ_AA","routeId":"annojoin:profiles:RMDB2PDB:5MYJ"},{"pairId":"5MYJ:sequence_000635","profileId":"rmdbv3_exact_ffd429794935fb00b6444b3f3ffe5a41e2c7c297|top_x_279::seq_42dd329d7d929f67|5MYJ_AA","routeId":"annojoin:profiles:RMDB2PDB:5MYJ"},{"pairId":"5MYJ:sequence_000636","profileId":"rmdbv3_exact_ffd429794935fb00b6444b3f3ffe5a41e2c7c297|top_x_279::seq_d88568f8a77eef13|5MYJ_AA","routeId":"annojoin:profiles:RMDB2PDB:5MYJ"},{"pairId":"5MYJ:sequence_000637","profileId":"rmdbv3_exact_8e2150fe737899dcd6c56d9493aff8e50dec991c|top_x_279::seq_23dfdf2f04e8a315|5MYJ_AA","routeId":"annojoin:profiles:RMDB2PDB:5MYJ"},{"pairId":"5MYJ:sequence_000638","profileId":"rmdbv3_exact_8e2150fe737899dcd6c56d9493aff8e50dec991c|top_x_279::seq_6e359e2d88e60d03|5MYJ_AA","routeId":"annojoin:profiles:RMDB2PDB:5MYJ"},{"pairId":"5MYJ:sequence_000639","profileId":"rmdbv3_exact_302246047c4d2c0d413ab9630012a73c9055ad3e|top_x_279::seq_a2202c1be0de0009|5MYJ_BA","routeId":"annojoin:profiles:RMDB2PDB:5MYJ"},{"pairId":"5MYJ:sequence_000640","profileId":"rmdbv3_exact_302246047c4d2c0d413ab9630012a73c9055ad3e|top_x_279::seq_b5f854ec90a8d9d4|5MYJ_BA","routeId":"annojoin:profiles:RMDB2PDB:5MYJ"},{"pairId":"5MYJ:sequence_000641","profileId":"rmdbv3_exact_44336f9e0d1d940947a48f3acb9a3f1ea6e9d396|top_x_279::seq_0aa73bf053ed48d7|5MYJ_BA","routeId":"annojoin:profiles:RMDB2PDB:5MYJ"},{"pairId":"5MYJ:sequence_000642","profileId":"rmdbv3_exact_44336f9e0d1d940947a48f3acb9a3f1ea6e9d396|top_x_279::seq_4830f8587455158b|5MYJ_BA","routeId":"annojoin:profiles:RMDB2PDB:5MYJ"},{"pairId":"5MYJ:sequence_000643","profileId":"rmdbv3_exact_bdda6d588aafdce89ff2804fcf927f3d6b9a4b71|top_x_279::seq_359c73f6af51e5f9|5MYJ_BA","routeId":"annojoin:profiles:RMDB2PDB:5MYJ"},{"pairId":"5MYJ:sequence_000644","profileId":"rmdbv3_exact_bdda6d588aafdce89ff2804fcf927f3d6b9a4b71|top_x_279::seq_e0a2733da4962fb1|5MYJ_BA","routeId":"annojoin:profiles:RMDB2PDB:5MYJ"},{"pairId":"5MYJ:sequence_000645","profileId":"rmdbv3_exact_eb83c1343b1ebf22d179a9f44351898c88f59559|top_x_279::seq_a4b67163b6b26de3|5MYJ_BA","routeId":"annojoin:profiles:RMDB2PDB:5MYJ"},{"pairId":"5MYJ:sequence_000646","profileId":"rmdbv3_exact_eb83c1343b1ebf22d179a9f44351898c88f59559|top_x_279::seq_c5187b2978b5335e|5MYJ_BA","routeId":"annojoin:profiles:RMDB2PDB:5MYJ"},{"pairId":"5MYJ:sequence_000648","profileId":"rmdbv3_exact_74f614cc29deca4a8e2f976883c86bf38b917b91|top_x_279::seq_b46f88e1ad7c7a70|5MYJ_AA","routeId":"annojoin:profiles:RMDB2PDB:5MYJ"},{"pairId":"5MYJ:sequence_000651","profileId":"rmdbv3_exact_a94ecde24bb5cc99d4f922150de3dfff74b0f6a8|top_x_279::seq_5ec3590df146afac|5MYJ_AA","routeId":"annojoin:profiles:RMDB2PDB:5MYJ"},{"pairId":"5MYJ:sequence_000652","profileId":"rmdbv3_exact_a94ecde24bb5cc99d4f922150de3dfff74b0f6a8|top_x_279::seq_6d48ee5232bb4c76|5MYJ_AA","routeId":"annojoin:profiles:RMDB2PDB:5MYJ"},{"pairId":"5MYJ:sequence_000653","profileId":"rmdbv3_exact_0d88b322e6975bb055625dc40a6a063c0bd4930a|top_x_279::seq_1d91e5aba1a4246d|5MYJ_BA","routeId":"annojoin:profiles:RMDB2PDB:5MYJ"},{"pairId":"5MYJ:sequence_000654","profileId":"rmdbv3_exact_0d88b322e6975bb055625dc40a6a063c0bd4930a|top_x_279::seq_966bc5226c07032a|5MYJ_BA","routeId":"annojoin:profiles:RMDB2PDB:5MYJ"},{"pairId":"5MYJ:sequence_000656","profileId":"rmdbv3_exact_da52e0a58d95b5c4e7aae2598f5fe5ffffe49d56|top_x_279::seq_9ad819487aed2b48|5MYJ_AA","routeId":"annojoin:profiles:RMDB2PDB:5MYJ"},{"pairId":"5MYJ:sequence_000657","profileId":"rmdbv3_exact_e75c5f57434b53de8ae2860d9c805fd12f062871|top_x_279::seq_e2c15e759e30d526|5MYJ_AA","routeId":"annojoin:profiles:RMDB2PDB:5MYJ"},{"pairId":"5MYJ:sequence_000658","profileId":"rmdbv3_exact_e75c5f57434b53de8ae2860d9c805fd12f062871|top_x_279::seq_ed183fd0e7215c7b|5MYJ_AA","routeId":"annojoin:profiles:RMDB2PDB:5MYJ"},{"pairId":"5MYJ:sequence_000659","profileId":"rmdbv3_exact_149d373bb957a0f9fa4d8b528e40c4d26811a9b1|top_x_279::seq_524b44dfb1027a30|5MYJ_AA","routeId":"annojoin:profiles:RMDB2PDB:5MYJ"},{"pairId":"5MYJ:sequence_000660","profileId":"rmdbv3_exact_149d373bb957a0f9fa4d8b528e40c4d26811a9b1|top_x_279::seq_dab103b285e5d1db|5MYJ_AA","routeId":"annojoin:profiles:RMDB2PDB:5MYJ"},{"pairId":"5MYJ:sequence_000661","profileId":"rmdbv3_exact_a5ecc9009e51ebb0ee166e852ecf91c18f8544ab|top_x_279::seq_2f76f7985adb8533|5MYJ_BA","routeId":"annojoin:profiles:RMDB2PDB:5MYJ"},{"pairId":"5MYJ:sequence_000662","profileId":"rmdbv3_exact_a5ecc9009e51ebb0ee166e852ecf91c18f8544ab|top_x_279::seq_b1731bf3f4310589|5MYJ_BA","routeId":"annojoin:profiles:RMDB2PDB:5MYJ"},{"pairId":"5MYJ:sequence_000663","profileId":"rmdbv3_exact_e051e6665c16dd11161ad5034b95b5afac06edc0|top_x_279::seq_3b90329ad58de792|5MYJ_BA","routeId":"annojoin:profiles:RMDB2PDB:5MYJ"},{"pairId":"5MYJ:sequence_000664","profileId":"rmdbv3_exact_e051e6665c16dd11161ad5034b95b5afac06edc0|top_x_279::seq_660dd2ef61a10e81|5MYJ_BA","routeId":"annojoin:profiles:RMDB2PDB:5MYJ"},{"pairId":"5MYJ:sequence_000665","profileId":"rmdbv3_exact_0f697ad275ebb030c76785b3515abb459a17a315|top_x_279::seq_1cd533953ebd6008|5MYJ_BA","routeId":"annojoin:profiles:RMDB2PDB:5MYJ"},{"pairId":"5MYJ:sequence_000666","profileId":"rmdbv3_exact_0f697ad275ebb030c76785b3515abb459a17a315|top_x_279::seq_36c254785cb8d3e4|5MYJ_BA","routeId":"annojoin:profiles:RMDB2PDB:5MYJ"},{"pairId":"5MYJ:sequence_000667","profileId":"rmdbv3_exact_135fb04912afb1523292b3a440fa5b63e75ab55e|top_x_279::seq_34a84a893fd127f8|5MYJ_BA","routeId":"annojoin:profiles:RMDB2PDB:5MYJ"},{"pairId":"5MYJ:sequence_000668","profileId":"rmdbv3_exact_135fb04912afb1523292b3a440fa5b63e75ab55e|top_x_279::seq_b36fb0e4c2d9299a|5MYJ_BA","routeId":"annojoin:profiles:RMDB2PDB:5MYJ"},{"pairId":"5MYJ:sequence_000669","profileId":"rmdbv3_exact_135fb04912afb1523292b3a440fa5b63e75ab55e|top_x_279::seq_c61e886f8926e5a4|5MYJ_BA","routeId":"annojoin:profiles:RMDB2PDB:5MYJ"},{"pairId":"5MYJ:sequence_000670","profileId":"rmdbv3_exact_135fb04912afb1523292b3a440fa5b63e75ab55e|top_x_279::seq_e8896503a9ff44d1|5MYJ_BA","routeId":"annojoin:profiles:RMDB2PDB:5MYJ"},{"pairId":"5MYJ:sequence_000671","profileId":"rmdbv3_exact_3f6eb7be7b38ad46489db033713475c4e184dd24|top_x_279::seq_38d321495a15bdc5|5MYJ_BA","routeId":"annojoin:profiles:RMDB2PDB:5MYJ"},{"pairId":"5MYJ:sequence_000672","profileId":"rmdbv3_exact_3f6eb7be7b38ad46489db033713475c4e184dd24|top_x_279::seq_aaf76c3c374dd168|5MYJ_BA","routeId":"annojoin:profiles:RMDB2PDB:5MYJ"},{"pairId":"5MYJ:sequence_000673","profileId":"rmdbv3_exact_3f6eb7be7b38ad46489db033713475c4e184dd24|top_x_279::seq_b251bbb0fae91c4e|5MYJ_BA","routeId":"annojoin:profiles:RMDB2PDB:5MYJ"},{"pairId":"5MYJ:sequence_000674","profileId":"rmdbv3_exact_3f6eb7be7b38ad46489db033713475c4e184dd24|top_x_279::seq_ff8713c3a919007f|5MYJ_BA","routeId":"annojoin:profiles:RMDB2PDB:5MYJ"},{"pairId":"5MYJ:sequence_000675","profileId":"rmdbv3_exact_4f66376ee2b5eea5bba8cce28746bc02e227d214|top_x_279::seq_1c4d620fb897589d|5MYJ_BA","routeId":"annojoin:profiles:RMDB2PDB:5MYJ"},{"pairId":"5MYJ:sequence_000676","profileId":"rmdbv3_exact_4f66376ee2b5eea5bba8cce28746bc02e227d214|top_x_279::seq_3d9fcbb00252dc34|5MYJ_BA","routeId":"annojoin:profiles:RMDB2PDB:5MYJ"},{"pairId":"5MYJ:sequence_000677","profileId":"rmdbv3_exact_e18e5a9cf88b3cade3c618f34290a26dcb1c515b|top_x_279::seq_5115b170676dff3e|5MYJ_BA","routeId":"annojoin:profiles:RMDB2PDB:5MYJ"},{"pairId":"5MYJ:sequence_000678","profileId":"rmdbv3_exact_e18e5a9cf88b3cade3c618f34290a26dcb1c515b|top_x_279::seq_5a0fd2f4e8af87f9|5MYJ_BA","routeId":"annojoin:profiles:RMDB2PDB:5MYJ"},{"pairId":"5MYJ:sequence_000679","profileId":"rmdbv3_exact_e18e5a9cf88b3cade3c618f34290a26dcb1c515b|top_x_279::seq_8d46979bcf9655d8|5MYJ_BA","routeId":"annojoin:profiles:RMDB2PDB:5MYJ"},{"pairId":"5MYJ:sequence_000680","profileId":"rmdbv3_exact_e18e5a9cf88b3cade3c618f34290a26dcb1c515b|top_x_279::seq_a031d396d072722f|5MYJ_BA","routeId":"annojoin:profiles:RMDB2PDB:5MYJ"},{"pairId":"5MYJ:sequence_000681","profileId":"rmdbv3_exact_78d944f72aaef75c6a34110533183c489f829fb5|top_x_279::seq_292c7e10be033335|5MYJ_BA","routeId":"annojoin:profiles:RMDB2PDB:5MYJ"},{"pairId":"5MYJ:sequence_000682","profileId":"rmdbv3_exact_78d944f72aaef75c6a34110533183c489f829fb5|top_x_279::seq_2bde499a0bd540d7|5MYJ_BA","routeId":"annojoin:profiles:RMDB2PDB:5MYJ"},{"pairId":"5MYJ:sequence_000683","profileId":"rmdbv3_exact_a5868d5cf41af6705acbb72ae79ad3c90bf40f1c|top_x_279::seq_380dd47aa98d50f6|5MYJ_AA","routeId":"annojoin:profiles:RMDB2PDB:5MYJ"},{"pairId":"5MYJ:sequence_000684","profileId":"rmdbv3_exact_a5868d5cf41af6705acbb72ae79ad3c90bf40f1c|top_x_279::seq_8ff76596a19ff9fe|5MYJ_AA","routeId":"annojoin:profiles:RMDB2PDB:5MYJ"},{"pairId":"5MYJ:sequence_000685","profileId":"rmdbv3_exact_66e722d2d6278cc0ad2e6af840c6c39d784aea03|top_x_279::seq_22e83c4fefad2618|5MYJ_BA","routeId":"annojoin:profiles:RMDB2PDB:5MYJ"},{"pairId":"5MYJ:sequence_000686","profileId":"rmdbv3_exact_66e722d2d6278cc0ad2e6af840c6c39d784aea03|top_x_279::seq_4ec38948c867aba1|5MYJ_BA","routeId":"annojoin:profiles:RMDB2PDB:5MYJ"},{"pairId":"5MYJ:sequence_000687","profileId":"rmdbv3_exact_8f370fd9a8740a3aaf8b02411414d6f524e7fb0c|top_x_279::seq_3f11cd370a54a137|5MYJ_BA","routeId":"annojoin:profiles:RMDB2PDB:5MYJ"},{"pairId":"5MYJ:sequence_000688","profileId":"rmdbv3_exact_8f370fd9a8740a3aaf8b02411414d6f524e7fb0c|top_x_279::seq_4d12396c7f71a6fe|5MYJ_BA","routeId":"annojoin:profiles:RMDB2PDB:5MYJ"},{"pairId":"5MYJ:sequence_000689","profileId":"rmdbv3_exact_8f370fd9a8740a3aaf8b02411414d6f524e7fb0c|top_x_279::seq_60c8188d4d284546|5MYJ_BA","routeId":"annojoin:profiles:RMDB2PDB:5MYJ"},{"pairId":"5MYJ:sequence_000690","profileId":"rmdbv3_exact_8f370fd9a8740a3aaf8b02411414d6f524e7fb0c|top_x_279::seq_bb0cb514089b7018|5MYJ_BA","routeId":"annojoin:profiles:RMDB2PDB:5MYJ"}]}
