{"schemaVersion":"annojoin-atlas.v1","version":"V2.1_RMDB_LINE_A_20260617","atlasCaseKey":"RMDB2PDB:6ZU5","caseId":"6ZU5","routeKey":"memberships","page":2,"pageSize":500,"totalRows":557,"pageCount":2,"rows":[{"pairId":"6ZU5:sequence_000600","profileId":"rmdbv3_exact_3b04f9b68eb4252e1b3a1e4937a98aa7f1a0d4a6|top_x_279::seq_d71dffa975031dff|6ZU5_S60","routeId":"annojoin:profiles:RMDB2PDB:6ZU5"},{"pairId":"6ZU5:sequence_000601","profileId":"rmdbv3_exact_de894da0b869639cccf36e88fdcc07ee3ed8d31a|top_x_279::seq_d0fed4f52cd3590d|6ZU5_S60","routeId":"annojoin:profiles:RMDB2PDB:6ZU5"},{"pairId":"6ZU5:sequence_000602","profileId":"rmdbv3_exact_de894da0b869639cccf36e88fdcc07ee3ed8d31a|top_x_279::seq_dc43ab340b6758f7|6ZU5_S60","routeId":"annojoin:profiles:RMDB2PDB:6ZU5"},{"pairId":"6ZU5:sequence_000603","profileId":"rmdbv3_exact_df67d3355c33be93e2586480b5e5bb853d16ddc3|top_x_279::seq_4b9b19248c74fc37|6ZU5_S60","routeId":"annojoin:profiles:RMDB2PDB:6ZU5"},{"pairId":"6ZU5:sequence_000604","profileId":"rmdbv3_exact_df67d3355c33be93e2586480b5e5bb853d16ddc3|top_x_279::seq_5c82ae78a3e75e19|6ZU5_S60","routeId":"annojoin:profiles:RMDB2PDB:6ZU5"},{"pairId":"6ZU5:sequence_000605","profileId":"rmdbv3_exact_df67d3355c33be93e2586480b5e5bb853d16ddc3|top_x_279::seq_79da6a5e07a66477|6ZU5_S60","routeId":"annojoin:profiles:RMDB2PDB:6ZU5"},{"pairId":"6ZU5:sequence_000606","profileId":"rmdbv3_exact_df67d3355c33be93e2586480b5e5bb853d16ddc3|top_x_279::seq_a7ce025a16f45cb8|6ZU5_S60","routeId":"annojoin:profiles:RMDB2PDB:6ZU5"},{"pairId":"6ZU5:sequence_000607","profileId":"rmdbv3_exact_45f80e8fdbc158311d5375dc4b9f10e6c4c366b7|top_x_279::seq_5633ea897f261a05|6ZU5_S60","routeId":"annojoin:profiles:RMDB2PDB:6ZU5"},{"pairId":"6ZU5:sequence_000608","profileId":"rmdbv3_exact_45f80e8fdbc158311d5375dc4b9f10e6c4c366b7|top_x_279::seq_b25964881ba52f16|6ZU5_S60","routeId":"annojoin:profiles:RMDB2PDB:6ZU5"},{"pairId":"6ZU5:sequence_000609","profileId":"rmdbv3_exact_8573e14e9d04dfe6a129c92b0115d68d5d46ac4c|top_x_279::seq_17fefe4fd1553c37|6ZU5_S60","routeId":"annojoin:profiles:RMDB2PDB:6ZU5"},{"pairId":"6ZU5:sequence_000610","profileId":"rmdbv3_exact_8573e14e9d04dfe6a129c92b0115d68d5d46ac4c|top_x_279::seq_36eb45b55f45ced5|6ZU5_S60","routeId":"annojoin:profiles:RMDB2PDB:6ZU5"},{"pairId":"6ZU5:sequence_000611","profileId":"rmdbv3_exact_8573e14e9d04dfe6a129c92b0115d68d5d46ac4c|top_x_279::seq_415595725bba22a7|6ZU5_S60","routeId":"annojoin:profiles:RMDB2PDB:6ZU5"},{"pairId":"6ZU5:sequence_000612","profileId":"rmdbv3_exact_8573e14e9d04dfe6a129c92b0115d68d5d46ac4c|top_x_279::seq_8488ee51f76450d7|6ZU5_S60","routeId":"annojoin:profiles:RMDB2PDB:6ZU5"},{"pairId":"6ZU5:sequence_000613","profileId":"rmdbv3_exact_86e487e5c0ca9ce5eb9a19b44eef1fc494312639|top_x_279::seq_4cd07826e3f4200f|6ZU5_S60","routeId":"annojoin:profiles:RMDB2PDB:6ZU5"},{"pairId":"6ZU5:sequence_000614","profileId":"rmdbv3_exact_86e487e5c0ca9ce5eb9a19b44eef1fc494312639|top_x_279::seq_ad99b36699560d61|6ZU5_S60","routeId":"annojoin:profiles:RMDB2PDB:6ZU5"},{"pairId":"6ZU5:sequence_000615","profileId":"rmdbv3_exact_916f73d4d4c2f66ace2a71c733610e3620c987cf|top_x_279::seq_0ed01175d5469275|6ZU5_S60","routeId":"annojoin:profiles:RMDB2PDB:6ZU5"},{"pairId":"6ZU5:sequence_000616","profileId":"rmdbv3_exact_916f73d4d4c2f66ace2a71c733610e3620c987cf|top_x_279::seq_0fe3a1bd2cfc4679|6ZU5_S60","routeId":"annojoin:profiles:RMDB2PDB:6ZU5"},{"pairId":"6ZU5:sequence_000617","profileId":"rmdbv3_exact_916f73d4d4c2f66ace2a71c733610e3620c987cf|top_x_279::seq_269d6647493bbc7b|6ZU5_S60","routeId":"annojoin:profiles:RMDB2PDB:6ZU5"},{"pairId":"6ZU5:sequence_000618","profileId":"rmdbv3_exact_916f73d4d4c2f66ace2a71c733610e3620c987cf|top_x_279::seq_94a539460821f2a9|6ZU5_S60","routeId":"annojoin:profiles:RMDB2PDB:6ZU5"},{"pairId":"6ZU5:sequence_000619","profileId":"rmdbv3_exact_9c00511a1c923c467e7a4828ade6be9ca87b57fc|top_x_279::seq_0299a866c2049d55|6ZU5_S60","routeId":"annojoin:profiles:RMDB2PDB:6ZU5"},{"pairId":"6ZU5:sequence_000620","profileId":"rmdbv3_exact_9c00511a1c923c467e7a4828ade6be9ca87b57fc|top_x_279::seq_235efe1908cfa51c|6ZU5_S60","routeId":"annojoin:profiles:RMDB2PDB:6ZU5"},{"pairId":"6ZU5:sequence_000621","profileId":"rmdbv3_exact_9c00511a1c923c467e7a4828ade6be9ca87b57fc|top_x_279::seq_835b4f2e5b9a3f5e|6ZU5_S60","routeId":"annojoin:profiles:RMDB2PDB:6ZU5"},{"pairId":"6ZU5:sequence_000622","profileId":"rmdbv3_exact_9c00511a1c923c467e7a4828ade6be9ca87b57fc|top_x_279::seq_f4d1191da0d65e85|6ZU5_S60","routeId":"annojoin:profiles:RMDB2PDB:6ZU5"},{"pairId":"6ZU5:sequence_000623","profileId":"rmdbv3_exact_47e3c215d54228b01cb4da098ed1d5aa8a8bdd1c|top_x_279::seq_242ab503bd0c750e|6ZU5_S60","routeId":"annojoin:profiles:RMDB2PDB:6ZU5"},{"pairId":"6ZU5:sequence_000624","profileId":"rmdbv3_exact_47e3c215d54228b01cb4da098ed1d5aa8a8bdd1c|top_x_279::seq_50e5364af8baa291|6ZU5_S60","routeId":"annojoin:profiles:RMDB2PDB:6ZU5"},{"pairId":"6ZU5:sequence_000625","profileId":"rmdbv3_exact_47e3c215d54228b01cb4da098ed1d5aa8a8bdd1c|top_x_279::seq_a9b2ceac3bfdb097|6ZU5_S60","routeId":"annojoin:profiles:RMDB2PDB:6ZU5"},{"pairId":"6ZU5:sequence_000626","profileId":"rmdbv3_exact_47e3c215d54228b01cb4da098ed1d5aa8a8bdd1c|top_x_279::seq_c7d6f50918b176d2|6ZU5_S60","routeId":"annojoin:profiles:RMDB2PDB:6ZU5"},{"pairId":"6ZU5:sequence_000627","profileId":"rmdbv3_exact_488432f08c8b09e983fd7431c5ee9a693ca7452e|top_x_279::seq_64c44f6014d08f7c|6ZU5_S60","routeId":"annojoin:profiles:RMDB2PDB:6ZU5"},{"pairId":"6ZU5:sequence_000628","profileId":"rmdbv3_exact_488432f08c8b09e983fd7431c5ee9a693ca7452e|top_x_279::seq_bf902f9f5a512c6e|6ZU5_S60","routeId":"annojoin:profiles:RMDB2PDB:6ZU5"},{"pairId":"6ZU5:sequence_000629","profileId":"rmdbv3_exact_7c10e3cb55c647b68849dc0afe588b3f8578e2bc|top_x_279::seq_a069bfc24f3ef396|6ZU5_S60","routeId":"annojoin:profiles:RMDB2PDB:6ZU5"},{"pairId":"6ZU5:sequence_000630","profileId":"rmdbv3_exact_7c10e3cb55c647b68849dc0afe588b3f8578e2bc|top_x_279::seq_d7fce4b993d7878e|6ZU5_S60","routeId":"annojoin:profiles:RMDB2PDB:6ZU5"},{"pairId":"6ZU5:sequence_000631","profileId":"rmdbv3_exact_8bcbc2a0c6308dbbfd32eb21e56aac11d8ffd0f1|top_x_279::seq_ed39de738fdfbac0|6ZU5_S60","routeId":"annojoin:profiles:RMDB2PDB:6ZU5"},{"pairId":"6ZU5:sequence_000632","profileId":"rmdbv3_exact_8bcbc2a0c6308dbbfd32eb21e56aac11d8ffd0f1|top_x_279::seq_fe0f71003df1b66a|6ZU5_S60","routeId":"annojoin:profiles:RMDB2PDB:6ZU5"},{"pairId":"6ZU5:sequence_000633","profileId":"rmdbv3_exact_c991c299fe8a19b8e55280ecb84f0832fd8e271c|top_x_279::seq_e13e3b80b1232801|6ZU5_S60","routeId":"annojoin:profiles:RMDB2PDB:6ZU5"},{"pairId":"6ZU5:sequence_000634","profileId":"rmdbv3_exact_c991c299fe8a19b8e55280ecb84f0832fd8e271c|top_x_279::seq_e2b3e57b18f099e1|6ZU5_S60","routeId":"annojoin:profiles:RMDB2PDB:6ZU5"},{"pairId":"6ZU5:sequence_000635","profileId":"rmdbv3_exact_d4105f89b7b3830193fc263dded1da918104d806|top_x_279::seq_367944f57e4260ec|6ZU5_S60","routeId":"annojoin:profiles:RMDB2PDB:6ZU5"},{"pairId":"6ZU5:sequence_000636","profileId":"rmdbv3_exact_d4105f89b7b3830193fc263dded1da918104d806|top_x_279::seq_e39df7101559ff8c|6ZU5_S60","routeId":"annojoin:profiles:RMDB2PDB:6ZU5"},{"pairId":"6ZU5:sequence_000637","profileId":"rmdbv3_exact_98b2729962280867ccbcdcbfcfd5e001067fc5ab|top_x_279::seq_3a11beb33f0fa896|6ZU5_S60","routeId":"annojoin:profiles:RMDB2PDB:6ZU5"},{"pairId":"6ZU5:sequence_000638","profileId":"rmdbv3_exact_98b2729962280867ccbcdcbfcfd5e001067fc5ab|top_x_279::seq_5cfbc70a7f027bd5|6ZU5_S60","routeId":"annojoin:profiles:RMDB2PDB:6ZU5"},{"pairId":"6ZU5:sequence_000639","profileId":"rmdbv3_exact_15a9d618853c49b058e6da35a4942da503e5fb17|top_x_279::seq_350bb5d2d33366f8|6ZU5_S60","routeId":"annojoin:profiles:RMDB2PDB:6ZU5"},{"pairId":"6ZU5:sequence_000640","profileId":"rmdbv3_exact_15a9d618853c49b058e6da35a4942da503e5fb17|top_x_279::seq_b3905c004f6c29bd|6ZU5_S60","routeId":"annojoin:profiles:RMDB2PDB:6ZU5"},{"pairId":"6ZU5:sequence_000641","profileId":"rmdbv3_exact_4027ce289f2ae1ad3eff219d9a6bb532221e6042|top_x_279::seq_0662e4ccafa80a28|6ZU5_S60","routeId":"annojoin:profiles:RMDB2PDB:6ZU5"},{"pairId":"6ZU5:sequence_000642","profileId":"rmdbv3_exact_4027ce289f2ae1ad3eff219d9a6bb532221e6042|top_x_279::seq_207026ca7e3d5584|6ZU5_S60","routeId":"annojoin:profiles:RMDB2PDB:6ZU5"},{"pairId":"6ZU5:sequence_000643","profileId":"rmdbv3_exact_4027ce289f2ae1ad3eff219d9a6bb532221e6042|top_x_279::seq_622877b3886bf30a|6ZU5_S60","routeId":"annojoin:profiles:RMDB2PDB:6ZU5"},{"pairId":"6ZU5:sequence_000644","profileId":"rmdbv3_exact_4027ce289f2ae1ad3eff219d9a6bb532221e6042|top_x_279::seq_94c967056a48e079|6ZU5_S60","routeId":"annojoin:profiles:RMDB2PDB:6ZU5"},{"pairId":"6ZU5:sequence_000645","profileId":"rmdbv3_exact_6bd4c5320fff4ef8da15de3b394a826f7426ab98|top_x_279::seq_39a89a67d292c32d|6ZU5_S60","routeId":"annojoin:profiles:RMDB2PDB:6ZU5"},{"pairId":"6ZU5:sequence_000646","profileId":"rmdbv3_exact_6bd4c5320fff4ef8da15de3b394a826f7426ab98|top_x_279::seq_63d58fddf4e71570|6ZU5_S60","routeId":"annojoin:profiles:RMDB2PDB:6ZU5"},{"pairId":"6ZU5:sequence_000647","profileId":"rmdbv3_exact_6bd4c5320fff4ef8da15de3b394a826f7426ab98|top_x_279::seq_768cb7cee262314e|6ZU5_S60","routeId":"annojoin:profiles:RMDB2PDB:6ZU5"},{"pairId":"6ZU5:sequence_000648","profileId":"rmdbv3_exact_6bd4c5320fff4ef8da15de3b394a826f7426ab98|top_x_279::seq_d41ba4792e1237d5|6ZU5_S60","routeId":"annojoin:profiles:RMDB2PDB:6ZU5"},{"pairId":"6ZU5:sequence_000649","profileId":"rmdbv3_exact_b5645f307b45ea89bd3bfaae8f133e76595d5a36|top_x_279::seq_837260c75de9e38f|6ZU5_S60","routeId":"annojoin:profiles:RMDB2PDB:6ZU5"},{"pairId":"6ZU5:sequence_000650","profileId":"rmdbv3_exact_b5645f307b45ea89bd3bfaae8f133e76595d5a36|top_x_279::seq_bf03e0d672928aa6|6ZU5_S60","routeId":"annojoin:profiles:RMDB2PDB:6ZU5"},{"pairId":"6ZU5:sequence_000651","profileId":"rmdbv3_exact_55428bef5a7f7e45c80b2492c2a4318b2fe6eee9|top_x_279::seq_510b516c1da293c0|6ZU5_S60","routeId":"annojoin:profiles:RMDB2PDB:6ZU5"},{"pairId":"6ZU5:sequence_000652","profileId":"rmdbv3_exact_55428bef5a7f7e45c80b2492c2a4318b2fe6eee9|top_x_279::seq_907f91c3163e3831|6ZU5_S60","routeId":"annojoin:profiles:RMDB2PDB:6ZU5"},{"pairId":"6ZU5:sequence_000653","profileId":"rmdbv3_exact_58d2f336f1263d3fc5a2548b64e41ebee53a000c|top_x_279::seq_0a0ae847d57c6391|6ZU5_S60","routeId":"annojoin:profiles:RMDB2PDB:6ZU5"},{"pairId":"6ZU5:sequence_000654","profileId":"rmdbv3_exact_58d2f336f1263d3fc5a2548b64e41ebee53a000c|top_x_279::seq_14c85019578dd270|6ZU5_S60","routeId":"annojoin:profiles:RMDB2PDB:6ZU5"},{"pairId":"6ZU5:sequence_000655","profileId":"rmdbv3_exact_58d2f336f1263d3fc5a2548b64e41ebee53a000c|top_x_279::seq_1b6a636140bed353|6ZU5_S60","routeId":"annojoin:profiles:RMDB2PDB:6ZU5"},{"pairId":"6ZU5:sequence_000656","profileId":"rmdbv3_exact_58d2f336f1263d3fc5a2548b64e41ebee53a000c|top_x_279::seq_52cb6eaca7823313|6ZU5_S60","routeId":"annojoin:profiles:RMDB2PDB:6ZU5"}]}
