{"schemaVersion":"annojoin-atlas.v1","version":"V2.1_RMDB_LINE_A_20260617","atlasCaseKey":"RMDB2PDB:6CU1","caseId":"6CU1","routeKey":"conflicts","page":2,"pageSize":500,"totalRows":520,"pageCount":2,"rows":[{"id":"RMDB2PDB|conflict|pairseg_6CU1_sequence_000603","routeId":"annojoin:conflict:RMDB2PDB:pairseg_6CU1_sequence_000603","type":"structure_signal_discordance_candidate","status":"none_detected","fecClaimCeiling":"","claimScope":"","lssStatus":"LSS_NOT_EVALUABLE","reviewPriorityHint":"no_conflict_review_priority"},{"id":"RMDB2PDB|conflict|pairseg_6CU1_sequence_000604","routeId":"annojoin:conflict:RMDB2PDB:pairseg_6CU1_sequence_000604","type":"structure_signal_discordance_candidate","status":"none_detected","fecClaimCeiling":"","claimScope":"","lssStatus":"LSS_NOT_EVALUABLE","reviewPriorityHint":"no_conflict_review_priority"},{"id":"RMDB2PDB|conflict|pairseg_6CU1_sequence_000605","routeId":"annojoin:conflict:RMDB2PDB:pairseg_6CU1_sequence_000605","type":"structure_signal_discordance_candidate","status":"none_detected","fecClaimCeiling":"","claimScope":"","lssStatus":"LSS_NOT_EVALUABLE","reviewPriorityHint":"no_conflict_review_priority"},{"id":"RMDB2PDB|conflict|pairseg_6CU1_sequence_000606","routeId":"annojoin:conflict:RMDB2PDB:pairseg_6CU1_sequence_000606","type":"structure_signal_discordance_candidate","status":"none_detected","fecClaimCeiling":"","claimScope":"","lssStatus":"LSS_NOT_EVALUABLE","reviewPriorityHint":"no_conflict_review_priority"},{"id":"RMDB2PDB|conflict|pairseg_6CU1_sequence_000609","routeId":"annojoin:conflict:RMDB2PDB:pairseg_6CU1_sequence_000609","type":"structure_signal_discordance_candidate","status":"none_detected","fecClaimCeiling":"","claimScope":"","lssStatus":"LSS_NOT_EVALUABLE","reviewPriorityHint":"no_conflict_review_priority"},{"id":"RMDB2PDB|conflict|pairseg_6CU1_sequence_000611","routeId":"annojoin:conflict:RMDB2PDB:pairseg_6CU1_sequence_000611","type":"structure_signal_discordance_candidate","status":"none_detected","fecClaimCeiling":"","claimScope":"","lssStatus":"LSS_NOT_EVALUABLE","reviewPriorityHint":"no_conflict_review_priority"},{"id":"RMDB2PDB|conflict|pairseg_6CU1_sequence_000612","routeId":"annojoin:conflict:RMDB2PDB:pairseg_6CU1_sequence_000612","type":"structure_signal_discordance_candidate","status":"none_detected","fecClaimCeiling":"","claimScope":"","lssStatus":"LSS_NOT_EVALUABLE","reviewPriorityHint":"no_conflict_review_priority"},{"id":"RMDB2PDB|conflict|pairseg_6CU1_sequence_000613","routeId":"annojoin:conflict:RMDB2PDB:pairseg_6CU1_sequence_000613","type":"structure_signal_discordance_candidate","status":"none_detected","fecClaimCeiling":"","claimScope":"","lssStatus":"LSS_NOT_EVALUABLE","reviewPriorityHint":"no_conflict_review_priority"},{"id":"RMDB2PDB|conflict|pairseg_6CU1_sequence_000615","routeId":"annojoin:conflict:RMDB2PDB:pairseg_6CU1_sequence_000615","type":"structure_signal_discordance_candidate","status":"none_detected","fecClaimCeiling":"","claimScope":"","lssStatus":"LSS_NOT_EVALUABLE","reviewPriorityHint":"no_conflict_review_priority"},{"id":"RMDB2PDB|conflict|pairseg_6CU1_sequence_000616","routeId":"annojoin:conflict:RMDB2PDB:pairseg_6CU1_sequence_000616","type":"structure_signal_discordance_candidate","status":"none_detected","fecClaimCeiling":"","claimScope":"","lssStatus":"LSS_NOT_EVALUABLE","reviewPriorityHint":"no_conflict_review_priority"},{"id":"RMDB2PDB|conflict|pairseg_6CU1_sequence_000617","routeId":"annojoin:conflict:RMDB2PDB:pairseg_6CU1_sequence_000617","type":"structure_signal_discordance_candidate","status":"none_detected","fecClaimCeiling":"","claimScope":"","lssStatus":"LSS_NOT_EVALUABLE","reviewPriorityHint":"no_conflict_review_priority"},{"id":"RMDB2PDB|conflict|pairseg_6CU1_sequence_000618","routeId":"annojoin:conflict:RMDB2PDB:pairseg_6CU1_sequence_000618","type":"structure_signal_discordance_candidate","status":"none_detected","fecClaimCeiling":"","claimScope":"","lssStatus":"LSS_NOT_EVALUABLE","reviewPriorityHint":"no_conflict_review_priority"},{"id":"RMDB2PDB|conflict|pairseg_6CU1_sequence_000619","routeId":"annojoin:conflict:RMDB2PDB:pairseg_6CU1_sequence_000619","type":"structure_signal_discordance_candidate","status":"none_detected","fecClaimCeiling":"","claimScope":"","lssStatus":"LSS_NOT_EVALUABLE","reviewPriorityHint":"no_conflict_review_priority"},{"id":"RMDB2PDB|conflict|pairseg_6CU1_sequence_000620","routeId":"annojoin:conflict:RMDB2PDB:pairseg_6CU1_sequence_000620","type":"structure_signal_discordance_candidate","status":"none_detected","fecClaimCeiling":"","claimScope":"","lssStatus":"LSS_NOT_EVALUABLE","reviewPriorityHint":"no_conflict_review_priority"},{"id":"RMDB2PDB|conflict|pairseg_6CU1_sequence_000621","routeId":"annojoin:conflict:RMDB2PDB:pairseg_6CU1_sequence_000621","type":"structure_signal_discordance_candidate","status":"none_detected","fecClaimCeiling":"","claimScope":"","lssStatus":"LSS_NOT_EVALUABLE","reviewPriorityHint":"no_conflict_review_priority"},{"id":"RMDB2PDB|conflict|pairseg_6CU1_sequence_000622","routeId":"annojoin:conflict:RMDB2PDB:pairseg_6CU1_sequence_000622","type":"structure_signal_discordance_candidate","status":"none_detected","fecClaimCeiling":"","claimScope":"","lssStatus":"LSS_NOT_EVALUABLE","reviewPriorityHint":"no_conflict_review_priority"},{"id":"RMDB2PDB|conflict|pairseg_6CU1_sequence_000623","routeId":"annojoin:conflict:RMDB2PDB:pairseg_6CU1_sequence_000623","type":"structure_signal_discordance_candidate","status":"none_detected","fecClaimCeiling":"","claimScope":"","lssStatus":"LSS_NOT_EVALUABLE","reviewPriorityHint":"no_conflict_review_priority"},{"id":"RMDB2PDB|conflict|pairseg_6CU1_sequence_000624","routeId":"annojoin:conflict:RMDB2PDB:pairseg_6CU1_sequence_000624","type":"structure_signal_discordance_candidate","status":"none_detected","fecClaimCeiling":"","claimScope":"","lssStatus":"LSS_NOT_EVALUABLE","reviewPriorityHint":"no_conflict_review_priority"},{"id":"RMDB2PDB|conflict|pairseg_6CU1_sequence_000625","routeId":"annojoin:conflict:RMDB2PDB:pairseg_6CU1_sequence_000625","type":"structure_signal_discordance_candidate","status":"none_detected","fecClaimCeiling":"","claimScope":"","lssStatus":"LSS_NOT_EVALUABLE","reviewPriorityHint":"no_conflict_review_priority"},{"id":"RMDB2PDB|conflict|pairseg_6CU1_sequence_000626","routeId":"annojoin:conflict:RMDB2PDB:pairseg_6CU1_sequence_000626","type":"structure_signal_discordance_candidate","status":"none_detected","fecClaimCeiling":"","claimScope":"","lssStatus":"LSS_NOT_EVALUABLE","reviewPriorityHint":"no_conflict_review_priority"}]}
