{"schemaVersion":"annojoin-atlas.v1","version":"V2.1_RMDB_LINE_A_20260617","atlasCaseKey":"RMDB2PDB:7ANE","caseId":"7ANE","routeKey":"conflicts","page":3,"pageSize":500,"totalRows":1039,"pageCount":3,"rows":[{"id":"RMDB2PDB|conflict|pairseg_7ANE_sequence_003955","routeId":"annojoin:conflict:RMDB2PDB:pairseg_7ANE_sequence_003955","type":"structure_signal_discordance_candidate","status":"none_detected","fecClaimCeiling":"","claimScope":"","lssStatus":"LSS_NOT_EVALUABLE","reviewPriorityHint":"no_conflict_review_priority"},{"id":"RMDB2PDB|conflict|pairseg_7ANE_sequence_003956","routeId":"annojoin:conflict:RMDB2PDB:pairseg_7ANE_sequence_003956","type":"structure_signal_discordance_candidate","status":"none_detected","fecClaimCeiling":"","claimScope":"","lssStatus":"LSS_NOT_EVALUABLE","reviewPriorityHint":"no_conflict_review_priority"},{"id":"RMDB2PDB|conflict|pairseg_7ANE_sequence_003957","routeId":"annojoin:conflict:RMDB2PDB:pairseg_7ANE_sequence_003957","type":"structure_signal_discordance_candidate","status":"none_detected","fecClaimCeiling":"","claimScope":"","lssStatus":"LSS_NOT_EVALUABLE","reviewPriorityHint":"no_conflict_review_priority"},{"id":"RMDB2PDB|conflict|pairseg_7ANE_sequence_003958","routeId":"annojoin:conflict:RMDB2PDB:pairseg_7ANE_sequence_003958","type":"structure_signal_discordance_candidate","status":"none_detected","fecClaimCeiling":"","claimScope":"","lssStatus":"LSS_NOT_EVALUABLE","reviewPriorityHint":"no_conflict_review_priority"},{"id":"RMDB2PDB|conflict|pairseg_7ANE_sequence_003961","routeId":"annojoin:conflict:RMDB2PDB:pairseg_7ANE_sequence_003961","type":"structure_signal_discordance_candidate","status":"none_detected","fecClaimCeiling":"","claimScope":"","lssStatus":"LSS_NOT_EVALUABLE","reviewPriorityHint":"no_conflict_review_priority"},{"id":"RMDB2PDB|conflict|pairseg_7ANE_sequence_003962","routeId":"annojoin:conflict:RMDB2PDB:pairseg_7ANE_sequence_003962","type":"structure_signal_discordance_candidate","status":"none_detected","fecClaimCeiling":"","claimScope":"","lssStatus":"LSS_NOT_EVALUABLE","reviewPriorityHint":"no_conflict_review_priority"},{"id":"RMDB2PDB|conflict|pairseg_7ANE_sequence_003963","routeId":"annojoin:conflict:RMDB2PDB:pairseg_7ANE_sequence_003963","type":"structure_signal_discordance_candidate","status":"none_detected","fecClaimCeiling":"","claimScope":"","lssStatus":"LSS_NOT_EVALUABLE","reviewPriorityHint":"no_conflict_review_priority"},{"id":"RMDB2PDB|conflict|pairseg_7ANE_sequence_003965","routeId":"annojoin:conflict:RMDB2PDB:pairseg_7ANE_sequence_003965","type":"structure_signal_discordance_candidate","status":"none_detected","fecClaimCeiling":"","claimScope":"","lssStatus":"LSS_NOT_EVALUABLE","reviewPriorityHint":"no_conflict_review_priority"},{"id":"RMDB2PDB|conflict|pairseg_7ANE_sequence_003969","routeId":"annojoin:conflict:RMDB2PDB:pairseg_7ANE_sequence_003969","type":"structure_signal_discordance_candidate","status":"none_detected","fecClaimCeiling":"","claimScope":"","lssStatus":"LSS_NOT_EVALUABLE","reviewPriorityHint":"no_conflict_review_priority"},{"id":"RMDB2PDB|conflict|pairseg_7ANE_sequence_003970","routeId":"annojoin:conflict:RMDB2PDB:pairseg_7ANE_sequence_003970","type":"structure_signal_discordance_candidate","status":"none_detected","fecClaimCeiling":"","claimScope":"","lssStatus":"LSS_NOT_EVALUABLE","reviewPriorityHint":"no_conflict_review_priority"},{"id":"RMDB2PDB|conflict|pairseg_7ANE_sequence_003973","routeId":"annojoin:conflict:RMDB2PDB:pairseg_7ANE_sequence_003973","type":"structure_signal_discordance_candidate","status":"none_detected","fecClaimCeiling":"","claimScope":"","lssStatus":"LSS_NOT_EVALUABLE","reviewPriorityHint":"no_conflict_review_priority"},{"id":"RMDB2PDB|conflict|pairseg_7ANE_sequence_003974","routeId":"annojoin:conflict:RMDB2PDB:pairseg_7ANE_sequence_003974","type":"structure_signal_discordance_candidate","status":"none_detected","fecClaimCeiling":"","claimScope":"","lssStatus":"LSS_NOT_EVALUABLE","reviewPriorityHint":"no_conflict_review_priority"},{"id":"RMDB2PDB|conflict|pairseg_7ANE_sequence_003987","routeId":"annojoin:conflict:RMDB2PDB:pairseg_7ANE_sequence_003987","type":"structure_signal_discordance_candidate","status":"none_detected","fecClaimCeiling":"","claimScope":"","lssStatus":"LSS_NOT_EVALUABLE","reviewPriorityHint":"no_conflict_review_priority"},{"id":"RMDB2PDB|conflict|pairseg_7ANE_sequence_003988","routeId":"annojoin:conflict:RMDB2PDB:pairseg_7ANE_sequence_003988","type":"structure_signal_discordance_candidate","status":"none_detected","fecClaimCeiling":"","claimScope":"","lssStatus":"LSS_NOT_EVALUABLE","reviewPriorityHint":"no_conflict_review_priority"},{"id":"RMDB2PDB|conflict|pairseg_7ANE_sequence_003989","routeId":"annojoin:conflict:RMDB2PDB:pairseg_7ANE_sequence_003989","type":"structure_signal_discordance_candidate","status":"none_detected","fecClaimCeiling":"","claimScope":"","lssStatus":"LSS_NOT_EVALUABLE","reviewPriorityHint":"no_conflict_review_priority"},{"id":"RMDB2PDB|conflict|pairseg_7ANE_sequence_003990","routeId":"annojoin:conflict:RMDB2PDB:pairseg_7ANE_sequence_003990","type":"structure_signal_discordance_candidate","status":"none_detected","fecClaimCeiling":"","claimScope":"","lssStatus":"LSS_NOT_EVALUABLE","reviewPriorityHint":"no_conflict_review_priority"},{"id":"RMDB2PDB|conflict|pairseg_7ANE_sequence_003991","routeId":"annojoin:conflict:RMDB2PDB:pairseg_7ANE_sequence_003991","type":"structure_signal_discordance_candidate","status":"none_detected","fecClaimCeiling":"","claimScope":"","lssStatus":"LSS_NOT_EVALUABLE","reviewPriorityHint":"no_conflict_review_priority"},{"id":"RMDB2PDB|conflict|pairseg_7ANE_sequence_003992","routeId":"annojoin:conflict:RMDB2PDB:pairseg_7ANE_sequence_003992","type":"structure_signal_discordance_candidate","status":"none_detected","fecClaimCeiling":"","claimScope":"","lssStatus":"LSS_NOT_EVALUABLE","reviewPriorityHint":"no_conflict_review_priority"},{"id":"RMDB2PDB|conflict|pairseg_7ANE_sequence_003993","routeId":"annojoin:conflict:RMDB2PDB:pairseg_7ANE_sequence_003993","type":"structure_signal_discordance_candidate","status":"none_detected","fecClaimCeiling":"","claimScope":"","lssStatus":"LSS_NOT_EVALUABLE","reviewPriorityHint":"no_conflict_review_priority"},{"id":"RMDB2PDB|conflict|pairseg_7ANE_sequence_003994","routeId":"annojoin:conflict:RMDB2PDB:pairseg_7ANE_sequence_003994","type":"structure_signal_discordance_candidate","status":"none_detected","fecClaimCeiling":"","claimScope":"","lssStatus":"LSS_NOT_EVALUABLE","reviewPriorityHint":"no_conflict_review_priority"},{"id":"RMDB2PDB|conflict|pairseg_7ANE_sequence_003995","routeId":"annojoin:conflict:RMDB2PDB:pairseg_7ANE_sequence_003995","type":"structure_signal_discordance_candidate","status":"none_detected","fecClaimCeiling":"","claimScope":"","lssStatus":"LSS_NOT_EVALUABLE","reviewPriorityHint":"no_conflict_review_priority"},{"id":"RMDB2PDB|conflict|pairseg_7ANE_sequence_003996","routeId":"annojoin:conflict:RMDB2PDB:pairseg_7ANE_sequence_003996","type":"structure_signal_discordance_candidate","status":"none_detected","fecClaimCeiling":"","claimScope":"","lssStatus":"LSS_NOT_EVALUABLE","reviewPriorityHint":"no_conflict_review_priority"},{"id":"RMDB2PDB|conflict|pairseg_7ANE_sequence_003997","routeId":"annojoin:conflict:RMDB2PDB:pairseg_7ANE_sequence_003997","type":"structure_signal_discordance_candidate","status":"none_detected","fecClaimCeiling":"","claimScope":"","lssStatus":"LSS_NOT_EVALUABLE","reviewPriorityHint":"no_conflict_review_priority"},{"id":"RMDB2PDB|conflict|pairseg_7ANE_sequence_003998","routeId":"annojoin:conflict:RMDB2PDB:pairseg_7ANE_sequence_003998","type":"structure_signal_discordance_candidate","status":"none_detected","fecClaimCeiling":"","claimScope":"","lssStatus":"LSS_NOT_EVALUABLE","reviewPriorityHint":"no_conflict_review_priority"},{"id":"RMDB2PDB|conflict|pairseg_7ANE_sequence_003999","routeId":"annojoin:conflict:RMDB2PDB:pairseg_7ANE_sequence_003999","type":"structure_signal_discordance_candidate","status":"none_detected","fecClaimCeiling":"","claimScope":"","lssStatus":"LSS_NOT_EVALUABLE","reviewPriorityHint":"no_conflict_review_priority"},{"id":"RMDB2PDB|conflict|pairseg_7ANE_sequence_004000","routeId":"annojoin:conflict:RMDB2PDB:pairseg_7ANE_sequence_004000","type":"structure_signal_discordance_candidate","status":"none_detected","fecClaimCeiling":"","claimScope":"","lssStatus":"LSS_NOT_EVALUABLE","reviewPriorityHint":"no_conflict_review_priority"},{"id":"RMDB2PDB|conflict|pairseg_7ANE_sequence_004001","routeId":"annojoin:conflict:RMDB2PDB:pairseg_7ANE_sequence_004001","type":"structure_signal_discordance_candidate","status":"none_detected","fecClaimCeiling":"","claimScope":"","lssStatus":"LSS_NOT_EVALUABLE","reviewPriorityHint":"no_conflict_review_priority"},{"id":"RMDB2PDB|conflict|pairseg_7ANE_sequence_004002","routeId":"annojoin:conflict:RMDB2PDB:pairseg_7ANE_sequence_004002","type":"structure_signal_discordance_candidate","status":"none_detected","fecClaimCeiling":"","claimScope":"","lssStatus":"LSS_NOT_EVALUABLE","reviewPriorityHint":"no_conflict_review_priority"},{"id":"RMDB2PDB|conflict|pairseg_7ANE_sequence_004007","routeId":"annojoin:conflict:RMDB2PDB:pairseg_7ANE_sequence_004007","type":"structure_signal_discordance_candidate","status":"none_detected","fecClaimCeiling":"","claimScope":"","lssStatus":"LSS_NOT_EVALUABLE","reviewPriorityHint":"no_conflict_review_priority"},{"id":"RMDB2PDB|conflict|pairseg_7ANE_sequence_004008","routeId":"annojoin:conflict:RMDB2PDB:pairseg_7ANE_sequence_004008","type":"structure_signal_discordance_candidate","status":"none_detected","fecClaimCeiling":"","claimScope":"","lssStatus":"LSS_NOT_EVALUABLE","reviewPriorityHint":"no_conflict_review_priority"},{"id":"RMDB2PDB|conflict|pairseg_7ANE_sequence_004009","routeId":"annojoin:conflict:RMDB2PDB:pairseg_7ANE_sequence_004009","type":"structure_signal_discordance_candidate","status":"none_detected","fecClaimCeiling":"","claimScope":"","lssStatus":"LSS_NOT_EVALUABLE","reviewPriorityHint":"no_conflict_review_priority"},{"id":"RMDB2PDB|conflict|pairseg_7ANE_sequence_004010","routeId":"annojoin:conflict:RMDB2PDB:pairseg_7ANE_sequence_004010","type":"structure_signal_discordance_candidate","status":"none_detected","fecClaimCeiling":"","claimScope":"","lssStatus":"LSS_NOT_EVALUABLE","reviewPriorityHint":"no_conflict_review_priority"},{"id":"RMDB2PDB|conflict|pairseg_7ANE_sequence_004011","routeId":"annojoin:conflict:RMDB2PDB:pairseg_7ANE_sequence_004011","type":"structure_signal_discordance_candidate","status":"none_detected","fecClaimCeiling":"","claimScope":"","lssStatus":"LSS_NOT_EVALUABLE","reviewPriorityHint":"no_conflict_review_priority"},{"id":"RMDB2PDB|conflict|pairseg_7ANE_sequence_004012","routeId":"annojoin:conflict:RMDB2PDB:pairseg_7ANE_sequence_004012","type":"structure_signal_discordance_candidate","status":"none_detected","fecClaimCeiling":"","claimScope":"","lssStatus":"LSS_NOT_EVALUABLE","reviewPriorityHint":"no_conflict_review_priority"},{"id":"RMDB2PDB|conflict|pairseg_7ANE_sequence_004013","routeId":"annojoin:conflict:RMDB2PDB:pairseg_7ANE_sequence_004013","type":"structure_signal_discordance_candidate","status":"none_detected","fecClaimCeiling":"","claimScope":"","lssStatus":"LSS_NOT_EVALUABLE","reviewPriorityHint":"no_conflict_review_priority"},{"id":"RMDB2PDB|conflict|pairseg_7ANE_sequence_004022","routeId":"annojoin:conflict:RMDB2PDB:pairseg_7ANE_sequence_004022","type":"structure_signal_discordance_candidate","status":"none_detected","fecClaimCeiling":"","claimScope":"","lssStatus":"LSS_NOT_EVALUABLE","reviewPriorityHint":"no_conflict_review_priority"},{"id":"RMDB2PDB|conflict|pairseg_7ANE_sequence_004023","routeId":"annojoin:conflict:RMDB2PDB:pairseg_7ANE_sequence_004023","type":"structure_signal_discordance_candidate","status":"none_detected","fecClaimCeiling":"","claimScope":"","lssStatus":"LSS_NOT_EVALUABLE","reviewPriorityHint":"no_conflict_review_priority"},{"id":"RMDB2PDB|conflict|pairseg_7ANE_sequence_004024","routeId":"annojoin:conflict:RMDB2PDB:pairseg_7ANE_sequence_004024","type":"structure_signal_discordance_candidate","status":"none_detected","fecClaimCeiling":"","claimScope":"","lssStatus":"LSS_NOT_EVALUABLE","reviewPriorityHint":"no_conflict_review_priority"},{"id":"RMDB2PDB|conflict|pairseg_7ANE_sequence_004025","routeId":"annojoin:conflict:RMDB2PDB:pairseg_7ANE_sequence_004025","type":"structure_signal_discordance_candidate","status":"none_detected","fecClaimCeiling":"","claimScope":"","lssStatus":"LSS_NOT_EVALUABLE","reviewPriorityHint":"no_conflict_review_priority"}]}
