{"schemaVersion":"annojoin-atlas.v1","version":"V2.1_RMDB_LINE_A_20260617","atlasCaseKey":"RMDB2PDB:1XJR","caseId":"1XJR","routeKey":"track-routes","page":2,"pageSize":500,"totalRows":511,"pageCount":2,"rows":[{"profileId":"data-eterna/data-eterna/ETERNA_R75_0000.rdat#62","trackRouteId":"annojoin:track:RMDB2PDB:pairseg_1XJR_sequence_000636","trackDataPath":"ANNOCONFIDENCE/assay_numeric_usability_annotation.tsv","trackSchemaId":"assay_numeric_usability_annotation","supports1d":true,"supportsTable":true,"colorPolicyId":"rmdb_reactivity_low_mid_high_v1"},{"profileId":"data-rna-structures/data-rna-structures/SRSBCV_2A3_0005.rdat#25220","trackRouteId":"annojoin:track:RMDB2PDB:pairseg_1XJR_sequence_000637","trackDataPath":"ANNOCONFIDENCE/assay_numeric_usability_annotation.tsv","trackSchemaId":"assay_numeric_usability_annotation","supports1d":true,"supportsTable":true,"colorPolicyId":"rmdb_reactivity_low_mid_high_v1"},{"profileId":"data-rna-structures/data-rna-structures/SRSBCV_DMS_0005.rdat#25220","trackRouteId":"annojoin:track:RMDB2PDB:pairseg_1XJR_sequence_000638","trackDataPath":"ANNOCONFIDENCE/assay_numeric_usability_annotation.tsv","trackSchemaId":"assay_numeric_usability_annotation","supports1d":true,"supportsTable":true,"colorPolicyId":"rmdb_reactivity_low_mid_high_v1"},{"profileId":"data-rna-structures/data-rna-structures/SRSBCV_DMS_0004.rdat#8446","trackRouteId":"annojoin:track:RMDB2PDB:pairseg_1XJR_sequence_000641","trackDataPath":"ANNOCONFIDENCE/assay_numeric_usability_annotation.tsv","trackSchemaId":"assay_numeric_usability_annotation","supports1d":true,"supportsTable":true,"colorPolicyId":"rmdb_reactivity_low_mid_high_v1"},{"profileId":"data-rna-structures/data-rna-structures/SRSBCV_2A3_0004.rdat#8446","trackRouteId":"annojoin:track:RMDB2PDB:pairseg_1XJR_sequence_000642","trackDataPath":"ANNOCONFIDENCE/assay_numeric_usability_annotation.tsv","trackSchemaId":"assay_numeric_usability_annotation","supports1d":true,"supportsTable":true,"colorPolicyId":"rmdb_reactivity_low_mid_high_v1"},{"profileId":"data-rna-structures/data-rna-structures/SRSBCV_2A3_0006.rdat#4225","trackRouteId":"annojoin:track:RMDB2PDB:pairseg_1XJR_sequence_000643","trackDataPath":"ANNOCONFIDENCE/assay_numeric_usability_annotation.tsv","trackSchemaId":"assay_numeric_usability_annotation","supports1d":true,"supportsTable":true,"colorPolicyId":"rmdb_reactivity_low_mid_high_v1"},{"profileId":"data-rna-structures/data-rna-structures/SRSBCV_DMS_0006.rdat#4225","trackRouteId":"annojoin:track:RMDB2PDB:pairseg_1XJR_sequence_000644","trackDataPath":"ANNOCONFIDENCE/assay_numeric_usability_annotation.tsv","trackSchemaId":"assay_numeric_usability_annotation","supports1d":true,"supportsTable":true,"colorPolicyId":"rmdb_reactivity_low_mid_high_v1"},{"profileId":"data-rna-structures/data-rna-structures/SRSBCV_DMS_0006.rdat#4215","trackRouteId":"annojoin:track:RMDB2PDB:pairseg_1XJR_sequence_000645","trackDataPath":"ANNOCONFIDENCE/assay_numeric_usability_annotation.tsv","trackSchemaId":"assay_numeric_usability_annotation","supports1d":true,"supportsTable":true,"colorPolicyId":"rmdb_reactivity_low_mid_high_v1"},{"profileId":"data-rna-structures/data-rna-structures/SRSBCV_2A3_0006.rdat#4215","trackRouteId":"annojoin:track:RMDB2PDB:pairseg_1XJR_sequence_000646","trackDataPath":"ANNOCONFIDENCE/assay_numeric_usability_annotation.tsv","trackSchemaId":"assay_numeric_usability_annotation","supports1d":true,"supportsTable":true,"colorPolicyId":"rmdb_reactivity_low_mid_high_v1"},{"profileId":"data-rna-structures/data-rna-structures/SRSBCV_DMS_0004.rdat#36641","trackRouteId":"annojoin:track:RMDB2PDB:pairseg_1XJR_sequence_000647","trackDataPath":"ANNOCONFIDENCE/assay_numeric_usability_annotation.tsv","trackSchemaId":"assay_numeric_usability_annotation","supports1d":true,"supportsTable":true,"colorPolicyId":"rmdb_reactivity_low_mid_high_v1"},{"profileId":"data-rna-structures/data-rna-structures/SRSBCV_2A3_0004.rdat#36641","trackRouteId":"annojoin:track:RMDB2PDB:pairseg_1XJR_sequence_000648","trackDataPath":"ANNOCONFIDENCE/assay_numeric_usability_annotation.tsv","trackSchemaId":"assay_numeric_usability_annotation","supports1d":true,"supportsTable":true,"colorPolicyId":"rmdb_reactivity_low_mid_high_v1"}]}
