{"schemaVersion":"annojoin-atlas.v1","version":"V2.1_RMDB_LINE_A_20260617","atlasCaseKey":"RMDB2PDB:6FZ0","caseId":"6FZ0","routeKey":"track-routes","page":2,"pageSize":500,"totalRows":565,"pageCount":2,"rows":[{"profileId":"data-rna-structures/data-rna-structures/M2RFPK_2A3_0001.rdat#34133","trackRouteId":"annojoin:track:RMDB2PDB:pairseg_6FZ0_sequence_000545","trackDataPath":"ANNOCONFIDENCE/assay_numeric_usability_annotation.tsv","trackSchemaId":"assay_numeric_usability_annotation","supports1d":true,"supportsTable":true,"colorPolicyId":"rmdb_reactivity_low_mid_high_v1"},{"profileId":"data-rna-structures/data-rna-structures/M2RFPK_DMS_0001.rdat#34133","trackRouteId":"annojoin:track:RMDB2PDB:pairseg_6FZ0_sequence_000546","trackDataPath":"ANNOCONFIDENCE/assay_numeric_usability_annotation.tsv","trackSchemaId":"assay_numeric_usability_annotation","supports1d":true,"supportsTable":true,"colorPolicyId":"rmdb_reactivity_low_mid_high_v1"},{"profileId":"data-rna-structures/data-rna-structures/M2RFPK_2A3_0001.rdat#34224","trackRouteId":"annojoin:track:RMDB2PDB:pairseg_6FZ0_sequence_000547","trackDataPath":"ANNOCONFIDENCE/assay_numeric_usability_annotation.tsv","trackSchemaId":"assay_numeric_usability_annotation","supports1d":true,"supportsTable":true,"colorPolicyId":"rmdb_reactivity_low_mid_high_v1"},{"profileId":"data-rna-structures/data-rna-structures/M2RFPK_DMS_0001.rdat#34224","trackRouteId":"annojoin:track:RMDB2PDB:pairseg_6FZ0_sequence_000548","trackDataPath":"ANNOCONFIDENCE/assay_numeric_usability_annotation.tsv","trackSchemaId":"assay_numeric_usability_annotation","supports1d":true,"supportsTable":true,"colorPolicyId":"rmdb_reactivity_low_mid_high_v1"},{"profileId":"data-rna-structures/data-rna-structures/M2RFPK_2A3_0001.rdat#34178","trackRouteId":"annojoin:track:RMDB2PDB:pairseg_6FZ0_sequence_000549","trackDataPath":"ANNOCONFIDENCE/assay_numeric_usability_annotation.tsv","trackSchemaId":"assay_numeric_usability_annotation","supports1d":true,"supportsTable":true,"colorPolicyId":"rmdb_reactivity_low_mid_high_v1"},{"profileId":"data-rna-structures/data-rna-structures/M2RFPK_DMS_0001.rdat#34178","trackRouteId":"annojoin:track:RMDB2PDB:pairseg_6FZ0_sequence_000550","trackDataPath":"ANNOCONFIDENCE/assay_numeric_usability_annotation.tsv","trackSchemaId":"assay_numeric_usability_annotation","supports1d":true,"supportsTable":true,"colorPolicyId":"rmdb_reactivity_low_mid_high_v1"},{"profileId":"data-rna-structures/data-rna-structures/M2RFPK_2A3_0001.rdat#34218","trackRouteId":"annojoin:track:RMDB2PDB:pairseg_6FZ0_sequence_000551","trackDataPath":"ANNOCONFIDENCE/assay_numeric_usability_annotation.tsv","trackSchemaId":"assay_numeric_usability_annotation","supports1d":true,"supportsTable":true,"colorPolicyId":"rmdb_reactivity_low_mid_high_v1"},{"profileId":"data-rna-structures/data-rna-structures/M2RFPK_DMS_0001.rdat#34218","trackRouteId":"annojoin:track:RMDB2PDB:pairseg_6FZ0_sequence_000552","trackDataPath":"ANNOCONFIDENCE/assay_numeric_usability_annotation.tsv","trackSchemaId":"assay_numeric_usability_annotation","supports1d":true,"supportsTable":true,"colorPolicyId":"rmdb_reactivity_low_mid_high_v1"},{"profileId":"data-rna-structures/data-rna-structures/M2RFPK_2A3_0001.rdat#34216","trackRouteId":"annojoin:track:RMDB2PDB:pairseg_6FZ0_sequence_000554","trackDataPath":"ANNOCONFIDENCE/assay_numeric_usability_annotation.tsv","trackSchemaId":"assay_numeric_usability_annotation","supports1d":true,"supportsTable":true,"colorPolicyId":"rmdb_reactivity_low_mid_high_v1"},{"profileId":"data-rna-structures/data-rna-structures/M2RFPK_DMS_0001.rdat#34114","trackRouteId":"annojoin:track:RMDB2PDB:pairseg_6FZ0_sequence_000555","trackDataPath":"ANNOCONFIDENCE/assay_numeric_usability_annotation.tsv","trackSchemaId":"assay_numeric_usability_annotation","supports1d":true,"supportsTable":true,"colorPolicyId":"rmdb_reactivity_low_mid_high_v1"},{"profileId":"data-rna-structures/data-rna-structures/M2RFPK_2A3_0001.rdat#34114","trackRouteId":"annojoin:track:RMDB2PDB:pairseg_6FZ0_sequence_000556","trackDataPath":"ANNOCONFIDENCE/assay_numeric_usability_annotation.tsv","trackSchemaId":"assay_numeric_usability_annotation","supports1d":true,"supportsTable":true,"colorPolicyId":"rmdb_reactivity_low_mid_high_v1"},{"profileId":"data-rna-structures/data-rna-structures/M2RFPK_DMS_0001.rdat#34212","trackRouteId":"annojoin:track:RMDB2PDB:pairseg_6FZ0_sequence_000557","trackDataPath":"ANNOCONFIDENCE/assay_numeric_usability_annotation.tsv","trackSchemaId":"assay_numeric_usability_annotation","supports1d":true,"supportsTable":true,"colorPolicyId":"rmdb_reactivity_low_mid_high_v1"},{"profileId":"data-rna-structures/data-rna-structures/M2RFPK_2A3_0001.rdat#34212","trackRouteId":"annojoin:track:RMDB2PDB:pairseg_6FZ0_sequence_000558","trackDataPath":"ANNOCONFIDENCE/assay_numeric_usability_annotation.tsv","trackSchemaId":"assay_numeric_usability_annotation","supports1d":true,"supportsTable":true,"colorPolicyId":"rmdb_reactivity_low_mid_high_v1"},{"profileId":"data-rna-structures/data-rna-structures/M2RFPK_DMS_0001.rdat#34173","trackRouteId":"annojoin:track:RMDB2PDB:pairseg_6FZ0_sequence_000559","trackDataPath":"ANNOCONFIDENCE/assay_numeric_usability_annotation.tsv","trackSchemaId":"assay_numeric_usability_annotation","supports1d":true,"supportsTable":true,"colorPolicyId":"rmdb_reactivity_low_mid_high_v1"},{"profileId":"data-rna-structures/data-rna-structures/M2RFPK_2A3_0001.rdat#34173","trackRouteId":"annojoin:track:RMDB2PDB:pairseg_6FZ0_sequence_000560","trackDataPath":"ANNOCONFIDENCE/assay_numeric_usability_annotation.tsv","trackSchemaId":"assay_numeric_usability_annotation","supports1d":true,"supportsTable":true,"colorPolicyId":"rmdb_reactivity_low_mid_high_v1"},{"profileId":"data-rna-structures/data-rna-structures/M2RFPK_DMS_0001.rdat#34207","trackRouteId":"annojoin:track:RMDB2PDB:pairseg_6FZ0_sequence_000561","trackDataPath":"ANNOCONFIDENCE/assay_numeric_usability_annotation.tsv","trackSchemaId":"assay_numeric_usability_annotation","supports1d":true,"supportsTable":true,"colorPolicyId":"rmdb_reactivity_low_mid_high_v1"},{"profileId":"data-rna-structures/data-rna-structures/M2RFPK_2A3_0001.rdat#34207","trackRouteId":"annojoin:track:RMDB2PDB:pairseg_6FZ0_sequence_000562","trackDataPath":"ANNOCONFIDENCE/assay_numeric_usability_annotation.tsv","trackSchemaId":"assay_numeric_usability_annotation","supports1d":true,"supportsTable":true,"colorPolicyId":"rmdb_reactivity_low_mid_high_v1"},{"profileId":"data-rna-structures/data-rna-structures/M2RFPK_2A3_0001.rdat#34116","trackRouteId":"annojoin:track:RMDB2PDB:pairseg_6FZ0_sequence_000563","trackDataPath":"ANNOCONFIDENCE/assay_numeric_usability_annotation.tsv","trackSchemaId":"assay_numeric_usability_annotation","supports1d":true,"supportsTable":true,"colorPolicyId":"rmdb_reactivity_low_mid_high_v1"},{"profileId":"data-rna-structures/data-rna-structures/M2RFPK_DMS_0001.rdat#34116","trackRouteId":"annojoin:track:RMDB2PDB:pairseg_6FZ0_sequence_000564","trackDataPath":"ANNOCONFIDENCE/assay_numeric_usability_annotation.tsv","trackSchemaId":"assay_numeric_usability_annotation","supports1d":true,"supportsTable":true,"colorPolicyId":"rmdb_reactivity_low_mid_high_v1"},{"profileId":"data-rna-structures/data-rna-structures/M2RFPK_DMS_0001.rdat#34174","trackRouteId":"annojoin:track:RMDB2PDB:pairseg_6FZ0_sequence_000565","trackDataPath":"ANNOCONFIDENCE/assay_numeric_usability_annotation.tsv","trackSchemaId":"assay_numeric_usability_annotation","supports1d":true,"supportsTable":true,"colorPolicyId":"rmdb_reactivity_low_mid_high_v1"},{"profileId":"data-rna-structures/data-rna-structures/M2RFPK_2A3_0001.rdat#34174","trackRouteId":"annojoin:track:RMDB2PDB:pairseg_6FZ0_sequence_000566","trackDataPath":"ANNOCONFIDENCE/assay_numeric_usability_annotation.tsv","trackSchemaId":"assay_numeric_usability_annotation","supports1d":true,"supportsTable":true,"colorPolicyId":"rmdb_reactivity_low_mid_high_v1"},{"profileId":"data-rna-structures/data-rna-structures/M2RFPK_2A3_0001.rdat#34168","trackRouteId":"annojoin:track:RMDB2PDB:pairseg_6FZ0_sequence_000567","trackDataPath":"ANNOCONFIDENCE/assay_numeric_usability_annotation.tsv","trackSchemaId":"assay_numeric_usability_annotation","supports1d":true,"supportsTable":true,"colorPolicyId":"rmdb_reactivity_low_mid_high_v1"},{"profileId":"data-rna-structures/data-rna-structures/M2RFPK_DMS_0001.rdat#34168","trackRouteId":"annojoin:track:RMDB2PDB:pairseg_6FZ0_sequence_000568","trackDataPath":"ANNOCONFIDENCE/assay_numeric_usability_annotation.tsv","trackSchemaId":"assay_numeric_usability_annotation","supports1d":true,"supportsTable":true,"colorPolicyId":"rmdb_reactivity_low_mid_high_v1"},{"profileId":"data-rna-structures/data-rna-structures/M2RFPK_DMS_0001.rdat#34160","trackRouteId":"annojoin:track:RMDB2PDB:pairseg_6FZ0_sequence_000569","trackDataPath":"ANNOCONFIDENCE/assay_numeric_usability_annotation.tsv","trackSchemaId":"assay_numeric_usability_annotation","supports1d":true,"supportsTable":true,"colorPolicyId":"rmdb_reactivity_low_mid_high_v1"},{"profileId":"data-rna-structures/data-rna-structures/M2RFPK_2A3_0001.rdat#34160","trackRouteId":"annojoin:track:RMDB2PDB:pairseg_6FZ0_sequence_000570","trackDataPath":"ANNOCONFIDENCE/assay_numeric_usability_annotation.tsv","trackSchemaId":"assay_numeric_usability_annotation","supports1d":true,"supportsTable":true,"colorPolicyId":"rmdb_reactivity_low_mid_high_v1"},{"profileId":"data-rna-structures/data-rna-structures/M2RFPK_DMS_0001.rdat#34205","trackRouteId":"annojoin:track:RMDB2PDB:pairseg_6FZ0_sequence_000571","trackDataPath":"ANNOCONFIDENCE/assay_numeric_usability_annotation.tsv","trackSchemaId":"assay_numeric_usability_annotation","supports1d":true,"supportsTable":true,"colorPolicyId":"rmdb_reactivity_low_mid_high_v1"},{"profileId":"data-rna-structures/data-rna-structures/M2RFPK_2A3_0001.rdat#34205","trackRouteId":"annojoin:track:RMDB2PDB:pairseg_6FZ0_sequence_000572","trackDataPath":"ANNOCONFIDENCE/assay_numeric_usability_annotation.tsv","trackSchemaId":"assay_numeric_usability_annotation","supports1d":true,"supportsTable":true,"colorPolicyId":"rmdb_reactivity_low_mid_high_v1"},{"profileId":"data-rna-structures/data-rna-structures/M2RFPK_DMS_0001.rdat#34097","trackRouteId":"annojoin:track:RMDB2PDB:pairseg_6FZ0_sequence_000573","trackDataPath":"ANNOCONFIDENCE/assay_numeric_usability_annotation.tsv","trackSchemaId":"assay_numeric_usability_annotation","supports1d":true,"supportsTable":true,"colorPolicyId":"rmdb_reactivity_low_mid_high_v1"},{"profileId":"data-rna-structures/data-rna-structures/M2RFPK_2A3_0001.rdat#34097","trackRouteId":"annojoin:track:RMDB2PDB:pairseg_6FZ0_sequence_000574","trackDataPath":"ANNOCONFIDENCE/assay_numeric_usability_annotation.tsv","trackSchemaId":"assay_numeric_usability_annotation","supports1d":true,"supportsTable":true,"colorPolicyId":"rmdb_reactivity_low_mid_high_v1"},{"profileId":"data-rna-structures/data-rna-structures/M2RFPK_2A3_0001.rdat#34163","trackRouteId":"annojoin:track:RMDB2PDB:pairseg_6FZ0_sequence_000575","trackDataPath":"ANNOCONFIDENCE/assay_numeric_usability_annotation.tsv","trackSchemaId":"assay_numeric_usability_annotation","supports1d":true,"supportsTable":true,"colorPolicyId":"rmdb_reactivity_low_mid_high_v1"},{"profileId":"data-rna-structures/data-rna-structures/M2RFPK_DMS_0001.rdat#34163","trackRouteId":"annojoin:track:RMDB2PDB:pairseg_6FZ0_sequence_000576","trackDataPath":"ANNOCONFIDENCE/assay_numeric_usability_annotation.tsv","trackSchemaId":"assay_numeric_usability_annotation","supports1d":true,"supportsTable":true,"colorPolicyId":"rmdb_reactivity_low_mid_high_v1"},{"profileId":"data-rna-structures/data-rna-structures/M2RFPK_DMS_0001.rdat#34157","trackRouteId":"annojoin:track:RMDB2PDB:pairseg_6FZ0_sequence_000577","trackDataPath":"ANNOCONFIDENCE/assay_numeric_usability_annotation.tsv","trackSchemaId":"assay_numeric_usability_annotation","supports1d":true,"supportsTable":true,"colorPolicyId":"rmdb_reactivity_low_mid_high_v1"},{"profileId":"data-rna-structures/data-rna-structures/M2RFPK_2A3_0001.rdat#34157","trackRouteId":"annojoin:track:RMDB2PDB:pairseg_6FZ0_sequence_000578","trackDataPath":"ANNOCONFIDENCE/assay_numeric_usability_annotation.tsv","trackSchemaId":"assay_numeric_usability_annotation","supports1d":true,"supportsTable":true,"colorPolicyId":"rmdb_reactivity_low_mid_high_v1"},{"profileId":"data-rna-structures/data-rna-structures/M2RFPK_2A3_0001.rdat#34104","trackRouteId":"annojoin:track:RMDB2PDB:pairseg_6FZ0_sequence_000579","trackDataPath":"ANNOCONFIDENCE/assay_numeric_usability_annotation.tsv","trackSchemaId":"assay_numeric_usability_annotation","supports1d":true,"supportsTable":true,"colorPolicyId":"rmdb_reactivity_low_mid_high_v1"},{"profileId":"data-rna-structures/data-rna-structures/M2RFPK_DMS_0001.rdat#34104","trackRouteId":"annojoin:track:RMDB2PDB:pairseg_6FZ0_sequence_000580","trackDataPath":"ANNOCONFIDENCE/assay_numeric_usability_annotation.tsv","trackSchemaId":"assay_numeric_usability_annotation","supports1d":true,"supportsTable":true,"colorPolicyId":"rmdb_reactivity_low_mid_high_v1"},{"profileId":"data-rna-structures/data-rna-structures/M2RFPK_DMS_0001.rdat#34169","trackRouteId":"annojoin:track:RMDB2PDB:pairseg_6FZ0_sequence_000581","trackDataPath":"ANNOCONFIDENCE/assay_numeric_usability_annotation.tsv","trackSchemaId":"assay_numeric_usability_annotation","supports1d":true,"supportsTable":true,"colorPolicyId":"rmdb_reactivity_low_mid_high_v1"},{"profileId":"data-rna-structures/data-rna-structures/M2RFPK_2A3_0001.rdat#34169","trackRouteId":"annojoin:track:RMDB2PDB:pairseg_6FZ0_sequence_000582","trackDataPath":"ANNOCONFIDENCE/assay_numeric_usability_annotation.tsv","trackSchemaId":"assay_numeric_usability_annotation","supports1d":true,"supportsTable":true,"colorPolicyId":"rmdb_reactivity_low_mid_high_v1"},{"profileId":"data-rna-structures/data-rna-structures/M2RFPK_2A3_0001.rdat#34233","trackRouteId":"annojoin:track:RMDB2PDB:pairseg_6FZ0_sequence_000583","trackDataPath":"ANNOCONFIDENCE/assay_numeric_usability_annotation.tsv","trackSchemaId":"assay_numeric_usability_annotation","supports1d":true,"supportsTable":true,"colorPolicyId":"rmdb_reactivity_low_mid_high_v1"},{"profileId":"data-rna-structures/data-rna-structures/M2RFPK_DMS_0001.rdat#34233","trackRouteId":"annojoin:track:RMDB2PDB:pairseg_6FZ0_sequence_000584","trackDataPath":"ANNOCONFIDENCE/assay_numeric_usability_annotation.tsv","trackSchemaId":"assay_numeric_usability_annotation","supports1d":true,"supportsTable":true,"colorPolicyId":"rmdb_reactivity_low_mid_high_v1"},{"profileId":"data-rna-structures/data-rna-structures/M2RFPK_2A3_0001.rdat#34152","trackRouteId":"annojoin:track:RMDB2PDB:pairseg_6FZ0_sequence_000587","trackDataPath":"ANNOCONFIDENCE/assay_numeric_usability_annotation.tsv","trackSchemaId":"assay_numeric_usability_annotation","supports1d":true,"supportsTable":true,"colorPolicyId":"rmdb_reactivity_low_mid_high_v1"},{"profileId":"data-rna-structures/data-rna-structures/M2RFPK_DMS_0001.rdat#34152","trackRouteId":"annojoin:track:RMDB2PDB:pairseg_6FZ0_sequence_000588","trackDataPath":"ANNOCONFIDENCE/assay_numeric_usability_annotation.tsv","trackSchemaId":"assay_numeric_usability_annotation","supports1d":true,"supportsTable":true,"colorPolicyId":"rmdb_reactivity_low_mid_high_v1"},{"profileId":"data-rna-structures/data-rna-structures/M2RFPK_2A3_0001.rdat#34117","trackRouteId":"annojoin:track:RMDB2PDB:pairseg_6FZ0_sequence_000589","trackDataPath":"ANNOCONFIDENCE/assay_numeric_usability_annotation.tsv","trackSchemaId":"assay_numeric_usability_annotation","supports1d":true,"supportsTable":true,"colorPolicyId":"rmdb_reactivity_low_mid_high_v1"},{"profileId":"data-rna-structures/data-rna-structures/M2RFPK_DMS_0001.rdat#34117","trackRouteId":"annojoin:track:RMDB2PDB:pairseg_6FZ0_sequence_000590","trackDataPath":"ANNOCONFIDENCE/assay_numeric_usability_annotation.tsv","trackSchemaId":"assay_numeric_usability_annotation","supports1d":true,"supportsTable":true,"colorPolicyId":"rmdb_reactivity_low_mid_high_v1"},{"profileId":"data-rna-structures/data-rna-structures/M2RFPK_2A3_0001.rdat#34096","trackRouteId":"annojoin:track:RMDB2PDB:pairseg_6FZ0_sequence_000591","trackDataPath":"ANNOCONFIDENCE/assay_numeric_usability_annotation.tsv","trackSchemaId":"assay_numeric_usability_annotation","supports1d":true,"supportsTable":true,"colorPolicyId":"rmdb_reactivity_low_mid_high_v1"},{"profileId":"data-rna-structures/data-rna-structures/M2RFPK_DMS_0001.rdat#34096","trackRouteId":"annojoin:track:RMDB2PDB:pairseg_6FZ0_sequence_000592","trackDataPath":"ANNOCONFIDENCE/assay_numeric_usability_annotation.tsv","trackSchemaId":"assay_numeric_usability_annotation","supports1d":true,"supportsTable":true,"colorPolicyId":"rmdb_reactivity_low_mid_high_v1"},{"profileId":"data-rna-structures/data-rna-structures/M2RFPK_2A3_0001.rdat#34143","trackRouteId":"annojoin:track:RMDB2PDB:pairseg_6FZ0_sequence_000593","trackDataPath":"ANNOCONFIDENCE/assay_numeric_usability_annotation.tsv","trackSchemaId":"assay_numeric_usability_annotation","supports1d":true,"supportsTable":true,"colorPolicyId":"rmdb_reactivity_low_mid_high_v1"},{"profileId":"data-rna-structures/data-rna-structures/M2RFPK_DMS_0001.rdat#34143","trackRouteId":"annojoin:track:RMDB2PDB:pairseg_6FZ0_sequence_000594","trackDataPath":"ANNOCONFIDENCE/assay_numeric_usability_annotation.tsv","trackSchemaId":"assay_numeric_usability_annotation","supports1d":true,"supportsTable":true,"colorPolicyId":"rmdb_reactivity_low_mid_high_v1"},{"profileId":"data-rna-structures/data-rna-structures/M2RFPK_2A3_0001.rdat#34167","trackRouteId":"annojoin:track:RMDB2PDB:pairseg_6FZ0_sequence_000595","trackDataPath":"ANNOCONFIDENCE/assay_numeric_usability_annotation.tsv","trackSchemaId":"assay_numeric_usability_annotation","supports1d":true,"supportsTable":true,"colorPolicyId":"rmdb_reactivity_low_mid_high_v1"},{"profileId":"data-rna-structures/data-rna-structures/M2RFPK_DMS_0001.rdat#34167","trackRouteId":"annojoin:track:RMDB2PDB:pairseg_6FZ0_sequence_000596","trackDataPath":"ANNOCONFIDENCE/assay_numeric_usability_annotation.tsv","trackSchemaId":"assay_numeric_usability_annotation","supports1d":true,"supportsTable":true,"colorPolicyId":"rmdb_reactivity_low_mid_high_v1"},{"profileId":"data-rna-structures/data-rna-structures/M2RFPK_2A3_0001.rdat#34098","trackRouteId":"annojoin:track:RMDB2PDB:pairseg_6FZ0_sequence_000597","trackDataPath":"ANNOCONFIDENCE/assay_numeric_usability_annotation.tsv","trackSchemaId":"assay_numeric_usability_annotation","supports1d":true,"supportsTable":true,"colorPolicyId":"rmdb_reactivity_low_mid_high_v1"},{"profileId":"data-rna-structures/data-rna-structures/M2RFPK_DMS_0001.rdat#34098","trackRouteId":"annojoin:track:RMDB2PDB:pairseg_6FZ0_sequence_000598","trackDataPath":"ANNOCONFIDENCE/assay_numeric_usability_annotation.tsv","trackSchemaId":"assay_numeric_usability_annotation","supports1d":true,"supportsTable":true,"colorPolicyId":"rmdb_reactivity_low_mid_high_v1"},{"profileId":"data-rna-structures/data-rna-structures/M2RFPK_DMS_0001.rdat#34135","trackRouteId":"annojoin:track:RMDB2PDB:pairseg_6FZ0_sequence_000599","trackDataPath":"ANNOCONFIDENCE/assay_numeric_usability_annotation.tsv","trackSchemaId":"assay_numeric_usability_annotation","supports1d":true,"supportsTable":true,"colorPolicyId":"rmdb_reactivity_low_mid_high_v1"},{"profileId":"data-rna-structures/data-rna-structures/M2RFPK_2A3_0001.rdat#34135","trackRouteId":"annojoin:track:RMDB2PDB:pairseg_6FZ0_sequence_000600","trackDataPath":"ANNOCONFIDENCE/assay_numeric_usability_annotation.tsv","trackSchemaId":"assay_numeric_usability_annotation","supports1d":true,"supportsTable":true,"colorPolicyId":"rmdb_reactivity_low_mid_high_v1"},{"profileId":"data-rna-structures/data-rna-structures/M2RFPK_2A3_0001.rdat#34153","trackRouteId":"annojoin:track:RMDB2PDB:pairseg_6FZ0_sequence_000601","trackDataPath":"ANNOCONFIDENCE/assay_numeric_usability_annotation.tsv","trackSchemaId":"assay_numeric_usability_annotation","supports1d":true,"supportsTable":true,"colorPolicyId":"rmdb_reactivity_low_mid_high_v1"},{"profileId":"data-rna-structures/data-rna-structures/M2RFPK_DMS_0001.rdat#34153","trackRouteId":"annojoin:track:RMDB2PDB:pairseg_6FZ0_sequence_000602","trackDataPath":"ANNOCONFIDENCE/assay_numeric_usability_annotation.tsv","trackSchemaId":"assay_numeric_usability_annotation","supports1d":true,"supportsTable":true,"colorPolicyId":"rmdb_reactivity_low_mid_high_v1"},{"profileId":"data-rna-structures/data-rna-structures/M2RFPK_DMS_0001.rdat#34122","trackRouteId":"annojoin:track:RMDB2PDB:pairseg_6FZ0_sequence_000603","trackDataPath":"ANNOCONFIDENCE/assay_numeric_usability_annotation.tsv","trackSchemaId":"assay_numeric_usability_annotation","supports1d":true,"supportsTable":true,"colorPolicyId":"rmdb_reactivity_low_mid_high_v1"},{"profileId":"data-rna-structures/data-rna-structures/M2RFPK_2A3_0001.rdat#34122","trackRouteId":"annojoin:track:RMDB2PDB:pairseg_6FZ0_sequence_000604","trackDataPath":"ANNOCONFIDENCE/assay_numeric_usability_annotation.tsv","trackSchemaId":"assay_numeric_usability_annotation","supports1d":true,"supportsTable":true,"colorPolicyId":"rmdb_reactivity_low_mid_high_v1"},{"profileId":"data-rna-structures/data-rna-structures/M2RFPK_DMS_0001.rdat#34229","trackRouteId":"annojoin:track:RMDB2PDB:pairseg_6FZ0_sequence_000605","trackDataPath":"ANNOCONFIDENCE/assay_numeric_usability_annotation.tsv","trackSchemaId":"assay_numeric_usability_annotation","supports1d":true,"supportsTable":true,"colorPolicyId":"rmdb_reactivity_low_mid_high_v1"},{"profileId":"data-rna-structures/data-rna-structures/M2RFPK_2A3_0001.rdat#34229","trackRouteId":"annojoin:track:RMDB2PDB:pairseg_6FZ0_sequence_000606","trackDataPath":"ANNOCONFIDENCE/assay_numeric_usability_annotation.tsv","trackSchemaId":"assay_numeric_usability_annotation","supports1d":true,"supportsTable":true,"colorPolicyId":"rmdb_reactivity_low_mid_high_v1"},{"profileId":"data-rna-structures/data-rna-structures/M2RFPK_DMS_0001.rdat#34123","trackRouteId":"annojoin:track:RMDB2PDB:pairseg_6FZ0_sequence_000607","trackDataPath":"ANNOCONFIDENCE/assay_numeric_usability_annotation.tsv","trackSchemaId":"assay_numeric_usability_annotation","supports1d":true,"supportsTable":true,"colorPolicyId":"rmdb_reactivity_low_mid_high_v1"},{"profileId":"data-rna-structures/data-rna-structures/M2RFPK_2A3_0001.rdat#34123","trackRouteId":"annojoin:track:RMDB2PDB:pairseg_6FZ0_sequence_000608","trackDataPath":"ANNOCONFIDENCE/assay_numeric_usability_annotation.tsv","trackSchemaId":"assay_numeric_usability_annotation","supports1d":true,"supportsTable":true,"colorPolicyId":"rmdb_reactivity_low_mid_high_v1"},{"profileId":"data-rna-structures/data-rna-structures/M2RFPK_DMS_0001.rdat#34132","trackRouteId":"annojoin:track:RMDB2PDB:pairseg_6FZ0_sequence_000609","trackDataPath":"ANNOCONFIDENCE/assay_numeric_usability_annotation.tsv","trackSchemaId":"assay_numeric_usability_annotation","supports1d":true,"supportsTable":true,"colorPolicyId":"rmdb_reactivity_low_mid_high_v1"},{"profileId":"data-rna-structures/data-rna-structures/M2RFPK_2A3_0001.rdat#34132","trackRouteId":"annojoin:track:RMDB2PDB:pairseg_6FZ0_sequence_000610","trackDataPath":"ANNOCONFIDENCE/assay_numeric_usability_annotation.tsv","trackSchemaId":"assay_numeric_usability_annotation","supports1d":true,"supportsTable":true,"colorPolicyId":"rmdb_reactivity_low_mid_high_v1"},{"profileId":"data-rna-structures/data-rna-structures/M2RFPK_2A3_0001.rdat#34106","trackRouteId":"annojoin:track:RMDB2PDB:pairseg_6FZ0_sequence_000611","trackDataPath":"ANNOCONFIDENCE/assay_numeric_usability_annotation.tsv","trackSchemaId":"assay_numeric_usability_annotation","supports1d":true,"supportsTable":true,"colorPolicyId":"rmdb_reactivity_low_mid_high_v1"},{"profileId":"data-rna-structures/data-rna-structures/M2RFPK_DMS_0001.rdat#34106","trackRouteId":"annojoin:track:RMDB2PDB:pairseg_6FZ0_sequence_000612","trackDataPath":"ANNOCONFIDENCE/assay_numeric_usability_annotation.tsv","trackSchemaId":"assay_numeric_usability_annotation","supports1d":true,"supportsTable":true,"colorPolicyId":"rmdb_reactivity_low_mid_high_v1"}]}
