{"schemaVersion":"annojoin-atlas.v1","version":"V2.1_RMDB_LINE_A_20260617","atlasCaseKey":"RMDB2PDB:4C4Q","caseId":"4C4Q","routeKey":"memberships","page":3,"pageSize":500,"totalRows":1160,"pageCount":3,"rows":[{"pairId":"4C4Q:sequence_001071","profileId":"rmdbv3_exact_6a272b9862ac8878cc598eb544455c89a201b6d8|top_x_279::seq_3a0ed9b7bc768cb1|4C4Q_N","routeId":"annojoin:profiles:RMDB2PDB:4C4Q"},{"pairId":"4C4Q:sequence_001072","profileId":"rmdbv3_exact_6a272b9862ac8878cc598eb544455c89a201b6d8|top_x_279::seq_5b3fb6b7c1a12efa|4C4Q_N","routeId":"annojoin:profiles:RMDB2PDB:4C4Q"},{"pairId":"4C4Q:sequence_001073","profileId":"rmdbv3_exact_6de412ba62647719f57ad45c7e1e030590e0a511|top_x_279::seq_9a218376db28fa30|4C4Q_N","routeId":"annojoin:profiles:RMDB2PDB:4C4Q"},{"pairId":"4C4Q:sequence_001074","profileId":"rmdbv3_exact_6de412ba62647719f57ad45c7e1e030590e0a511|top_x_279::seq_fdb3298fd41d5f28|4C4Q_N","routeId":"annojoin:profiles:RMDB2PDB:4C4Q"},{"pairId":"4C4Q:sequence_001075","profileId":"rmdbv3_exact_707f28885764f3b4db644593557d983b416447ae|top_x_279::seq_a1c8c63ae8b1ee92|4C4Q_N","routeId":"annojoin:profiles:RMDB2PDB:4C4Q"},{"pairId":"4C4Q:sequence_001076","profileId":"rmdbv3_exact_707f28885764f3b4db644593557d983b416447ae|top_x_279::seq_de570415a51debc8|4C4Q_N","routeId":"annojoin:profiles:RMDB2PDB:4C4Q"},{"pairId":"4C4Q:sequence_001077","profileId":"rmdbv3_exact_73eb0c29e6b738dd98a25644e7c25f298e9634ce|top_x_279::seq_348de087cb91c515|4C4Q_N","routeId":"annojoin:profiles:RMDB2PDB:4C4Q"},{"pairId":"4C4Q:sequence_001078","profileId":"rmdbv3_exact_73eb0c29e6b738dd98a25644e7c25f298e9634ce|top_x_279::seq_66463556ac0ded58|4C4Q_N","routeId":"annojoin:profiles:RMDB2PDB:4C4Q"},{"pairId":"4C4Q:sequence_001079","profileId":"rmdbv3_exact_74b8ac41ac894183a81a39058afb3ad30cb40799|top_x_279::seq_4a8032a300f77a29|4C4Q_N","routeId":"annojoin:profiles:RMDB2PDB:4C4Q"},{"pairId":"4C4Q:sequence_001080","profileId":"rmdbv3_exact_74b8ac41ac894183a81a39058afb3ad30cb40799|top_x_279::seq_60eba119bfd04ceb|4C4Q_N","routeId":"annojoin:profiles:RMDB2PDB:4C4Q"},{"pairId":"4C4Q:sequence_001081","profileId":"rmdbv3_exact_77441c12c6c5830eb0f4662d5f5f9c60e553b82a|top_x_279::seq_2f460260f9f6330d|4C4Q_N","routeId":"annojoin:profiles:RMDB2PDB:4C4Q"},{"pairId":"4C4Q:sequence_001082","profileId":"rmdbv3_exact_77441c12c6c5830eb0f4662d5f5f9c60e553b82a|top_x_279::seq_ee408a7513aa52dd|4C4Q_N","routeId":"annojoin:profiles:RMDB2PDB:4C4Q"},{"pairId":"4C4Q:sequence_001083","profileId":"rmdbv3_exact_78d29f4b8952d2eae3f973fe950d5b018a3a7f4e|top_x_279::seq_345f55331e78e385|4C4Q_N","routeId":"annojoin:profiles:RMDB2PDB:4C4Q"},{"pairId":"4C4Q:sequence_001084","profileId":"rmdbv3_exact_78d29f4b8952d2eae3f973fe950d5b018a3a7f4e|top_x_279::seq_7cbc3496ea15f0d8|4C4Q_N","routeId":"annojoin:profiles:RMDB2PDB:4C4Q"},{"pairId":"4C4Q:sequence_001085","profileId":"rmdbv3_exact_7cb84c02776b5167a9fcf354cf5d4b0950ac9005|top_x_279::seq_1f0759ec90a10210|4C4Q_N","routeId":"annojoin:profiles:RMDB2PDB:4C4Q"},{"pairId":"4C4Q:sequence_001086","profileId":"rmdbv3_exact_7cb84c02776b5167a9fcf354cf5d4b0950ac9005|top_x_279::seq_421b8bdcd6c43646|4C4Q_N","routeId":"annojoin:profiles:RMDB2PDB:4C4Q"},{"pairId":"4C4Q:sequence_001087","profileId":"rmdbv3_exact_7eb9e0a7dd90f1eee3b84cc1779312de831e1877|top_x_279::seq_229398209700f21d|4C4Q_N","routeId":"annojoin:profiles:RMDB2PDB:4C4Q"},{"pairId":"4C4Q:sequence_001088","profileId":"rmdbv3_exact_7eb9e0a7dd90f1eee3b84cc1779312de831e1877|top_x_279::seq_f45780376a740d7d|4C4Q_N","routeId":"annojoin:profiles:RMDB2PDB:4C4Q"},{"pairId":"4C4Q:sequence_001089","profileId":"rmdbv3_exact_7ef6062a3b0bc8cb53dc4e2b207b18446273ce19|top_x_279::seq_8f5237e28b219695|4C4Q_N","routeId":"annojoin:profiles:RMDB2PDB:4C4Q"},{"pairId":"4C4Q:sequence_001090","profileId":"rmdbv3_exact_7ef6062a3b0bc8cb53dc4e2b207b18446273ce19|top_x_279::seq_a81f3be894320545|4C4Q_N","routeId":"annojoin:profiles:RMDB2PDB:4C4Q"},{"pairId":"4C4Q:sequence_001091","profileId":"rmdbv3_exact_80db91aaea42db1d1d5f534737adef9e17025627|top_x_279::seq_6a628c16b81ada60|4C4Q_N","routeId":"annojoin:profiles:RMDB2PDB:4C4Q"},{"pairId":"4C4Q:sequence_001092","profileId":"rmdbv3_exact_80db91aaea42db1d1d5f534737adef9e17025627|top_x_279::seq_a68b71adb2937fef|4C4Q_N","routeId":"annojoin:profiles:RMDB2PDB:4C4Q"},{"pairId":"4C4Q:sequence_001093","profileId":"rmdbv3_exact_82abeea184c65d5e64152e37af9b4cec53a416b8|top_x_279::seq_058ae61077267b80|4C4Q_N","routeId":"annojoin:profiles:RMDB2PDB:4C4Q"},{"pairId":"4C4Q:sequence_001094","profileId":"rmdbv3_exact_82abeea184c65d5e64152e37af9b4cec53a416b8|top_x_279::seq_e78d63cff6392773|4C4Q_N","routeId":"annojoin:profiles:RMDB2PDB:4C4Q"},{"pairId":"4C4Q:sequence_001095","profileId":"rmdbv3_exact_8682118817d314a14380746460b41fbd8d46813c|top_x_279::seq_4f4deb160b51d161|4C4Q_N","routeId":"annojoin:profiles:RMDB2PDB:4C4Q"},{"pairId":"4C4Q:sequence_001096","profileId":"rmdbv3_exact_8682118817d314a14380746460b41fbd8d46813c|top_x_279::seq_b30957a691b77027|4C4Q_N","routeId":"annojoin:profiles:RMDB2PDB:4C4Q"},{"pairId":"4C4Q:sequence_001097","profileId":"rmdbv3_exact_93441516bea07fb2ee787a4b38ce682bc2c2395f|top_x_279::seq_2872c99a8a3eaac3|4C4Q_N","routeId":"annojoin:profiles:RMDB2PDB:4C4Q"},{"pairId":"4C4Q:sequence_001098","profileId":"rmdbv3_exact_93441516bea07fb2ee787a4b38ce682bc2c2395f|top_x_279::seq_fbdcfec758d27df0|4C4Q_N","routeId":"annojoin:profiles:RMDB2PDB:4C4Q"},{"pairId":"4C4Q:sequence_001099","profileId":"rmdbv3_exact_9411b78afe39553fb29e5ce634da9cfab05f2652|top_x_279::seq_2051765347589296|4C4Q_N","routeId":"annojoin:profiles:RMDB2PDB:4C4Q"},{"pairId":"4C4Q:sequence_001100","profileId":"rmdbv3_exact_9411b78afe39553fb29e5ce634da9cfab05f2652|top_x_279::seq_74c041cb9434cf6f|4C4Q_N","routeId":"annojoin:profiles:RMDB2PDB:4C4Q"},{"pairId":"4C4Q:sequence_001102","profileId":"rmdbv3_exact_944e97b9a5d66904a3d0bea2376fc39a17ca9bfe|top_x_279::seq_c8eab1223d02f50a|4C4Q_N","routeId":"annojoin:profiles:RMDB2PDB:4C4Q"},{"pairId":"4C4Q:sequence_001103","profileId":"rmdbv3_exact_9a10ccdcdc326aca2418d167e7d205c9555d55a3|top_x_279::seq_5ec2dc71e84c2851|4C4Q_N","routeId":"annojoin:profiles:RMDB2PDB:4C4Q"},{"pairId":"4C4Q:sequence_001104","profileId":"rmdbv3_exact_9a10ccdcdc326aca2418d167e7d205c9555d55a3|top_x_279::seq_b73148cd17b4bd66|4C4Q_N","routeId":"annojoin:profiles:RMDB2PDB:4C4Q"},{"pairId":"4C4Q:sequence_001105","profileId":"rmdbv3_exact_9aa09e8800acb69dbbf6ab59b05d32a5c196c46b|top_x_279::seq_1f90b1eb1aa145da|4C4Q_N","routeId":"annojoin:profiles:RMDB2PDB:4C4Q"},{"pairId":"4C4Q:sequence_001106","profileId":"rmdbv3_exact_9aa09e8800acb69dbbf6ab59b05d32a5c196c46b|top_x_279::seq_7200d70436260465|4C4Q_N","routeId":"annojoin:profiles:RMDB2PDB:4C4Q"},{"pairId":"4C4Q:sequence_001107","profileId":"rmdbv3_exact_a249dbd11d8276b30e708150512661629a75715a|top_x_279::seq_0504e446891261d0|4C4Q_N","routeId":"annojoin:profiles:RMDB2PDB:4C4Q"},{"pairId":"4C4Q:sequence_001108","profileId":"rmdbv3_exact_a249dbd11d8276b30e708150512661629a75715a|top_x_279::seq_d01ff1a1fa32293b|4C4Q_N","routeId":"annojoin:profiles:RMDB2PDB:4C4Q"},{"pairId":"4C4Q:sequence_001109","profileId":"rmdbv3_exact_af579f1063eaa1c71767619e984e8661f05e3481|top_x_279::seq_712cebc96c51a544|4C4Q_N","routeId":"annojoin:profiles:RMDB2PDB:4C4Q"},{"pairId":"4C4Q:sequence_001110","profileId":"rmdbv3_exact_af579f1063eaa1c71767619e984e8661f05e3481|top_x_279::seq_d151b5295f46f72f|4C4Q_N","routeId":"annojoin:profiles:RMDB2PDB:4C4Q"},{"pairId":"4C4Q:sequence_001111","profileId":"rmdbv3_exact_b227291f8b108fa26be66e00fcfe90872413a979|top_x_279::seq_6c48f5779d236b2e|4C4Q_N","routeId":"annojoin:profiles:RMDB2PDB:4C4Q"},{"pairId":"4C4Q:sequence_001113","profileId":"rmdbv3_exact_baf237022c4d6b4fa17895fb54f0f4e52bde1496|top_x_279::seq_576919fae1a78c2f|4C4Q_N","routeId":"annojoin:profiles:RMDB2PDB:4C4Q"},{"pairId":"4C4Q:sequence_001114","profileId":"rmdbv3_exact_baf237022c4d6b4fa17895fb54f0f4e52bde1496|top_x_279::seq_58228a515c1ce64d|4C4Q_N","routeId":"annojoin:profiles:RMDB2PDB:4C4Q"},{"pairId":"4C4Q:sequence_001115","profileId":"rmdbv3_exact_be1433645c10b4f0fb21c9be993d59d9217b4540|top_x_279::seq_2dbcc22e6869f6e7|4C4Q_N","routeId":"annojoin:profiles:RMDB2PDB:4C4Q"},{"pairId":"4C4Q:sequence_001116","profileId":"rmdbv3_exact_be1433645c10b4f0fb21c9be993d59d9217b4540|top_x_279::seq_64d5d24a84de25f1|4C4Q_N","routeId":"annojoin:profiles:RMDB2PDB:4C4Q"},{"pairId":"4C4Q:sequence_001117","profileId":"rmdbv3_exact_c356ac1711aaece254413bd1b3cfc1a66cd98c68|top_x_279::seq_d3fde9bb874fc06e|4C4Q_N","routeId":"annojoin:profiles:RMDB2PDB:4C4Q"},{"pairId":"4C4Q:sequence_001118","profileId":"rmdbv3_exact_c356ac1711aaece254413bd1b3cfc1a66cd98c68|top_x_279::seq_e1fdaf00f8ca0ce0|4C4Q_N","routeId":"annojoin:profiles:RMDB2PDB:4C4Q"},{"pairId":"4C4Q:sequence_001119","profileId":"rmdbv3_exact_c673040a6ad627e4e9bd5499fb6c6b7a693051ff|top_x_279::seq_7b6b68b6b67f07cd|4C4Q_N","routeId":"annojoin:profiles:RMDB2PDB:4C4Q"},{"pairId":"4C4Q:sequence_001120","profileId":"rmdbv3_exact_c673040a6ad627e4e9bd5499fb6c6b7a693051ff|top_x_279::seq_7b82a9a0230a80e4|4C4Q_N","routeId":"annojoin:profiles:RMDB2PDB:4C4Q"},{"pairId":"4C4Q:sequence_001121","profileId":"rmdbv3_exact_cd091ac8c9a6f3c0b40096f81d85af8e44d46933|top_x_279::seq_6910b38f91e0a855|4C4Q_N","routeId":"annojoin:profiles:RMDB2PDB:4C4Q"},{"pairId":"4C4Q:sequence_001122","profileId":"rmdbv3_exact_cd091ac8c9a6f3c0b40096f81d85af8e44d46933|top_x_279::seq_da8f0c5f98fae2e8|4C4Q_N","routeId":"annojoin:profiles:RMDB2PDB:4C4Q"},{"pairId":"4C4Q:sequence_001123","profileId":"rmdbv3_exact_ce8e58b88a69e05044286cd1d79d7510639538d0|top_x_279::seq_3e075a5e5f022914|4C4Q_N","routeId":"annojoin:profiles:RMDB2PDB:4C4Q"},{"pairId":"4C4Q:sequence_001124","profileId":"rmdbv3_exact_ce8e58b88a69e05044286cd1d79d7510639538d0|top_x_279::seq_db3810317c6a2592|4C4Q_N","routeId":"annojoin:profiles:RMDB2PDB:4C4Q"},{"pairId":"4C4Q:sequence_001125","profileId":"rmdbv3_exact_d13d8358a013799c2cb217f75be54c7c3d81bd84|top_x_279::seq_2aa148d77ecf7430|4C4Q_N","routeId":"annojoin:profiles:RMDB2PDB:4C4Q"},{"pairId":"4C4Q:sequence_001126","profileId":"rmdbv3_exact_d13d8358a013799c2cb217f75be54c7c3d81bd84|top_x_279::seq_9e54b398d34349f9|4C4Q_N","routeId":"annojoin:profiles:RMDB2PDB:4C4Q"},{"pairId":"4C4Q:sequence_001127","profileId":"rmdbv3_exact_d31d408b477296035cf828cb86fb044b6fa3a70a|top_x_279::seq_1aa3f69a699ed634|4C4Q_N","routeId":"annojoin:profiles:RMDB2PDB:4C4Q"},{"pairId":"4C4Q:sequence_001128","profileId":"rmdbv3_exact_d31d408b477296035cf828cb86fb044b6fa3a70a|top_x_279::seq_f60de837ce7d7ef1|4C4Q_N","routeId":"annojoin:profiles:RMDB2PDB:4C4Q"},{"pairId":"4C4Q:sequence_001129","profileId":"rmdbv3_exact_d6fc200e2da5829a155cc1d82c9f04e56886fb79|top_x_279::seq_7c64b5febdb95eb3|4C4Q_N","routeId":"annojoin:profiles:RMDB2PDB:4C4Q"},{"pairId":"4C4Q:sequence_001130","profileId":"rmdbv3_exact_d6fc200e2da5829a155cc1d82c9f04e56886fb79|top_x_279::seq_82ec100ebd5bbba6|4C4Q_N","routeId":"annojoin:profiles:RMDB2PDB:4C4Q"},{"pairId":"4C4Q:sequence_001131","profileId":"rmdbv3_exact_d7c07e000cfd2ed4ddc19da6321684868fe22dcd|top_x_279::seq_118fa96dcc2a5a7e|4C4Q_N","routeId":"annojoin:profiles:RMDB2PDB:4C4Q"},{"pairId":"4C4Q:sequence_001132","profileId":"rmdbv3_exact_d7c07e000cfd2ed4ddc19da6321684868fe22dcd|top_x_279::seq_d8e8a15257a907d3|4C4Q_N","routeId":"annojoin:profiles:RMDB2PDB:4C4Q"},{"pairId":"4C4Q:sequence_001133","profileId":"rmdbv3_exact_d8388e71e02acd8a30eeb06c9364158fdb0fe3d3|top_x_279::seq_3ac7068797e738f7|4C4Q_N","routeId":"annojoin:profiles:RMDB2PDB:4C4Q"},{"pairId":"4C4Q:sequence_001134","profileId":"rmdbv3_exact_d8388e71e02acd8a30eeb06c9364158fdb0fe3d3|top_x_279::seq_ae88be67e66a5e5a|4C4Q_N","routeId":"annojoin:profiles:RMDB2PDB:4C4Q"},{"pairId":"4C4Q:sequence_001135","profileId":"rmdbv3_exact_de181dbff9a2f16435dae896043913a6c23c55fb|top_x_279::seq_15945827c3e8c3d7|4C4Q_N","routeId":"annojoin:profiles:RMDB2PDB:4C4Q"},{"pairId":"4C4Q:sequence_001136","profileId":"rmdbv3_exact_de181dbff9a2f16435dae896043913a6c23c55fb|top_x_279::seq_c4bafa429cb2228e|4C4Q_N","routeId":"annojoin:profiles:RMDB2PDB:4C4Q"},{"pairId":"4C4Q:sequence_001137","profileId":"rmdbv3_exact_e02b4d2d8224450aec8545ae6f711fb87cab203a|top_x_279::seq_6b741ad4e1ecd8c5|4C4Q_N","routeId":"annojoin:profiles:RMDB2PDB:4C4Q"},{"pairId":"4C4Q:sequence_001138","profileId":"rmdbv3_exact_e02b4d2d8224450aec8545ae6f711fb87cab203a|top_x_279::seq_d5059bc0de85cb1b|4C4Q_N","routeId":"annojoin:profiles:RMDB2PDB:4C4Q"},{"pairId":"4C4Q:sequence_001139","profileId":"rmdbv3_exact_e378993aac17ae94328a6f3596c2b67d20d05256|top_x_279::seq_16f20c65f8bc9902|4C4Q_N","routeId":"annojoin:profiles:RMDB2PDB:4C4Q"},{"pairId":"4C4Q:sequence_001140","profileId":"rmdbv3_exact_e378993aac17ae94328a6f3596c2b67d20d05256|top_x_279::seq_7ed61cf73234e69d|4C4Q_N","routeId":"annojoin:profiles:RMDB2PDB:4C4Q"},{"pairId":"4C4Q:sequence_001141","profileId":"rmdbv3_exact_e6381d9946b1731b377015bf5a881b1abb292f4c|top_x_279::seq_09fac6b706794dd4|4C4Q_N","routeId":"annojoin:profiles:RMDB2PDB:4C4Q"},{"pairId":"4C4Q:sequence_001142","profileId":"rmdbv3_exact_e6381d9946b1731b377015bf5a881b1abb292f4c|top_x_279::seq_e3c6cc805ed6e242|4C4Q_N","routeId":"annojoin:profiles:RMDB2PDB:4C4Q"},{"pairId":"4C4Q:sequence_001143","profileId":"rmdbv3_exact_e6617f87318fda4deed68f09dfbd28f9ce916cd8|top_x_279::seq_6beea3aacb8a8270|4C4Q_N","routeId":"annojoin:profiles:RMDB2PDB:4C4Q"},{"pairId":"4C4Q:sequence_001144","profileId":"rmdbv3_exact_e6617f87318fda4deed68f09dfbd28f9ce916cd8|top_x_279::seq_c14491752f4b07e6|4C4Q_N","routeId":"annojoin:profiles:RMDB2PDB:4C4Q"},{"pairId":"4C4Q:sequence_001145","profileId":"rmdbv3_exact_ecb642a74ad7936bc9d1a1acc69551165ae9169d|top_x_279::seq_42e2fd5f7579f16a|4C4Q_N","routeId":"annojoin:profiles:RMDB2PDB:4C4Q"},{"pairId":"4C4Q:sequence_001146","profileId":"rmdbv3_exact_ecb642a74ad7936bc9d1a1acc69551165ae9169d|top_x_279::seq_775bec6f54f43532|4C4Q_N","routeId":"annojoin:profiles:RMDB2PDB:4C4Q"},{"pairId":"4C4Q:sequence_001147","profileId":"rmdbv3_exact_eec0b16fb162a65c5180c2af35c96e3af6402cc1|top_x_279::seq_a5cd145ff2cc553f|4C4Q_N","routeId":"annojoin:profiles:RMDB2PDB:4C4Q"},{"pairId":"4C4Q:sequence_001148","profileId":"rmdbv3_exact_eec0b16fb162a65c5180c2af35c96e3af6402cc1|top_x_279::seq_f3cd00cf48bc55f8|4C4Q_N","routeId":"annojoin:profiles:RMDB2PDB:4C4Q"},{"pairId":"4C4Q:sequence_001149","profileId":"rmdbv3_exact_f655f949c89f8101f88fe9beb6942dd77cf274d4|top_x_279::seq_139bff6a6eb4cf30|4C4Q_N","routeId":"annojoin:profiles:RMDB2PDB:4C4Q"},{"pairId":"4C4Q:sequence_001151","profileId":"rmdbv3_exact_fa54fafc2ed4c06e9a2aadd40dfa145cf151f799|top_x_279::seq_5e2804f05c7588ab|4C4Q_N","routeId":"annojoin:profiles:RMDB2PDB:4C4Q"},{"pairId":"4C4Q:sequence_001152","profileId":"rmdbv3_exact_fa54fafc2ed4c06e9a2aadd40dfa145cf151f799|top_x_279::seq_cbfd6368a530fa35|4C4Q_N","routeId":"annojoin:profiles:RMDB2PDB:4C4Q"},{"pairId":"4C4Q:sequence_001153","profileId":"rmdbv3_exact_fad852e4f450d1f3cea6aa7c70e80b3543bcf98f|top_x_279::seq_6e3cd7fd977c2db1|4C4Q_N","routeId":"annojoin:profiles:RMDB2PDB:4C4Q"},{"pairId":"4C4Q:sequence_001154","profileId":"rmdbv3_exact_fad852e4f450d1f3cea6aa7c70e80b3543bcf98f|top_x_279::seq_f0d18dcf9643e3c8|4C4Q_N","routeId":"annojoin:profiles:RMDB2PDB:4C4Q"},{"pairId":"4C4Q:sequence_001155","profileId":"rmdbv3_exact_fbb6c95a80a9e61bd31177b7ed575b6cd6f53525|top_x_279::seq_c1009f03757a56b6|4C4Q_N","routeId":"annojoin:profiles:RMDB2PDB:4C4Q"},{"pairId":"4C4Q:sequence_001156","profileId":"rmdbv3_exact_fbb6c95a80a9e61bd31177b7ed575b6cd6f53525|top_x_279::seq_e977e131aa51440c|4C4Q_N","routeId":"annojoin:profiles:RMDB2PDB:4C4Q"},{"pairId":"4C4Q:sequence_001157","profileId":"rmdbv3_exact_fd7070e3f1ae1995642a09c901a778e2f8d34769|top_x_279::seq_911d1207b89a73a9|4C4Q_N","routeId":"annojoin:profiles:RMDB2PDB:4C4Q"},{"pairId":"4C4Q:sequence_001158","profileId":"rmdbv3_exact_fd7070e3f1ae1995642a09c901a778e2f8d34769|top_x_279::seq_e43d9de3041fe977|4C4Q_N","routeId":"annojoin:profiles:RMDB2PDB:4C4Q"},{"pairId":"4C4Q:sequence_001159","profileId":"rmdbv3_exact_ff83e43fab712baa1b4bd9a8d1a6cb922ba9ba3d|top_x_279::seq_bd4d695b51dcc4a2|4C4Q_N","routeId":"annojoin:profiles:RMDB2PDB:4C4Q"},{"pairId":"4C4Q:sequence_001160","profileId":"rmdbv3_exact_ff83e43fab712baa1b4bd9a8d1a6cb922ba9ba3d|top_x_279::seq_cc7a3d63a0ccf930|4C4Q_N","routeId":"annojoin:profiles:RMDB2PDB:4C4Q"},{"pairId":"4C4Q:sequence_001161","profileId":"rmdbv3_exact_0ac2c65e64070a1805ee3398c66c9dee5853fbaf|top_x_279::seq_1f506538c40bf599|4C4Q_N","routeId":"annojoin:profiles:RMDB2PDB:4C4Q"},{"pairId":"4C4Q:sequence_001162","profileId":"rmdbv3_exact_0ac2c65e64070a1805ee3398c66c9dee5853fbaf|top_x_279::seq_6a19a83f53e9b871|4C4Q_N","routeId":"annojoin:profiles:RMDB2PDB:4C4Q"},{"pairId":"4C4Q:sequence_001163","profileId":"rmdbv3_exact_1b506ca0952bce9e31d975cdd98dc620f00263ad|top_x_279::seq_416301797ee46beb|4C4Q_N","routeId":"annojoin:profiles:RMDB2PDB:4C4Q"},{"pairId":"4C4Q:sequence_001164","profileId":"rmdbv3_exact_1b506ca0952bce9e31d975cdd98dc620f00263ad|top_x_279::seq_96b63176aaa0f4dc|4C4Q_N","routeId":"annojoin:profiles:RMDB2PDB:4C4Q"},{"pairId":"4C4Q:sequence_001165","profileId":"rmdbv3_exact_723f5e77c1503fb2db70180870d9ba28e641654b|top_x_279::seq_228ae9e90a523ab2|4C4Q_N","routeId":"annojoin:profiles:RMDB2PDB:4C4Q"},{"pairId":"4C4Q:sequence_001166","profileId":"rmdbv3_exact_723f5e77c1503fb2db70180870d9ba28e641654b|top_x_279::seq_419a19f904e26491|4C4Q_N","routeId":"annojoin:profiles:RMDB2PDB:4C4Q"},{"pairId":"4C4Q:sequence_001167","profileId":"rmdbv3_exact_821461627c7d9ba61aa96b3a20148bce1362b91f|top_x_279::seq_4785ab88f0713995|4C4Q_N","routeId":"annojoin:profiles:RMDB2PDB:4C4Q"},{"pairId":"4C4Q:sequence_001168","profileId":"rmdbv3_exact_821461627c7d9ba61aa96b3a20148bce1362b91f|top_x_279::seq_aa6d7b26ac57d4c7|4C4Q_N","routeId":"annojoin:profiles:RMDB2PDB:4C4Q"},{"pairId":"4C4Q:sequence_001169","profileId":"rmdbv3_exact_b07a2e7d6e8405dfab59a75ca1c950f4423fbc2b|top_x_279::seq_29238200b4286481|4C4Q_N","routeId":"annojoin:profiles:RMDB2PDB:4C4Q"},{"pairId":"4C4Q:sequence_001170","profileId":"rmdbv3_exact_b07a2e7d6e8405dfab59a75ca1c950f4423fbc2b|top_x_279::seq_bafef045bd427a57|4C4Q_N","routeId":"annojoin:profiles:RMDB2PDB:4C4Q"},{"pairId":"4C4Q:sequence_001171","profileId":"rmdbv3_exact_b2453a15aba50e3a3996c6ffaf24f832157cd580|top_x_279::seq_3051f91b7177249c|4C4Q_N","routeId":"annojoin:profiles:RMDB2PDB:4C4Q"},{"pairId":"4C4Q:sequence_001172","profileId":"rmdbv3_exact_b2453a15aba50e3a3996c6ffaf24f832157cd580|top_x_279::seq_cb44f709fa920e63|4C4Q_N","routeId":"annojoin:profiles:RMDB2PDB:4C4Q"},{"pairId":"4C4Q:sequence_001173","profileId":"rmdbv3_exact_1039675e3ae5e24cdcf4b872b0d3637037f14e58|top_x_279::seq_219efae38d39fa99|4C4Q_N","routeId":"annojoin:profiles:RMDB2PDB:4C4Q"},{"pairId":"4C4Q:sequence_001174","profileId":"rmdbv3_exact_1039675e3ae5e24cdcf4b872b0d3637037f14e58|top_x_279::seq_4207dd41d36b834d|4C4Q_N","routeId":"annojoin:profiles:RMDB2PDB:4C4Q"},{"pairId":"4C4Q:sequence_001175","profileId":"rmdbv3_exact_1039675e3ae5e24cdcf4b872b0d3637037f14e58|top_x_279::seq_6ea4e0ea7191ff9a|4C4Q_N","routeId":"annojoin:profiles:RMDB2PDB:4C4Q"},{"pairId":"4C4Q:sequence_001176","profileId":"rmdbv3_exact_1039675e3ae5e24cdcf4b872b0d3637037f14e58|top_x_279::seq_89a4b2638b957267|4C4Q_N","routeId":"annojoin:profiles:RMDB2PDB:4C4Q"},{"pairId":"4C4Q:sequence_001177","profileId":"rmdbv3_exact_1039675e3ae5e24cdcf4b872b0d3637037f14e58|top_x_279::seq_8dbbb28ff46daeb0|4C4Q_N","routeId":"annojoin:profiles:RMDB2PDB:4C4Q"},{"pairId":"4C4Q:sequence_001178","profileId":"rmdbv3_exact_1039675e3ae5e24cdcf4b872b0d3637037f14e58|top_x_279::seq_99cab79a1dfc5c78|4C4Q_N","routeId":"annojoin:profiles:RMDB2PDB:4C4Q"},{"pairId":"4C4Q:sequence_001179","profileId":"rmdbv3_exact_1039675e3ae5e24cdcf4b872b0d3637037f14e58|top_x_279::seq_9c6521808b8e0f7b|4C4Q_N","routeId":"annojoin:profiles:RMDB2PDB:4C4Q"},{"pairId":"4C4Q:sequence_001180","profileId":"rmdbv3_exact_1039675e3ae5e24cdcf4b872b0d3637037f14e58|top_x_279::seq_fef0c484881d0aae|4C4Q_N","routeId":"annojoin:profiles:RMDB2PDB:4C4Q"},{"pairId":"4C4Q:sequence_001181","profileId":"rmdbv3_exact_1324f646071add32151a2de80ba3d5327d4a47ed|top_x_279::seq_5ed2289614558dbc|4C4Q_N","routeId":"annojoin:profiles:RMDB2PDB:4C4Q"},{"pairId":"4C4Q:sequence_001182","profileId":"rmdbv3_exact_1324f646071add32151a2de80ba3d5327d4a47ed|top_x_279::seq_c1dec57eafd20a89|4C4Q_N","routeId":"annojoin:profiles:RMDB2PDB:4C4Q"},{"pairId":"4C4Q:sequence_001183","profileId":"rmdbv3_exact_30d295de192afa0e3ebdbd1f75ed0c278cbcef46|top_x_279::seq_9c8995f7cf669f21|4C4Q_N","routeId":"annojoin:profiles:RMDB2PDB:4C4Q"},{"pairId":"4C4Q:sequence_001184","profileId":"rmdbv3_exact_30d295de192afa0e3ebdbd1f75ed0c278cbcef46|top_x_279::seq_b6d50cdd146acf8b|4C4Q_N","routeId":"annojoin:profiles:RMDB2PDB:4C4Q"},{"pairId":"4C4Q:sequence_001185","profileId":"rmdbv3_exact_3212f11f26b5a4747e5e832b7f174d16501b8f22|top_x_279::seq_4605ac4edb5cf475|4C4Q_N","routeId":"annojoin:profiles:RMDB2PDB:4C4Q"},{"pairId":"4C4Q:sequence_001186","profileId":"rmdbv3_exact_3212f11f26b5a4747e5e832b7f174d16501b8f22|top_x_279::seq_954cf832cd39fd39|4C4Q_N","routeId":"annojoin:profiles:RMDB2PDB:4C4Q"},{"pairId":"4C4Q:sequence_001187","profileId":"rmdbv3_exact_575920f1e3a024c23f0d11318b4c4991b8ef6582|top_x_279::seq_371a1f226a63e507|4C4Q_N","routeId":"annojoin:profiles:RMDB2PDB:4C4Q"},{"pairId":"4C4Q:sequence_001188","profileId":"rmdbv3_exact_575920f1e3a024c23f0d11318b4c4991b8ef6582|top_x_279::seq_5df8a1a87f9a9f8c|4C4Q_N","routeId":"annojoin:profiles:RMDB2PDB:4C4Q"},{"pairId":"4C4Q:sequence_001189","profileId":"rmdbv3_exact_576517524a0d94782d1f6515dcb95b397f946b0e|top_x_279::seq_01ad2d9498e2b558|4C4Q_N","routeId":"annojoin:profiles:RMDB2PDB:4C4Q"},{"pairId":"4C4Q:sequence_001190","profileId":"rmdbv3_exact_576517524a0d94782d1f6515dcb95b397f946b0e|top_x_279::seq_8c79d4277c284fe2|4C4Q_N","routeId":"annojoin:profiles:RMDB2PDB:4C4Q"},{"pairId":"4C4Q:sequence_001191","profileId":"rmdbv3_exact_7c3f1ae9f65ce9b0d3685f22f19102d1298330b0|top_x_279::seq_c17f9baf12ec7441|4C4Q_N","routeId":"annojoin:profiles:RMDB2PDB:4C4Q"},{"pairId":"4C4Q:sequence_001192","profileId":"rmdbv3_exact_7c3f1ae9f65ce9b0d3685f22f19102d1298330b0|top_x_279::seq_fe6d6e3c04446caf|4C4Q_N","routeId":"annojoin:profiles:RMDB2PDB:4C4Q"},{"pairId":"4C4Q:sequence_001193","profileId":"rmdbv3_exact_7f07efe6ab1203654403234ae20fb94a5b8e6aa5|top_x_279::seq_01d9f8eb61182102|4C4Q_N","routeId":"annojoin:profiles:RMDB2PDB:4C4Q"},{"pairId":"4C4Q:sequence_001194","profileId":"rmdbv3_exact_7f07efe6ab1203654403234ae20fb94a5b8e6aa5|top_x_279::seq_666816af39123963|4C4Q_N","routeId":"annojoin:profiles:RMDB2PDB:4C4Q"},{"pairId":"4C4Q:sequence_001195","profileId":"rmdbv3_exact_88d287393303012a83ec8d8b0a11c2e00ba12e51|top_x_279::seq_81e79444059b43d9|4C4Q_N","routeId":"annojoin:profiles:RMDB2PDB:4C4Q"},{"pairId":"4C4Q:sequence_001196","profileId":"rmdbv3_exact_88d287393303012a83ec8d8b0a11c2e00ba12e51|top_x_279::seq_e311570f33d241d3|4C4Q_N","routeId":"annojoin:profiles:RMDB2PDB:4C4Q"},{"pairId":"4C4Q:sequence_001197","profileId":"rmdbv3_exact_958acc890e2d45dbd31de5d18ae5c81ce3fa7ddb|top_x_279::seq_1b4e9e48f9d22a9f|4C4Q_N","routeId":"annojoin:profiles:RMDB2PDB:4C4Q"},{"pairId":"4C4Q:sequence_001198","profileId":"rmdbv3_exact_958acc890e2d45dbd31de5d18ae5c81ce3fa7ddb|top_x_279::seq_cd1d59ff3104db4f|4C4Q_N","routeId":"annojoin:profiles:RMDB2PDB:4C4Q"},{"pairId":"4C4Q:sequence_001199","profileId":"rmdbv3_exact_9ab64a7d34f859691e7e5cab53fc186335238b0b|top_x_279::seq_b66ce6584c48aa87|4C4Q_N","routeId":"annojoin:profiles:RMDB2PDB:4C4Q"},{"pairId":"4C4Q:sequence_001200","profileId":"rmdbv3_exact_9ab64a7d34f859691e7e5cab53fc186335238b0b|top_x_279::seq_b90979aaeb70edb8|4C4Q_N","routeId":"annojoin:profiles:RMDB2PDB:4C4Q"},{"pairId":"4C4Q:sequence_001201","profileId":"rmdbv3_exact_b4149bcced35aaf8f15b5cbe5cf8237d61fdaf9e|top_x_279::seq_036ce6ea32f301c3|4C4Q_N","routeId":"annojoin:profiles:RMDB2PDB:4C4Q"},{"pairId":"4C4Q:sequence_001202","profileId":"rmdbv3_exact_b4149bcced35aaf8f15b5cbe5cf8237d61fdaf9e|top_x_279::seq_039c72f89d98783f|4C4Q_N","routeId":"annojoin:profiles:RMDB2PDB:4C4Q"},{"pairId":"4C4Q:sequence_001203","profileId":"rmdbv3_exact_fda6e03eb7ee1752c2ba7dde7a834a70e0901e7f|top_x_279::seq_686346ac5303e512|4C4Q_N","routeId":"annojoin:profiles:RMDB2PDB:4C4Q"},{"pairId":"4C4Q:sequence_001204","profileId":"rmdbv3_exact_fda6e03eb7ee1752c2ba7dde7a834a70e0901e7f|top_x_279::seq_76b7c399a430a12c|4C4Q_N","routeId":"annojoin:profiles:RMDB2PDB:4C4Q"},{"pairId":"4C4Q:sequence_001205","profileId":"rmdbv3_exact_04980bd2ec256bfcb94d8b5c4540744eebd3e23d|top_x_279::seq_7c54c63adda105fe|4C4Q_N","routeId":"annojoin:profiles:RMDB2PDB:4C4Q"},{"pairId":"4C4Q:sequence_001206","profileId":"rmdbv3_exact_04980bd2ec256bfcb94d8b5c4540744eebd3e23d|top_x_279::seq_bb59188b039aee74|4C4Q_N","routeId":"annojoin:profiles:RMDB2PDB:4C4Q"},{"pairId":"4C4Q:sequence_001207","profileId":"rmdbv3_exact_5a30b72876561189d557c2fc3941cd83d1023106|top_x_279::seq_4156b781fa469f4b|4C4Q_N","routeId":"annojoin:profiles:RMDB2PDB:4C4Q"},{"pairId":"4C4Q:sequence_001208","profileId":"rmdbv3_exact_5a30b72876561189d557c2fc3941cd83d1023106|top_x_279::seq_d336358ef2cfdefe|4C4Q_N","routeId":"annojoin:profiles:RMDB2PDB:4C4Q"},{"pairId":"4C4Q:sequence_001209","profileId":"rmdbv3_exact_5b2c6ae83063d97c82e8715a0b3b0ee8fb1c44f1|top_x_279::seq_4477ec1ee8f4a06c|4C4Q_N","routeId":"annojoin:profiles:RMDB2PDB:4C4Q"},{"pairId":"4C4Q:sequence_001210","profileId":"rmdbv3_exact_5b2c6ae83063d97c82e8715a0b3b0ee8fb1c44f1|top_x_279::seq_a03eedca7f554408|4C4Q_N","routeId":"annojoin:profiles:RMDB2PDB:4C4Q"},{"pairId":"4C4Q:sequence_001211","profileId":"rmdbv3_exact_7aae219909de032ebdd4f0a9f0b759068cc062ef|top_x_279::seq_03430d51d0cbf5eb|4C4Q_N","routeId":"annojoin:profiles:RMDB2PDB:4C4Q"},{"pairId":"4C4Q:sequence_001212","profileId":"rmdbv3_exact_7aae219909de032ebdd4f0a9f0b759068cc062ef|top_x_279::seq_bf4caa6621e2a722|4C4Q_N","routeId":"annojoin:profiles:RMDB2PDB:4C4Q"},{"pairId":"4C4Q:sequence_001213","profileId":"rmdbv3_exact_81ee9b1d16fee3e46d96a76a8a8d45b93a2edc5b|top_x_279::seq_278fbb9bf1d525af|4C4Q_N","routeId":"annojoin:profiles:RMDB2PDB:4C4Q"},{"pairId":"4C4Q:sequence_001214","profileId":"rmdbv3_exact_81ee9b1d16fee3e46d96a76a8a8d45b93a2edc5b|top_x_279::seq_7aa907d3f4e8ae98|4C4Q_N","routeId":"annojoin:profiles:RMDB2PDB:4C4Q"},{"pairId":"4C4Q:sequence_001215","profileId":"rmdbv3_exact_829216ce9c3beee3477d9c67094d9ca9912a7edd|top_x_279::seq_7021256fec0801d3|4C4Q_N","routeId":"annojoin:profiles:RMDB2PDB:4C4Q"},{"pairId":"4C4Q:sequence_001216","profileId":"rmdbv3_exact_829216ce9c3beee3477d9c67094d9ca9912a7edd|top_x_279::seq_f531c2ff0e2ff3a8|4C4Q_N","routeId":"annojoin:profiles:RMDB2PDB:4C4Q"},{"pairId":"4C4Q:sequence_001217","profileId":"rmdbv3_exact_85e7fb4a533edb5f60265ed67245d77d8979de24|top_x_279::seq_a8c1086a278ddf55|4C4Q_N","routeId":"annojoin:profiles:RMDB2PDB:4C4Q"},{"pairId":"4C4Q:sequence_001218","profileId":"rmdbv3_exact_85e7fb4a533edb5f60265ed67245d77d8979de24|top_x_279::seq_bfc2ce1af32d57c6|4C4Q_N","routeId":"annojoin:profiles:RMDB2PDB:4C4Q"},{"pairId":"4C4Q:sequence_001219","profileId":"rmdbv3_exact_96d447f59f2fa128f0d68c1a265a4fcdb034f3c1|top_x_279::seq_8ecbe16648884ce2|4C4Q_N","routeId":"annojoin:profiles:RMDB2PDB:4C4Q"},{"pairId":"4C4Q:sequence_001220","profileId":"rmdbv3_exact_96d447f59f2fa128f0d68c1a265a4fcdb034f3c1|top_x_279::seq_fba357b8f24bf618|4C4Q_N","routeId":"annojoin:profiles:RMDB2PDB:4C4Q"},{"pairId":"4C4Q:sequence_001221","profileId":"rmdbv3_exact_dbb638223a825ea3bc4748d8b14c13c449d96da2|top_x_279::seq_5eebc434cd599024|4C4Q_N","routeId":"annojoin:profiles:RMDB2PDB:4C4Q"},{"pairId":"4C4Q:sequence_001223","profileId":"rmdbv3_exact_d1fb2b3de0b959796656ef7428191cddf7d65eb6|top_x_279::seq_9e0345f688e6cf41|4C4Q_N","routeId":"annojoin:profiles:RMDB2PDB:4C4Q"},{"pairId":"4C4Q:sequence_001224","profileId":"rmdbv3_exact_d1fb2b3de0b959796656ef7428191cddf7d65eb6|top_x_279::seq_d0535e42a49b2a78|4C4Q_N","routeId":"annojoin:profiles:RMDB2PDB:4C4Q"},{"pairId":"4C4Q:sequence_001225","profileId":"rmdbv3_exact_268e8c8969042e0a87909ae8059dd3e77d8a8156|top_x_279::seq_05524788542a7317|4C4Q_N","routeId":"annojoin:profiles:RMDB2PDB:4C4Q"},{"pairId":"4C4Q:sequence_001226","profileId":"rmdbv3_exact_268e8c8969042e0a87909ae8059dd3e77d8a8156|top_x_279::seq_20e415c6e2406739|4C4Q_N","routeId":"annojoin:profiles:RMDB2PDB:4C4Q"},{"pairId":"4C4Q:sequence_001227","profileId":"rmdbv3_exact_268e8c8969042e0a87909ae8059dd3e77d8a8156|top_x_279::seq_64546d30f3638c24|4C4Q_N","routeId":"annojoin:profiles:RMDB2PDB:4C4Q"},{"pairId":"4C4Q:sequence_001228","profileId":"rmdbv3_exact_268e8c8969042e0a87909ae8059dd3e77d8a8156|top_x_279::seq_79a938a3360fe80e|4C4Q_N","routeId":"annojoin:profiles:RMDB2PDB:4C4Q"},{"pairId":"4C4Q:sequence_001229","profileId":"rmdbv3_exact_268e8c8969042e0a87909ae8059dd3e77d8a8156|top_x_279::seq_7f830242b40ba1c6|4C4Q_N","routeId":"annojoin:profiles:RMDB2PDB:4C4Q"},{"pairId":"4C4Q:sequence_001230","profileId":"rmdbv3_exact_268e8c8969042e0a87909ae8059dd3e77d8a8156|top_x_279::seq_8253228885249b29|4C4Q_N","routeId":"annojoin:profiles:RMDB2PDB:4C4Q"},{"pairId":"4C4Q:sequence_001231","profileId":"rmdbv3_exact_268e8c8969042e0a87909ae8059dd3e77d8a8156|top_x_279::seq_8ef75e5cbe5117b2|4C4Q_N","routeId":"annojoin:profiles:RMDB2PDB:4C4Q"},{"pairId":"4C4Q:sequence_001232","profileId":"rmdbv3_exact_268e8c8969042e0a87909ae8059dd3e77d8a8156|top_x_279::seq_9cc654ea65e3faf2|4C4Q_N","routeId":"annojoin:profiles:RMDB2PDB:4C4Q"},{"pairId":"4C4Q:sequence_001233","profileId":"rmdbv3_exact_268e8c8969042e0a87909ae8059dd3e77d8a8156|top_x_279::seq_de0f72413c43c3c5|4C4Q_N","routeId":"annojoin:profiles:RMDB2PDB:4C4Q"},{"pairId":"4C4Q:sequence_001234","profileId":"rmdbv3_exact_268e8c8969042e0a87909ae8059dd3e77d8a8156|top_x_279::seq_f681de2894bd9e59|4C4Q_N","routeId":"annojoin:profiles:RMDB2PDB:4C4Q"}]}
