{"schemaVersion":"annojoin-atlas.v1","version":"V2.1_RMDB_LINE_A_20260617","atlasCaseKey":"RMDB2PDB:9SRD","caseId":"9SRD","routeKey":"memberships","page":3,"pageSize":500,"totalRows":1156,"pageCount":3,"rows":[{"pairId":"9SRD:sequence_001124","profileId":"rmdbv3_exact_fec8db4a5c2d51ab767bc6bc7861aafb0251de73|top_x_279::seq_e723cad72d674062|9SRD_1","routeId":"annojoin:profiles:RMDB2PDB:9SRD"},{"pairId":"9SRD:sequence_001125","profileId":"rmdbv3_exact_191aae596fd391591c24948c89c70548ef488fb9|top_x_279::seq_22064cedf2901f3f|9SRD_1","routeId":"annojoin:profiles:RMDB2PDB:9SRD"},{"pairId":"9SRD:sequence_001126","profileId":"rmdbv3_exact_191aae596fd391591c24948c89c70548ef488fb9|top_x_279::seq_68de66f6cbe7153b|9SRD_1","routeId":"annojoin:profiles:RMDB2PDB:9SRD"},{"pairId":"9SRD:sequence_001127","profileId":"rmdbv3_exact_191aae596fd391591c24948c89c70548ef488fb9|top_x_279::seq_9408f69da6da0a0f|9SRD_1","routeId":"annojoin:profiles:RMDB2PDB:9SRD"},{"pairId":"9SRD:sequence_001128","profileId":"rmdbv3_exact_191aae596fd391591c24948c89c70548ef488fb9|top_x_279::seq_c4818e9ad040c92d|9SRD_1","routeId":"annojoin:profiles:RMDB2PDB:9SRD"},{"pairId":"9SRD:sequence_001129","profileId":"rmdbv3_exact_f898df487ffdad5dbe96827696e73fab2763c149|top_x_279::seq_095df919fd42556b|9SRD_1","routeId":"annojoin:profiles:RMDB2PDB:9SRD"},{"pairId":"9SRD:sequence_001130","profileId":"rmdbv3_exact_f898df487ffdad5dbe96827696e73fab2763c149|top_x_279::seq_26df2352d0c6bce3|9SRD_1","routeId":"annojoin:profiles:RMDB2PDB:9SRD"},{"pairId":"9SRD:sequence_001131","profileId":"rmdbv3_exact_f898df487ffdad5dbe96827696e73fab2763c149|top_x_279::seq_8b20059ef97494bf|9SRD_1","routeId":"annojoin:profiles:RMDB2PDB:9SRD"},{"pairId":"9SRD:sequence_001132","profileId":"rmdbv3_exact_f898df487ffdad5dbe96827696e73fab2763c149|top_x_279::seq_c48693552c8b9f37|9SRD_1","routeId":"annojoin:profiles:RMDB2PDB:9SRD"},{"pairId":"9SRD:sequence_001133","profileId":"rmdbv3_exact_3eb57153f07ded6ee6b64833d3f70a0d2052c787|top_x_279::seq_495a6ae07c1ae14e|9SRD_2","routeId":"annojoin:profiles:RMDB2PDB:9SRD"},{"pairId":"9SRD:sequence_001134","profileId":"rmdbv3_exact_3eb57153f07ded6ee6b64833d3f70a0d2052c787|top_x_279::seq_7b834a8336705f5b|9SRD_2","routeId":"annojoin:profiles:RMDB2PDB:9SRD"},{"pairId":"9SRD:sequence_001135","profileId":"rmdbv3_exact_570e6625c786f84a9967e6cead5f3dab23b3f3ff|top_x_279::seq_2a7e21062b8c8f29|9SRD_2","routeId":"annojoin:profiles:RMDB2PDB:9SRD"},{"pairId":"9SRD:sequence_001136","profileId":"rmdbv3_exact_570e6625c786f84a9967e6cead5f3dab23b3f3ff|top_x_279::seq_4dbe05cbf4a98862|9SRD_2","routeId":"annojoin:profiles:RMDB2PDB:9SRD"},{"pairId":"9SRD:sequence_001137","profileId":"rmdbv3_exact_60a599faf1def7d179c0ed0b02c7d2a524341b34|top_x_279::seq_03dceb468e6677d2|9SRD_2","routeId":"annojoin:profiles:RMDB2PDB:9SRD"},{"pairId":"9SRD:sequence_001138","profileId":"rmdbv3_exact_60a599faf1def7d179c0ed0b02c7d2a524341b34|top_x_279::seq_2e6b3f5c19cdd942|9SRD_2","routeId":"annojoin:profiles:RMDB2PDB:9SRD"},{"pairId":"9SRD:sequence_001139","profileId":"rmdbv3_exact_774237d00c581b8de5609d580372157632c60de8|top_x_279::seq_86a45ba0411494c0|9SRD_2","routeId":"annojoin:profiles:RMDB2PDB:9SRD"},{"pairId":"9SRD:sequence_001140","profileId":"rmdbv3_exact_774237d00c581b8de5609d580372157632c60de8|top_x_279::seq_8f34075dae51f2d3|9SRD_2","routeId":"annojoin:profiles:RMDB2PDB:9SRD"},{"pairId":"9SRD:sequence_001141","profileId":"rmdbv3_exact_774237d00c581b8de5609d580372157632c60de8|top_x_279::seq_b3ba923bbb608311|9SRD_2","routeId":"annojoin:profiles:RMDB2PDB:9SRD"},{"pairId":"9SRD:sequence_001142","profileId":"rmdbv3_exact_774237d00c581b8de5609d580372157632c60de8|top_x_279::seq_f1973b3b3c5fd591|9SRD_2","routeId":"annojoin:profiles:RMDB2PDB:9SRD"},{"pairId":"9SRD:sequence_001145","profileId":"rmdbv3_exact_bed198f0100ae3bbe7da3cb315d07e1e9c7ed339|top_x_279::seq_281d87fccc6afeb0|9SRD_2","routeId":"annojoin:profiles:RMDB2PDB:9SRD"},{"pairId":"9SRD:sequence_001146","profileId":"rmdbv3_exact_bed198f0100ae3bbe7da3cb315d07e1e9c7ed339|top_x_279::seq_d0cbe1c6892248ff|9SRD_2","routeId":"annojoin:profiles:RMDB2PDB:9SRD"},{"pairId":"9SRD:sequence_001147","profileId":"rmdbv3_exact_169592480921d1c7c373d2de44f1b76c80afa81c|top_x_279::seq_9104bde2fb97314e|9SRD_1","routeId":"annojoin:profiles:RMDB2PDB:9SRD"},{"pairId":"9SRD:sequence_001148","profileId":"rmdbv3_exact_169592480921d1c7c373d2de44f1b76c80afa81c|top_x_279::seq_b8c91cf7eb1da7d0|9SRD_1","routeId":"annojoin:profiles:RMDB2PDB:9SRD"},{"pairId":"9SRD:sequence_001149","profileId":"rmdbv3_exact_1b4159bc59a02b99040ef4e5587ddd38a98ceb28|top_x_279::seq_7be114d7c6d6da2a|9SRD_1","routeId":"annojoin:profiles:RMDB2PDB:9SRD"},{"pairId":"9SRD:sequence_001150","profileId":"rmdbv3_exact_1b4159bc59a02b99040ef4e5587ddd38a98ceb28|top_x_279::seq_e80c35785c1f8646|9SRD_1","routeId":"annojoin:profiles:RMDB2PDB:9SRD"},{"pairId":"9SRD:sequence_001151","profileId":"rmdbv3_exact_e914b481bc74ea8c682033bec87bf6bcb4df7ab3|top_x_279::seq_159c2dcafed8e874|9SRD_1","routeId":"annojoin:profiles:RMDB2PDB:9SRD"},{"pairId":"9SRD:sequence_001152","profileId":"rmdbv3_exact_e914b481bc74ea8c682033bec87bf6bcb4df7ab3|top_x_279::seq_6bb8bcd62b179c25|9SRD_1","routeId":"annojoin:profiles:RMDB2PDB:9SRD"},{"pairId":"9SRD:sequence_001153","profileId":"rmdbv3_exact_e914b481bc74ea8c682033bec87bf6bcb4df7ab3|top_x_279::seq_c87ff6179a0e3c4a|9SRD_1","routeId":"annojoin:profiles:RMDB2PDB:9SRD"},{"pairId":"9SRD:sequence_001154","profileId":"rmdbv3_exact_e914b481bc74ea8c682033bec87bf6bcb4df7ab3|top_x_279::seq_e4fb547c867b2a01|9SRD_1","routeId":"annojoin:profiles:RMDB2PDB:9SRD"},{"pairId":"9SRD:sequence_001155","profileId":"rmdbv3_exact_9b316068c8014935399735e29f394d7fbddc278f|top_x_279::seq_2e429e076de586a1|9SRD_1","routeId":"annojoin:profiles:RMDB2PDB:9SRD"},{"pairId":"9SRD:sequence_001156","profileId":"rmdbv3_exact_9b316068c8014935399735e29f394d7fbddc278f|top_x_279::seq_eef3e606c2eb30f9|9SRD_1","routeId":"annojoin:profiles:RMDB2PDB:9SRD"},{"pairId":"9SRD:sequence_001157","profileId":"rmdbv3_exact_b46ace844c7796070fcc1228e522c1ba1ead4a82|top_x_279::seq_0c9518612c904daf|9SRD_1","routeId":"annojoin:profiles:RMDB2PDB:9SRD"},{"pairId":"9SRD:sequence_001158","profileId":"rmdbv3_exact_b46ace844c7796070fcc1228e522c1ba1ead4a82|top_x_279::seq_1475b4b24ff00d22|9SRD_1","routeId":"annojoin:profiles:RMDB2PDB:9SRD"},{"pairId":"9SRD:sequence_001159","profileId":"rmdbv3_exact_b46ace844c7796070fcc1228e522c1ba1ead4a82|top_x_279::seq_27aa15c7d6735cae|9SRD_1","routeId":"annojoin:profiles:RMDB2PDB:9SRD"},{"pairId":"9SRD:sequence_001160","profileId":"rmdbv3_exact_b46ace844c7796070fcc1228e522c1ba1ead4a82|top_x_279::seq_d5356bfe6ab93088|9SRD_1","routeId":"annojoin:profiles:RMDB2PDB:9SRD"},{"pairId":"9SRD:sequence_001161","profileId":"rmdbv3_exact_dddb2dd544cf01abc5c53667b6e4db6192037719|top_x_279::seq_2c6c0d40bd2f60c3|9SRD_1","routeId":"annojoin:profiles:RMDB2PDB:9SRD"},{"pairId":"9SRD:sequence_001162","profileId":"rmdbv3_exact_dddb2dd544cf01abc5c53667b6e4db6192037719|top_x_279::seq_2db3ab78cdc7cc89|9SRD_1","routeId":"annojoin:profiles:RMDB2PDB:9SRD"},{"pairId":"9SRD:sequence_001163","profileId":"rmdbv3_exact_fcc76a5c1d72900462f41254b5b4a256e8735072|top_x_279::seq_275ce34c8415b398|9SRD_1","routeId":"annojoin:profiles:RMDB2PDB:9SRD"},{"pairId":"9SRD:sequence_001164","profileId":"rmdbv3_exact_fcc76a5c1d72900462f41254b5b4a256e8735072|top_x_279::seq_5478bf25e43631b6|9SRD_1","routeId":"annojoin:profiles:RMDB2PDB:9SRD"},{"pairId":"9SRD:sequence_001165","profileId":"rmdbv3_exact_fcc76a5c1d72900462f41254b5b4a256e8735072|top_x_279::seq_9f0f901b4de93e06|9SRD_1","routeId":"annojoin:profiles:RMDB2PDB:9SRD"},{"pairId":"9SRD:sequence_001166","profileId":"rmdbv3_exact_fcc76a5c1d72900462f41254b5b4a256e8735072|top_x_279::seq_e1614d7f376c272c|9SRD_1","routeId":"annojoin:profiles:RMDB2PDB:9SRD"},{"pairId":"9SRD:sequence_001167","profileId":"rmdbv3_exact_0c4952d67a5aad71b25c800b6ae13805a9e033c3|top_x_279::seq_2888d3ca7b08b4d5|9SRD_2","routeId":"annojoin:profiles:RMDB2PDB:9SRD"},{"pairId":"9SRD:sequence_001168","profileId":"rmdbv3_exact_0c4952d67a5aad71b25c800b6ae13805a9e033c3|top_x_279::seq_fbc20204c1cd3a13|9SRD_2","routeId":"annojoin:profiles:RMDB2PDB:9SRD"},{"pairId":"9SRD:sequence_001169","profileId":"rmdbv3_exact_0b476d10ac43ca967c946aa14e63110caab87bc1|top_x_279::seq_3bab63b995efd247|9SRD_2","routeId":"annojoin:profiles:RMDB2PDB:9SRD"},{"pairId":"9SRD:sequence_001170","profileId":"rmdbv3_exact_0b476d10ac43ca967c946aa14e63110caab87bc1|top_x_279::seq_4c2a543c3483d9cc|9SRD_2","routeId":"annojoin:profiles:RMDB2PDB:9SRD"},{"pairId":"9SRD:sequence_001171","profileId":"rmdbv3_exact_0b476d10ac43ca967c946aa14e63110caab87bc1|top_x_279::seq_a6a34468f64976f7|9SRD_2","routeId":"annojoin:profiles:RMDB2PDB:9SRD"},{"pairId":"9SRD:sequence_001172","profileId":"rmdbv3_exact_0b476d10ac43ca967c946aa14e63110caab87bc1|top_x_279::seq_d60a960c3b1fee0c|9SRD_2","routeId":"annojoin:profiles:RMDB2PDB:9SRD"},{"pairId":"9SRD:sequence_001173","profileId":"rmdbv3_exact_757a4c63b4dcce4e30a227cdda49d5eb03dac03a|top_x_279::seq_13de11e012744d32|9SRD_2","routeId":"annojoin:profiles:RMDB2PDB:9SRD"},{"pairId":"9SRD:sequence_001174","profileId":"rmdbv3_exact_757a4c63b4dcce4e30a227cdda49d5eb03dac03a|top_x_279::seq_cca6d9cb1f4de91d|9SRD_2","routeId":"annojoin:profiles:RMDB2PDB:9SRD"},{"pairId":"9SRD:sequence_001175","profileId":"rmdbv3_exact_7e6789f2cc1167941b4fbe1595db33482c270cf5|top_x_279::seq_53db8d5e430441df|9SRD_2","routeId":"annojoin:profiles:RMDB2PDB:9SRD"},{"pairId":"9SRD:sequence_001176","profileId":"rmdbv3_exact_7e6789f2cc1167941b4fbe1595db33482c270cf5|top_x_279::seq_738bdb8e197adbf4|9SRD_2","routeId":"annojoin:profiles:RMDB2PDB:9SRD"},{"pairId":"9SRD:sequence_001177","profileId":"rmdbv3_exact_9870055ed85ab13497ac76ad3c62332f904bf85a|top_x_279::seq_83c4c2ee4e1e3dd2|9SRD_2","routeId":"annojoin:profiles:RMDB2PDB:9SRD"},{"pairId":"9SRD:sequence_001178","profileId":"rmdbv3_exact_9870055ed85ab13497ac76ad3c62332f904bf85a|top_x_279::seq_98f926b881743816|9SRD_2","routeId":"annojoin:profiles:RMDB2PDB:9SRD"},{"pairId":"9SRD:sequence_001179","profileId":"rmdbv3_exact_b669d0d1c04b46ea5b52fd65cdd0de50b0628c97|top_x_279::seq_a7b198f32c04c11d|9SRD_2","routeId":"annojoin:profiles:RMDB2PDB:9SRD"},{"pairId":"9SRD:sequence_001180","profileId":"rmdbv3_exact_b669d0d1c04b46ea5b52fd65cdd0de50b0628c97|top_x_279::seq_b1618ece3c4359a9|9SRD_2","routeId":"annojoin:profiles:RMDB2PDB:9SRD"},{"pairId":"9SRD:sequence_001181","profileId":"rmdbv3_exact_c3eb51a24f1230160301f08a714c1c41265cb7fa|top_x_279::seq_431c8a8b8074567b|9SRD_2","routeId":"annojoin:profiles:RMDB2PDB:9SRD"},{"pairId":"9SRD:sequence_001182","profileId":"rmdbv3_exact_c3eb51a24f1230160301f08a714c1c41265cb7fa|top_x_279::seq_4f109d43157360f2|9SRD_2","routeId":"annojoin:profiles:RMDB2PDB:9SRD"},{"pairId":"9SRD:sequence_001183","profileId":"rmdbv3_exact_b021243b587e49aaad795aa3a8887180034ab46a|top_x_279::seq_07be3ddb0e82ad86|9SRD_1","routeId":"annojoin:profiles:RMDB2PDB:9SRD"},{"pairId":"9SRD:sequence_001184","profileId":"rmdbv3_exact_b021243b587e49aaad795aa3a8887180034ab46a|top_x_279::seq_5fc17e8e1c4f4a43|9SRD_1","routeId":"annojoin:profiles:RMDB2PDB:9SRD"},{"pairId":"9SRD:sequence_001185","profileId":"rmdbv3_exact_b021243b587e49aaad795aa3a8887180034ab46a|top_x_279::seq_64ec35400ad20871|9SRD_1","routeId":"annojoin:profiles:RMDB2PDB:9SRD"},{"pairId":"9SRD:sequence_001186","profileId":"rmdbv3_exact_b021243b587e49aaad795aa3a8887180034ab46a|top_x_279::seq_afa65451029005a4|9SRD_1","routeId":"annojoin:profiles:RMDB2PDB:9SRD"},{"pairId":"9SRD:sequence_001187","profileId":"rmdbv3_exact_b6e9fcf69bea44856a57d1b9df40c6f7aad9e21a|top_x_279::seq_64477b707572796b|9SRD_1","routeId":"annojoin:profiles:RMDB2PDB:9SRD"},{"pairId":"9SRD:sequence_001188","profileId":"rmdbv3_exact_b6e9fcf69bea44856a57d1b9df40c6f7aad9e21a|top_x_279::seq_dc0b7f41bbd19f40|9SRD_1","routeId":"annojoin:profiles:RMDB2PDB:9SRD"},{"pairId":"9SRD:sequence_001189","profileId":"rmdbv3_exact_2f1f63c620392de322bb5bef828a8c35130d25b6|top_x_279::seq_9aa0e3598bec95ee|9SRD_1","routeId":"annojoin:profiles:RMDB2PDB:9SRD"},{"pairId":"9SRD:sequence_001190","profileId":"rmdbv3_exact_2f1f63c620392de322bb5bef828a8c35130d25b6|top_x_279::seq_af73973c6107c4d3|9SRD_1","routeId":"annojoin:profiles:RMDB2PDB:9SRD"},{"pairId":"9SRD:sequence_001191","profileId":"rmdbv3_exact_2f1f63c620392de322bb5bef828a8c35130d25b6|top_x_279::seq_d2f5b7f2c26926b4|9SRD_1","routeId":"annojoin:profiles:RMDB2PDB:9SRD"},{"pairId":"9SRD:sequence_001192","profileId":"rmdbv3_exact_2f1f63c620392de322bb5bef828a8c35130d25b6|top_x_279::seq_d8b95465a1d132c5|9SRD_1","routeId":"annojoin:profiles:RMDB2PDB:9SRD"},{"pairId":"9SRD:sequence_001193","profileId":"rmdbv3_exact_34fdcfe7ed5d0b020b9e8f0f3ab26288299667c7|top_x_279::seq_12622f763b894aff|9SRD_1","routeId":"annojoin:profiles:RMDB2PDB:9SRD"},{"pairId":"9SRD:sequence_001194","profileId":"rmdbv3_exact_34fdcfe7ed5d0b020b9e8f0f3ab26288299667c7|top_x_279::seq_8714704336a8d527|9SRD_1","routeId":"annojoin:profiles:RMDB2PDB:9SRD"},{"pairId":"9SRD:sequence_001195","profileId":"rmdbv3_exact_6fc670e0725102fa20e51807e7a0a6a008fc84c1|top_x_279::seq_a55e1a672aa2d223|9SRD_1","routeId":"annojoin:profiles:RMDB2PDB:9SRD"},{"pairId":"9SRD:sequence_001196","profileId":"rmdbv3_exact_6fc670e0725102fa20e51807e7a0a6a008fc84c1|top_x_279::seq_a87975f9d6f8e852|9SRD_1","routeId":"annojoin:profiles:RMDB2PDB:9SRD"},{"pairId":"9SRD:sequence_001197","profileId":"rmdbv3_exact_6fc670e0725102fa20e51807e7a0a6a008fc84c1|top_x_279::seq_c8e5be1bb8335f3d|9SRD_1","routeId":"annojoin:profiles:RMDB2PDB:9SRD"},{"pairId":"9SRD:sequence_001198","profileId":"rmdbv3_exact_6fc670e0725102fa20e51807e7a0a6a008fc84c1|top_x_279::seq_cdf7ff4040b02c99|9SRD_1","routeId":"annojoin:profiles:RMDB2PDB:9SRD"},{"pairId":"9SRD:sequence_001199","profileId":"rmdbv3_exact_aa91dafca022fcb56bf46be1bfd6ca076e18e1a2|top_x_279::seq_5fa8d3c1cb51efd9|9SRD_1","routeId":"annojoin:profiles:RMDB2PDB:9SRD"},{"pairId":"9SRD:sequence_001200","profileId":"rmdbv3_exact_aa91dafca022fcb56bf46be1bfd6ca076e18e1a2|top_x_279::seq_a262a3c49c3dd464|9SRD_1","routeId":"annojoin:profiles:RMDB2PDB:9SRD"},{"pairId":"9SRD:sequence_001201","profileId":"rmdbv3_exact_378477f4b3fb43d99f2137f3c6c3171e7b552619|top_x_279::seq_813b2b9a1699cd33|9SRD_1","routeId":"annojoin:profiles:RMDB2PDB:9SRD"},{"pairId":"9SRD:sequence_001202","profileId":"rmdbv3_exact_378477f4b3fb43d99f2137f3c6c3171e7b552619|top_x_279::seq_83babd3a08aa5ab1|9SRD_1","routeId":"annojoin:profiles:RMDB2PDB:9SRD"},{"pairId":"9SRD:sequence_001203","profileId":"rmdbv3_exact_38f117de5d1dedee424d8b039ca4dd6339e94422|top_x_279::seq_3f68da50d5930c01|9SRD_1","routeId":"annojoin:profiles:RMDB2PDB:9SRD"},{"pairId":"9SRD:sequence_001204","profileId":"rmdbv3_exact_38f117de5d1dedee424d8b039ca4dd6339e94422|top_x_279::seq_4ef48575e653af3a|9SRD_1","routeId":"annojoin:profiles:RMDB2PDB:9SRD"},{"pairId":"9SRD:sequence_001205","profileId":"rmdbv3_exact_38f117de5d1dedee424d8b039ca4dd6339e94422|top_x_279::seq_a889c5984179cec4|9SRD_1","routeId":"annojoin:profiles:RMDB2PDB:9SRD"},{"pairId":"9SRD:sequence_001206","profileId":"rmdbv3_exact_38f117de5d1dedee424d8b039ca4dd6339e94422|top_x_279::seq_eebb1c6dee5f00a5|9SRD_1","routeId":"annojoin:profiles:RMDB2PDB:9SRD"},{"pairId":"9SRD:sequence_001207","profileId":"rmdbv3_exact_03efbf351d6ad2216e90b4a5d51a1ff73aa571d1|top_x_279::seq_66636ce5976855bd|9SRD_1","routeId":"annojoin:profiles:RMDB2PDB:9SRD"},{"pairId":"9SRD:sequence_001208","profileId":"rmdbv3_exact_03efbf351d6ad2216e90b4a5d51a1ff73aa571d1|top_x_279::seq_c37c54a32ce504f7|9SRD_1","routeId":"annojoin:profiles:RMDB2PDB:9SRD"},{"pairId":"9SRD:sequence_001209","profileId":"rmdbv3_exact_03efbf351d6ad2216e90b4a5d51a1ff73aa571d1|top_x_279::seq_e742fded9824e3e8|9SRD_1","routeId":"annojoin:profiles:RMDB2PDB:9SRD"},{"pairId":"9SRD:sequence_001210","profileId":"rmdbv3_exact_03efbf351d6ad2216e90b4a5d51a1ff73aa571d1|top_x_279::seq_ea35cb1b5fc5a91f|9SRD_1","routeId":"annojoin:profiles:RMDB2PDB:9SRD"},{"pairId":"9SRD:sequence_001211","profileId":"rmdbv3_exact_6e98f064fe59bdb6319ae0eebdb01587808277fc|top_x_279::seq_0746a41d9d3e9045|9SRD_1","routeId":"annojoin:profiles:RMDB2PDB:9SRD"},{"pairId":"9SRD:sequence_001213","profileId":"rmdbv3_exact_4370266ec0e0f4d161d6af123f087591f7eb76b2|top_x_279::seq_1e41e72e797958dd|9SRD_1","routeId":"annojoin:profiles:RMDB2PDB:9SRD"},{"pairId":"9SRD:sequence_001214","profileId":"rmdbv3_exact_4370266ec0e0f4d161d6af123f087591f7eb76b2|top_x_279::seq_5a1ddcd099103e57|9SRD_1","routeId":"annojoin:profiles:RMDB2PDB:9SRD"},{"pairId":"9SRD:sequence_001215","profileId":"rmdbv3_exact_4370266ec0e0f4d161d6af123f087591f7eb76b2|top_x_279::seq_5a4832fe932f4f57|9SRD_1","routeId":"annojoin:profiles:RMDB2PDB:9SRD"},{"pairId":"9SRD:sequence_001216","profileId":"rmdbv3_exact_4370266ec0e0f4d161d6af123f087591f7eb76b2|top_x_279::seq_9a8ecb1e453f13b8|9SRD_1","routeId":"annojoin:profiles:RMDB2PDB:9SRD"},{"pairId":"9SRD:sequence_001217","profileId":"rmdbv3_exact_1d1c131448c85a502b62e48e2dbb7c970d31b907|top_x_279::seq_1707312475d13c32|9SRD_1","routeId":"annojoin:profiles:RMDB2PDB:9SRD"},{"pairId":"9SRD:sequence_001218","profileId":"rmdbv3_exact_1d1c131448c85a502b62e48e2dbb7c970d31b907|top_x_279::seq_b3180786cc66551f|9SRD_1","routeId":"annojoin:profiles:RMDB2PDB:9SRD"},{"pairId":"9SRD:sequence_001219","profileId":"rmdbv3_exact_a7d35078a40a800ffd0c9c6245764eece0e4a151|top_x_279::seq_25126b499c7479ec|9SRD_1","routeId":"annojoin:profiles:RMDB2PDB:9SRD"},{"pairId":"9SRD:sequence_001220","profileId":"rmdbv3_exact_a7d35078a40a800ffd0c9c6245764eece0e4a151|top_x_279::seq_48a36b57e4fed9c7|9SRD_1","routeId":"annojoin:profiles:RMDB2PDB:9SRD"},{"pairId":"9SRD:sequence_001221","profileId":"rmdbv3_exact_a7d35078a40a800ffd0c9c6245764eece0e4a151|top_x_279::seq_5015f7d8ebf35fd0|9SRD_1","routeId":"annojoin:profiles:RMDB2PDB:9SRD"},{"pairId":"9SRD:sequence_001222","profileId":"rmdbv3_exact_a7d35078a40a800ffd0c9c6245764eece0e4a151|top_x_279::seq_66e11f148925bb40|9SRD_1","routeId":"annojoin:profiles:RMDB2PDB:9SRD"},{"pairId":"9SRD:sequence_001223","profileId":"rmdbv3_exact_eb1add9cc23e1661282a075898b90ffeec157c81|top_x_279::seq_6fb512185f1a5ad7|9SRD_1","routeId":"annojoin:profiles:RMDB2PDB:9SRD"},{"pairId":"9SRD:sequence_001224","profileId":"rmdbv3_exact_eb1add9cc23e1661282a075898b90ffeec157c81|top_x_279::seq_a172fdd8c02e8354|9SRD_1","routeId":"annojoin:profiles:RMDB2PDB:9SRD"},{"pairId":"9SRD:sequence_001225","profileId":"rmdbv3_exact_57923296e46defcdffd90fc28488de05a5512825|top_x_279::seq_ea0506df61e44256|9SRD_2","routeId":"annojoin:profiles:RMDB2PDB:9SRD"},{"pairId":"9SRD:sequence_001226","profileId":"rmdbv3_exact_57923296e46defcdffd90fc28488de05a5512825|top_x_279::seq_f049d464864510f2|9SRD_2","routeId":"annojoin:profiles:RMDB2PDB:9SRD"},{"pairId":"9SRD:sequence_001227","profileId":"rmdbv3_exact_b343b999ebf39786b54cde144310f9dfd94f74b4|top_x_279::seq_2cb5ab5e4b2836c9|9SRD_1","routeId":"annojoin:profiles:RMDB2PDB:9SRD"},{"pairId":"9SRD:sequence_001228","profileId":"rmdbv3_exact_b343b999ebf39786b54cde144310f9dfd94f74b4|top_x_279::seq_81b1f356a9d84e4d|9SRD_1","routeId":"annojoin:profiles:RMDB2PDB:9SRD"},{"pairId":"9SRD:sequence_001229","profileId":"rmdbv3_exact_b343b999ebf39786b54cde144310f9dfd94f74b4|top_x_279::seq_b0de26842d2a949e|9SRD_1","routeId":"annojoin:profiles:RMDB2PDB:9SRD"},{"pairId":"9SRD:sequence_001230","profileId":"rmdbv3_exact_b343b999ebf39786b54cde144310f9dfd94f74b4|top_x_279::seq_c420ff5997a9cf6c|9SRD_1","routeId":"annojoin:profiles:RMDB2PDB:9SRD"},{"pairId":"9SRD:sequence_001231","profileId":"rmdbv3_exact_e6bf1a185cd74240a5ebabcfb851965efad16e04|top_x_279::seq_58af8f3fca217e09|9SRD_1","routeId":"annojoin:profiles:RMDB2PDB:9SRD"},{"pairId":"9SRD:sequence_001232","profileId":"rmdbv3_exact_e6bf1a185cd74240a5ebabcfb851965efad16e04|top_x_279::seq_9bcfd523225e36ac|9SRD_1","routeId":"annojoin:profiles:RMDB2PDB:9SRD"},{"pairId":"9SRD:sequence_001233","profileId":"rmdbv3_exact_9d8652ff01dd960ae20264650748c0765e311c91|top_x_279::seq_33ba76ce08506f2f|9SRD_2","routeId":"annojoin:profiles:RMDB2PDB:9SRD"},{"pairId":"9SRD:sequence_001234","profileId":"rmdbv3_exact_9d8652ff01dd960ae20264650748c0765e311c91|top_x_279::seq_3b8cc6aa47f76e41|9SRD_2","routeId":"annojoin:profiles:RMDB2PDB:9SRD"},{"pairId":"9SRD:sequence_001235","profileId":"rmdbv3_exact_9d8652ff01dd960ae20264650748c0765e311c91|top_x_279::seq_63caaa47cecad62a|9SRD_2","routeId":"annojoin:profiles:RMDB2PDB:9SRD"},{"pairId":"9SRD:sequence_001236","profileId":"rmdbv3_exact_9d8652ff01dd960ae20264650748c0765e311c91|top_x_279::seq_7516439b6bc7075a|9SRD_2","routeId":"annojoin:profiles:RMDB2PDB:9SRD"},{"pairId":"9SRD:sequence_001237","profileId":"rmdbv3_exact_b495d0459c2ca7dcb264ea4726d8eb0cffac819b|top_x_279::seq_0b2bd6a189d73bb3|9SRD_2","routeId":"annojoin:profiles:RMDB2PDB:9SRD"},{"pairId":"9SRD:sequence_001238","profileId":"rmdbv3_exact_b495d0459c2ca7dcb264ea4726d8eb0cffac819b|top_x_279::seq_0d65828872647136|9SRD_2","routeId":"annojoin:profiles:RMDB2PDB:9SRD"},{"pairId":"9SRD:sequence_001239","profileId":"rmdbv3_exact_15d4f770e377db3279ff77c0b8cda1e51219f1ba|top_x_279::seq_4d7a3de77b588be5|9SRD_2","routeId":"annojoin:profiles:RMDB2PDB:9SRD"},{"pairId":"9SRD:sequence_001240","profileId":"rmdbv3_exact_15d4f770e377db3279ff77c0b8cda1e51219f1ba|top_x_279::seq_987167219ef760f9|9SRD_2","routeId":"annojoin:profiles:RMDB2PDB:9SRD"},{"pairId":"9SRD:sequence_001241","profileId":"rmdbv3_exact_15d4f770e377db3279ff77c0b8cda1e51219f1ba|top_x_279::seq_b58805ca7f50ebe0|9SRD_2","routeId":"annojoin:profiles:RMDB2PDB:9SRD"},{"pairId":"9SRD:sequence_001242","profileId":"rmdbv3_exact_15d4f770e377db3279ff77c0b8cda1e51219f1ba|top_x_279::seq_f031dbfe437affa4|9SRD_2","routeId":"annojoin:profiles:RMDB2PDB:9SRD"},{"pairId":"9SRD:sequence_001243","profileId":"rmdbv3_exact_5d3436dee49545aefb4e3f726e0e006a8810f4d0|top_x_279::seq_04976a0cdca6ef0d|9SRD_1","routeId":"annojoin:profiles:RMDB2PDB:9SRD"},{"pairId":"9SRD:sequence_001244","profileId":"rmdbv3_exact_5d3436dee49545aefb4e3f726e0e006a8810f4d0|top_x_279::seq_252000fdd793678c|9SRD_1","routeId":"annojoin:profiles:RMDB2PDB:9SRD"},{"pairId":"9SRD:sequence_001245","profileId":"rmdbv3_exact_5d3436dee49545aefb4e3f726e0e006a8810f4d0|top_x_279::seq_47e8655c87f5533d|9SRD_1","routeId":"annojoin:profiles:RMDB2PDB:9SRD"},{"pairId":"9SRD:sequence_001246","profileId":"rmdbv3_exact_5d3436dee49545aefb4e3f726e0e006a8810f4d0|top_x_279::seq_e78ca25dead74a40|9SRD_1","routeId":"annojoin:profiles:RMDB2PDB:9SRD"},{"pairId":"9SRD:sequence_001247","profileId":"rmdbv3_exact_6483c5f2d2395ae0e58d0c2caf84429ff7249a8c|top_x_279::seq_7b69461b371951b7|9SRD_1","routeId":"annojoin:profiles:RMDB2PDB:9SRD"},{"pairId":"9SRD:sequence_001248","profileId":"rmdbv3_exact_6483c5f2d2395ae0e58d0c2caf84429ff7249a8c|top_x_279::seq_e04b5a6def346beb|9SRD_1","routeId":"annojoin:profiles:RMDB2PDB:9SRD"},{"pairId":"9SRD:sequence_001249","profileId":"rmdbv3_exact_16599ad25ece774cf9cc329ac15167db4c69978d|top_x_279::seq_2e88d40a87b92715|9SRD_1","routeId":"annojoin:profiles:RMDB2PDB:9SRD"},{"pairId":"9SRD:sequence_001250","profileId":"rmdbv3_exact_16599ad25ece774cf9cc329ac15167db4c69978d|top_x_279::seq_498de0673610ba2d|9SRD_1","routeId":"annojoin:profiles:RMDB2PDB:9SRD"},{"pairId":"9SRD:sequence_001251","profileId":"rmdbv3_exact_16599ad25ece774cf9cc329ac15167db4c69978d|top_x_279::seq_4bd4b76f13e47262|9SRD_1","routeId":"annojoin:profiles:RMDB2PDB:9SRD"},{"pairId":"9SRD:sequence_001252","profileId":"rmdbv3_exact_16599ad25ece774cf9cc329ac15167db4c69978d|top_x_279::seq_8ffcd813eac320a5|9SRD_1","routeId":"annojoin:profiles:RMDB2PDB:9SRD"},{"pairId":"9SRD:sequence_001253","profileId":"rmdbv3_exact_26192f6f76818af000ef03b03a88534a3d5e52f6|top_x_279::seq_5a82b05a982c006d|9SRD_1","routeId":"annojoin:profiles:RMDB2PDB:9SRD"},{"pairId":"9SRD:sequence_001254","profileId":"rmdbv3_exact_26192f6f76818af000ef03b03a88534a3d5e52f6|top_x_279::seq_a68c94e9bdbd3c2e|9SRD_1","routeId":"annojoin:profiles:RMDB2PDB:9SRD"},{"pairId":"9SRD:sequence_001255","profileId":"rmdbv3_exact_993752a3533fa77ad4e7fb9427897babb42d9320|top_x_279::seq_52fa5a9c20e61a63|9SRD_1","routeId":"annojoin:profiles:RMDB2PDB:9SRD"},{"pairId":"9SRD:sequence_001256","profileId":"rmdbv3_exact_993752a3533fa77ad4e7fb9427897babb42d9320|top_x_279::seq_cd3f9d92141bdbe5|9SRD_1","routeId":"annojoin:profiles:RMDB2PDB:9SRD"},{"pairId":"9SRD:sequence_001259","profileId":"rmdbv3_exact_af71401f4e11df1bf21adccc092050eefc4873c0|top_x_279::seq_3a700f071c6c34f9|9SRD_1","routeId":"annojoin:profiles:RMDB2PDB:9SRD"},{"pairId":"9SRD:sequence_001260","profileId":"rmdbv3_exact_af71401f4e11df1bf21adccc092050eefc4873c0|top_x_279::seq_bc4dba3519eafb85|9SRD_1","routeId":"annojoin:profiles:RMDB2PDB:9SRD"},{"pairId":"9SRD:sequence_001261","profileId":"rmdbv3_exact_af71401f4e11df1bf21adccc092050eefc4873c0|top_x_279::seq_be49f498bbfcd394|9SRD_1","routeId":"annojoin:profiles:RMDB2PDB:9SRD"},{"pairId":"9SRD:sequence_001262","profileId":"rmdbv3_exact_af71401f4e11df1bf21adccc092050eefc4873c0|top_x_279::seq_ccfe8bfeb516268e|9SRD_1","routeId":"annojoin:profiles:RMDB2PDB:9SRD"},{"pairId":"9SRD:sequence_001263","profileId":"rmdbv3_exact_dfd1902afc27001a9ce8575f88f962a01c36079a|top_x_279::seq_66fb72ab1133e816|9SRD_1","routeId":"annojoin:profiles:RMDB2PDB:9SRD"},{"pairId":"9SRD:sequence_001264","profileId":"rmdbv3_exact_dfd1902afc27001a9ce8575f88f962a01c36079a|top_x_279::seq_b279188af7512b83|9SRD_1","routeId":"annojoin:profiles:RMDB2PDB:9SRD"},{"pairId":"9SRD:sequence_001265","profileId":"rmdbv3_exact_8b550cef77fb52ed0731742a56df67280d145e25|top_x_279::seq_6b49f23bb2770e73|9SRD_1","routeId":"annojoin:profiles:RMDB2PDB:9SRD"},{"pairId":"9SRD:sequence_001266","profileId":"rmdbv3_exact_8b550cef77fb52ed0731742a56df67280d145e25|top_x_279::seq_93ef7d33752d1180|9SRD_1","routeId":"annojoin:profiles:RMDB2PDB:9SRD"},{"pairId":"9SRD:sequence_001267","profileId":"rmdbv3_exact_8b550cef77fb52ed0731742a56df67280d145e25|top_x_279::seq_a73e04609dbdae0b|9SRD_1","routeId":"annojoin:profiles:RMDB2PDB:9SRD"},{"pairId":"9SRD:sequence_001268","profileId":"rmdbv3_exact_8b550cef77fb52ed0731742a56df67280d145e25|top_x_279::seq_c44ea91f284010b7|9SRD_1","routeId":"annojoin:profiles:RMDB2PDB:9SRD"},{"pairId":"9SRD:sequence_001269","profileId":"rmdbv3_exact_f7ca8ec5c7211906c33b2cbf7cb4f682a57bbff9|top_x_279::seq_45c726f888b1f9b4|9SRD_1","routeId":"annojoin:profiles:RMDB2PDB:9SRD"},{"pairId":"9SRD:sequence_001271","profileId":"rmdbv3_exact_12ff65400f22f90d39080a20d7568592fcb309a9|top_x_279::seq_1dd59f521194daef|9SRD_2","routeId":"annojoin:profiles:RMDB2PDB:9SRD"},{"pairId":"9SRD:sequence_001272","profileId":"rmdbv3_exact_12ff65400f22f90d39080a20d7568592fcb309a9|top_x_279::seq_356d64ef73e047e7|9SRD_2","routeId":"annojoin:profiles:RMDB2PDB:9SRD"},{"pairId":"9SRD:sequence_001273","profileId":"rmdbv3_exact_12ff65400f22f90d39080a20d7568592fcb309a9|top_x_279::seq_68738fd163e0d937|9SRD_2","routeId":"annojoin:profiles:RMDB2PDB:9SRD"},{"pairId":"9SRD:sequence_001274","profileId":"rmdbv3_exact_12ff65400f22f90d39080a20d7568592fcb309a9|top_x_279::seq_f4b6f93b809f948f|9SRD_2","routeId":"annojoin:profiles:RMDB2PDB:9SRD"},{"pairId":"9SRD:sequence_001275","profileId":"rmdbv3_exact_e00cf7187878c3f607367f60dca42e3ac79a032b|top_x_279::seq_65858188bb23c197|9SRD_2","routeId":"annojoin:profiles:RMDB2PDB:9SRD"},{"pairId":"9SRD:sequence_001276","profileId":"rmdbv3_exact_e00cf7187878c3f607367f60dca42e3ac79a032b|top_x_279::seq_6b01452bb1f2a29c|9SRD_2","routeId":"annojoin:profiles:RMDB2PDB:9SRD"},{"pairId":"9SRD:sequence_001277","profileId":"rmdbv3_exact_658eca8672be1b16349d2700f460480250770cc6|top_x_279::seq_89ee28cdbe852382|9SRD_2","routeId":"annojoin:profiles:RMDB2PDB:9SRD"},{"pairId":"9SRD:sequence_001278","profileId":"rmdbv3_exact_658eca8672be1b16349d2700f460480250770cc6|top_x_279::seq_9e3798b2fdb29076|9SRD_2","routeId":"annojoin:profiles:RMDB2PDB:9SRD"},{"pairId":"9SRD:sequence_001279","profileId":"rmdbv3_exact_eb3e241331832ab183345d4b1d9597b3999d5c58|top_x_279::seq_55352f80f90ad634|9SRD_2","routeId":"annojoin:profiles:RMDB2PDB:9SRD"},{"pairId":"9SRD:sequence_001280","profileId":"rmdbv3_exact_eb3e241331832ab183345d4b1d9597b3999d5c58|top_x_279::seq_5f754a8cd7b65f42|9SRD_2","routeId":"annojoin:profiles:RMDB2PDB:9SRD"},{"pairId":"9SRD:sequence_001281","profileId":"rmdbv3_exact_eb3e241331832ab183345d4b1d9597b3999d5c58|top_x_279::seq_8f54b9433a6b6095|9SRD_2","routeId":"annojoin:profiles:RMDB2PDB:9SRD"},{"pairId":"9SRD:sequence_001282","profileId":"rmdbv3_exact_eb3e241331832ab183345d4b1d9597b3999d5c58|top_x_279::seq_c4f86273ead02e86|9SRD_2","routeId":"annojoin:profiles:RMDB2PDB:9SRD"},{"pairId":"9SRD:sequence_001283","profileId":"rmdbv3_exact_2b28ecebfa9853accaf29c886aa8dc73bacc605c|top_x_279::seq_14acf3e7c98ae2e4|9SRD_1","routeId":"annojoin:profiles:RMDB2PDB:9SRD"},{"pairId":"9SRD:sequence_001284","profileId":"rmdbv3_exact_2b28ecebfa9853accaf29c886aa8dc73bacc605c|top_x_279::seq_ef9fd0982c9f9a90|9SRD_1","routeId":"annojoin:profiles:RMDB2PDB:9SRD"},{"pairId":"9SRD:sequence_001285","profileId":"rmdbv3_exact_74d8ef6c79bf970e44926995f5948bbfe6cefd53|top_x_279::seq_71fb0d28fb09bf90|9SRD_2","routeId":"annojoin:profiles:RMDB2PDB:9SRD"}]}
