{"schemaVersion":"annojoin-atlas.v1","version":"V2.1_RMDB_LINE_A_20260617","atlasCaseKey":"RMDB2PDB:9FBV","caseId":"9FBV","routeKey":"memberships","page":3,"pageSize":500,"totalRows":1004,"pageCount":3,"rows":[{"pairId":"9FBV:sequence_001155","profileId":"rmdbv3_exact_2798f04fa5b208e859bd90ef76c207e876796be8|top_x_279::seq_7b36bc9b29d2684f|9FBV_a","routeId":"annojoin:profiles:RMDB2PDB:9FBV"},{"pairId":"9FBV:sequence_001156","profileId":"rmdbv3_exact_2798f04fa5b208e859bd90ef76c207e876796be8|top_x_279::seq_82b94a8c912ccb45|9FBV_a","routeId":"annojoin:profiles:RMDB2PDB:9FBV"},{"pairId":"9FBV:sequence_001157","profileId":"rmdbv3_exact_2798f04fa5b208e859bd90ef76c207e876796be8|top_x_279::seq_b4b31e1365dd88ca|9FBV_a","routeId":"annojoin:profiles:RMDB2PDB:9FBV"},{"pairId":"9FBV:sequence_001158","profileId":"rmdbv3_exact_2798f04fa5b208e859bd90ef76c207e876796be8|top_x_279::seq_dce9c39686ee5d9e|9FBV_a","routeId":"annojoin:profiles:RMDB2PDB:9FBV"}]}
