{"schemaVersion":"annojoin-atlas.v1","version":"V2.1_RMDB_LINE_A_20260617","atlasCaseKey":"RMDB2PDB:6CU1","caseId":"6CU1","routeKey":"track-routes","page":2,"pageSize":500,"totalRows":520,"pageCount":2,"rows":[{"profileId":"data-rna-structures/data-rna-structures/M2RFPK_DMS_0001.rdat#40596","trackRouteId":"annojoin:track:RMDB2PDB:pairseg_6CU1_sequence_000603","trackDataPath":"ANNOCONFIDENCE/assay_numeric_usability_annotation.tsv","trackSchemaId":"assay_numeric_usability_annotation","supports1d":true,"supportsTable":true,"colorPolicyId":"rmdb_reactivity_low_mid_high_v1"},{"profileId":"data-rna-structures/data-rna-structures/M2RFPK_2A3_0001.rdat#40596","trackRouteId":"annojoin:track:RMDB2PDB:pairseg_6CU1_sequence_000604","trackDataPath":"ANNOCONFIDENCE/assay_numeric_usability_annotation.tsv","trackSchemaId":"assay_numeric_usability_annotation","supports1d":true,"supportsTable":true,"colorPolicyId":"rmdb_reactivity_low_mid_high_v1"},{"profileId":"data-rna-structures/data-rna-structures/M2RFPK_2A3_0001.rdat#40597","trackRouteId":"annojoin:track:RMDB2PDB:pairseg_6CU1_sequence_000605","trackDataPath":"ANNOCONFIDENCE/assay_numeric_usability_annotation.tsv","trackSchemaId":"assay_numeric_usability_annotation","supports1d":true,"supportsTable":true,"colorPolicyId":"rmdb_reactivity_low_mid_high_v1"},{"profileId":"data-rna-structures/data-rna-structures/M2RFPK_DMS_0001.rdat#40597","trackRouteId":"annojoin:track:RMDB2PDB:pairseg_6CU1_sequence_000606","trackDataPath":"ANNOCONFIDENCE/assay_numeric_usability_annotation.tsv","trackSchemaId":"assay_numeric_usability_annotation","supports1d":true,"supportsTable":true,"colorPolicyId":"rmdb_reactivity_low_mid_high_v1"},{"profileId":"data-rna-structures/data-rna-structures/M2RFPK_DMS_0001.rdat#40385","trackRouteId":"annojoin:track:RMDB2PDB:pairseg_6CU1_sequence_000609","trackDataPath":"ANNOCONFIDENCE/assay_numeric_usability_annotation.tsv","trackSchemaId":"assay_numeric_usability_annotation","supports1d":true,"supportsTable":true,"colorPolicyId":"rmdb_reactivity_low_mid_high_v1"},{"profileId":"data-rna-structures/data-rna-structures/M2RFPK_2A3_0001.rdat#40382","trackRouteId":"annojoin:track:RMDB2PDB:pairseg_6CU1_sequence_000611","trackDataPath":"ANNOCONFIDENCE/assay_numeric_usability_annotation.tsv","trackSchemaId":"assay_numeric_usability_annotation","supports1d":true,"supportsTable":true,"colorPolicyId":"rmdb_reactivity_low_mid_high_v1"},{"profileId":"data-rna-structures/data-rna-structures/M2RFPK_DMS_0001.rdat#40382","trackRouteId":"annojoin:track:RMDB2PDB:pairseg_6CU1_sequence_000612","trackDataPath":"ANNOCONFIDENCE/assay_numeric_usability_annotation.tsv","trackSchemaId":"assay_numeric_usability_annotation","supports1d":true,"supportsTable":true,"colorPolicyId":"rmdb_reactivity_low_mid_high_v1"},{"profileId":"data-rna-structures/data-rna-structures/M2RFPK_DMS_0001.rdat#40386","trackRouteId":"annojoin:track:RMDB2PDB:pairseg_6CU1_sequence_000613","trackDataPath":"ANNOCONFIDENCE/assay_numeric_usability_annotation.tsv","trackSchemaId":"assay_numeric_usability_annotation","supports1d":true,"supportsTable":true,"colorPolicyId":"rmdb_reactivity_low_mid_high_v1"},{"profileId":"data-rna-structures/data-rna-structures/M2RFPK_2A3_0001.rdat#40595","trackRouteId":"annojoin:track:RMDB2PDB:pairseg_6CU1_sequence_000615","trackDataPath":"ANNOCONFIDENCE/assay_numeric_usability_annotation.tsv","trackSchemaId":"assay_numeric_usability_annotation","supports1d":true,"supportsTable":true,"colorPolicyId":"rmdb_reactivity_low_mid_high_v1"},{"profileId":"data-rna-structures/data-rna-structures/M2RFPK_DMS_0001.rdat#40595","trackRouteId":"annojoin:track:RMDB2PDB:pairseg_6CU1_sequence_000616","trackDataPath":"ANNOCONFIDENCE/assay_numeric_usability_annotation.tsv","trackSchemaId":"assay_numeric_usability_annotation","supports1d":true,"supportsTable":true,"colorPolicyId":"rmdb_reactivity_low_mid_high_v1"},{"profileId":"data-rna-structures/data-rna-structures/M2RFPK_2A3_0001.rdat#40598","trackRouteId":"annojoin:track:RMDB2PDB:pairseg_6CU1_sequence_000617","trackDataPath":"ANNOCONFIDENCE/assay_numeric_usability_annotation.tsv","trackSchemaId":"assay_numeric_usability_annotation","supports1d":true,"supportsTable":true,"colorPolicyId":"rmdb_reactivity_low_mid_high_v1"},{"profileId":"data-rna-structures/data-rna-structures/M2RFPK_DMS_0001.rdat#40598","trackRouteId":"annojoin:track:RMDB2PDB:pairseg_6CU1_sequence_000618","trackDataPath":"ANNOCONFIDENCE/assay_numeric_usability_annotation.tsv","trackSchemaId":"assay_numeric_usability_annotation","supports1d":true,"supportsTable":true,"colorPolicyId":"rmdb_reactivity_low_mid_high_v1"},{"profileId":"data-rna-structures/data-rna-structures/M2RFPK_2A3_0001.rdat#40381","trackRouteId":"annojoin:track:RMDB2PDB:pairseg_6CU1_sequence_000619","trackDataPath":"ANNOCONFIDENCE/assay_numeric_usability_annotation.tsv","trackSchemaId":"assay_numeric_usability_annotation","supports1d":true,"supportsTable":true,"colorPolicyId":"rmdb_reactivity_low_mid_high_v1"},{"profileId":"data-rna-structures/data-rna-structures/M2RFPK_DMS_0001.rdat#40381","trackRouteId":"annojoin:track:RMDB2PDB:pairseg_6CU1_sequence_000620","trackDataPath":"ANNOCONFIDENCE/assay_numeric_usability_annotation.tsv","trackSchemaId":"assay_numeric_usability_annotation","supports1d":true,"supportsTable":true,"colorPolicyId":"rmdb_reactivity_low_mid_high_v1"},{"profileId":"data-rna-structures/data-rna-structures/M2RFPK_2A3_0001.rdat#40383","trackRouteId":"annojoin:track:RMDB2PDB:pairseg_6CU1_sequence_000621","trackDataPath":"ANNOCONFIDENCE/assay_numeric_usability_annotation.tsv","trackSchemaId":"assay_numeric_usability_annotation","supports1d":true,"supportsTable":true,"colorPolicyId":"rmdb_reactivity_low_mid_high_v1"},{"profileId":"data-rna-structures/data-rna-structures/M2RFPK_DMS_0001.rdat#40383","trackRouteId":"annojoin:track:RMDB2PDB:pairseg_6CU1_sequence_000622","trackDataPath":"ANNOCONFIDENCE/assay_numeric_usability_annotation.tsv","trackSchemaId":"assay_numeric_usability_annotation","supports1d":true,"supportsTable":true,"colorPolicyId":"rmdb_reactivity_low_mid_high_v1"},{"profileId":"data-rna-structures/data-rna-structures/M2RFPK_2A3_0001.rdat#40384","trackRouteId":"annojoin:track:RMDB2PDB:pairseg_6CU1_sequence_000623","trackDataPath":"ANNOCONFIDENCE/assay_numeric_usability_annotation.tsv","trackSchemaId":"assay_numeric_usability_annotation","supports1d":true,"supportsTable":true,"colorPolicyId":"rmdb_reactivity_low_mid_high_v1"},{"profileId":"data-rna-structures/data-rna-structures/M2RFPK_DMS_0001.rdat#40384","trackRouteId":"annojoin:track:RMDB2PDB:pairseg_6CU1_sequence_000624","trackDataPath":"ANNOCONFIDENCE/assay_numeric_usability_annotation.tsv","trackSchemaId":"assay_numeric_usability_annotation","supports1d":true,"supportsTable":true,"colorPolicyId":"rmdb_reactivity_low_mid_high_v1"},{"profileId":"data-rna-structures/data-rna-structures/M2RFPK_2A3_0001.rdat#40599","trackRouteId":"annojoin:track:RMDB2PDB:pairseg_6CU1_sequence_000625","trackDataPath":"ANNOCONFIDENCE/assay_numeric_usability_annotation.tsv","trackSchemaId":"assay_numeric_usability_annotation","supports1d":true,"supportsTable":true,"colorPolicyId":"rmdb_reactivity_low_mid_high_v1"},{"profileId":"data-rna-structures/data-rna-structures/M2RFPK_DMS_0001.rdat#40599","trackRouteId":"annojoin:track:RMDB2PDB:pairseg_6CU1_sequence_000626","trackDataPath":"ANNOCONFIDENCE/assay_numeric_usability_annotation.tsv","trackSchemaId":"assay_numeric_usability_annotation","supports1d":true,"supportsTable":true,"colorPolicyId":"rmdb_reactivity_low_mid_high_v1"}]}
