{"schemaVersion":"annojoin-atlas.v1","version":"V2.1_RMDB_LINE_A_20260617","atlasCaseKey":"RMDB2PDB:7ANE","caseId":"7ANE","routeKey":"track-routes","page":3,"pageSize":500,"totalRows":1039,"pageCount":3,"rows":[{"profileId":"data-eterna/data-eterna/OK1LIB_DMS_0000.rdat#1481","trackRouteId":"annojoin:track:RMDB2PDB:pairseg_7ANE_sequence_003955","trackDataPath":"ANNOCONFIDENCE/assay_numeric_usability_annotation.tsv","trackSchemaId":"assay_numeric_usability_annotation","supports1d":true,"supportsTable":true,"colorPolicyId":"rmdb_reactivity_low_mid_high_v1"},{"profileId":"data-eterna/data-eterna/OK1LIB_2A3_0000.rdat#1481","trackRouteId":"annojoin:track:RMDB2PDB:pairseg_7ANE_sequence_003956","trackDataPath":"ANNOCONFIDENCE/assay_numeric_usability_annotation.tsv","trackSchemaId":"assay_numeric_usability_annotation","supports1d":true,"supportsTable":true,"colorPolicyId":"rmdb_reactivity_low_mid_high_v1"},{"profileId":"data-eterna/data-eterna/OK2TST_DMS_0000.rdat#121627","trackRouteId":"annojoin:track:RMDB2PDB:pairseg_7ANE_sequence_003957","trackDataPath":"ANNOCONFIDENCE/assay_numeric_usability_annotation.tsv","trackSchemaId":"assay_numeric_usability_annotation","supports1d":true,"supportsTable":true,"colorPolicyId":"rmdb_reactivity_low_mid_high_v1"},{"profileId":"data-eterna/data-eterna/OK2TST_2A3_0000.rdat#121627","trackRouteId":"annojoin:track:RMDB2PDB:pairseg_7ANE_sequence_003958","trackDataPath":"ANNOCONFIDENCE/assay_numeric_usability_annotation.tsv","trackSchemaId":"assay_numeric_usability_annotation","supports1d":true,"supportsTable":true,"colorPolicyId":"rmdb_reactivity_low_mid_high_v1"},{"profileId":"data-eterna/data-eterna/OK2TRN_2A3_0000.rdat#116913","trackRouteId":"annojoin:track:RMDB2PDB:pairseg_7ANE_sequence_003961","trackDataPath":"ANNOCONFIDENCE/assay_numeric_usability_annotation.tsv","trackSchemaId":"assay_numeric_usability_annotation","supports1d":true,"supportsTable":true,"colorPolicyId":"rmdb_reactivity_low_mid_high_v1"},{"profileId":"data-eterna/data-eterna/OK2TRN_DMS_0000.rdat#116913","trackRouteId":"annojoin:track:RMDB2PDB:pairseg_7ANE_sequence_003962","trackDataPath":"ANNOCONFIDENCE/assay_numeric_usability_annotation.tsv","trackSchemaId":"assay_numeric_usability_annotation","supports1d":true,"supportsTable":true,"colorPolicyId":"rmdb_reactivity_low_mid_high_v1"},{"profileId":"data-rna-structures/data-rna-structures/RFMREP_2A3_0001.rdat#12284","trackRouteId":"annojoin:track:RMDB2PDB:pairseg_7ANE_sequence_003963","trackDataPath":"ANNOCONFIDENCE/assay_numeric_usability_annotation.tsv","trackSchemaId":"assay_numeric_usability_annotation","supports1d":true,"supportsTable":true,"colorPolicyId":"rmdb_reactivity_low_mid_high_v1"},{"profileId":"data-rna-structures/data-rna-structures/RFMREP_2A3_0001.rdat#12282","trackRouteId":"annojoin:track:RMDB2PDB:pairseg_7ANE_sequence_003965","trackDataPath":"ANNOCONFIDENCE/assay_numeric_usability_annotation.tsv","trackSchemaId":"assay_numeric_usability_annotation","supports1d":true,"supportsTable":true,"colorPolicyId":"rmdb_reactivity_low_mid_high_v1"},{"profileId":"data-rna-structures/data-rna-structures/RFM100_2A3_0000.rdat#26508","trackRouteId":"annojoin:track:RMDB2PDB:pairseg_7ANE_sequence_003969","trackDataPath":"ANNOCONFIDENCE/assay_numeric_usability_annotation.tsv","trackSchemaId":"assay_numeric_usability_annotation","supports1d":true,"supportsTable":true,"colorPolicyId":"rmdb_reactivity_low_mid_high_v1"},{"profileId":"data-rna-structures/data-rna-structures/RFM100_DMS_0000.rdat#26508","trackRouteId":"annojoin:track:RMDB2PDB:pairseg_7ANE_sequence_003970","trackDataPath":"ANNOCONFIDENCE/assay_numeric_usability_annotation.tsv","trackSchemaId":"assay_numeric_usability_annotation","supports1d":true,"supportsTable":true,"colorPolicyId":"rmdb_reactivity_low_mid_high_v1"},{"profileId":"data-rna-structures/data-rna-structures/RFMREP_2A3_0000.rdat#47435","trackRouteId":"annojoin:track:RMDB2PDB:pairseg_7ANE_sequence_003973","trackDataPath":"ANNOCONFIDENCE/assay_numeric_usability_annotation.tsv","trackSchemaId":"assay_numeric_usability_annotation","supports1d":true,"supportsTable":true,"colorPolicyId":"rmdb_reactivity_low_mid_high_v1"},{"profileId":"data-rna-structures/data-rna-structures/RFMREP_DMS_0000.rdat#47435","trackRouteId":"annojoin:track:RMDB2PDB:pairseg_7ANE_sequence_003974","trackDataPath":"ANNOCONFIDENCE/assay_numeric_usability_annotation.tsv","trackSchemaId":"assay_numeric_usability_annotation","supports1d":true,"supportsTable":true,"colorPolicyId":"rmdb_reactivity_low_mid_high_v1"},{"profileId":"data-eterna/data-eterna/ETERNA_R83_0002.rdat#262","trackRouteId":"annojoin:track:RMDB2PDB:pairseg_7ANE_sequence_003987","trackDataPath":"ANNOCONFIDENCE/assay_numeric_usability_annotation.tsv","trackSchemaId":"assay_numeric_usability_annotation","supports1d":true,"supportsTable":true,"colorPolicyId":"rmdb_reactivity_low_mid_high_v1"},{"profileId":"data-eterna/data-eterna/ETERNA_R83_0003.rdat#271","trackRouteId":"annojoin:track:RMDB2PDB:pairseg_7ANE_sequence_003988","trackDataPath":"ANNOCONFIDENCE/assay_numeric_usability_annotation.tsv","trackSchemaId":"assay_numeric_usability_annotation","supports1d":true,"supportsTable":true,"colorPolicyId":"rmdb_reactivity_low_mid_high_v1"},{"profileId":"data-eterna/data-eterna/ETERNA_R83_0002.rdat#709","trackRouteId":"annojoin:track:RMDB2PDB:pairseg_7ANE_sequence_003989","trackDataPath":"ANNOCONFIDENCE/assay_numeric_usability_annotation.tsv","trackSchemaId":"assay_numeric_usability_annotation","supports1d":true,"supportsTable":true,"colorPolicyId":"rmdb_reactivity_low_mid_high_v1"},{"profileId":"data-eterna/data-eterna/ETERNA_R83_0003.rdat#780","trackRouteId":"annojoin:track:RMDB2PDB:pairseg_7ANE_sequence_003990","trackDataPath":"ANNOCONFIDENCE/assay_numeric_usability_annotation.tsv","trackSchemaId":"assay_numeric_usability_annotation","supports1d":true,"supportsTable":true,"colorPolicyId":"rmdb_reactivity_low_mid_high_v1"},{"profileId":"data-eterna/data-eterna/ETERNA_R83_0002.rdat#267","trackRouteId":"annojoin:track:RMDB2PDB:pairseg_7ANE_sequence_003991","trackDataPath":"ANNOCONFIDENCE/assay_numeric_usability_annotation.tsv","trackSchemaId":"assay_numeric_usability_annotation","supports1d":true,"supportsTable":true,"colorPolicyId":"rmdb_reactivity_low_mid_high_v1"},{"profileId":"data-eterna/data-eterna/ETERNA_R83_0003.rdat#276","trackRouteId":"annojoin:track:RMDB2PDB:pairseg_7ANE_sequence_003992","trackDataPath":"ANNOCONFIDENCE/assay_numeric_usability_annotation.tsv","trackSchemaId":"assay_numeric_usability_annotation","supports1d":true,"supportsTable":true,"colorPolicyId":"rmdb_reactivity_low_mid_high_v1"},{"profileId":"data-eterna/data-eterna/ETERNA_R83_0003.rdat#769","trackRouteId":"annojoin:track:RMDB2PDB:pairseg_7ANE_sequence_003993","trackDataPath":"ANNOCONFIDENCE/assay_numeric_usability_annotation.tsv","trackSchemaId":"assay_numeric_usability_annotation","supports1d":true,"supportsTable":true,"colorPolicyId":"rmdb_reactivity_low_mid_high_v1"},{"profileId":"data-eterna/data-eterna/ETERNA_R83_0002.rdat#698","trackRouteId":"annojoin:track:RMDB2PDB:pairseg_7ANE_sequence_003994","trackDataPath":"ANNOCONFIDENCE/assay_numeric_usability_annotation.tsv","trackSchemaId":"assay_numeric_usability_annotation","supports1d":true,"supportsTable":true,"colorPolicyId":"rmdb_reactivity_low_mid_high_v1"},{"profileId":"data-eterna/data-eterna/ETERNA_R83_0002.rdat#703","trackRouteId":"annojoin:track:RMDB2PDB:pairseg_7ANE_sequence_003995","trackDataPath":"ANNOCONFIDENCE/assay_numeric_usability_annotation.tsv","trackSchemaId":"assay_numeric_usability_annotation","supports1d":true,"supportsTable":true,"colorPolicyId":"rmdb_reactivity_low_mid_high_v1"},{"profileId":"data-eterna/data-eterna/ETERNA_R83_0003.rdat#774","trackRouteId":"annojoin:track:RMDB2PDB:pairseg_7ANE_sequence_003996","trackDataPath":"ANNOCONFIDENCE/assay_numeric_usability_annotation.tsv","trackSchemaId":"assay_numeric_usability_annotation","supports1d":true,"supportsTable":true,"colorPolicyId":"rmdb_reactivity_low_mid_high_v1"},{"profileId":"data-eterna/data-eterna/ETERNA_R83_0002.rdat#273","trackRouteId":"annojoin:track:RMDB2PDB:pairseg_7ANE_sequence_003997","trackDataPath":"ANNOCONFIDENCE/assay_numeric_usability_annotation.tsv","trackSchemaId":"assay_numeric_usability_annotation","supports1d":true,"supportsTable":true,"colorPolicyId":"rmdb_reactivity_low_mid_high_v1"},{"profileId":"data-eterna/data-eterna/ETERNA_R83_0003.rdat#282","trackRouteId":"annojoin:track:RMDB2PDB:pairseg_7ANE_sequence_003998","trackDataPath":"ANNOCONFIDENCE/assay_numeric_usability_annotation.tsv","trackSchemaId":"assay_numeric_usability_annotation","supports1d":true,"supportsTable":true,"colorPolicyId":"rmdb_reactivity_low_mid_high_v1"},{"profileId":"data-eterna/data-eterna/ETERNA_R83_0003.rdat#767","trackRouteId":"annojoin:track:RMDB2PDB:pairseg_7ANE_sequence_003999","trackDataPath":"ANNOCONFIDENCE/assay_numeric_usability_annotation.tsv","trackSchemaId":"assay_numeric_usability_annotation","supports1d":true,"supportsTable":true,"colorPolicyId":"rmdb_reactivity_low_mid_high_v1"},{"profileId":"data-eterna/data-eterna/ETERNA_R83_0002.rdat#696","trackRouteId":"annojoin:track:RMDB2PDB:pairseg_7ANE_sequence_004000","trackDataPath":"ANNOCONFIDENCE/assay_numeric_usability_annotation.tsv","trackSchemaId":"assay_numeric_usability_annotation","supports1d":true,"supportsTable":true,"colorPolicyId":"rmdb_reactivity_low_mid_high_v1"},{"profileId":"data-eterna/data-eterna/ETERNA_R83_0002.rdat#260","trackRouteId":"annojoin:track:RMDB2PDB:pairseg_7ANE_sequence_004001","trackDataPath":"ANNOCONFIDENCE/assay_numeric_usability_annotation.tsv","trackSchemaId":"assay_numeric_usability_annotation","supports1d":true,"supportsTable":true,"colorPolicyId":"rmdb_reactivity_low_mid_high_v1"},{"profileId":"data-eterna/data-eterna/ETERNA_R83_0003.rdat#269","trackRouteId":"annojoin:track:RMDB2PDB:pairseg_7ANE_sequence_004002","trackDataPath":"ANNOCONFIDENCE/assay_numeric_usability_annotation.tsv","trackSchemaId":"assay_numeric_usability_annotation","supports1d":true,"supportsTable":true,"colorPolicyId":"rmdb_reactivity_low_mid_high_v1"},{"profileId":"data-eterna/data-eterna/OK2TRN_DMS_0000.rdat#115923","trackRouteId":"annojoin:track:RMDB2PDB:pairseg_7ANE_sequence_004007","trackDataPath":"ANNOCONFIDENCE/assay_numeric_usability_annotation.tsv","trackSchemaId":"assay_numeric_usability_annotation","supports1d":true,"supportsTable":true,"colorPolicyId":"rmdb_reactivity_low_mid_high_v1"},{"profileId":"data-eterna/data-eterna/OK2TRN_2A3_0000.rdat#115923","trackRouteId":"annojoin:track:RMDB2PDB:pairseg_7ANE_sequence_004008","trackDataPath":"ANNOCONFIDENCE/assay_numeric_usability_annotation.tsv","trackSchemaId":"assay_numeric_usability_annotation","supports1d":true,"supportsTable":true,"colorPolicyId":"rmdb_reactivity_low_mid_high_v1"},{"profileId":"data-eterna/data-eterna/ETERNA_R83_0003.rdat#279","trackRouteId":"annojoin:track:RMDB2PDB:pairseg_7ANE_sequence_004009","trackDataPath":"ANNOCONFIDENCE/assay_numeric_usability_annotation.tsv","trackSchemaId":"assay_numeric_usability_annotation","supports1d":true,"supportsTable":true,"colorPolicyId":"rmdb_reactivity_low_mid_high_v1"},{"profileId":"data-eterna/data-eterna/ETERNA_R83_0002.rdat#270","trackRouteId":"annojoin:track:RMDB2PDB:pairseg_7ANE_sequence_004010","trackDataPath":"ANNOCONFIDENCE/assay_numeric_usability_annotation.tsv","trackSchemaId":"assay_numeric_usability_annotation","supports1d":true,"supportsTable":true,"colorPolicyId":"rmdb_reactivity_low_mid_high_v1"},{"profileId":"data-eterna/data-eterna/ETERNA_R83_0002.rdat#706","trackRouteId":"annojoin:track:RMDB2PDB:pairseg_7ANE_sequence_004011","trackDataPath":"ANNOCONFIDENCE/assay_numeric_usability_annotation.tsv","trackSchemaId":"assay_numeric_usability_annotation","supports1d":true,"supportsTable":true,"colorPolicyId":"rmdb_reactivity_low_mid_high_v1"},{"profileId":"data-eterna/data-eterna/ETERNA_R83_0003.rdat#777","trackRouteId":"annojoin:track:RMDB2PDB:pairseg_7ANE_sequence_004012","trackDataPath":"ANNOCONFIDENCE/assay_numeric_usability_annotation.tsv","trackSchemaId":"assay_numeric_usability_annotation","supports1d":true,"supportsTable":true,"colorPolicyId":"rmdb_reactivity_low_mid_high_v1"},{"profileId":"data-eterna/data-eterna/ETERNA_R71_0000.rdat#1351","trackRouteId":"annojoin:track:RMDB2PDB:pairseg_7ANE_sequence_004013","trackDataPath":"ANNOCONFIDENCE/assay_numeric_usability_annotation.tsv","trackSchemaId":"assay_numeric_usability_annotation","supports1d":true,"supportsTable":true,"colorPolicyId":"rmdb_reactivity_low_mid_high_v1"},{"profileId":"data-eterna/data-eterna/ETERNA_R82_0000.rdat#452","trackRouteId":"annojoin:track:RMDB2PDB:pairseg_7ANE_sequence_004022","trackDataPath":"ANNOCONFIDENCE/assay_numeric_usability_annotation.tsv","trackSchemaId":"assay_numeric_usability_annotation","supports1d":true,"supportsTable":true,"colorPolicyId":"rmdb_reactivity_low_mid_high_v1"},{"profileId":"data-eterna/data-eterna/ETERNA_R82_0001.rdat#452","trackRouteId":"annojoin:track:RMDB2PDB:pairseg_7ANE_sequence_004023","trackDataPath":"ANNOCONFIDENCE/assay_numeric_usability_annotation.tsv","trackSchemaId":"assay_numeric_usability_annotation","supports1d":true,"supportsTable":true,"colorPolicyId":"rmdb_reactivity_low_mid_high_v1"},{"profileId":"data-eterna/data-eterna/ETERNA_R82_0000.rdat#1397","trackRouteId":"annojoin:track:RMDB2PDB:pairseg_7ANE_sequence_004024","trackDataPath":"ANNOCONFIDENCE/assay_numeric_usability_annotation.tsv","trackSchemaId":"assay_numeric_usability_annotation","supports1d":true,"supportsTable":true,"colorPolicyId":"rmdb_reactivity_low_mid_high_v1"},{"profileId":"data-eterna/data-eterna/ETERNA_R82_0001.rdat#1397","trackRouteId":"annojoin:track:RMDB2PDB:pairseg_7ANE_sequence_004025","trackDataPath":"ANNOCONFIDENCE/assay_numeric_usability_annotation.tsv","trackSchemaId":"assay_numeric_usability_annotation","supports1d":true,"supportsTable":true,"colorPolicyId":"rmdb_reactivity_low_mid_high_v1"}]}
