{"schemaVersion":"annojoin-atlas.v1","version":"V2.1_RMDB_LINE_A_20260617","atlasCaseKey":"RMDB2PDB:8QO4","caseId":"8QO4","routeKey":"memberships","page":2,"pageSize":500,"totalRows":576,"pageCount":2,"rows":[{"pairId":"8QO4:sequence_000503","profileId":"rmdbv3_exact_a68fd92fc896b2a710f814e56d5bbd7fc533b7d2|top_x_279::seq_069560be78317a08|8QO4_A","routeId":"annojoin:profiles:RMDB2PDB:8QO4"},{"pairId":"8QO4:sequence_000504","profileId":"rmdbv3_exact_a68fd92fc896b2a710f814e56d5bbd7fc533b7d2|top_x_279::seq_8f833a3ba07a55b6|8QO4_A","routeId":"annojoin:profiles:RMDB2PDB:8QO4"},{"pairId":"8QO4:sequence_000505","profileId":"rmdbv3_exact_3af9dd8dc0dd8d3b67a4f0fd99b8620e8c222de0|top_x_279::seq_1cac884861749674|8QO4_A","routeId":"annojoin:profiles:RMDB2PDB:8QO4"},{"pairId":"8QO4:sequence_000506","profileId":"rmdbv3_exact_3af9dd8dc0dd8d3b67a4f0fd99b8620e8c222de0|top_x_279::seq_89523772201db109|8QO4_A","routeId":"annojoin:profiles:RMDB2PDB:8QO4"},{"pairId":"8QO4:sequence_000507","profileId":"rmdbv3_exact_313dbafcf91ae724a4ea3fb95741077fefe63bc1|top_x_279::seq_1cb3cccecff5114a|8QO4_A","routeId":"annojoin:profiles:RMDB2PDB:8QO4"},{"pairId":"8QO4:sequence_000508","profileId":"rmdbv3_exact_313dbafcf91ae724a4ea3fb95741077fefe63bc1|top_x_279::seq_fabe55a9acdd39d0|8QO4_A","routeId":"annojoin:profiles:RMDB2PDB:8QO4"},{"pairId":"8QO4:sequence_000509","profileId":"rmdbv3_exact_a5587d5a18a43f3ff20586687c9b205814bfd7a3|top_x_279::seq_d0bfe4e7190516dc|8QO4_A","routeId":"annojoin:profiles:RMDB2PDB:8QO4"},{"pairId":"8QO4:sequence_000510","profileId":"rmdbv3_exact_a5587d5a18a43f3ff20586687c9b205814bfd7a3|top_x_279::seq_e4efabad73f590b3|8QO4_A","routeId":"annojoin:profiles:RMDB2PDB:8QO4"},{"pairId":"8QO4:sequence_000511","profileId":"rmdbv3_exact_ae22a995b531cd3f8978a8840d0a69a682c89f80|top_x_279::seq_1bca9c22d78079f5|8QO4_A","routeId":"annojoin:profiles:RMDB2PDB:8QO4"},{"pairId":"8QO4:sequence_000512","profileId":"rmdbv3_exact_ae22a995b531cd3f8978a8840d0a69a682c89f80|top_x_279::seq_1f392fb30d132b88|8QO4_A","routeId":"annojoin:profiles:RMDB2PDB:8QO4"},{"pairId":"8QO4:sequence_000513","profileId":"rmdbv3_exact_d928f9998f2a2a468ab1efbbbc3e2f82481bff54|top_x_279::seq_b2c12323aa96bf02|8QO4_A","routeId":"annojoin:profiles:RMDB2PDB:8QO4"},{"pairId":"8QO4:sequence_000514","profileId":"rmdbv3_exact_d928f9998f2a2a468ab1efbbbc3e2f82481bff54|top_x_279::seq_b7fc78d85e7e44ab|8QO4_A","routeId":"annojoin:profiles:RMDB2PDB:8QO4"},{"pairId":"8QO4:sequence_000515","profileId":"rmdbv3_exact_d928f9998f2a2a468ab1efbbbc3e2f82481bff54|top_x_279::seq_c0c469ad84c95939|8QO4_A","routeId":"annojoin:profiles:RMDB2PDB:8QO4"},{"pairId":"8QO4:sequence_000516","profileId":"rmdbv3_exact_d928f9998f2a2a468ab1efbbbc3e2f82481bff54|top_x_279::seq_e92171f307ea900d|8QO4_A","routeId":"annojoin:profiles:RMDB2PDB:8QO4"},{"pairId":"8QO4:sequence_000517","profileId":"rmdbv3_exact_1f2182a910f98f02113d9aa7c092262936a3117b|top_x_279::seq_104e0db6d62d4cfa|8QO4_A","routeId":"annojoin:profiles:RMDB2PDB:8QO4"},{"pairId":"8QO4:sequence_000518","profileId":"rmdbv3_exact_1f2182a910f98f02113d9aa7c092262936a3117b|top_x_279::seq_74fcc2a734af9044|8QO4_A","routeId":"annojoin:profiles:RMDB2PDB:8QO4"},{"pairId":"8QO4:sequence_000519","profileId":"rmdbv3_exact_2a35d45f036151e11600576116b2be627eaf3636|top_x_279::seq_233c178db424f37e|8QO4_A","routeId":"annojoin:profiles:RMDB2PDB:8QO4"},{"pairId":"8QO4:sequence_000520","profileId":"rmdbv3_exact_2a35d45f036151e11600576116b2be627eaf3636|top_x_279::seq_d90a0ef6cb8cd5df|8QO4_A","routeId":"annojoin:profiles:RMDB2PDB:8QO4"},{"pairId":"8QO4:sequence_000521","profileId":"rmdbv3_exact_76cb7990fbb7c32cfede9f2df628c8b75049e3de|top_x_279::seq_05b93e5edc40c551|8QO4_A","routeId":"annojoin:profiles:RMDB2PDB:8QO4"},{"pairId":"8QO4:sequence_000522","profileId":"rmdbv3_exact_76cb7990fbb7c32cfede9f2df628c8b75049e3de|top_x_279::seq_9c6f46ab8dfd135a|8QO4_A","routeId":"annojoin:profiles:RMDB2PDB:8QO4"},{"pairId":"8QO4:sequence_000523","profileId":"rmdbv3_exact_7bb14e7c939b56ee2214f1b0f220b2ff96832f36|top_x_279::seq_3ed23c7e6dcbda17|8QO4_A","routeId":"annojoin:profiles:RMDB2PDB:8QO4"},{"pairId":"8QO4:sequence_000524","profileId":"rmdbv3_exact_7bb14e7c939b56ee2214f1b0f220b2ff96832f36|top_x_279::seq_fdff95167f205347|8QO4_A","routeId":"annojoin:profiles:RMDB2PDB:8QO4"},{"pairId":"8QO4:sequence_000525","profileId":"rmdbv3_exact_820ab744ce2931ab8a44d2aff4adb1704920e24d|top_x_279::seq_af0deab6c20258e0|8QO4_A","routeId":"annojoin:profiles:RMDB2PDB:8QO4"},{"pairId":"8QO4:sequence_000526","profileId":"rmdbv3_exact_820ab744ce2931ab8a44d2aff4adb1704920e24d|top_x_279::seq_f41d92beee02b0f4|8QO4_A","routeId":"annojoin:profiles:RMDB2PDB:8QO4"},{"pairId":"8QO4:sequence_000527","profileId":"rmdbv3_exact_9a190a92f961bd43ce8a753491bc8bbe9540536b|top_x_279::seq_4e9e8d16b8030162|8QO4_A","routeId":"annojoin:profiles:RMDB2PDB:8QO4"},{"pairId":"8QO4:sequence_000528","profileId":"rmdbv3_exact_9a190a92f961bd43ce8a753491bc8bbe9540536b|top_x_279::seq_8064e7cc19993170|8QO4_A","routeId":"annojoin:profiles:RMDB2PDB:8QO4"},{"pairId":"8QO4:sequence_000529","profileId":"rmdbv3_exact_ab6eab43b122a39d44268b34787db8323dcbb826|top_x_279::seq_9adf46900ec0c0d6|8QO4_A","routeId":"annojoin:profiles:RMDB2PDB:8QO4"},{"pairId":"8QO4:sequence_000530","profileId":"rmdbv3_exact_ab6eab43b122a39d44268b34787db8323dcbb826|top_x_279::seq_fc796e7b76e92ebe|8QO4_A","routeId":"annojoin:profiles:RMDB2PDB:8QO4"},{"pairId":"8QO4:sequence_000531","profileId":"rmdbv3_exact_b444838602fc3824872b2a56ebcd78ba6f3372db|top_x_279::seq_5dd0c27655d93b7e|8QO4_A","routeId":"annojoin:profiles:RMDB2PDB:8QO4"},{"pairId":"8QO4:sequence_000532","profileId":"rmdbv3_exact_b444838602fc3824872b2a56ebcd78ba6f3372db|top_x_279::seq_cf43be393b84bea8|8QO4_A","routeId":"annojoin:profiles:RMDB2PDB:8QO4"},{"pairId":"8QO4:sequence_000533","profileId":"rmdbv3_exact_28de87114f12736ac6ce8e28b48c46150c9d2692|top_x_279::seq_33c7c22c64876cca|8QO4_A","routeId":"annojoin:profiles:RMDB2PDB:8QO4"},{"pairId":"8QO4:sequence_000534","profileId":"rmdbv3_exact_28de87114f12736ac6ce8e28b48c46150c9d2692|top_x_279::seq_ef9a10a77dcfbfd2|8QO4_A","routeId":"annojoin:profiles:RMDB2PDB:8QO4"},{"pairId":"8QO4:sequence_000535","profileId":"rmdbv3_exact_a9bb1c3f90dc85d1b300e563714a88ee5e9f9944|top_x_279::seq_656c89c498931c63|8QO4_A","routeId":"annojoin:profiles:RMDB2PDB:8QO4"},{"pairId":"8QO4:sequence_000536","profileId":"rmdbv3_exact_a9bb1c3f90dc85d1b300e563714a88ee5e9f9944|top_x_279::seq_9195e3c2ddc54a32|8QO4_A","routeId":"annojoin:profiles:RMDB2PDB:8QO4"},{"pairId":"8QO4:sequence_000537","profileId":"rmdbv3_exact_026b99479812689e45f3f6d1f5ebe1fee646458c|top_x_279::seq_1a97028d73335cec|8QO4_A","routeId":"annojoin:profiles:RMDB2PDB:8QO4"},{"pairId":"8QO4:sequence_000538","profileId":"rmdbv3_exact_026b99479812689e45f3f6d1f5ebe1fee646458c|top_x_279::seq_47b653943d2d274f|8QO4_A","routeId":"annojoin:profiles:RMDB2PDB:8QO4"},{"pairId":"8QO4:sequence_000539","profileId":"rmdbv3_exact_1e435f4b658f085ce39aa7a9c1689baae1e8d0d5|top_x_279::seq_5d631545b8058156|8QO4_A","routeId":"annojoin:profiles:RMDB2PDB:8QO4"},{"pairId":"8QO4:sequence_000540","profileId":"rmdbv3_exact_1e435f4b658f085ce39aa7a9c1689baae1e8d0d5|top_x_279::seq_c40056600ffc29ee|8QO4_A","routeId":"annojoin:profiles:RMDB2PDB:8QO4"},{"pairId":"8QO4:sequence_000541","profileId":"rmdbv3_exact_3d59f03cb4e601f17fd09b452c0a391c012f4138|top_x_279::seq_70eca67f02623fa0|8QO4_A","routeId":"annojoin:profiles:RMDB2PDB:8QO4"},{"pairId":"8QO4:sequence_000542","profileId":"rmdbv3_exact_3d59f03cb4e601f17fd09b452c0a391c012f4138|top_x_279::seq_c8149bab84efcfa4|8QO4_A","routeId":"annojoin:profiles:RMDB2PDB:8QO4"},{"pairId":"8QO4:sequence_000543","profileId":"rmdbv3_exact_8aedbd6220a673461be6eab54cb2a24cd9491383|top_x_279::seq_9ab070d051b27326|8QO4_A","routeId":"annojoin:profiles:RMDB2PDB:8QO4"},{"pairId":"8QO4:sequence_000544","profileId":"rmdbv3_exact_8aedbd6220a673461be6eab54cb2a24cd9491383|top_x_279::seq_b06be56edc0792b3|8QO4_A","routeId":"annojoin:profiles:RMDB2PDB:8QO4"},{"pairId":"8QO4:sequence_000545","profileId":"rmdbv3_exact_51bbd54ae768866f8f7bcc00b189a96952447333|top_x_279::seq_2ee8aae9ad66cb9c|8QO4_A","routeId":"annojoin:profiles:RMDB2PDB:8QO4"},{"pairId":"8QO4:sequence_000546","profileId":"rmdbv3_exact_51bbd54ae768866f8f7bcc00b189a96952447333|top_x_279::seq_e8932bce74b56cde|8QO4_A","routeId":"annojoin:profiles:RMDB2PDB:8QO4"},{"pairId":"8QO4:sequence_000547","profileId":"rmdbv3_exact_2244a145fa25c8706d1580ec1b3f77b8e197ed15|top_x_279::seq_316fc122ee3dd8fd|8QO4_A","routeId":"annojoin:profiles:RMDB2PDB:8QO4"},{"pairId":"8QO4:sequence_000548","profileId":"rmdbv3_exact_2244a145fa25c8706d1580ec1b3f77b8e197ed15|top_x_279::seq_d7e06dceb4120250|8QO4_A","routeId":"annojoin:profiles:RMDB2PDB:8QO4"},{"pairId":"8QO4:sequence_000549","profileId":"rmdbv3_exact_38746bf258c2ae75ccfe00a4796081fc82940c6f|top_x_279::seq_44d17cac306d55f3|8QO4_A","routeId":"annojoin:profiles:RMDB2PDB:8QO4"},{"pairId":"8QO4:sequence_000550","profileId":"rmdbv3_exact_38746bf258c2ae75ccfe00a4796081fc82940c6f|top_x_279::seq_f78d510070ff7dc1|8QO4_A","routeId":"annojoin:profiles:RMDB2PDB:8QO4"},{"pairId":"8QO4:sequence_000551","profileId":"rmdbv3_exact_6df3971b9de4f98c7c7299c8f5e3276825df4526|top_x_279::seq_b21e42487576fc27|8QO4_A","routeId":"annojoin:profiles:RMDB2PDB:8QO4"},{"pairId":"8QO4:sequence_000552","profileId":"rmdbv3_exact_6df3971b9de4f98c7c7299c8f5e3276825df4526|top_x_279::seq_d823580801713ad3|8QO4_A","routeId":"annojoin:profiles:RMDB2PDB:8QO4"},{"pairId":"8QO4:sequence_000553","profileId":"rmdbv3_exact_dc0ce18397bd7fc76fb31b370cda938a0371d76c|top_x_279::seq_4e6709edee455445|8QO4_A","routeId":"annojoin:profiles:RMDB2PDB:8QO4"},{"pairId":"8QO4:sequence_000554","profileId":"rmdbv3_exact_dc0ce18397bd7fc76fb31b370cda938a0371d76c|top_x_279::seq_7a13b0c62a79da2a|8QO4_A","routeId":"annojoin:profiles:RMDB2PDB:8QO4"},{"pairId":"8QO4:sequence_000555","profileId":"rmdbv3_exact_9705beb91169aac0c62fd224d5aa7e3ce6ef698c|top_x_279::seq_6190d9b9201a1c05|8QO4_A","routeId":"annojoin:profiles:RMDB2PDB:8QO4"},{"pairId":"8QO4:sequence_000556","profileId":"rmdbv3_exact_9705beb91169aac0c62fd224d5aa7e3ce6ef698c|top_x_279::seq_c8afcd478f71dc38|8QO4_A","routeId":"annojoin:profiles:RMDB2PDB:8QO4"},{"pairId":"8QO4:sequence_000557","profileId":"rmdbv3_exact_8e31e4914c60600f4a3f72b066ca5d8cec7f4891|top_x_279::seq_4b5294fdb3a5ba66|8QO4_A","routeId":"annojoin:profiles:RMDB2PDB:8QO4"},{"pairId":"8QO4:sequence_000558","profileId":"rmdbv3_exact_8e31e4914c60600f4a3f72b066ca5d8cec7f4891|top_x_279::seq_b60cfd52dcdeb23a|8QO4_A","routeId":"annojoin:profiles:RMDB2PDB:8QO4"},{"pairId":"8QO4:sequence_000559","profileId":"rmdbv3_exact_43db80da8ee7ac10a26dbc2a52a978e5af60c836|top_x_279::seq_ba5253ad8318d89a|8QO4_A","routeId":"annojoin:profiles:RMDB2PDB:8QO4"},{"pairId":"8QO4:sequence_000560","profileId":"rmdbv3_exact_43db80da8ee7ac10a26dbc2a52a978e5af60c836|top_x_279::seq_c301a0751461761f|8QO4_A","routeId":"annojoin:profiles:RMDB2PDB:8QO4"},{"pairId":"8QO4:sequence_000561","profileId":"rmdbv3_exact_ac819406e42747d99d5817c61b7c4054d3df9c9f|top_x_279::seq_2d6f9a2fd273fc4e|8QO4_A","routeId":"annojoin:profiles:RMDB2PDB:8QO4"},{"pairId":"8QO4:sequence_000562","profileId":"rmdbv3_exact_ac819406e42747d99d5817c61b7c4054d3df9c9f|top_x_279::seq_8c767b8a44e00579|8QO4_A","routeId":"annojoin:profiles:RMDB2PDB:8QO4"},{"pairId":"8QO4:sequence_000563","profileId":"rmdbv3_exact_c126aa5f441a7281726fc61d93bd74ffe6e31c49|top_x_279::seq_3a7fe068ae364bbf|8QO4_A","routeId":"annojoin:profiles:RMDB2PDB:8QO4"},{"pairId":"8QO4:sequence_000564","profileId":"rmdbv3_exact_c126aa5f441a7281726fc61d93bd74ffe6e31c49|top_x_279::seq_70d181f95e7c2998|8QO4_A","routeId":"annojoin:profiles:RMDB2PDB:8QO4"},{"pairId":"8QO4:sequence_000565","profileId":"rmdbv3_exact_cdec3e3c9637b5203ad2c29c7e209eaee730bf65|top_x_279::seq_08708c07f2fd82f5|8QO4_A","routeId":"annojoin:profiles:RMDB2PDB:8QO4"},{"pairId":"8QO4:sequence_000566","profileId":"rmdbv3_exact_cdec3e3c9637b5203ad2c29c7e209eaee730bf65|top_x_279::seq_0ee44b47d3bd8dab|8QO4_A","routeId":"annojoin:profiles:RMDB2PDB:8QO4"},{"pairId":"8QO4:sequence_000567","profileId":"rmdbv3_exact_cdec3e3c9637b5203ad2c29c7e209eaee730bf65|top_x_279::seq_188c9e9bca072d4a|8QO4_A","routeId":"annojoin:profiles:RMDB2PDB:8QO4"},{"pairId":"8QO4:sequence_000568","profileId":"rmdbv3_exact_cdec3e3c9637b5203ad2c29c7e209eaee730bf65|top_x_279::seq_a4f1effa50b8a54f|8QO4_A","routeId":"annojoin:profiles:RMDB2PDB:8QO4"},{"pairId":"8QO4:sequence_000569","profileId":"rmdbv3_exact_8a219324b4bb32def863b7aafa048373ec1b06bf|top_x_279::seq_a61f86569c57aaab|8QO4_A","routeId":"annojoin:profiles:RMDB2PDB:8QO4"},{"pairId":"8QO4:sequence_000570","profileId":"rmdbv3_exact_8a219324b4bb32def863b7aafa048373ec1b06bf|top_x_279::seq_dbe13ab708e88958|8QO4_A","routeId":"annojoin:profiles:RMDB2PDB:8QO4"},{"pairId":"8QO4:sequence_000571","profileId":"rmdbv3_exact_199b40e8dd59d9cf2223ceb3ac9f5268465f4f75|top_x_279::seq_3f676da2737b978e|8QO4_A","routeId":"annojoin:profiles:RMDB2PDB:8QO4"},{"pairId":"8QO4:sequence_000572","profileId":"rmdbv3_exact_199b40e8dd59d9cf2223ceb3ac9f5268465f4f75|top_x_279::seq_be1c58b15193797e|8QO4_A","routeId":"annojoin:profiles:RMDB2PDB:8QO4"},{"pairId":"8QO4:sequence_000573","profileId":"rmdbv3_exact_95a959b21dde12ad98d5e1c6319079beb8c86f97|top_x_279::seq_689b27f6f8ab0c9a|8QO4_A","routeId":"annojoin:profiles:RMDB2PDB:8QO4"},{"pairId":"8QO4:sequence_000574","profileId":"rmdbv3_exact_95a959b21dde12ad98d5e1c6319079beb8c86f97|top_x_279::seq_9563279fe7748d5a|8QO4_A","routeId":"annojoin:profiles:RMDB2PDB:8QO4"},{"pairId":"8QO4:sequence_000575","profileId":"rmdbv3_exact_a8659922dc2704a5f5f07c5acf71b7e6304b7246|top_x_279::seq_14038e6f40247bdb|8QO4_A","routeId":"annojoin:profiles:RMDB2PDB:8QO4"},{"pairId":"8QO4:sequence_000576","profileId":"rmdbv3_exact_a8659922dc2704a5f5f07c5acf71b7e6304b7246|top_x_279::seq_8a8ee27bd8bf3bcc|8QO4_A","routeId":"annojoin:profiles:RMDB2PDB:8QO4"},{"pairId":"8QO4:sequence_000577","profileId":"rmdbv3_exact_77c19eecf722b761e7cc70d8de42f557ae1b5843|top_x_279::seq_3db93b6681904606|8QO4_A","routeId":"annojoin:profiles:RMDB2PDB:8QO4"},{"pairId":"8QO4:sequence_000578","profileId":"rmdbv3_exact_77c19eecf722b761e7cc70d8de42f557ae1b5843|top_x_279::seq_9e66b90eaec23ef7|8QO4_A","routeId":"annojoin:profiles:RMDB2PDB:8QO4"}]}
