{"schemaVersion":"annojoin-atlas.v1","version":"V2.1_RMDB_LINE_A_20260617","atlasCaseKey":"RMDB2PDB:8P60","caseId":"8P60","routeKey":"memberships","page":2,"pageSize":500,"totalRows":583,"pageCount":2,"rows":[{"pairId":"8P60:sequence_000542","profileId":"rmdbv3_exact_07a4f681a50d3b46c65b2d12992fec44d37b5fc9|top_x_279::seq_4a0388451bb3d39d|8P60_S60","routeId":"annojoin:profiles:RMDB2PDB:8P60"},{"pairId":"8P60:sequence_000543","profileId":"rmdbv3_exact_4fc64b13b1752077f1cfb9ea6d1e6cf0363653f4|top_x_279::seq_1809c567309938a8|8P60_S60","routeId":"annojoin:profiles:RMDB2PDB:8P60"},{"pairId":"8P60:sequence_000544","profileId":"rmdbv3_exact_4fc64b13b1752077f1cfb9ea6d1e6cf0363653f4|top_x_279::seq_55cbcfb4527ccad6|8P60_S60","routeId":"annojoin:profiles:RMDB2PDB:8P60"},{"pairId":"8P60:sequence_000545","profileId":"rmdbv3_exact_4fc64b13b1752077f1cfb9ea6d1e6cf0363653f4|top_x_279::seq_62ee3f5a9ac0a4ca|8P60_S60","routeId":"annojoin:profiles:RMDB2PDB:8P60"},{"pairId":"8P60:sequence_000546","profileId":"rmdbv3_exact_4fc64b13b1752077f1cfb9ea6d1e6cf0363653f4|top_x_279::seq_6a3e88b5f2b42270|8P60_S60","routeId":"annojoin:profiles:RMDB2PDB:8P60"},{"pairId":"8P60:sequence_000547","profileId":"rmdbv3_exact_b0654e619455bbc1d87e9bd0353f31f94b59acd6|top_x_279::seq_646751cff16ce8d0|8P60_S60","routeId":"annojoin:profiles:RMDB2PDB:8P60"},{"pairId":"8P60:sequence_000548","profileId":"rmdbv3_exact_b0654e619455bbc1d87e9bd0353f31f94b59acd6|top_x_279::seq_77e0316eeccee68b|8P60_S60","routeId":"annojoin:profiles:RMDB2PDB:8P60"},{"pairId":"8P60:sequence_000549","profileId":"rmdbv3_exact_b0654e619455bbc1d87e9bd0353f31f94b59acd6|top_x_279::seq_ba1f87d5b41a5dc0|8P60_S60","routeId":"annojoin:profiles:RMDB2PDB:8P60"},{"pairId":"8P60:sequence_000550","profileId":"rmdbv3_exact_b0654e619455bbc1d87e9bd0353f31f94b59acd6|top_x_279::seq_f17debe3e6d82b30|8P60_S60","routeId":"annojoin:profiles:RMDB2PDB:8P60"},{"pairId":"8P60:sequence_000553","profileId":"rmdbv3_exact_54d9667bc729dd5ada05f0a8e6b315701588074b|top_x_279::seq_2eb81f54721c9c35|8P60_S60","routeId":"annojoin:profiles:RMDB2PDB:8P60"},{"pairId":"8P60:sequence_000554","profileId":"rmdbv3_exact_54d9667bc729dd5ada05f0a8e6b315701588074b|top_x_279::seq_77e547c240afd7f9|8P60_S60","routeId":"annojoin:profiles:RMDB2PDB:8P60"},{"pairId":"8P60:sequence_000555","profileId":"rmdbv3_exact_5f9e516f99c4a09ebbc3d2a41caf683117cbb2f0|top_x_279::seq_06fb2fb1ad1270f7|8P60_S60","routeId":"annojoin:profiles:RMDB2PDB:8P60"},{"pairId":"8P60:sequence_000556","profileId":"rmdbv3_exact_5f9e516f99c4a09ebbc3d2a41caf683117cbb2f0|top_x_279::seq_7ccd56490bff0086|8P60_S60","routeId":"annojoin:profiles:RMDB2PDB:8P60"},{"pairId":"8P60:sequence_000557","profileId":"rmdbv3_exact_a00ebe4c5f559a2c4697638fd9a6eae448fea482|top_x_279::seq_38413c22841446ea|8P60_S60","routeId":"annojoin:profiles:RMDB2PDB:8P60"},{"pairId":"8P60:sequence_000558","profileId":"rmdbv3_exact_a00ebe4c5f559a2c4697638fd9a6eae448fea482|top_x_279::seq_9ce10ff3a3cd6165|8P60_S60","routeId":"annojoin:profiles:RMDB2PDB:8P60"},{"pairId":"8P60:sequence_000559","profileId":"rmdbv3_exact_ac7d4e3ea738e81d0be5ae8543919a445303c47e|top_x_279::seq_150e9f0477ae58d9|8P60_S60","routeId":"annojoin:profiles:RMDB2PDB:8P60"},{"pairId":"8P60:sequence_000560","profileId":"rmdbv3_exact_ac7d4e3ea738e81d0be5ae8543919a445303c47e|top_x_279::seq_365ff52fcef29afc|8P60_S60","routeId":"annojoin:profiles:RMDB2PDB:8P60"},{"pairId":"8P60:sequence_000561","profileId":"rmdbv3_exact_e735dd4eb0096a88d28d87d0e6ab9287aa1e0931|top_x_279::seq_282f0c64da2b6eaa|8P60_S60","routeId":"annojoin:profiles:RMDB2PDB:8P60"},{"pairId":"8P60:sequence_000562","profileId":"rmdbv3_exact_e735dd4eb0096a88d28d87d0e6ab9287aa1e0931|top_x_279::seq_95203c97ec53396a|8P60_S60","routeId":"annojoin:profiles:RMDB2PDB:8P60"},{"pairId":"8P60:sequence_000563","profileId":"rmdbv3_exact_77c9170e052ed16f25d25cfe9ecd5f238b80a356|top_x_279::seq_33990d31ef5c9371|8P60_S60","routeId":"annojoin:profiles:RMDB2PDB:8P60"},{"pairId":"8P60:sequence_000564","profileId":"rmdbv3_exact_77c9170e052ed16f25d25cfe9ecd5f238b80a356|top_x_279::seq_dbad2b040aff640c|8P60_S60","routeId":"annojoin:profiles:RMDB2PDB:8P60"},{"pairId":"8P60:sequence_000565","profileId":"rmdbv3_exact_77c9170e052ed16f25d25cfe9ecd5f238b80a356|top_x_279::seq_eec716ce65cfae46|8P60_S60","routeId":"annojoin:profiles:RMDB2PDB:8P60"},{"pairId":"8P60:sequence_000566","profileId":"rmdbv3_exact_77c9170e052ed16f25d25cfe9ecd5f238b80a356|top_x_279::seq_fecc55f980427c0e|8P60_S60","routeId":"annojoin:profiles:RMDB2PDB:8P60"},{"pairId":"8P60:sequence_000567","profileId":"rmdbv3_exact_16910abd9d971aa4e4630ad1b41e696bab3e2e29|top_x_279::seq_11716308de796262|8P60_S60","routeId":"annojoin:profiles:RMDB2PDB:8P60"},{"pairId":"8P60:sequence_000568","profileId":"rmdbv3_exact_16910abd9d971aa4e4630ad1b41e696bab3e2e29|top_x_279::seq_5c0e9fa2c58cee9d|8P60_S60","routeId":"annojoin:profiles:RMDB2PDB:8P60"},{"pairId":"8P60:sequence_000569","profileId":"rmdbv3_exact_16910abd9d971aa4e4630ad1b41e696bab3e2e29|top_x_279::seq_704929b2d7082851|8P60_S60","routeId":"annojoin:profiles:RMDB2PDB:8P60"},{"pairId":"8P60:sequence_000570","profileId":"rmdbv3_exact_16910abd9d971aa4e4630ad1b41e696bab3e2e29|top_x_279::seq_cd802f647f05911f|8P60_S60","routeId":"annojoin:profiles:RMDB2PDB:8P60"},{"pairId":"8P60:sequence_000571","profileId":"rmdbv3_exact_a8e2e9d067a0a271c1f0e48e0ae115b1eb0c0d6d|top_x_279::seq_c92244e49516599d|8P60_S60","routeId":"annojoin:profiles:RMDB2PDB:8P60"},{"pairId":"8P60:sequence_000572","profileId":"rmdbv3_exact_a8e2e9d067a0a271c1f0e48e0ae115b1eb0c0d6d|top_x_279::seq_f92a0c8f00ebe636|8P60_S60","routeId":"annojoin:profiles:RMDB2PDB:8P60"},{"pairId":"8P60:sequence_000573","profileId":"rmdbv3_exact_1ec60a9778298cf692cdb735566742ad15dbae9e|top_x_279::seq_5aa4007c71f179ac|8P60_S60","routeId":"annojoin:profiles:RMDB2PDB:8P60"},{"pairId":"8P60:sequence_000574","profileId":"rmdbv3_exact_1ec60a9778298cf692cdb735566742ad15dbae9e|top_x_279::seq_c453f3c95f16e5c5|8P60_S60","routeId":"annojoin:profiles:RMDB2PDB:8P60"},{"pairId":"8P60:sequence_000575","profileId":"rmdbv3_exact_53df2627edfe180e39345f137ed62bde80556f2a|top_x_279::seq_79a8133ed73b1961|8P60_S60","routeId":"annojoin:profiles:RMDB2PDB:8P60"},{"pairId":"8P60:sequence_000576","profileId":"rmdbv3_exact_53df2627edfe180e39345f137ed62bde80556f2a|top_x_279::seq_e432194f7df05133|8P60_S60","routeId":"annojoin:profiles:RMDB2PDB:8P60"},{"pairId":"8P60:sequence_000577","profileId":"rmdbv3_exact_53df2627edfe180e39345f137ed62bde80556f2a|top_x_279::seq_e676f21b86eda3de|8P60_S60","routeId":"annojoin:profiles:RMDB2PDB:8P60"},{"pairId":"8P60:sequence_000578","profileId":"rmdbv3_exact_53df2627edfe180e39345f137ed62bde80556f2a|top_x_279::seq_ffff1c93e0c755a2|8P60_S60","routeId":"annojoin:profiles:RMDB2PDB:8P60"},{"pairId":"8P60:sequence_000579","profileId":"rmdbv3_exact_02c923f3973ad40e0c489099f0ec5aff7c494536|top_x_279::seq_9796b0cc260ff973|8P60_S60","routeId":"annojoin:profiles:RMDB2PDB:8P60"},{"pairId":"8P60:sequence_000580","profileId":"rmdbv3_exact_02c923f3973ad40e0c489099f0ec5aff7c494536|top_x_279::seq_9d0b9458d2183a96|8P60_S60","routeId":"annojoin:profiles:RMDB2PDB:8P60"},{"pairId":"8P60:sequence_000581","profileId":"rmdbv3_exact_02c923f3973ad40e0c489099f0ec5aff7c494536|top_x_279::seq_ddcf1f8c2e7ad340|8P60_S60","routeId":"annojoin:profiles:RMDB2PDB:8P60"},{"pairId":"8P60:sequence_000582","profileId":"rmdbv3_exact_02c923f3973ad40e0c489099f0ec5aff7c494536|top_x_279::seq_df621be22cfc7d8b|8P60_S60","routeId":"annojoin:profiles:RMDB2PDB:8P60"},{"pairId":"8P60:sequence_000583","profileId":"rmdbv3_exact_0babf48458f938926f310ff0890532885c213fd1|top_x_279::seq_5919e841347eda11|8P60_S60","routeId":"annojoin:profiles:RMDB2PDB:8P60"},{"pairId":"8P60:sequence_000584","profileId":"rmdbv3_exact_0babf48458f938926f310ff0890532885c213fd1|top_x_279::seq_73f650ddaaebc7c5|8P60_S60","routeId":"annojoin:profiles:RMDB2PDB:8P60"},{"pairId":"8P60:sequence_000585","profileId":"rmdbv3_exact_1d52fcf5ee92ac8bbf3dabe8905d689cdd308537|top_x_279::seq_1d60c319f38c01ef|8P60_S60","routeId":"annojoin:profiles:RMDB2PDB:8P60"},{"pairId":"8P60:sequence_000586","profileId":"rmdbv3_exact_1d52fcf5ee92ac8bbf3dabe8905d689cdd308537|top_x_279::seq_da2608b4628ea5b6|8P60_S60","routeId":"annojoin:profiles:RMDB2PDB:8P60"},{"pairId":"8P60:sequence_000587","profileId":"rmdbv3_exact_4ebf1acbcee078ea9635eb700c67a6f275c72d54|top_x_279::seq_4122f0f233a99cbb|8P60_S60","routeId":"annojoin:profiles:RMDB2PDB:8P60"},{"pairId":"8P60:sequence_000588","profileId":"rmdbv3_exact_4ebf1acbcee078ea9635eb700c67a6f275c72d54|top_x_279::seq_62334b80d66be617|8P60_S60","routeId":"annojoin:profiles:RMDB2PDB:8P60"},{"pairId":"8P60:sequence_000589","profileId":"rmdbv3_exact_4ebf1acbcee078ea9635eb700c67a6f275c72d54|top_x_279::seq_63e17932f3c3e4a7|8P60_S60","routeId":"annojoin:profiles:RMDB2PDB:8P60"},{"pairId":"8P60:sequence_000590","profileId":"rmdbv3_exact_4ebf1acbcee078ea9635eb700c67a6f275c72d54|top_x_279::seq_ac726623c7e91fae|8P60_S60","routeId":"annojoin:profiles:RMDB2PDB:8P60"},{"pairId":"8P60:sequence_000591","profileId":"rmdbv3_exact_9adc55421a0ca43e53018b8465b6932c125e955d|top_x_279::seq_af90b600ffdad1fd|8P60_S60","routeId":"annojoin:profiles:RMDB2PDB:8P60"},{"pairId":"8P60:sequence_000592","profileId":"rmdbv3_exact_9adc55421a0ca43e53018b8465b6932c125e955d|top_x_279::seq_dcf686f90722c693|8P60_S60","routeId":"annojoin:profiles:RMDB2PDB:8P60"},{"pairId":"8P60:sequence_000593","profileId":"rmdbv3_exact_dd558fed755600b323cc3edb2b0fea014211eecc|top_x_279::seq_086ec4a784aec3c7|8P60_S60","routeId":"annojoin:profiles:RMDB2PDB:8P60"},{"pairId":"8P60:sequence_000594","profileId":"rmdbv3_exact_dd558fed755600b323cc3edb2b0fea014211eecc|top_x_279::seq_3298cb410c8f6204|8P60_S60","routeId":"annojoin:profiles:RMDB2PDB:8P60"},{"pairId":"8P60:sequence_000595","profileId":"rmdbv3_exact_dd558fed755600b323cc3edb2b0fea014211eecc|top_x_279::seq_9174194ec4d50c32|8P60_S60","routeId":"annojoin:profiles:RMDB2PDB:8P60"},{"pairId":"8P60:sequence_000596","profileId":"rmdbv3_exact_dd558fed755600b323cc3edb2b0fea014211eecc|top_x_279::seq_9fd52abc2d5f12f0|8P60_S60","routeId":"annojoin:profiles:RMDB2PDB:8P60"},{"pairId":"8P60:sequence_000597","profileId":"rmdbv3_exact_1c6df37569a8dea2ca331b627469848035a68784|top_x_279::seq_0914fa2a41af402b|8P60_S60","routeId":"annojoin:profiles:RMDB2PDB:8P60"},{"pairId":"8P60:sequence_000598","profileId":"rmdbv3_exact_1c6df37569a8dea2ca331b627469848035a68784|top_x_279::seq_a5258d4aaba88aed|8P60_S60","routeId":"annojoin:profiles:RMDB2PDB:8P60"},{"pairId":"8P60:sequence_000599","profileId":"rmdbv3_exact_5cc4bdf159f906bb4aa861e62c2c120dbbca402c|top_x_279::seq_3b42fb68e65af55b|8P60_S60","routeId":"annojoin:profiles:RMDB2PDB:8P60"},{"pairId":"8P60:sequence_000600","profileId":"rmdbv3_exact_5cc4bdf159f906bb4aa861e62c2c120dbbca402c|top_x_279::seq_6693db80e7e09e22|8P60_S60","routeId":"annojoin:profiles:RMDB2PDB:8P60"},{"pairId":"8P60:sequence_000601","profileId":"rmdbv3_exact_5cc4bdf159f906bb4aa861e62c2c120dbbca402c|top_x_279::seq_7b8c2a0f7cc1da3a|8P60_S60","routeId":"annojoin:profiles:RMDB2PDB:8P60"},{"pairId":"8P60:sequence_000602","profileId":"rmdbv3_exact_5cc4bdf159f906bb4aa861e62c2c120dbbca402c|top_x_279::seq_ce7c2efa5901533b|8P60_S60","routeId":"annojoin:profiles:RMDB2PDB:8P60"},{"pairId":"8P60:sequence_000603","profileId":"rmdbv3_exact_06ed93b67ad6860fa7f8868a2e6360b22c948613|top_x_279::seq_351d51c06d406f0b|8P60_S60","routeId":"annojoin:profiles:RMDB2PDB:8P60"},{"pairId":"8P60:sequence_000604","profileId":"rmdbv3_exact_06ed93b67ad6860fa7f8868a2e6360b22c948613|top_x_279::seq_e599d84f3dccb0bd|8P60_S60","routeId":"annojoin:profiles:RMDB2PDB:8P60"},{"pairId":"8P60:sequence_000605","profileId":"rmdbv3_exact_b1a2fa325899f16818d687afb37f8cd258730292|top_x_279::seq_3b2391b705c89ef1|8P60_S60","routeId":"annojoin:profiles:RMDB2PDB:8P60"},{"pairId":"8P60:sequence_000606","profileId":"rmdbv3_exact_b1a2fa325899f16818d687afb37f8cd258730292|top_x_279::seq_64091dc3ccfd6a72|8P60_S60","routeId":"annojoin:profiles:RMDB2PDB:8P60"},{"pairId":"8P60:sequence_000607","profileId":"rmdbv3_exact_b1a2fa325899f16818d687afb37f8cd258730292|top_x_279::seq_add33b31b9619d2f|8P60_S60","routeId":"annojoin:profiles:RMDB2PDB:8P60"},{"pairId":"8P60:sequence_000608","profileId":"rmdbv3_exact_b1a2fa325899f16818d687afb37f8cd258730292|top_x_279::seq_efad52788e45a238|8P60_S60","routeId":"annojoin:profiles:RMDB2PDB:8P60"},{"pairId":"8P60:sequence_000609","profileId":"rmdbv3_exact_cb5d7164cc23da23c69b0d7dcb9e0901520c5b24|top_x_279::seq_05a2325ea8ab4b7d|8P60_S60","routeId":"annojoin:profiles:RMDB2PDB:8P60"},{"pairId":"8P60:sequence_000610","profileId":"rmdbv3_exact_cb5d7164cc23da23c69b0d7dcb9e0901520c5b24|top_x_279::seq_6e7ed9854ac8896f|8P60_S60","routeId":"annojoin:profiles:RMDB2PDB:8P60"},{"pairId":"8P60:sequence_000611","profileId":"rmdbv3_exact_cb5d7164cc23da23c69b0d7dcb9e0901520c5b24|top_x_279::seq_de6efb142775f9a3|8P60_S60","routeId":"annojoin:profiles:RMDB2PDB:8P60"},{"pairId":"8P60:sequence_000612","profileId":"rmdbv3_exact_cb5d7164cc23da23c69b0d7dcb9e0901520c5b24|top_x_279::seq_fb92e254f31ba6d9|8P60_S60","routeId":"annojoin:profiles:RMDB2PDB:8P60"},{"pairId":"8P60:sequence_000613","profileId":"rmdbv3_exact_ebedfd2e72f50731aee249ed8051b46a9e67b053|top_x_279::seq_666579e4e53d7edb|8P60_S60","routeId":"annojoin:profiles:RMDB2PDB:8P60"},{"pairId":"8P60:sequence_000614","profileId":"rmdbv3_exact_ebedfd2e72f50731aee249ed8051b46a9e67b053|top_x_279::seq_cfad73f6d97fd135|8P60_S60","routeId":"annojoin:profiles:RMDB2PDB:8P60"},{"pairId":"8P60:sequence_000615","profileId":"rmdbv3_exact_92be0326808a03912bfabda4da9dfb78e97b0f18|top_x_279::seq_1360ea1a5c40c35e|8P60_S60","routeId":"annojoin:profiles:RMDB2PDB:8P60"},{"pairId":"8P60:sequence_000616","profileId":"rmdbv3_exact_92be0326808a03912bfabda4da9dfb78e97b0f18|top_x_279::seq_13941a4055bee796|8P60_S60","routeId":"annojoin:profiles:RMDB2PDB:8P60"},{"pairId":"8P60:sequence_000617","profileId":"rmdbv3_exact_92be0326808a03912bfabda4da9dfb78e97b0f18|top_x_279::seq_5ba957529ca2cf21|8P60_S60","routeId":"annojoin:profiles:RMDB2PDB:8P60"},{"pairId":"8P60:sequence_000618","profileId":"rmdbv3_exact_92be0326808a03912bfabda4da9dfb78e97b0f18|top_x_279::seq_96d890b1775b5d00|8P60_S60","routeId":"annojoin:profiles:RMDB2PDB:8P60"},{"pairId":"8P60:sequence_000619","profileId":"rmdbv3_exact_d57fb175be1fb6833dfb2740e0adbf822f85e0a8|top_x_279::seq_24881ca49e853f6d|8P60_S60","routeId":"annojoin:profiles:RMDB2PDB:8P60"},{"pairId":"8P60:sequence_000620","profileId":"rmdbv3_exact_d57fb175be1fb6833dfb2740e0adbf822f85e0a8|top_x_279::seq_55662a293f54551b|8P60_S60","routeId":"annojoin:profiles:RMDB2PDB:8P60"},{"pairId":"8P60:sequence_000621","profileId":"rmdbv3_exact_232532232b2c26a5d9a41980d12aadeeae9021a4|top_x_279::seq_4f958b04f65b4065|8P60_S60","routeId":"annojoin:profiles:RMDB2PDB:8P60"},{"pairId":"8P60:sequence_000622","profileId":"rmdbv3_exact_232532232b2c26a5d9a41980d12aadeeae9021a4|top_x_279::seq_5e462b18f9659bb7|8P60_S60","routeId":"annojoin:profiles:RMDB2PDB:8P60"},{"pairId":"8P60:sequence_000623","profileId":"rmdbv3_exact_232532232b2c26a5d9a41980d12aadeeae9021a4|top_x_279::seq_90e9de260815a400|8P60_S60","routeId":"annojoin:profiles:RMDB2PDB:8P60"},{"pairId":"8P60:sequence_000624","profileId":"rmdbv3_exact_232532232b2c26a5d9a41980d12aadeeae9021a4|top_x_279::seq_b9f725d741433d19|8P60_S60","routeId":"annojoin:profiles:RMDB2PDB:8P60"},{"pairId":"8P60:sequence_000625","profileId":"rmdbv3_exact_b371d38724eb8e8c78b41b76df7d97541a87c694|top_x_279::seq_13d5b918a1947689|8P60_S60","routeId":"annojoin:profiles:RMDB2PDB:8P60"},{"pairId":"8P60:sequence_000626","profileId":"rmdbv3_exact_b371d38724eb8e8c78b41b76df7d97541a87c694|top_x_279::seq_82be481d3bac76d3|8P60_S60","routeId":"annojoin:profiles:RMDB2PDB:8P60"}]}
