{"schemaVersion":"annojoin-atlas.v1","version":"V2.1_RMDB_LINE_A_20260617","atlasCaseKey":"RMDB2PDB:6VVJ","caseId":"6VVJ","routeKey":"track-routes","page":2,"pageSize":500,"totalRows":567,"pageCount":2,"rows":[{"profileId":"data-eterna/data-eterna/OK3TST_DMS_0001.rdat#25731","trackRouteId":"annojoin:track:RMDB2PDB:pairseg_6VVJ_sequence_000603","trackDataPath":"ANNOCONFIDENCE/assay_numeric_usability_annotation.tsv","trackSchemaId":"assay_numeric_usability_annotation","supports1d":true,"supportsTable":true,"colorPolicyId":"rmdb_reactivity_low_mid_high_v1"},{"profileId":"data-eterna/data-eterna/OK3TST_2A3_0001.rdat#25731","trackRouteId":"annojoin:track:RMDB2PDB:pairseg_6VVJ_sequence_000604","trackDataPath":"ANNOCONFIDENCE/assay_numeric_usability_annotation.tsv","trackSchemaId":"assay_numeric_usability_annotation","supports1d":true,"supportsTable":true,"colorPolicyId":"rmdb_reactivity_low_mid_high_v1"},{"profileId":"data-eterna/data-eterna/OK3TST_DMS_0004.rdat#9529","trackRouteId":"annojoin:track:RMDB2PDB:pairseg_6VVJ_sequence_000609","trackDataPath":"ANNOCONFIDENCE/assay_numeric_usability_annotation.tsv","trackSchemaId":"assay_numeric_usability_annotation","supports1d":true,"supportsTable":true,"colorPolicyId":"rmdb_reactivity_low_mid_high_v1"},{"profileId":"data-eterna/data-eterna/OK3TST_2A3_0004.rdat#9529","trackRouteId":"annojoin:track:RMDB2PDB:pairseg_6VVJ_sequence_000610","trackDataPath":"ANNOCONFIDENCE/assay_numeric_usability_annotation.tsv","trackSchemaId":"assay_numeric_usability_annotation","supports1d":true,"supportsTable":true,"colorPolicyId":"rmdb_reactivity_low_mid_high_v1"},{"profileId":"data-eterna/data-eterna/OK3TST_DMS_0001.rdat#26010","trackRouteId":"annojoin:track:RMDB2PDB:pairseg_6VVJ_sequence_000611","trackDataPath":"ANNOCONFIDENCE/assay_numeric_usability_annotation.tsv","trackSchemaId":"assay_numeric_usability_annotation","supports1d":true,"supportsTable":true,"colorPolicyId":"rmdb_reactivity_low_mid_high_v1"},{"profileId":"data-eterna/data-eterna/OK3TST_2A3_0001.rdat#26010","trackRouteId":"annojoin:track:RMDB2PDB:pairseg_6VVJ_sequence_000612","trackDataPath":"ANNOCONFIDENCE/assay_numeric_usability_annotation.tsv","trackSchemaId":"assay_numeric_usability_annotation","supports1d":true,"supportsTable":true,"colorPolicyId":"rmdb_reactivity_low_mid_high_v1"},{"profileId":"data-eterna/data-eterna/OK3TST_DMS_0001.rdat#25968","trackRouteId":"annojoin:track:RMDB2PDB:pairseg_6VVJ_sequence_000617","trackDataPath":"ANNOCONFIDENCE/assay_numeric_usability_annotation.tsv","trackSchemaId":"assay_numeric_usability_annotation","supports1d":true,"supportsTable":true,"colorPolicyId":"rmdb_reactivity_low_mid_high_v1"},{"profileId":"data-eterna/data-eterna/OK3TST_2A3_0001.rdat#25968","trackRouteId":"annojoin:track:RMDB2PDB:pairseg_6VVJ_sequence_000618","trackDataPath":"ANNOCONFIDENCE/assay_numeric_usability_annotation.tsv","trackSchemaId":"assay_numeric_usability_annotation","supports1d":true,"supportsTable":true,"colorPolicyId":"rmdb_reactivity_low_mid_high_v1"},{"profileId":"data-eterna/data-eterna/OK3TST_DMS_0001.rdat#25962","trackRouteId":"annojoin:track:RMDB2PDB:pairseg_6VVJ_sequence_000619","trackDataPath":"ANNOCONFIDENCE/assay_numeric_usability_annotation.tsv","trackSchemaId":"assay_numeric_usability_annotation","supports1d":true,"supportsTable":true,"colorPolicyId":"rmdb_reactivity_low_mid_high_v1"},{"profileId":"data-eterna/data-eterna/OK3TST_2A3_0001.rdat#25962","trackRouteId":"annojoin:track:RMDB2PDB:pairseg_6VVJ_sequence_000620","trackDataPath":"ANNOCONFIDENCE/assay_numeric_usability_annotation.tsv","trackSchemaId":"assay_numeric_usability_annotation","supports1d":true,"supportsTable":true,"colorPolicyId":"rmdb_reactivity_low_mid_high_v1"},{"profileId":"data-eterna/data-eterna/OK3TST_2A3_0001.rdat#25947","trackRouteId":"annojoin:track:RMDB2PDB:pairseg_6VVJ_sequence_000621","trackDataPath":"ANNOCONFIDENCE/assay_numeric_usability_annotation.tsv","trackSchemaId":"assay_numeric_usability_annotation","supports1d":true,"supportsTable":true,"colorPolicyId":"rmdb_reactivity_low_mid_high_v1"},{"profileId":"data-eterna/data-eterna/OK3TST_DMS_0001.rdat#25947","trackRouteId":"annojoin:track:RMDB2PDB:pairseg_6VVJ_sequence_000622","trackDataPath":"ANNOCONFIDENCE/assay_numeric_usability_annotation.tsv","trackSchemaId":"assay_numeric_usability_annotation","supports1d":true,"supportsTable":true,"colorPolicyId":"rmdb_reactivity_low_mid_high_v1"},{"profileId":"data-eterna/data-eterna/OK3TST_DMS_0001.rdat#26021","trackRouteId":"annojoin:track:RMDB2PDB:pairseg_6VVJ_sequence_000625","trackDataPath":"ANNOCONFIDENCE/assay_numeric_usability_annotation.tsv","trackSchemaId":"assay_numeric_usability_annotation","supports1d":true,"supportsTable":true,"colorPolicyId":"rmdb_reactivity_low_mid_high_v1"},{"profileId":"data-eterna/data-eterna/OK3TST_2A3_0001.rdat#26021","trackRouteId":"annojoin:track:RMDB2PDB:pairseg_6VVJ_sequence_000626","trackDataPath":"ANNOCONFIDENCE/assay_numeric_usability_annotation.tsv","trackSchemaId":"assay_numeric_usability_annotation","supports1d":true,"supportsTable":true,"colorPolicyId":"rmdb_reactivity_low_mid_high_v1"},{"profileId":"data-eterna/data-eterna/OK3TST_2A3_0002.rdat#5123","trackRouteId":"annojoin:track:RMDB2PDB:pairseg_6VVJ_sequence_000627","trackDataPath":"ANNOCONFIDENCE/assay_numeric_usability_annotation.tsv","trackSchemaId":"assay_numeric_usability_annotation","supports1d":true,"supportsTable":true,"colorPolicyId":"rmdb_reactivity_low_mid_high_v1"},{"profileId":"data-eterna/data-eterna/OK3TST_DMS_0002.rdat#5123","trackRouteId":"annojoin:track:RMDB2PDB:pairseg_6VVJ_sequence_000628","trackDataPath":"ANNOCONFIDENCE/assay_numeric_usability_annotation.tsv","trackSchemaId":"assay_numeric_usability_annotation","supports1d":true,"supportsTable":true,"colorPolicyId":"rmdb_reactivity_low_mid_high_v1"},{"profileId":"data-eterna/data-eterna/OK3TST_2A3_0001.rdat#25981","trackRouteId":"annojoin:track:RMDB2PDB:pairseg_6VVJ_sequence_000629","trackDataPath":"ANNOCONFIDENCE/assay_numeric_usability_annotation.tsv","trackSchemaId":"assay_numeric_usability_annotation","supports1d":true,"supportsTable":true,"colorPolicyId":"rmdb_reactivity_low_mid_high_v1"},{"profileId":"data-eterna/data-eterna/OK3TST_DMS_0001.rdat#25981","trackRouteId":"annojoin:track:RMDB2PDB:pairseg_6VVJ_sequence_000630","trackDataPath":"ANNOCONFIDENCE/assay_numeric_usability_annotation.tsv","trackSchemaId":"assay_numeric_usability_annotation","supports1d":true,"supportsTable":true,"colorPolicyId":"rmdb_reactivity_low_mid_high_v1"},{"profileId":"data-eterna/data-eterna/OK3TST_DMS_0001.rdat#25953","trackRouteId":"annojoin:track:RMDB2PDB:pairseg_6VVJ_sequence_000631","trackDataPath":"ANNOCONFIDENCE/assay_numeric_usability_annotation.tsv","trackSchemaId":"assay_numeric_usability_annotation","supports1d":true,"supportsTable":true,"colorPolicyId":"rmdb_reactivity_low_mid_high_v1"},{"profileId":"data-eterna/data-eterna/OK3TST_2A3_0001.rdat#25953","trackRouteId":"annojoin:track:RMDB2PDB:pairseg_6VVJ_sequence_000632","trackDataPath":"ANNOCONFIDENCE/assay_numeric_usability_annotation.tsv","trackSchemaId":"assay_numeric_usability_annotation","supports1d":true,"supportsTable":true,"colorPolicyId":"rmdb_reactivity_low_mid_high_v1"},{"profileId":"data-eterna/data-eterna/OK3TST_2A3_0001.rdat#25965","trackRouteId":"annojoin:track:RMDB2PDB:pairseg_6VVJ_sequence_000633","trackDataPath":"ANNOCONFIDENCE/assay_numeric_usability_annotation.tsv","trackSchemaId":"assay_numeric_usability_annotation","supports1d":true,"supportsTable":true,"colorPolicyId":"rmdb_reactivity_low_mid_high_v1"},{"profileId":"data-eterna/data-eterna/OK3TST_DMS_0001.rdat#25965","trackRouteId":"annojoin:track:RMDB2PDB:pairseg_6VVJ_sequence_000634","trackDataPath":"ANNOCONFIDENCE/assay_numeric_usability_annotation.tsv","trackSchemaId":"assay_numeric_usability_annotation","supports1d":true,"supportsTable":true,"colorPolicyId":"rmdb_reactivity_low_mid_high_v1"},{"profileId":"data-eterna/data-eterna/OK3TST_2A3_0002.rdat#5095","trackRouteId":"annojoin:track:RMDB2PDB:pairseg_6VVJ_sequence_000635","trackDataPath":"ANNOCONFIDENCE/assay_numeric_usability_annotation.tsv","trackSchemaId":"assay_numeric_usability_annotation","supports1d":true,"supportsTable":true,"colorPolicyId":"rmdb_reactivity_low_mid_high_v1"},{"profileId":"data-eterna/data-eterna/OK3TST_DMS_0002.rdat#5095","trackRouteId":"annojoin:track:RMDB2PDB:pairseg_6VVJ_sequence_000636","trackDataPath":"ANNOCONFIDENCE/assay_numeric_usability_annotation.tsv","trackSchemaId":"assay_numeric_usability_annotation","supports1d":true,"supportsTable":true,"colorPolicyId":"rmdb_reactivity_low_mid_high_v1"},{"profileId":"data-eterna/data-eterna/OK3TST_DMS_0001.rdat#25918","trackRouteId":"annojoin:track:RMDB2PDB:pairseg_6VVJ_sequence_000637","trackDataPath":"ANNOCONFIDENCE/assay_numeric_usability_annotation.tsv","trackSchemaId":"assay_numeric_usability_annotation","supports1d":true,"supportsTable":true,"colorPolicyId":"rmdb_reactivity_low_mid_high_v1"},{"profileId":"data-eterna/data-eterna/OK3TST_2A3_0001.rdat#25918","trackRouteId":"annojoin:track:RMDB2PDB:pairseg_6VVJ_sequence_000638","trackDataPath":"ANNOCONFIDENCE/assay_numeric_usability_annotation.tsv","trackSchemaId":"assay_numeric_usability_annotation","supports1d":true,"supportsTable":true,"colorPolicyId":"rmdb_reactivity_low_mid_high_v1"},{"profileId":"data-eterna/data-eterna/OK3TST_DMS_0001.rdat#25950","trackRouteId":"annojoin:track:RMDB2PDB:pairseg_6VVJ_sequence_000642","trackDataPath":"ANNOCONFIDENCE/assay_numeric_usability_annotation.tsv","trackSchemaId":"assay_numeric_usability_annotation","supports1d":true,"supportsTable":true,"colorPolicyId":"rmdb_reactivity_low_mid_high_v1"},{"profileId":"data-eterna/data-eterna/OK3TST_2A3_0001.rdat#25976","trackRouteId":"annojoin:track:RMDB2PDB:pairseg_6VVJ_sequence_000647","trackDataPath":"ANNOCONFIDENCE/assay_numeric_usability_annotation.tsv","trackSchemaId":"assay_numeric_usability_annotation","supports1d":true,"supportsTable":true,"colorPolicyId":"rmdb_reactivity_low_mid_high_v1"},{"profileId":"data-eterna/data-eterna/OK3TST_DMS_0001.rdat#25976","trackRouteId":"annojoin:track:RMDB2PDB:pairseg_6VVJ_sequence_000648","trackDataPath":"ANNOCONFIDENCE/assay_numeric_usability_annotation.tsv","trackSchemaId":"assay_numeric_usability_annotation","supports1d":true,"supportsTable":true,"colorPolicyId":"rmdb_reactivity_low_mid_high_v1"},{"profileId":"data-eterna/data-eterna/OK3TST_DMS_0002.rdat#5113","trackRouteId":"annojoin:track:RMDB2PDB:pairseg_6VVJ_sequence_000649","trackDataPath":"ANNOCONFIDENCE/assay_numeric_usability_annotation.tsv","trackSchemaId":"assay_numeric_usability_annotation","supports1d":true,"supportsTable":true,"colorPolicyId":"rmdb_reactivity_low_mid_high_v1"},{"profileId":"data-eterna/data-eterna/OK3TST_2A3_0002.rdat#5113","trackRouteId":"annojoin:track:RMDB2PDB:pairseg_6VVJ_sequence_000650","trackDataPath":"ANNOCONFIDENCE/assay_numeric_usability_annotation.tsv","trackSchemaId":"assay_numeric_usability_annotation","supports1d":true,"supportsTable":true,"colorPolicyId":"rmdb_reactivity_low_mid_high_v1"},{"profileId":"data-eterna/data-eterna/OK3TST_DMS_0001.rdat#25961","trackRouteId":"annojoin:track:RMDB2PDB:pairseg_6VVJ_sequence_000651","trackDataPath":"ANNOCONFIDENCE/assay_numeric_usability_annotation.tsv","trackSchemaId":"assay_numeric_usability_annotation","supports1d":true,"supportsTable":true,"colorPolicyId":"rmdb_reactivity_low_mid_high_v1"},{"profileId":"data-eterna/data-eterna/OK3TST_2A3_0001.rdat#25961","trackRouteId":"annojoin:track:RMDB2PDB:pairseg_6VVJ_sequence_000652","trackDataPath":"ANNOCONFIDENCE/assay_numeric_usability_annotation.tsv","trackSchemaId":"assay_numeric_usability_annotation","supports1d":true,"supportsTable":true,"colorPolicyId":"rmdb_reactivity_low_mid_high_v1"},{"profileId":"data-eterna/data-eterna/OK3TST_DMS_0001.rdat#25991","trackRouteId":"annojoin:track:RMDB2PDB:pairseg_6VVJ_sequence_000653","trackDataPath":"ANNOCONFIDENCE/assay_numeric_usability_annotation.tsv","trackSchemaId":"assay_numeric_usability_annotation","supports1d":true,"supportsTable":true,"colorPolicyId":"rmdb_reactivity_low_mid_high_v1"},{"profileId":"data-eterna/data-eterna/OK3TST_2A3_0001.rdat#25991","trackRouteId":"annojoin:track:RMDB2PDB:pairseg_6VVJ_sequence_000654","trackDataPath":"ANNOCONFIDENCE/assay_numeric_usability_annotation.tsv","trackSchemaId":"assay_numeric_usability_annotation","supports1d":true,"supportsTable":true,"colorPolicyId":"rmdb_reactivity_low_mid_high_v1"},{"profileId":"data-eterna/data-eterna/OK3TST_DMS_0002.rdat#5116","trackRouteId":"annojoin:track:RMDB2PDB:pairseg_6VVJ_sequence_000655","trackDataPath":"ANNOCONFIDENCE/assay_numeric_usability_annotation.tsv","trackSchemaId":"assay_numeric_usability_annotation","supports1d":true,"supportsTable":true,"colorPolicyId":"rmdb_reactivity_low_mid_high_v1"},{"profileId":"data-eterna/data-eterna/OK3TST_2A3_0002.rdat#5116","trackRouteId":"annojoin:track:RMDB2PDB:pairseg_6VVJ_sequence_000656","trackDataPath":"ANNOCONFIDENCE/assay_numeric_usability_annotation.tsv","trackSchemaId":"assay_numeric_usability_annotation","supports1d":true,"supportsTable":true,"colorPolicyId":"rmdb_reactivity_low_mid_high_v1"},{"profileId":"data-eterna/data-eterna/OK3TST_2A3_0001.rdat#25938","trackRouteId":"annojoin:track:RMDB2PDB:pairseg_6VVJ_sequence_000661","trackDataPath":"ANNOCONFIDENCE/assay_numeric_usability_annotation.tsv","trackSchemaId":"assay_numeric_usability_annotation","supports1d":true,"supportsTable":true,"colorPolicyId":"rmdb_reactivity_low_mid_high_v1"},{"profileId":"data-eterna/data-eterna/OK3TST_DMS_0001.rdat#25938","trackRouteId":"annojoin:track:RMDB2PDB:pairseg_6VVJ_sequence_000662","trackDataPath":"ANNOCONFIDENCE/assay_numeric_usability_annotation.tsv","trackSchemaId":"assay_numeric_usability_annotation","supports1d":true,"supportsTable":true,"colorPolicyId":"rmdb_reactivity_low_mid_high_v1"},{"profileId":"data-eterna/data-eterna/OK3TST_2A3_0001.rdat#25964","trackRouteId":"annojoin:track:RMDB2PDB:pairseg_6VVJ_sequence_000663","trackDataPath":"ANNOCONFIDENCE/assay_numeric_usability_annotation.tsv","trackSchemaId":"assay_numeric_usability_annotation","supports1d":true,"supportsTable":true,"colorPolicyId":"rmdb_reactivity_low_mid_high_v1"},{"profileId":"data-eterna/data-eterna/OK3TST_DMS_0001.rdat#25964","trackRouteId":"annojoin:track:RMDB2PDB:pairseg_6VVJ_sequence_000664","trackDataPath":"ANNOCONFIDENCE/assay_numeric_usability_annotation.tsv","trackSchemaId":"assay_numeric_usability_annotation","supports1d":true,"supportsTable":true,"colorPolicyId":"rmdb_reactivity_low_mid_high_v1"},{"profileId":"data-eterna/data-eterna/OK3TST_DMS_0001.rdat#25998","trackRouteId":"annojoin:track:RMDB2PDB:pairseg_6VVJ_sequence_000666","trackDataPath":"ANNOCONFIDENCE/assay_numeric_usability_annotation.tsv","trackSchemaId":"assay_numeric_usability_annotation","supports1d":true,"supportsTable":true,"colorPolicyId":"rmdb_reactivity_low_mid_high_v1"},{"profileId":"data-eterna/data-eterna/OK3TST_2A3_0001.rdat#25957","trackRouteId":"annojoin:track:RMDB2PDB:pairseg_6VVJ_sequence_000669","trackDataPath":"ANNOCONFIDENCE/assay_numeric_usability_annotation.tsv","trackSchemaId":"assay_numeric_usability_annotation","supports1d":true,"supportsTable":true,"colorPolicyId":"rmdb_reactivity_low_mid_high_v1"},{"profileId":"data-eterna/data-eterna/OK3TST_DMS_0001.rdat#25957","trackRouteId":"annojoin:track:RMDB2PDB:pairseg_6VVJ_sequence_000670","trackDataPath":"ANNOCONFIDENCE/assay_numeric_usability_annotation.tsv","trackSchemaId":"assay_numeric_usability_annotation","supports1d":true,"supportsTable":true,"colorPolicyId":"rmdb_reactivity_low_mid_high_v1"},{"profileId":"data-eterna/data-eterna/OK3TST_2A3_0001.rdat#26002","trackRouteId":"annojoin:track:RMDB2PDB:pairseg_6VVJ_sequence_000675","trackDataPath":"ANNOCONFIDENCE/assay_numeric_usability_annotation.tsv","trackSchemaId":"assay_numeric_usability_annotation","supports1d":true,"supportsTable":true,"colorPolicyId":"rmdb_reactivity_low_mid_high_v1"},{"profileId":"data-eterna/data-eterna/OK3TST_DMS_0001.rdat#26002","trackRouteId":"annojoin:track:RMDB2PDB:pairseg_6VVJ_sequence_000676","trackDataPath":"ANNOCONFIDENCE/assay_numeric_usability_annotation.tsv","trackSchemaId":"assay_numeric_usability_annotation","supports1d":true,"supportsTable":true,"colorPolicyId":"rmdb_reactivity_low_mid_high_v1"},{"profileId":"data-eterna/data-eterna/OK3TST_DMS_0001.rdat#25937","trackRouteId":"annojoin:track:RMDB2PDB:pairseg_6VVJ_sequence_000677","trackDataPath":"ANNOCONFIDENCE/assay_numeric_usability_annotation.tsv","trackSchemaId":"assay_numeric_usability_annotation","supports1d":true,"supportsTable":true,"colorPolicyId":"rmdb_reactivity_low_mid_high_v1"},{"profileId":"data-eterna/data-eterna/OK3TST_2A3_0001.rdat#25937","trackRouteId":"annojoin:track:RMDB2PDB:pairseg_6VVJ_sequence_000678","trackDataPath":"ANNOCONFIDENCE/assay_numeric_usability_annotation.tsv","trackSchemaId":"assay_numeric_usability_annotation","supports1d":true,"supportsTable":true,"colorPolicyId":"rmdb_reactivity_low_mid_high_v1"},{"profileId":"data-eterna/data-eterna/OK3TST_DMS_0001.rdat#25919","trackRouteId":"annojoin:track:RMDB2PDB:pairseg_6VVJ_sequence_000679","trackDataPath":"ANNOCONFIDENCE/assay_numeric_usability_annotation.tsv","trackSchemaId":"assay_numeric_usability_annotation","supports1d":true,"supportsTable":true,"colorPolicyId":"rmdb_reactivity_low_mid_high_v1"},{"profileId":"data-eterna/data-eterna/OK3TST_2A3_0001.rdat#25919","trackRouteId":"annojoin:track:RMDB2PDB:pairseg_6VVJ_sequence_000680","trackDataPath":"ANNOCONFIDENCE/assay_numeric_usability_annotation.tsv","trackSchemaId":"assay_numeric_usability_annotation","supports1d":true,"supportsTable":true,"colorPolicyId":"rmdb_reactivity_low_mid_high_v1"},{"profileId":"data-eterna/data-eterna/OK3TST_DMS_0001.rdat#25944","trackRouteId":"annojoin:track:RMDB2PDB:pairseg_6VVJ_sequence_000681","trackDataPath":"ANNOCONFIDENCE/assay_numeric_usability_annotation.tsv","trackSchemaId":"assay_numeric_usability_annotation","supports1d":true,"supportsTable":true,"colorPolicyId":"rmdb_reactivity_low_mid_high_v1"},{"profileId":"data-eterna/data-eterna/OK3TST_2A3_0001.rdat#25944","trackRouteId":"annojoin:track:RMDB2PDB:pairseg_6VVJ_sequence_000682","trackDataPath":"ANNOCONFIDENCE/assay_numeric_usability_annotation.tsv","trackSchemaId":"assay_numeric_usability_annotation","supports1d":true,"supportsTable":true,"colorPolicyId":"rmdb_reactivity_low_mid_high_v1"},{"profileId":"data-eterna/data-eterna/OK3TST_2A3_0001.rdat#25923","trackRouteId":"annojoin:track:RMDB2PDB:pairseg_6VVJ_sequence_000683","trackDataPath":"ANNOCONFIDENCE/assay_numeric_usability_annotation.tsv","trackSchemaId":"assay_numeric_usability_annotation","supports1d":true,"supportsTable":true,"colorPolicyId":"rmdb_reactivity_low_mid_high_v1"},{"profileId":"data-eterna/data-eterna/OK3TST_DMS_0001.rdat#25923","trackRouteId":"annojoin:track:RMDB2PDB:pairseg_6VVJ_sequence_000684","trackDataPath":"ANNOCONFIDENCE/assay_numeric_usability_annotation.tsv","trackSchemaId":"assay_numeric_usability_annotation","supports1d":true,"supportsTable":true,"colorPolicyId":"rmdb_reactivity_low_mid_high_v1"},{"profileId":"data-eterna/data-eterna/OK3TST_DMS_0001.rdat#25954","trackRouteId":"annojoin:track:RMDB2PDB:pairseg_6VVJ_sequence_000685","trackDataPath":"ANNOCONFIDENCE/assay_numeric_usability_annotation.tsv","trackSchemaId":"assay_numeric_usability_annotation","supports1d":true,"supportsTable":true,"colorPolicyId":"rmdb_reactivity_low_mid_high_v1"},{"profileId":"data-eterna/data-eterna/OK3TST_2A3_0001.rdat#25954","trackRouteId":"annojoin:track:RMDB2PDB:pairseg_6VVJ_sequence_000686","trackDataPath":"ANNOCONFIDENCE/assay_numeric_usability_annotation.tsv","trackSchemaId":"assay_numeric_usability_annotation","supports1d":true,"supportsTable":true,"colorPolicyId":"rmdb_reactivity_low_mid_high_v1"},{"profileId":"data-eterna/data-eterna/OK3TST_2A3_0001.rdat#25926","trackRouteId":"annojoin:track:RMDB2PDB:pairseg_6VVJ_sequence_000687","trackDataPath":"ANNOCONFIDENCE/assay_numeric_usability_annotation.tsv","trackSchemaId":"assay_numeric_usability_annotation","supports1d":true,"supportsTable":true,"colorPolicyId":"rmdb_reactivity_low_mid_high_v1"},{"profileId":"data-eterna/data-eterna/OK3TST_2A3_0002.rdat#5106","trackRouteId":"annojoin:track:RMDB2PDB:pairseg_6VVJ_sequence_000691","trackDataPath":"ANNOCONFIDENCE/assay_numeric_usability_annotation.tsv","trackSchemaId":"assay_numeric_usability_annotation","supports1d":true,"supportsTable":true,"colorPolicyId":"rmdb_reactivity_low_mid_high_v1"},{"profileId":"data-eterna/data-eterna/OK3TST_DMS_0002.rdat#5106","trackRouteId":"annojoin:track:RMDB2PDB:pairseg_6VVJ_sequence_000692","trackDataPath":"ANNOCONFIDENCE/assay_numeric_usability_annotation.tsv","trackSchemaId":"assay_numeric_usability_annotation","supports1d":true,"supportsTable":true,"colorPolicyId":"rmdb_reactivity_low_mid_high_v1"},{"profileId":"data-eterna/data-eterna/OK3TST_DMS_0001.rdat#25952","trackRouteId":"annojoin:track:RMDB2PDB:pairseg_6VVJ_sequence_000693","trackDataPath":"ANNOCONFIDENCE/assay_numeric_usability_annotation.tsv","trackSchemaId":"assay_numeric_usability_annotation","supports1d":true,"supportsTable":true,"colorPolicyId":"rmdb_reactivity_low_mid_high_v1"},{"profileId":"data-eterna/data-eterna/OK3TST_2A3_0001.rdat#25952","trackRouteId":"annojoin:track:RMDB2PDB:pairseg_6VVJ_sequence_000694","trackDataPath":"ANNOCONFIDENCE/assay_numeric_usability_annotation.tsv","trackSchemaId":"assay_numeric_usability_annotation","supports1d":true,"supportsTable":true,"colorPolicyId":"rmdb_reactivity_low_mid_high_v1"},{"profileId":"data-eterna/data-eterna/OK3TST_2A3_0001.rdat#25959","trackRouteId":"annojoin:track:RMDB2PDB:pairseg_6VVJ_sequence_000695","trackDataPath":"ANNOCONFIDENCE/assay_numeric_usability_annotation.tsv","trackSchemaId":"assay_numeric_usability_annotation","supports1d":true,"supportsTable":true,"colorPolicyId":"rmdb_reactivity_low_mid_high_v1"},{"profileId":"data-eterna/data-eterna/OK3TST_DMS_0001.rdat#25959","trackRouteId":"annojoin:track:RMDB2PDB:pairseg_6VVJ_sequence_000696","trackDataPath":"ANNOCONFIDENCE/assay_numeric_usability_annotation.tsv","trackSchemaId":"assay_numeric_usability_annotation","supports1d":true,"supportsTable":true,"colorPolicyId":"rmdb_reactivity_low_mid_high_v1"},{"profileId":"data-eterna/data-eterna/OK3TST_DMS_0001.rdat#25973","trackRouteId":"annojoin:track:RMDB2PDB:pairseg_6VVJ_sequence_000697","trackDataPath":"ANNOCONFIDENCE/assay_numeric_usability_annotation.tsv","trackSchemaId":"assay_numeric_usability_annotation","supports1d":true,"supportsTable":true,"colorPolicyId":"rmdb_reactivity_low_mid_high_v1"},{"profileId":"data-eterna/data-eterna/OK3TST_2A3_0001.rdat#25973","trackRouteId":"annojoin:track:RMDB2PDB:pairseg_6VVJ_sequence_000698","trackDataPath":"ANNOCONFIDENCE/assay_numeric_usability_annotation.tsv","trackSchemaId":"assay_numeric_usability_annotation","supports1d":true,"supportsTable":true,"colorPolicyId":"rmdb_reactivity_low_mid_high_v1"},{"profileId":"data-eterna/data-eterna/OK3TST_DMS_0001.rdat#25956","trackRouteId":"annojoin:track:RMDB2PDB:pairseg_6VVJ_sequence_000699","trackDataPath":"ANNOCONFIDENCE/assay_numeric_usability_annotation.tsv","trackSchemaId":"assay_numeric_usability_annotation","supports1d":true,"supportsTable":true,"colorPolicyId":"rmdb_reactivity_low_mid_high_v1"},{"profileId":"data-eterna/data-eterna/OK3TST_2A3_0001.rdat#25956","trackRouteId":"annojoin:track:RMDB2PDB:pairseg_6VVJ_sequence_000700","trackDataPath":"ANNOCONFIDENCE/assay_numeric_usability_annotation.tsv","trackSchemaId":"assay_numeric_usability_annotation","supports1d":true,"supportsTable":true,"colorPolicyId":"rmdb_reactivity_low_mid_high_v1"}]}
