{"schemaVersion":"annojoin-atlas.v1","version":"V2.1_RMDB_LINE_A_20260617","atlasCaseKey":"RMDB2PDB:6ZU5","caseId":"6ZU5","routeKey":"pair-context-routes","page":2,"pageSize":500,"totalRows":557,"pageCount":2,"rows":[{"contextRouteId":"annojoin:2d:RMDB2PDB:pairseg_6ZU5_sequence_000600","pairContextDataPath":"ANNOCONFIDENCE/lss_structure_context_annotation.tsv","pairContextSchemaId":"lss_structure_context_annotation","contextEngine":"FEC_V0_4_BETA_LSS","supportsPairArcView":true,"supportsDotBracketView":false,"supportsResidueHover":true,"routeAvailabilityStatus":"","blockerCode":"","blockerReason":""},{"contextRouteId":"annojoin:2d:RMDB2PDB:pairseg_6ZU5_sequence_000601","pairContextDataPath":"ANNOCONFIDENCE/lss_structure_context_annotation.tsv","pairContextSchemaId":"lss_structure_context_annotation","contextEngine":"FEC_V0_4_BETA_LSS","supportsPairArcView":true,"supportsDotBracketView":false,"supportsResidueHover":true,"routeAvailabilityStatus":"","blockerCode":"","blockerReason":""},{"contextRouteId":"annojoin:2d:RMDB2PDB:pairseg_6ZU5_sequence_000602","pairContextDataPath":"ANNOCONFIDENCE/lss_structure_context_annotation.tsv","pairContextSchemaId":"lss_structure_context_annotation","contextEngine":"FEC_V0_4_BETA_LSS","supportsPairArcView":true,"supportsDotBracketView":false,"supportsResidueHover":true,"routeAvailabilityStatus":"","blockerCode":"","blockerReason":""},{"contextRouteId":"annojoin:2d:RMDB2PDB:pairseg_6ZU5_sequence_000603","pairContextDataPath":"ANNOCONFIDENCE/lss_structure_context_annotation.tsv","pairContextSchemaId":"lss_structure_context_annotation","contextEngine":"FEC_V0_4_BETA_LSS","supportsPairArcView":true,"supportsDotBracketView":false,"supportsResidueHover":true,"routeAvailabilityStatus":"","blockerCode":"","blockerReason":""},{"contextRouteId":"annojoin:2d:RMDB2PDB:pairseg_6ZU5_sequence_000604","pairContextDataPath":"ANNOCONFIDENCE/lss_structure_context_annotation.tsv","pairContextSchemaId":"lss_structure_context_annotation","contextEngine":"FEC_V0_4_BETA_LSS","supportsPairArcView":true,"supportsDotBracketView":false,"supportsResidueHover":true,"routeAvailabilityStatus":"","blockerCode":"","blockerReason":""},{"contextRouteId":"annojoin:2d:RMDB2PDB:pairseg_6ZU5_sequence_000605","pairContextDataPath":"ANNOCONFIDENCE/lss_structure_context_annotation.tsv","pairContextSchemaId":"lss_structure_context_annotation","contextEngine":"FEC_V0_4_BETA_LSS","supportsPairArcView":true,"supportsDotBracketView":false,"supportsResidueHover":true,"routeAvailabilityStatus":"","blockerCode":"","blockerReason":""},{"contextRouteId":"annojoin:2d:RMDB2PDB:pairseg_6ZU5_sequence_000606","pairContextDataPath":"ANNOCONFIDENCE/lss_structure_context_annotation.tsv","pairContextSchemaId":"lss_structure_context_annotation","contextEngine":"FEC_V0_4_BETA_LSS","supportsPairArcView":true,"supportsDotBracketView":false,"supportsResidueHover":true,"routeAvailabilityStatus":"","blockerCode":"","blockerReason":""},{"contextRouteId":"annojoin:2d:RMDB2PDB:pairseg_6ZU5_sequence_000607","pairContextDataPath":"ANNOCONFIDENCE/lss_structure_context_annotation.tsv","pairContextSchemaId":"lss_structure_context_annotation","contextEngine":"FEC_V0_4_BETA_LSS","supportsPairArcView":true,"supportsDotBracketView":false,"supportsResidueHover":true,"routeAvailabilityStatus":"","blockerCode":"","blockerReason":""},{"contextRouteId":"annojoin:2d:RMDB2PDB:pairseg_6ZU5_sequence_000608","pairContextDataPath":"ANNOCONFIDENCE/lss_structure_context_annotation.tsv","pairContextSchemaId":"lss_structure_context_annotation","contextEngine":"FEC_V0_4_BETA_LSS","supportsPairArcView":true,"supportsDotBracketView":false,"supportsResidueHover":true,"routeAvailabilityStatus":"","blockerCode":"","blockerReason":""},{"contextRouteId":"annojoin:2d:RMDB2PDB:pairseg_6ZU5_sequence_000609","pairContextDataPath":"ANNOCONFIDENCE/lss_structure_context_annotation.tsv","pairContextSchemaId":"lss_structure_context_annotation","contextEngine":"FEC_V0_4_BETA_LSS","supportsPairArcView":true,"supportsDotBracketView":false,"supportsResidueHover":true,"routeAvailabilityStatus":"","blockerCode":"","blockerReason":""},{"contextRouteId":"annojoin:2d:RMDB2PDB:pairseg_6ZU5_sequence_000610","pairContextDataPath":"ANNOCONFIDENCE/lss_structure_context_annotation.tsv","pairContextSchemaId":"lss_structure_context_annotation","contextEngine":"FEC_V0_4_BETA_LSS","supportsPairArcView":true,"supportsDotBracketView":false,"supportsResidueHover":true,"routeAvailabilityStatus":"","blockerCode":"","blockerReason":""},{"contextRouteId":"annojoin:2d:RMDB2PDB:pairseg_6ZU5_sequence_000611","pairContextDataPath":"ANNOCONFIDENCE/lss_structure_context_annotation.tsv","pairContextSchemaId":"lss_structure_context_annotation","contextEngine":"FEC_V0_4_BETA_LSS","supportsPairArcView":true,"supportsDotBracketView":false,"supportsResidueHover":true,"routeAvailabilityStatus":"","blockerCode":"","blockerReason":""},{"contextRouteId":"annojoin:2d:RMDB2PDB:pairseg_6ZU5_sequence_000612","pairContextDataPath":"ANNOCONFIDENCE/lss_structure_context_annotation.tsv","pairContextSchemaId":"lss_structure_context_annotation","contextEngine":"FEC_V0_4_BETA_LSS","supportsPairArcView":true,"supportsDotBracketView":false,"supportsResidueHover":true,"routeAvailabilityStatus":"","blockerCode":"","blockerReason":""},{"contextRouteId":"annojoin:2d:RMDB2PDB:pairseg_6ZU5_sequence_000613","pairContextDataPath":"ANNOCONFIDENCE/lss_structure_context_annotation.tsv","pairContextSchemaId":"lss_structure_context_annotation","contextEngine":"FEC_V0_4_BETA_LSS","supportsPairArcView":true,"supportsDotBracketView":false,"supportsResidueHover":true,"routeAvailabilityStatus":"","blockerCode":"","blockerReason":""},{"contextRouteId":"annojoin:2d:RMDB2PDB:pairseg_6ZU5_sequence_000614","pairContextDataPath":"ANNOCONFIDENCE/lss_structure_context_annotation.tsv","pairContextSchemaId":"lss_structure_context_annotation","contextEngine":"FEC_V0_4_BETA_LSS","supportsPairArcView":true,"supportsDotBracketView":false,"supportsResidueHover":true,"routeAvailabilityStatus":"","blockerCode":"","blockerReason":""},{"contextRouteId":"annojoin:2d:RMDB2PDB:pairseg_6ZU5_sequence_000615","pairContextDataPath":"ANNOCONFIDENCE/lss_structure_context_annotation.tsv","pairContextSchemaId":"lss_structure_context_annotation","contextEngine":"FEC_V0_4_BETA_LSS","supportsPairArcView":true,"supportsDotBracketView":false,"supportsResidueHover":true,"routeAvailabilityStatus":"","blockerCode":"","blockerReason":""},{"contextRouteId":"annojoin:2d:RMDB2PDB:pairseg_6ZU5_sequence_000616","pairContextDataPath":"ANNOCONFIDENCE/lss_structure_context_annotation.tsv","pairContextSchemaId":"lss_structure_context_annotation","contextEngine":"FEC_V0_4_BETA_LSS","supportsPairArcView":true,"supportsDotBracketView":false,"supportsResidueHover":true,"routeAvailabilityStatus":"","blockerCode":"","blockerReason":""},{"contextRouteId":"annojoin:2d:RMDB2PDB:pairseg_6ZU5_sequence_000617","pairContextDataPath":"ANNOCONFIDENCE/lss_structure_context_annotation.tsv","pairContextSchemaId":"lss_structure_context_annotation","contextEngine":"FEC_V0_4_BETA_LSS","supportsPairArcView":true,"supportsDotBracketView":false,"supportsResidueHover":true,"routeAvailabilityStatus":"","blockerCode":"","blockerReason":""},{"contextRouteId":"annojoin:2d:RMDB2PDB:pairseg_6ZU5_sequence_000618","pairContextDataPath":"ANNOCONFIDENCE/lss_structure_context_annotation.tsv","pairContextSchemaId":"lss_structure_context_annotation","contextEngine":"FEC_V0_4_BETA_LSS","supportsPairArcView":true,"supportsDotBracketView":false,"supportsResidueHover":true,"routeAvailabilityStatus":"","blockerCode":"","blockerReason":""},{"contextRouteId":"annojoin:2d:RMDB2PDB:pairseg_6ZU5_sequence_000619","pairContextDataPath":"ANNOCONFIDENCE/lss_structure_context_annotation.tsv","pairContextSchemaId":"lss_structure_context_annotation","contextEngine":"FEC_V0_4_BETA_LSS","supportsPairArcView":true,"supportsDotBracketView":false,"supportsResidueHover":true,"routeAvailabilityStatus":"","blockerCode":"","blockerReason":""},{"contextRouteId":"annojoin:2d:RMDB2PDB:pairseg_6ZU5_sequence_000620","pairContextDataPath":"ANNOCONFIDENCE/lss_structure_context_annotation.tsv","pairContextSchemaId":"lss_structure_context_annotation","contextEngine":"FEC_V0_4_BETA_LSS","supportsPairArcView":true,"supportsDotBracketView":false,"supportsResidueHover":true,"routeAvailabilityStatus":"","blockerCode":"","blockerReason":""},{"contextRouteId":"annojoin:2d:RMDB2PDB:pairseg_6ZU5_sequence_000621","pairContextDataPath":"ANNOCONFIDENCE/lss_structure_context_annotation.tsv","pairContextSchemaId":"lss_structure_context_annotation","contextEngine":"FEC_V0_4_BETA_LSS","supportsPairArcView":true,"supportsDotBracketView":false,"supportsResidueHover":true,"routeAvailabilityStatus":"","blockerCode":"","blockerReason":""},{"contextRouteId":"annojoin:2d:RMDB2PDB:pairseg_6ZU5_sequence_000622","pairContextDataPath":"ANNOCONFIDENCE/lss_structure_context_annotation.tsv","pairContextSchemaId":"lss_structure_context_annotation","contextEngine":"FEC_V0_4_BETA_LSS","supportsPairArcView":true,"supportsDotBracketView":false,"supportsResidueHover":true,"routeAvailabilityStatus":"","blockerCode":"","blockerReason":""},{"contextRouteId":"annojoin:2d:RMDB2PDB:pairseg_6ZU5_sequence_000623","pairContextDataPath":"ANNOCONFIDENCE/lss_structure_context_annotation.tsv","pairContextSchemaId":"lss_structure_context_annotation","contextEngine":"FEC_V0_4_BETA_LSS","supportsPairArcView":true,"supportsDotBracketView":false,"supportsResidueHover":true,"routeAvailabilityStatus":"","blockerCode":"","blockerReason":""},{"contextRouteId":"annojoin:2d:RMDB2PDB:pairseg_6ZU5_sequence_000624","pairContextDataPath":"ANNOCONFIDENCE/lss_structure_context_annotation.tsv","pairContextSchemaId":"lss_structure_context_annotation","contextEngine":"FEC_V0_4_BETA_LSS","supportsPairArcView":true,"supportsDotBracketView":false,"supportsResidueHover":true,"routeAvailabilityStatus":"","blockerCode":"","blockerReason":""},{"contextRouteId":"annojoin:2d:RMDB2PDB:pairseg_6ZU5_sequence_000625","pairContextDataPath":"ANNOCONFIDENCE/lss_structure_context_annotation.tsv","pairContextSchemaId":"lss_structure_context_annotation","contextEngine":"FEC_V0_4_BETA_LSS","supportsPairArcView":true,"supportsDotBracketView":false,"supportsResidueHover":true,"routeAvailabilityStatus":"","blockerCode":"","blockerReason":""},{"contextRouteId":"annojoin:2d:RMDB2PDB:pairseg_6ZU5_sequence_000626","pairContextDataPath":"ANNOCONFIDENCE/lss_structure_context_annotation.tsv","pairContextSchemaId":"lss_structure_context_annotation","contextEngine":"FEC_V0_4_BETA_LSS","supportsPairArcView":true,"supportsDotBracketView":false,"supportsResidueHover":true,"routeAvailabilityStatus":"","blockerCode":"","blockerReason":""},{"contextRouteId":"annojoin:2d:RMDB2PDB:pairseg_6ZU5_sequence_000627","pairContextDataPath":"ANNOCONFIDENCE/lss_structure_context_annotation.tsv","pairContextSchemaId":"lss_structure_context_annotation","contextEngine":"FEC_V0_4_BETA_LSS","supportsPairArcView":true,"supportsDotBracketView":false,"supportsResidueHover":true,"routeAvailabilityStatus":"","blockerCode":"","blockerReason":""},{"contextRouteId":"annojoin:2d:RMDB2PDB:pairseg_6ZU5_sequence_000628","pairContextDataPath":"ANNOCONFIDENCE/lss_structure_context_annotation.tsv","pairContextSchemaId":"lss_structure_context_annotation","contextEngine":"FEC_V0_4_BETA_LSS","supportsPairArcView":true,"supportsDotBracketView":false,"supportsResidueHover":true,"routeAvailabilityStatus":"","blockerCode":"","blockerReason":""},{"contextRouteId":"annojoin:2d:RMDB2PDB:pairseg_6ZU5_sequence_000629","pairContextDataPath":"ANNOCONFIDENCE/lss_structure_context_annotation.tsv","pairContextSchemaId":"lss_structure_context_annotation","contextEngine":"FEC_V0_4_BETA_LSS","supportsPairArcView":true,"supportsDotBracketView":false,"supportsResidueHover":true,"routeAvailabilityStatus":"","blockerCode":"","blockerReason":""},{"contextRouteId":"annojoin:2d:RMDB2PDB:pairseg_6ZU5_sequence_000630","pairContextDataPath":"ANNOCONFIDENCE/lss_structure_context_annotation.tsv","pairContextSchemaId":"lss_structure_context_annotation","contextEngine":"FEC_V0_4_BETA_LSS","supportsPairArcView":true,"supportsDotBracketView":false,"supportsResidueHover":true,"routeAvailabilityStatus":"","blockerCode":"","blockerReason":""},{"contextRouteId":"annojoin:2d:RMDB2PDB:pairseg_6ZU5_sequence_000631","pairContextDataPath":"ANNOCONFIDENCE/lss_structure_context_annotation.tsv","pairContextSchemaId":"lss_structure_context_annotation","contextEngine":"FEC_V0_4_BETA_LSS","supportsPairArcView":true,"supportsDotBracketView":false,"supportsResidueHover":true,"routeAvailabilityStatus":"","blockerCode":"","blockerReason":""},{"contextRouteId":"annojoin:2d:RMDB2PDB:pairseg_6ZU5_sequence_000632","pairContextDataPath":"ANNOCONFIDENCE/lss_structure_context_annotation.tsv","pairContextSchemaId":"lss_structure_context_annotation","contextEngine":"FEC_V0_4_BETA_LSS","supportsPairArcView":true,"supportsDotBracketView":false,"supportsResidueHover":true,"routeAvailabilityStatus":"","blockerCode":"","blockerReason":""},{"contextRouteId":"annojoin:2d:RMDB2PDB:pairseg_6ZU5_sequence_000633","pairContextDataPath":"ANNOCONFIDENCE/lss_structure_context_annotation.tsv","pairContextSchemaId":"lss_structure_context_annotation","contextEngine":"FEC_V0_4_BETA_LSS","supportsPairArcView":true,"supportsDotBracketView":false,"supportsResidueHover":true,"routeAvailabilityStatus":"","blockerCode":"","blockerReason":""},{"contextRouteId":"annojoin:2d:RMDB2PDB:pairseg_6ZU5_sequence_000634","pairContextDataPath":"ANNOCONFIDENCE/lss_structure_context_annotation.tsv","pairContextSchemaId":"lss_structure_context_annotation","contextEngine":"FEC_V0_4_BETA_LSS","supportsPairArcView":true,"supportsDotBracketView":false,"supportsResidueHover":true,"routeAvailabilityStatus":"","blockerCode":"","blockerReason":""},{"contextRouteId":"annojoin:2d:RMDB2PDB:pairseg_6ZU5_sequence_000635","pairContextDataPath":"ANNOCONFIDENCE/lss_structure_context_annotation.tsv","pairContextSchemaId":"lss_structure_context_annotation","contextEngine":"FEC_V0_4_BETA_LSS","supportsPairArcView":true,"supportsDotBracketView":false,"supportsResidueHover":true,"routeAvailabilityStatus":"","blockerCode":"","blockerReason":""},{"contextRouteId":"annojoin:2d:RMDB2PDB:pairseg_6ZU5_sequence_000636","pairContextDataPath":"ANNOCONFIDENCE/lss_structure_context_annotation.tsv","pairContextSchemaId":"lss_structure_context_annotation","contextEngine":"FEC_V0_4_BETA_LSS","supportsPairArcView":true,"supportsDotBracketView":false,"supportsResidueHover":true,"routeAvailabilityStatus":"","blockerCode":"","blockerReason":""},{"contextRouteId":"annojoin:2d:RMDB2PDB:pairseg_6ZU5_sequence_000637","pairContextDataPath":"ANNOCONFIDENCE/lss_structure_context_annotation.tsv","pairContextSchemaId":"lss_structure_context_annotation","contextEngine":"FEC_V0_4_BETA_LSS","supportsPairArcView":true,"supportsDotBracketView":false,"supportsResidueHover":true,"routeAvailabilityStatus":"","blockerCode":"","blockerReason":""},{"contextRouteId":"annojoin:2d:RMDB2PDB:pairseg_6ZU5_sequence_000638","pairContextDataPath":"ANNOCONFIDENCE/lss_structure_context_annotation.tsv","pairContextSchemaId":"lss_structure_context_annotation","contextEngine":"FEC_V0_4_BETA_LSS","supportsPairArcView":true,"supportsDotBracketView":false,"supportsResidueHover":true,"routeAvailabilityStatus":"","blockerCode":"","blockerReason":""},{"contextRouteId":"annojoin:2d:RMDB2PDB:pairseg_6ZU5_sequence_000639","pairContextDataPath":"ANNOCONFIDENCE/lss_structure_context_annotation.tsv","pairContextSchemaId":"lss_structure_context_annotation","contextEngine":"FEC_V0_4_BETA_LSS","supportsPairArcView":true,"supportsDotBracketView":false,"supportsResidueHover":true,"routeAvailabilityStatus":"","blockerCode":"","blockerReason":""},{"contextRouteId":"annojoin:2d:RMDB2PDB:pairseg_6ZU5_sequence_000640","pairContextDataPath":"ANNOCONFIDENCE/lss_structure_context_annotation.tsv","pairContextSchemaId":"lss_structure_context_annotation","contextEngine":"FEC_V0_4_BETA_LSS","supportsPairArcView":true,"supportsDotBracketView":false,"supportsResidueHover":true,"routeAvailabilityStatus":"","blockerCode":"","blockerReason":""},{"contextRouteId":"annojoin:2d:RMDB2PDB:pairseg_6ZU5_sequence_000641","pairContextDataPath":"ANNOCONFIDENCE/lss_structure_context_annotation.tsv","pairContextSchemaId":"lss_structure_context_annotation","contextEngine":"FEC_V0_4_BETA_LSS","supportsPairArcView":true,"supportsDotBracketView":false,"supportsResidueHover":true,"routeAvailabilityStatus":"","blockerCode":"","blockerReason":""},{"contextRouteId":"annojoin:2d:RMDB2PDB:pairseg_6ZU5_sequence_000642","pairContextDataPath":"ANNOCONFIDENCE/lss_structure_context_annotation.tsv","pairContextSchemaId":"lss_structure_context_annotation","contextEngine":"FEC_V0_4_BETA_LSS","supportsPairArcView":true,"supportsDotBracketView":false,"supportsResidueHover":true,"routeAvailabilityStatus":"","blockerCode":"","blockerReason":""},{"contextRouteId":"annojoin:2d:RMDB2PDB:pairseg_6ZU5_sequence_000643","pairContextDataPath":"ANNOCONFIDENCE/lss_structure_context_annotation.tsv","pairContextSchemaId":"lss_structure_context_annotation","contextEngine":"FEC_V0_4_BETA_LSS","supportsPairArcView":true,"supportsDotBracketView":false,"supportsResidueHover":true,"routeAvailabilityStatus":"","blockerCode":"","blockerReason":""},{"contextRouteId":"annojoin:2d:RMDB2PDB:pairseg_6ZU5_sequence_000644","pairContextDataPath":"ANNOCONFIDENCE/lss_structure_context_annotation.tsv","pairContextSchemaId":"lss_structure_context_annotation","contextEngine":"FEC_V0_4_BETA_LSS","supportsPairArcView":true,"supportsDotBracketView":false,"supportsResidueHover":true,"routeAvailabilityStatus":"","blockerCode":"","blockerReason":""},{"contextRouteId":"annojoin:2d:RMDB2PDB:pairseg_6ZU5_sequence_000645","pairContextDataPath":"ANNOCONFIDENCE/lss_structure_context_annotation.tsv","pairContextSchemaId":"lss_structure_context_annotation","contextEngine":"FEC_V0_4_BETA_LSS","supportsPairArcView":true,"supportsDotBracketView":false,"supportsResidueHover":true,"routeAvailabilityStatus":"","blockerCode":"","blockerReason":""},{"contextRouteId":"annojoin:2d:RMDB2PDB:pairseg_6ZU5_sequence_000646","pairContextDataPath":"ANNOCONFIDENCE/lss_structure_context_annotation.tsv","pairContextSchemaId":"lss_structure_context_annotation","contextEngine":"FEC_V0_4_BETA_LSS","supportsPairArcView":true,"supportsDotBracketView":false,"supportsResidueHover":true,"routeAvailabilityStatus":"","blockerCode":"","blockerReason":""},{"contextRouteId":"annojoin:2d:RMDB2PDB:pairseg_6ZU5_sequence_000647","pairContextDataPath":"ANNOCONFIDENCE/lss_structure_context_annotation.tsv","pairContextSchemaId":"lss_structure_context_annotation","contextEngine":"FEC_V0_4_BETA_LSS","supportsPairArcView":true,"supportsDotBracketView":false,"supportsResidueHover":true,"routeAvailabilityStatus":"","blockerCode":"","blockerReason":""},{"contextRouteId":"annojoin:2d:RMDB2PDB:pairseg_6ZU5_sequence_000648","pairContextDataPath":"ANNOCONFIDENCE/lss_structure_context_annotation.tsv","pairContextSchemaId":"lss_structure_context_annotation","contextEngine":"FEC_V0_4_BETA_LSS","supportsPairArcView":true,"supportsDotBracketView":false,"supportsResidueHover":true,"routeAvailabilityStatus":"","blockerCode":"","blockerReason":""},{"contextRouteId":"annojoin:2d:RMDB2PDB:pairseg_6ZU5_sequence_000649","pairContextDataPath":"ANNOCONFIDENCE/lss_structure_context_annotation.tsv","pairContextSchemaId":"lss_structure_context_annotation","contextEngine":"FEC_V0_4_BETA_LSS","supportsPairArcView":true,"supportsDotBracketView":false,"supportsResidueHover":true,"routeAvailabilityStatus":"","blockerCode":"","blockerReason":""},{"contextRouteId":"annojoin:2d:RMDB2PDB:pairseg_6ZU5_sequence_000650","pairContextDataPath":"ANNOCONFIDENCE/lss_structure_context_annotation.tsv","pairContextSchemaId":"lss_structure_context_annotation","contextEngine":"FEC_V0_4_BETA_LSS","supportsPairArcView":true,"supportsDotBracketView":false,"supportsResidueHover":true,"routeAvailabilityStatus":"","blockerCode":"","blockerReason":""},{"contextRouteId":"annojoin:2d:RMDB2PDB:pairseg_6ZU5_sequence_000651","pairContextDataPath":"ANNOCONFIDENCE/lss_structure_context_annotation.tsv","pairContextSchemaId":"lss_structure_context_annotation","contextEngine":"FEC_V0_4_BETA_LSS","supportsPairArcView":true,"supportsDotBracketView":false,"supportsResidueHover":true,"routeAvailabilityStatus":"","blockerCode":"","blockerReason":""},{"contextRouteId":"annojoin:2d:RMDB2PDB:pairseg_6ZU5_sequence_000652","pairContextDataPath":"ANNOCONFIDENCE/lss_structure_context_annotation.tsv","pairContextSchemaId":"lss_structure_context_annotation","contextEngine":"FEC_V0_4_BETA_LSS","supportsPairArcView":true,"supportsDotBracketView":false,"supportsResidueHover":true,"routeAvailabilityStatus":"","blockerCode":"","blockerReason":""},{"contextRouteId":"annojoin:2d:RMDB2PDB:pairseg_6ZU5_sequence_000653","pairContextDataPath":"ANNOCONFIDENCE/lss_structure_context_annotation.tsv","pairContextSchemaId":"lss_structure_context_annotation","contextEngine":"FEC_V0_4_BETA_LSS","supportsPairArcView":true,"supportsDotBracketView":false,"supportsResidueHover":true,"routeAvailabilityStatus":"","blockerCode":"","blockerReason":""},{"contextRouteId":"annojoin:2d:RMDB2PDB:pairseg_6ZU5_sequence_000654","pairContextDataPath":"ANNOCONFIDENCE/lss_structure_context_annotation.tsv","pairContextSchemaId":"lss_structure_context_annotation","contextEngine":"FEC_V0_4_BETA_LSS","supportsPairArcView":true,"supportsDotBracketView":false,"supportsResidueHover":true,"routeAvailabilityStatus":"","blockerCode":"","blockerReason":""},{"contextRouteId":"annojoin:2d:RMDB2PDB:pairseg_6ZU5_sequence_000655","pairContextDataPath":"ANNOCONFIDENCE/lss_structure_context_annotation.tsv","pairContextSchemaId":"lss_structure_context_annotation","contextEngine":"FEC_V0_4_BETA_LSS","supportsPairArcView":true,"supportsDotBracketView":false,"supportsResidueHover":true,"routeAvailabilityStatus":"","blockerCode":"","blockerReason":""},{"contextRouteId":"annojoin:2d:RMDB2PDB:pairseg_6ZU5_sequence_000656","pairContextDataPath":"ANNOCONFIDENCE/lss_structure_context_annotation.tsv","pairContextSchemaId":"lss_structure_context_annotation","contextEngine":"FEC_V0_4_BETA_LSS","supportsPairArcView":true,"supportsDotBracketView":false,"supportsResidueHover":true,"routeAvailabilityStatus":"","blockerCode":"","blockerReason":""}]}
