{"schemaVersion":"annojoin-atlas.v1","version":"V2.1_RMDB_LINE_A_20260617","atlasCaseKey":"RMDB2PDB:7KD1","caseId":"7KD1","routeKey":"conflicts","page":3,"pageSize":500,"totalRows":1088,"pageCount":3,"rows":[{"id":"RMDB2PDB|conflict|pairseg_7KD1_sequence_001005","routeId":"annojoin:conflict:RMDB2PDB:pairseg_7KD1_sequence_001005","type":"structure_signal_discordance_candidate","status":"candidate","fecClaimCeiling":"","claimScope":"","lssStatus":"LSS_MODERATE_CANDIDATE","reviewPriorityHint":"review_lss_signal_context"},{"id":"RMDB2PDB|conflict|pairseg_7KD1_sequence_001006","routeId":"annojoin:conflict:RMDB2PDB:pairseg_7KD1_sequence_001006","type":"structure_signal_discordance_candidate","status":"none_detected","fecClaimCeiling":"","claimScope":"","lssStatus":"LSS_UNDERPOWERED","reviewPriorityHint":"no_conflict_review_priority"},{"id":"RMDB2PDB|conflict|pairseg_7KD1_sequence_001007","routeId":"annojoin:conflict:RMDB2PDB:pairseg_7KD1_sequence_001007","type":"structure_signal_discordance_candidate","status":"none_detected","fecClaimCeiling":"","claimScope":"","lssStatus":"LSS_NOT_SUPPORTED","reviewPriorityHint":"no_conflict_review_priority"},{"id":"RMDB2PDB|conflict|pairseg_7KD1_sequence_001008","routeId":"annojoin:conflict:RMDB2PDB:pairseg_7KD1_sequence_001008","type":"structure_signal_discordance_candidate","status":"none_detected","fecClaimCeiling":"","claimScope":"","lssStatus":"LSS_UNDERPOWERED","reviewPriorityHint":"no_conflict_review_priority"},{"id":"RMDB2PDB|conflict|pairseg_7KD1_sequence_001009","routeId":"annojoin:conflict:RMDB2PDB:pairseg_7KD1_sequence_001009","type":"structure_signal_discordance_candidate","status":"none_detected","fecClaimCeiling":"","claimScope":"","lssStatus":"LSS_WEAK","reviewPriorityHint":"no_conflict_review_priority"},{"id":"RMDB2PDB|conflict|pairseg_7KD1_sequence_001010","routeId":"annojoin:conflict:RMDB2PDB:pairseg_7KD1_sequence_001010","type":"structure_signal_discordance_candidate","status":"candidate","fecClaimCeiling":"","claimScope":"","lssStatus":"LSS_MODERATE_CANDIDATE","reviewPriorityHint":"review_lss_signal_context"},{"id":"RMDB2PDB|conflict|pairseg_7KD1_sequence_001011","routeId":"annojoin:conflict:RMDB2PDB:pairseg_7KD1_sequence_001011","type":"structure_signal_discordance_candidate","status":"none_detected","fecClaimCeiling":"","claimScope":"","lssStatus":"LSS_UNDERPOWERED","reviewPriorityHint":"no_conflict_review_priority"},{"id":"RMDB2PDB|conflict|pairseg_7KD1_sequence_001012","routeId":"annojoin:conflict:RMDB2PDB:pairseg_7KD1_sequence_001012","type":"structure_signal_discordance_candidate","status":"none_detected","fecClaimCeiling":"","claimScope":"","lssStatus":"LSS_DISCORDANT","reviewPriorityHint":"no_conflict_review_priority"},{"id":"RMDB2PDB|conflict|pairseg_7KD1_sequence_001013","routeId":"annojoin:conflict:RMDB2PDB:pairseg_7KD1_sequence_001013","type":"structure_signal_discordance_candidate","status":"none_detected","fecClaimCeiling":"","claimScope":"","lssStatus":"LSS_WEAK","reviewPriorityHint":"no_conflict_review_priority"},{"id":"RMDB2PDB|conflict|pairseg_7KD1_sequence_001014","routeId":"annojoin:conflict:RMDB2PDB:pairseg_7KD1_sequence_001014","type":"structure_signal_discordance_candidate","status":"none_detected","fecClaimCeiling":"","claimScope":"","lssStatus":"LSS_WEAK","reviewPriorityHint":"no_conflict_review_priority"},{"id":"RMDB2PDB|conflict|pairseg_7KD1_sequence_001015","routeId":"annojoin:conflict:RMDB2PDB:pairseg_7KD1_sequence_001015","type":"structure_signal_discordance_candidate","status":"none_detected","fecClaimCeiling":"","claimScope":"","lssStatus":"LSS_UNDERPOWERED","reviewPriorityHint":"no_conflict_review_priority"},{"id":"RMDB2PDB|conflict|pairseg_7KD1_sequence_001016","routeId":"annojoin:conflict:RMDB2PDB:pairseg_7KD1_sequence_001016","type":"structure_signal_discordance_candidate","status":"none_detected","fecClaimCeiling":"","claimScope":"","lssStatus":"LSS_DISCORDANT","reviewPriorityHint":"no_conflict_review_priority"},{"id":"RMDB2PDB|conflict|pairseg_7KD1_sequence_001017","routeId":"annojoin:conflict:RMDB2PDB:pairseg_7KD1_sequence_001017","type":"structure_signal_discordance_candidate","status":"none_detected","fecClaimCeiling":"","claimScope":"","lssStatus":"LSS_UNDERPOWERED","reviewPriorityHint":"no_conflict_review_priority"},{"id":"RMDB2PDB|conflict|pairseg_7KD1_sequence_001018","routeId":"annojoin:conflict:RMDB2PDB:pairseg_7KD1_sequence_001018","type":"structure_signal_discordance_candidate","status":"candidate","fecClaimCeiling":"","claimScope":"","lssStatus":"LSS_MODERATE_CANDIDATE","reviewPriorityHint":"review_lss_signal_context"},{"id":"RMDB2PDB|conflict|pairseg_7KD1_sequence_001019","routeId":"annojoin:conflict:RMDB2PDB:pairseg_7KD1_sequence_001019","type":"structure_signal_discordance_candidate","status":"none_detected","fecClaimCeiling":"","claimScope":"","lssStatus":"LSS_NOT_EVALUABLE","reviewPriorityHint":"no_conflict_review_priority"},{"id":"RMDB2PDB|conflict|pairseg_7KD1_sequence_001020","routeId":"annojoin:conflict:RMDB2PDB:pairseg_7KD1_sequence_001020","type":"structure_signal_discordance_candidate","status":"candidate","fecClaimCeiling":"","claimScope":"","lssStatus":"LSS_MODERATE_CANDIDATE","reviewPriorityHint":"review_lss_signal_context"},{"id":"RMDB2PDB|conflict|pairseg_7KD1_sequence_001021","routeId":"annojoin:conflict:RMDB2PDB:pairseg_7KD1_sequence_001021","type":"structure_signal_discordance_candidate","status":"candidate","fecClaimCeiling":"","claimScope":"","lssStatus":"LSS_MODERATE_CANDIDATE","reviewPriorityHint":"review_lss_signal_context"},{"id":"RMDB2PDB|conflict|pairseg_7KD1_sequence_001022","routeId":"annojoin:conflict:RMDB2PDB:pairseg_7KD1_sequence_001022","type":"structure_signal_discordance_candidate","status":"candidate","fecClaimCeiling":"","claimScope":"","lssStatus":"LSS_MODERATE_CANDIDATE","reviewPriorityHint":"review_lss_signal_context"},{"id":"RMDB2PDB|conflict|pairseg_7KD1_sequence_001023","routeId":"annojoin:conflict:RMDB2PDB:pairseg_7KD1_sequence_001023","type":"structure_signal_discordance_candidate","status":"candidate","fecClaimCeiling":"","claimScope":"","lssStatus":"LSS_MODERATE_CANDIDATE","reviewPriorityHint":"review_lss_signal_context"},{"id":"RMDB2PDB|conflict|pairseg_7KD1_sequence_001024","routeId":"annojoin:conflict:RMDB2PDB:pairseg_7KD1_sequence_001024","type":"structure_signal_discordance_candidate","status":"candidate","fecClaimCeiling":"","claimScope":"","lssStatus":"LSS_MODERATE_CANDIDATE","reviewPriorityHint":"review_lss_signal_context"},{"id":"RMDB2PDB|conflict|pairseg_7KD1_sequence_001025","routeId":"annojoin:conflict:RMDB2PDB:pairseg_7KD1_sequence_001025","type":"structure_signal_discordance_candidate","status":"none_detected","fecClaimCeiling":"","claimScope":"","lssStatus":"LSS_NOT_SUPPORTED","reviewPriorityHint":"no_conflict_review_priority"},{"id":"RMDB2PDB|conflict|pairseg_7KD1_sequence_001026","routeId":"annojoin:conflict:RMDB2PDB:pairseg_7KD1_sequence_001026","type":"structure_signal_discordance_candidate","status":"candidate","fecClaimCeiling":"","claimScope":"","lssStatus":"LSS_MODERATE_CANDIDATE","reviewPriorityHint":"review_lss_signal_context"},{"id":"RMDB2PDB|conflict|pairseg_7KD1_sequence_001027","routeId":"annojoin:conflict:RMDB2PDB:pairseg_7KD1_sequence_001027","type":"structure_signal_discordance_candidate","status":"none_detected","fecClaimCeiling":"","claimScope":"","lssStatus":"LSS_NOT_SUPPORTED","reviewPriorityHint":"no_conflict_review_priority"},{"id":"RMDB2PDB|conflict|pairseg_7KD1_sequence_001028","routeId":"annojoin:conflict:RMDB2PDB:pairseg_7KD1_sequence_001028","type":"structure_signal_discordance_candidate","status":"candidate","fecClaimCeiling":"","claimScope":"","lssStatus":"LSS_MODERATE_CANDIDATE","reviewPriorityHint":"review_lss_signal_context"},{"id":"RMDB2PDB|conflict|pairseg_7KD1_sequence_001029","routeId":"annojoin:conflict:RMDB2PDB:pairseg_7KD1_sequence_001029","type":"structure_signal_discordance_candidate","status":"candidate","fecClaimCeiling":"","claimScope":"","lssStatus":"LSS_MODERATE_CANDIDATE","reviewPriorityHint":"review_lss_signal_context"},{"id":"RMDB2PDB|conflict|pairseg_7KD1_sequence_001030","routeId":"annojoin:conflict:RMDB2PDB:pairseg_7KD1_sequence_001030","type":"structure_signal_discordance_candidate","status":"candidate","fecClaimCeiling":"","claimScope":"","lssStatus":"LSS_MODERATE_CANDIDATE","reviewPriorityHint":"review_lss_signal_context"},{"id":"RMDB2PDB|conflict|pairseg_7KD1_sequence_001031","routeId":"annojoin:conflict:RMDB2PDB:pairseg_7KD1_sequence_001031","type":"structure_signal_discordance_candidate","status":"candidate","fecClaimCeiling":"","claimScope":"","lssStatus":"LSS_MODERATE_CANDIDATE","reviewPriorityHint":"review_lss_signal_context"},{"id":"RMDB2PDB|conflict|pairseg_7KD1_sequence_001032","routeId":"annojoin:conflict:RMDB2PDB:pairseg_7KD1_sequence_001032","type":"structure_signal_discordance_candidate","status":"candidate","fecClaimCeiling":"","claimScope":"","lssStatus":"LSS_MODERATE_CANDIDATE","reviewPriorityHint":"review_lss_signal_context"},{"id":"RMDB2PDB|conflict|pairseg_7KD1_sequence_001033","routeId":"annojoin:conflict:RMDB2PDB:pairseg_7KD1_sequence_001033","type":"structure_signal_discordance_candidate","status":"candidate","fecClaimCeiling":"","claimScope":"","lssStatus":"LSS_MODERATE_CANDIDATE","reviewPriorityHint":"review_lss_signal_context"},{"id":"RMDB2PDB|conflict|pairseg_7KD1_sequence_001034","routeId":"annojoin:conflict:RMDB2PDB:pairseg_7KD1_sequence_001034","type":"structure_signal_discordance_candidate","status":"candidate","fecClaimCeiling":"","claimScope":"","lssStatus":"LSS_MODERATE_CANDIDATE","reviewPriorityHint":"review_lss_signal_context"},{"id":"RMDB2PDB|conflict|pairseg_7KD1_sequence_001035","routeId":"annojoin:conflict:RMDB2PDB:pairseg_7KD1_sequence_001035","type":"structure_signal_discordance_candidate","status":"none_detected","fecClaimCeiling":"","claimScope":"","lssStatus":"LSS_NOT_SUPPORTED","reviewPriorityHint":"no_conflict_review_priority"},{"id":"RMDB2PDB|conflict|pairseg_7KD1_sequence_001036","routeId":"annojoin:conflict:RMDB2PDB:pairseg_7KD1_sequence_001036","type":"structure_signal_discordance_candidate","status":"candidate","fecClaimCeiling":"","claimScope":"","lssStatus":"LSS_MODERATE_CANDIDATE","reviewPriorityHint":"review_lss_signal_context"},{"id":"RMDB2PDB|conflict|pairseg_7KD1_sequence_001037","routeId":"annojoin:conflict:RMDB2PDB:pairseg_7KD1_sequence_001037","type":"structure_signal_discordance_candidate","status":"candidate","fecClaimCeiling":"","claimScope":"","lssStatus":"LSS_MODERATE_CANDIDATE","reviewPriorityHint":"review_lss_signal_context"},{"id":"RMDB2PDB|conflict|pairseg_7KD1_sequence_001038","routeId":"annojoin:conflict:RMDB2PDB:pairseg_7KD1_sequence_001038","type":"structure_signal_discordance_candidate","status":"candidate","fecClaimCeiling":"","claimScope":"","lssStatus":"LSS_MODERATE_CANDIDATE","reviewPriorityHint":"review_lss_signal_context"},{"id":"RMDB2PDB|conflict|pairseg_7KD1_sequence_001039","routeId":"annojoin:conflict:RMDB2PDB:pairseg_7KD1_sequence_001039","type":"structure_signal_discordance_candidate","status":"candidate","fecClaimCeiling":"","claimScope":"","lssStatus":"LSS_MODERATE_CANDIDATE","reviewPriorityHint":"review_lss_signal_context"},{"id":"RMDB2PDB|conflict|pairseg_7KD1_sequence_001040","routeId":"annojoin:conflict:RMDB2PDB:pairseg_7KD1_sequence_001040","type":"structure_signal_discordance_candidate","status":"candidate","fecClaimCeiling":"","claimScope":"","lssStatus":"LSS_MODERATE_CANDIDATE","reviewPriorityHint":"review_lss_signal_context"},{"id":"RMDB2PDB|conflict|pairseg_7KD1_sequence_001041","routeId":"annojoin:conflict:RMDB2PDB:pairseg_7KD1_sequence_001041","type":"structure_signal_discordance_candidate","status":"none_detected","fecClaimCeiling":"","claimScope":"","lssStatus":"LSS_NOT_EVALUABLE","reviewPriorityHint":"no_conflict_review_priority"},{"id":"RMDB2PDB|conflict|pairseg_7KD1_sequence_001042","routeId":"annojoin:conflict:RMDB2PDB:pairseg_7KD1_sequence_001042","type":"structure_signal_discordance_candidate","status":"none_detected","fecClaimCeiling":"","claimScope":"","lssStatus":"LSS_NOT_EVALUABLE","reviewPriorityHint":"no_conflict_review_priority"},{"id":"RMDB2PDB|conflict|pairseg_7KD1_sequence_001043","routeId":"annojoin:conflict:RMDB2PDB:pairseg_7KD1_sequence_001043","type":"structure_signal_discordance_candidate","status":"candidate","fecClaimCeiling":"","claimScope":"","lssStatus":"LSS_MODERATE_CANDIDATE","reviewPriorityHint":"review_lss_signal_context"},{"id":"RMDB2PDB|conflict|pairseg_7KD1_sequence_001044","routeId":"annojoin:conflict:RMDB2PDB:pairseg_7KD1_sequence_001044","type":"structure_signal_discordance_candidate","status":"candidate","fecClaimCeiling":"","claimScope":"","lssStatus":"LSS_MODERATE_CANDIDATE","reviewPriorityHint":"review_lss_signal_context"},{"id":"RMDB2PDB|conflict|pairseg_7KD1_sequence_001045","routeId":"annojoin:conflict:RMDB2PDB:pairseg_7KD1_sequence_001045","type":"structure_signal_discordance_candidate","status":"candidate","fecClaimCeiling":"","claimScope":"","lssStatus":"LSS_MODERATE_CANDIDATE","reviewPriorityHint":"review_lss_signal_context"},{"id":"RMDB2PDB|conflict|pairseg_7KD1_sequence_001046","routeId":"annojoin:conflict:RMDB2PDB:pairseg_7KD1_sequence_001046","type":"structure_signal_discordance_candidate","status":"candidate","fecClaimCeiling":"","claimScope":"","lssStatus":"LSS_MODERATE_CANDIDATE","reviewPriorityHint":"review_lss_signal_context"},{"id":"RMDB2PDB|conflict|pairseg_7KD1_sequence_001047","routeId":"annojoin:conflict:RMDB2PDB:pairseg_7KD1_sequence_001047","type":"structure_signal_discordance_candidate","status":"candidate","fecClaimCeiling":"","claimScope":"","lssStatus":"LSS_MODERATE_CANDIDATE","reviewPriorityHint":"review_lss_signal_context"},{"id":"RMDB2PDB|conflict|pairseg_7KD1_sequence_001048","routeId":"annojoin:conflict:RMDB2PDB:pairseg_7KD1_sequence_001048","type":"structure_signal_discordance_candidate","status":"none_detected","fecClaimCeiling":"","claimScope":"","lssStatus":"LSS_UNDERPOWERED","reviewPriorityHint":"no_conflict_review_priority"},{"id":"RMDB2PDB|conflict|pairseg_7KD1_sequence_001049","routeId":"annojoin:conflict:RMDB2PDB:pairseg_7KD1_sequence_001049","type":"structure_signal_discordance_candidate","status":"candidate","fecClaimCeiling":"","claimScope":"","lssStatus":"LSS_MODERATE_CANDIDATE","reviewPriorityHint":"review_lss_signal_context"},{"id":"RMDB2PDB|conflict|pairseg_7KD1_sequence_001050","routeId":"annojoin:conflict:RMDB2PDB:pairseg_7KD1_sequence_001050","type":"structure_signal_discordance_candidate","status":"candidate","fecClaimCeiling":"","claimScope":"","lssStatus":"LSS_MODERATE_CANDIDATE","reviewPriorityHint":"review_lss_signal_context"},{"id":"RMDB2PDB|conflict|pairseg_7KD1_sequence_001051","routeId":"annojoin:conflict:RMDB2PDB:pairseg_7KD1_sequence_001051","type":"structure_signal_discordance_candidate","status":"candidate","fecClaimCeiling":"","claimScope":"","lssStatus":"LSS_MODERATE_CANDIDATE","reviewPriorityHint":"review_lss_signal_context"},{"id":"RMDB2PDB|conflict|pairseg_7KD1_sequence_001052","routeId":"annojoin:conflict:RMDB2PDB:pairseg_7KD1_sequence_001052","type":"structure_signal_discordance_candidate","status":"none_detected","fecClaimCeiling":"","claimScope":"","lssStatus":"LSS_WEAK","reviewPriorityHint":"no_conflict_review_priority"},{"id":"RMDB2PDB|conflict|pairseg_7KD1_sequence_001053","routeId":"annojoin:conflict:RMDB2PDB:pairseg_7KD1_sequence_001053","type":"structure_signal_discordance_candidate","status":"none_detected","fecClaimCeiling":"","claimScope":"","lssStatus":"LSS_WEAK","reviewPriorityHint":"no_conflict_review_priority"},{"id":"RMDB2PDB|conflict|pairseg_7KD1_sequence_001054","routeId":"annojoin:conflict:RMDB2PDB:pairseg_7KD1_sequence_001054","type":"structure_signal_discordance_candidate","status":"candidate","fecClaimCeiling":"","claimScope":"","lssStatus":"LSS_MODERATE_CANDIDATE","reviewPriorityHint":"review_lss_signal_context"},{"id":"RMDB2PDB|conflict|pairseg_7KD1_sequence_001055","routeId":"annojoin:conflict:RMDB2PDB:pairseg_7KD1_sequence_001055","type":"structure_signal_discordance_candidate","status":"candidate","fecClaimCeiling":"","claimScope":"","lssStatus":"LSS_MODERATE_CANDIDATE","reviewPriorityHint":"review_lss_signal_context"},{"id":"RMDB2PDB|conflict|pairseg_7KD1_sequence_001056","routeId":"annojoin:conflict:RMDB2PDB:pairseg_7KD1_sequence_001056","type":"structure_signal_discordance_candidate","status":"candidate","fecClaimCeiling":"","claimScope":"","lssStatus":"LSS_MODERATE_CANDIDATE","reviewPriorityHint":"review_lss_signal_context"},{"id":"RMDB2PDB|conflict|pairseg_7KD1_sequence_001057","routeId":"annojoin:conflict:RMDB2PDB:pairseg_7KD1_sequence_001057","type":"structure_signal_discordance_candidate","status":"candidate","fecClaimCeiling":"","claimScope":"","lssStatus":"LSS_MODERATE_CANDIDATE","reviewPriorityHint":"review_lss_signal_context"},{"id":"RMDB2PDB|conflict|pairseg_7KD1_sequence_001058","routeId":"annojoin:conflict:RMDB2PDB:pairseg_7KD1_sequence_001058","type":"structure_signal_discordance_candidate","status":"none_detected","fecClaimCeiling":"","claimScope":"","lssStatus":"LSS_WEAK","reviewPriorityHint":"no_conflict_review_priority"},{"id":"RMDB2PDB|conflict|pairseg_7KD1_sequence_001059","routeId":"annojoin:conflict:RMDB2PDB:pairseg_7KD1_sequence_001059","type":"structure_signal_discordance_candidate","status":"candidate","fecClaimCeiling":"","claimScope":"","lssStatus":"LSS_MODERATE_CANDIDATE","reviewPriorityHint":"review_lss_signal_context"},{"id":"RMDB2PDB|conflict|pairseg_7KD1_sequence_001060","routeId":"annojoin:conflict:RMDB2PDB:pairseg_7KD1_sequence_001060","type":"structure_signal_discordance_candidate","status":"candidate","fecClaimCeiling":"","claimScope":"","lssStatus":"LSS_MODERATE_CANDIDATE","reviewPriorityHint":"review_lss_signal_context"},{"id":"RMDB2PDB|conflict|pairseg_7KD1_sequence_001061","routeId":"annojoin:conflict:RMDB2PDB:pairseg_7KD1_sequence_001061","type":"structure_signal_discordance_candidate","status":"candidate","fecClaimCeiling":"","claimScope":"","lssStatus":"LSS_MODERATE_CANDIDATE","reviewPriorityHint":"review_lss_signal_context"},{"id":"RMDB2PDB|conflict|pairseg_7KD1_sequence_001062","routeId":"annojoin:conflict:RMDB2PDB:pairseg_7KD1_sequence_001062","type":"structure_signal_discordance_candidate","status":"none_detected","fecClaimCeiling":"","claimScope":"","lssStatus":"LSS_NOT_EVALUABLE","reviewPriorityHint":"no_conflict_review_priority"},{"id":"RMDB2PDB|conflict|pairseg_7KD1_sequence_001063","routeId":"annojoin:conflict:RMDB2PDB:pairseg_7KD1_sequence_001063","type":"structure_signal_discordance_candidate","status":"none_detected","fecClaimCeiling":"","claimScope":"","lssStatus":"LSS_NOT_SUPPORTED","reviewPriorityHint":"no_conflict_review_priority"},{"id":"RMDB2PDB|conflict|pairseg_7KD1_sequence_001064","routeId":"annojoin:conflict:RMDB2PDB:pairseg_7KD1_sequence_001064","type":"structure_signal_discordance_candidate","status":"candidate","fecClaimCeiling":"","claimScope":"","lssStatus":"LSS_MODERATE_CANDIDATE","reviewPriorityHint":"review_lss_signal_context"},{"id":"RMDB2PDB|conflict|pairseg_7KD1_sequence_001065","routeId":"annojoin:conflict:RMDB2PDB:pairseg_7KD1_sequence_001065","type":"structure_signal_discordance_candidate","status":"candidate","fecClaimCeiling":"","claimScope":"","lssStatus":"LSS_MODERATE_CANDIDATE","reviewPriorityHint":"review_lss_signal_context"},{"id":"RMDB2PDB|conflict|pairseg_7KD1_sequence_001066","routeId":"annojoin:conflict:RMDB2PDB:pairseg_7KD1_sequence_001066","type":"structure_signal_discordance_candidate","status":"candidate","fecClaimCeiling":"","claimScope":"","lssStatus":"LSS_MODERATE_CANDIDATE","reviewPriorityHint":"review_lss_signal_context"},{"id":"RMDB2PDB|conflict|pairseg_7KD1_sequence_001067","routeId":"annojoin:conflict:RMDB2PDB:pairseg_7KD1_sequence_001067","type":"structure_signal_discordance_candidate","status":"candidate","fecClaimCeiling":"","claimScope":"","lssStatus":"LSS_MODERATE_CANDIDATE","reviewPriorityHint":"review_lss_signal_context"},{"id":"RMDB2PDB|conflict|pairseg_7KD1_sequence_001068","routeId":"annojoin:conflict:RMDB2PDB:pairseg_7KD1_sequence_001068","type":"structure_signal_discordance_candidate","status":"none_detected","fecClaimCeiling":"","claimScope":"","lssStatus":"LSS_WEAK","reviewPriorityHint":"no_conflict_review_priority"},{"id":"RMDB2PDB|conflict|pairseg_7KD1_sequence_001069","routeId":"annojoin:conflict:RMDB2PDB:pairseg_7KD1_sequence_001069","type":"structure_signal_discordance_candidate","status":"candidate","fecClaimCeiling":"","claimScope":"","lssStatus":"LSS_MODERATE_CANDIDATE","reviewPriorityHint":"review_lss_signal_context"},{"id":"RMDB2PDB|conflict|pairseg_7KD1_sequence_001070","routeId":"annojoin:conflict:RMDB2PDB:pairseg_7KD1_sequence_001070","type":"structure_signal_discordance_candidate","status":"candidate","fecClaimCeiling":"","claimScope":"","lssStatus":"LSS_MODERATE_CANDIDATE","reviewPriorityHint":"review_lss_signal_context"},{"id":"RMDB2PDB|conflict|pairseg_7KD1_sequence_001071","routeId":"annojoin:conflict:RMDB2PDB:pairseg_7KD1_sequence_001071","type":"structure_signal_discordance_candidate","status":"candidate","fecClaimCeiling":"","claimScope":"","lssStatus":"LSS_MODERATE_CANDIDATE","reviewPriorityHint":"review_lss_signal_context"},{"id":"RMDB2PDB|conflict|pairseg_7KD1_sequence_001072","routeId":"annojoin:conflict:RMDB2PDB:pairseg_7KD1_sequence_001072","type":"structure_signal_discordance_candidate","status":"none_detected","fecClaimCeiling":"","claimScope":"","lssStatus":"LSS_WEAK","reviewPriorityHint":"no_conflict_review_priority"},{"id":"RMDB2PDB|conflict|pairseg_7KD1_sequence_001073","routeId":"annojoin:conflict:RMDB2PDB:pairseg_7KD1_sequence_001073","type":"structure_signal_discordance_candidate","status":"none_detected","fecClaimCeiling":"","claimScope":"","lssStatus":"LSS_NOT_SUPPORTED","reviewPriorityHint":"no_conflict_review_priority"},{"id":"RMDB2PDB|conflict|pairseg_7KD1_sequence_001074","routeId":"annojoin:conflict:RMDB2PDB:pairseg_7KD1_sequence_001074","type":"structure_signal_discordance_candidate","status":"none_detected","fecClaimCeiling":"","claimScope":"","lssStatus":"LSS_NOT_SUPPORTED","reviewPriorityHint":"no_conflict_review_priority"},{"id":"RMDB2PDB|conflict|pairseg_7KD1_sequence_001075","routeId":"annojoin:conflict:RMDB2PDB:pairseg_7KD1_sequence_001075","type":"structure_signal_discordance_candidate","status":"candidate","fecClaimCeiling":"","claimScope":"","lssStatus":"LSS_MODERATE_CANDIDATE","reviewPriorityHint":"review_lss_signal_context"},{"id":"RMDB2PDB|conflict|pairseg_7KD1_sequence_001076","routeId":"annojoin:conflict:RMDB2PDB:pairseg_7KD1_sequence_001076","type":"structure_signal_discordance_candidate","status":"candidate","fecClaimCeiling":"","claimScope":"","lssStatus":"LSS_MODERATE_CANDIDATE","reviewPriorityHint":"review_lss_signal_context"},{"id":"RMDB2PDB|conflict|pairseg_7KD1_sequence_001077","routeId":"annojoin:conflict:RMDB2PDB:pairseg_7KD1_sequence_001077","type":"structure_signal_discordance_candidate","status":"candidate","fecClaimCeiling":"","claimScope":"","lssStatus":"LSS_MODERATE_CANDIDATE","reviewPriorityHint":"review_lss_signal_context"},{"id":"RMDB2PDB|conflict|pairseg_7KD1_sequence_001078","routeId":"annojoin:conflict:RMDB2PDB:pairseg_7KD1_sequence_001078","type":"structure_signal_discordance_candidate","status":"candidate","fecClaimCeiling":"","claimScope":"","lssStatus":"LSS_MODERATE_CANDIDATE","reviewPriorityHint":"review_lss_signal_context"},{"id":"RMDB2PDB|conflict|pairseg_7KD1_sequence_001079","routeId":"annojoin:conflict:RMDB2PDB:pairseg_7KD1_sequence_001079","type":"structure_signal_discordance_candidate","status":"candidate","fecClaimCeiling":"","claimScope":"","lssStatus":"LSS_MODERATE_CANDIDATE","reviewPriorityHint":"review_lss_signal_context"},{"id":"RMDB2PDB|conflict|pairseg_7KD1_sequence_001080","routeId":"annojoin:conflict:RMDB2PDB:pairseg_7KD1_sequence_001080","type":"structure_signal_discordance_candidate","status":"none_detected","fecClaimCeiling":"","claimScope":"","lssStatus":"LSS_NOT_SUPPORTED","reviewPriorityHint":"no_conflict_review_priority"},{"id":"RMDB2PDB|conflict|pairseg_7KD1_sequence_001081","routeId":"annojoin:conflict:RMDB2PDB:pairseg_7KD1_sequence_001081","type":"structure_signal_discordance_candidate","status":"none_detected","fecClaimCeiling":"","claimScope":"","lssStatus":"LSS_NOT_SUPPORTED","reviewPriorityHint":"no_conflict_review_priority"},{"id":"RMDB2PDB|conflict|pairseg_7KD1_sequence_001082","routeId":"annojoin:conflict:RMDB2PDB:pairseg_7KD1_sequence_001082","type":"structure_signal_discordance_candidate","status":"candidate","fecClaimCeiling":"","claimScope":"","lssStatus":"LSS_MODERATE_CANDIDATE","reviewPriorityHint":"review_lss_signal_context"},{"id":"RMDB2PDB|conflict|pairseg_7KD1_sequence_001083","routeId":"annojoin:conflict:RMDB2PDB:pairseg_7KD1_sequence_001083","type":"structure_signal_discordance_candidate","status":"none_detected","fecClaimCeiling":"","claimScope":"","lssStatus":"LSS_NOT_EVALUABLE","reviewPriorityHint":"no_conflict_review_priority"},{"id":"RMDB2PDB|conflict|pairseg_7KD1_sequence_001084","routeId":"annojoin:conflict:RMDB2PDB:pairseg_7KD1_sequence_001084","type":"structure_signal_discordance_candidate","status":"candidate","fecClaimCeiling":"","claimScope":"","lssStatus":"LSS_MODERATE_CANDIDATE","reviewPriorityHint":"review_lss_signal_context"},{"id":"RMDB2PDB|conflict|pairseg_7KD1_sequence_001085","routeId":"annojoin:conflict:RMDB2PDB:pairseg_7KD1_sequence_001085","type":"structure_signal_discordance_candidate","status":"none_detected","fecClaimCeiling":"","claimScope":"","lssStatus":"LSS_NOT_EVALUABLE","reviewPriorityHint":"no_conflict_review_priority"},{"id":"RMDB2PDB|conflict|pairseg_7KD1_sequence_001086","routeId":"annojoin:conflict:RMDB2PDB:pairseg_7KD1_sequence_001086","type":"structure_signal_discordance_candidate","status":"candidate","fecClaimCeiling":"","claimScope":"","lssStatus":"LSS_MODERATE_CANDIDATE","reviewPriorityHint":"review_lss_signal_context"},{"id":"RMDB2PDB|conflict|pairseg_7KD1_sequence_001087","routeId":"annojoin:conflict:RMDB2PDB:pairseg_7KD1_sequence_001087","type":"structure_signal_discordance_candidate","status":"candidate","fecClaimCeiling":"","claimScope":"","lssStatus":"LSS_MODERATE_CANDIDATE","reviewPriorityHint":"review_lss_signal_context"},{"id":"RMDB2PDB|conflict|pairseg_7KD1_sequence_001088","routeId":"annojoin:conflict:RMDB2PDB:pairseg_7KD1_sequence_001088","type":"structure_signal_discordance_candidate","status":"candidate","fecClaimCeiling":"","claimScope":"","lssStatus":"LSS_MODERATE_CANDIDATE","reviewPriorityHint":"review_lss_signal_context"},{"id":"RMDB2PDB|conflict|pairseg_7KD1_sequence_001089","routeId":"annojoin:conflict:RMDB2PDB:pairseg_7KD1_sequence_001089","type":"structure_signal_discordance_candidate","status":"candidate","fecClaimCeiling":"","claimScope":"","lssStatus":"LSS_MODERATE_CANDIDATE","reviewPriorityHint":"review_lss_signal_context"},{"id":"RMDB2PDB|conflict|pairseg_7KD1_sequence_001090","routeId":"annojoin:conflict:RMDB2PDB:pairseg_7KD1_sequence_001090","type":"structure_signal_discordance_candidate","status":"candidate","fecClaimCeiling":"","claimScope":"","lssStatus":"LSS_MODERATE_CANDIDATE","reviewPriorityHint":"review_lss_signal_context"},{"id":"RMDB2PDB|conflict|pairseg_7KD1_sequence_001091","routeId":"annojoin:conflict:RMDB2PDB:pairseg_7KD1_sequence_001091","type":"structure_signal_discordance_candidate","status":"none_detected","fecClaimCeiling":"","claimScope":"","lssStatus":"LSS_NOT_SUPPORTED","reviewPriorityHint":"no_conflict_review_priority"},{"id":"RMDB2PDB|conflict|pairseg_7KD1_sequence_001092","routeId":"annojoin:conflict:RMDB2PDB:pairseg_7KD1_sequence_001092","type":"structure_signal_discordance_candidate","status":"candidate","fecClaimCeiling":"","claimScope":"","lssStatus":"LSS_MODERATE_CANDIDATE","reviewPriorityHint":"review_lss_signal_context"}]}
