{"schemaVersion":"annojoin-atlas.v1","version":"V2.1_RMDB_LINE_A_20260617","atlasCaseKey":"RMDB2PDB:6ZU5","caseId":"6ZU5","routeKey":"track-routes","page":2,"pageSize":500,"totalRows":557,"pageCount":2,"rows":[{"profileId":"data-rna-structures/data-rna-structures/RFMREP_DMS_0000.rdat#63398","trackRouteId":"annojoin:track:RMDB2PDB:pairseg_6ZU5_sequence_000600","trackDataPath":"ANNOCONFIDENCE/assay_numeric_usability_annotation.tsv","trackSchemaId":"assay_numeric_usability_annotation","supports1d":true,"supportsTable":true,"colorPolicyId":"rmdb_reactivity_low_mid_high_v1"},{"profileId":"data-rna-structures/data-rna-structures/RFMREP_2A3_0001.rdat#5000","trackRouteId":"annojoin:track:RMDB2PDB:pairseg_6ZU5_sequence_000601","trackDataPath":"ANNOCONFIDENCE/assay_numeric_usability_annotation.tsv","trackSchemaId":"assay_numeric_usability_annotation","supports1d":true,"supportsTable":true,"colorPolicyId":"rmdb_reactivity_low_mid_high_v1"},{"profileId":"data-rna-structures/data-rna-structures/RFMREP_DMS_0001.rdat#5000","trackRouteId":"annojoin:track:RMDB2PDB:pairseg_6ZU5_sequence_000602","trackDataPath":"ANNOCONFIDENCE/assay_numeric_usability_annotation.tsv","trackSchemaId":"assay_numeric_usability_annotation","supports1d":true,"supportsTable":true,"colorPolicyId":"rmdb_reactivity_low_mid_high_v1"},{"profileId":"data-rna-structures/data-rna-structures/RFMREP_DMS_0000.rdat#30738","trackRouteId":"annojoin:track:RMDB2PDB:pairseg_6ZU5_sequence_000603","trackDataPath":"ANNOCONFIDENCE/assay_numeric_usability_annotation.tsv","trackSchemaId":"assay_numeric_usability_annotation","supports1d":true,"supportsTable":true,"colorPolicyId":"rmdb_reactivity_low_mid_high_v1"},{"profileId":"data-rna-structures/data-rna-structures/RFMREP_2A3_0000.rdat#30738","trackRouteId":"annojoin:track:RMDB2PDB:pairseg_6ZU5_sequence_000604","trackDataPath":"ANNOCONFIDENCE/assay_numeric_usability_annotation.tsv","trackSchemaId":"assay_numeric_usability_annotation","supports1d":true,"supportsTable":true,"colorPolicyId":"rmdb_reactivity_low_mid_high_v1"},{"profileId":"data-rna-structures/data-rna-structures/RFM100_2A3_0000.rdat#7092","trackRouteId":"annojoin:track:RMDB2PDB:pairseg_6ZU5_sequence_000605","trackDataPath":"ANNOCONFIDENCE/assay_numeric_usability_annotation.tsv","trackSchemaId":"assay_numeric_usability_annotation","supports1d":true,"supportsTable":true,"colorPolicyId":"rmdb_reactivity_low_mid_high_v1"},{"profileId":"data-rna-structures/data-rna-structures/RFM100_DMS_0000.rdat#7092","trackRouteId":"annojoin:track:RMDB2PDB:pairseg_6ZU5_sequence_000606","trackDataPath":"ANNOCONFIDENCE/assay_numeric_usability_annotation.tsv","trackSchemaId":"assay_numeric_usability_annotation","supports1d":true,"supportsTable":true,"colorPolicyId":"rmdb_reactivity_low_mid_high_v1"},{"profileId":"data-rna-structures/data-rna-structures/RFMREP_2A3_0000.rdat#66534","trackRouteId":"annojoin:track:RMDB2PDB:pairseg_6ZU5_sequence_000607","trackDataPath":"ANNOCONFIDENCE/assay_numeric_usability_annotation.tsv","trackSchemaId":"assay_numeric_usability_annotation","supports1d":true,"supportsTable":true,"colorPolicyId":"rmdb_reactivity_low_mid_high_v1"},{"profileId":"data-rna-structures/data-rna-structures/RFMREP_DMS_0000.rdat#66534","trackRouteId":"annojoin:track:RMDB2PDB:pairseg_6ZU5_sequence_000608","trackDataPath":"ANNOCONFIDENCE/assay_numeric_usability_annotation.tsv","trackSchemaId":"assay_numeric_usability_annotation","supports1d":true,"supportsTable":true,"colorPolicyId":"rmdb_reactivity_low_mid_high_v1"},{"profileId":"data-rna-structures/data-rna-structures/RFM100_2A3_0000.rdat#13814","trackRouteId":"annojoin:track:RMDB2PDB:pairseg_6ZU5_sequence_000609","trackDataPath":"ANNOCONFIDENCE/assay_numeric_usability_annotation.tsv","trackSchemaId":"assay_numeric_usability_annotation","supports1d":true,"supportsTable":true,"colorPolicyId":"rmdb_reactivity_low_mid_high_v1"},{"profileId":"data-rna-structures/data-rna-structures/RFM100_DMS_0000.rdat#13814","trackRouteId":"annojoin:track:RMDB2PDB:pairseg_6ZU5_sequence_000610","trackDataPath":"ANNOCONFIDENCE/assay_numeric_usability_annotation.tsv","trackSchemaId":"assay_numeric_usability_annotation","supports1d":true,"supportsTable":true,"colorPolicyId":"rmdb_reactivity_low_mid_high_v1"},{"profileId":"data-rna-structures/data-rna-structures/RFMREP_2A3_0000.rdat#23995","trackRouteId":"annojoin:track:RMDB2PDB:pairseg_6ZU5_sequence_000611","trackDataPath":"ANNOCONFIDENCE/assay_numeric_usability_annotation.tsv","trackSchemaId":"assay_numeric_usability_annotation","supports1d":true,"supportsTable":true,"colorPolicyId":"rmdb_reactivity_low_mid_high_v1"},{"profileId":"data-rna-structures/data-rna-structures/RFMREP_DMS_0000.rdat#23995","trackRouteId":"annojoin:track:RMDB2PDB:pairseg_6ZU5_sequence_000612","trackDataPath":"ANNOCONFIDENCE/assay_numeric_usability_annotation.tsv","trackSchemaId":"assay_numeric_usability_annotation","supports1d":true,"supportsTable":true,"colorPolicyId":"rmdb_reactivity_low_mid_high_v1"},{"profileId":"data-rna-structures/data-rna-structures/RFMREP_DMS_0000.rdat#66535","trackRouteId":"annojoin:track:RMDB2PDB:pairseg_6ZU5_sequence_000613","trackDataPath":"ANNOCONFIDENCE/assay_numeric_usability_annotation.tsv","trackSchemaId":"assay_numeric_usability_annotation","supports1d":true,"supportsTable":true,"colorPolicyId":"rmdb_reactivity_low_mid_high_v1"},{"profileId":"data-rna-structures/data-rna-structures/RFMREP_2A3_0000.rdat#66535","trackRouteId":"annojoin:track:RMDB2PDB:pairseg_6ZU5_sequence_000614","trackDataPath":"ANNOCONFIDENCE/assay_numeric_usability_annotation.tsv","trackSchemaId":"assay_numeric_usability_annotation","supports1d":true,"supportsTable":true,"colorPolicyId":"rmdb_reactivity_low_mid_high_v1"},{"profileId":"data-rna-structures/data-rna-structures/RFMREP_2A3_0000.rdat#23994","trackRouteId":"annojoin:track:RMDB2PDB:pairseg_6ZU5_sequence_000615","trackDataPath":"ANNOCONFIDENCE/assay_numeric_usability_annotation.tsv","trackSchemaId":"assay_numeric_usability_annotation","supports1d":true,"supportsTable":true,"colorPolicyId":"rmdb_reactivity_low_mid_high_v1"},{"profileId":"data-rna-structures/data-rna-structures/RFM100_DMS_0000.rdat#13815","trackRouteId":"annojoin:track:RMDB2PDB:pairseg_6ZU5_sequence_000616","trackDataPath":"ANNOCONFIDENCE/assay_numeric_usability_annotation.tsv","trackSchemaId":"assay_numeric_usability_annotation","supports1d":true,"supportsTable":true,"colorPolicyId":"rmdb_reactivity_low_mid_high_v1"},{"profileId":"data-rna-structures/data-rna-structures/RFM100_2A3_0000.rdat#13815","trackRouteId":"annojoin:track:RMDB2PDB:pairseg_6ZU5_sequence_000617","trackDataPath":"ANNOCONFIDENCE/assay_numeric_usability_annotation.tsv","trackSchemaId":"assay_numeric_usability_annotation","supports1d":true,"supportsTable":true,"colorPolicyId":"rmdb_reactivity_low_mid_high_v1"},{"profileId":"data-rna-structures/data-rna-structures/RFMREP_DMS_0000.rdat#23994","trackRouteId":"annojoin:track:RMDB2PDB:pairseg_6ZU5_sequence_000618","trackDataPath":"ANNOCONFIDENCE/assay_numeric_usability_annotation.tsv","trackSchemaId":"assay_numeric_usability_annotation","supports1d":true,"supportsTable":true,"colorPolicyId":"rmdb_reactivity_low_mid_high_v1"},{"profileId":"data-rna-structures/data-rna-structures/RFM100_2A3_0000.rdat#7139","trackRouteId":"annojoin:track:RMDB2PDB:pairseg_6ZU5_sequence_000619","trackDataPath":"ANNOCONFIDENCE/assay_numeric_usability_annotation.tsv","trackSchemaId":"assay_numeric_usability_annotation","supports1d":true,"supportsTable":true,"colorPolicyId":"rmdb_reactivity_low_mid_high_v1"},{"profileId":"data-rna-structures/data-rna-structures/RFMREP_DMS_0000.rdat#30689","trackRouteId":"annojoin:track:RMDB2PDB:pairseg_6ZU5_sequence_000620","trackDataPath":"ANNOCONFIDENCE/assay_numeric_usability_annotation.tsv","trackSchemaId":"assay_numeric_usability_annotation","supports1d":true,"supportsTable":true,"colorPolicyId":"rmdb_reactivity_low_mid_high_v1"},{"profileId":"data-rna-structures/data-rna-structures/RFM100_DMS_0000.rdat#7139","trackRouteId":"annojoin:track:RMDB2PDB:pairseg_6ZU5_sequence_000621","trackDataPath":"ANNOCONFIDENCE/assay_numeric_usability_annotation.tsv","trackSchemaId":"assay_numeric_usability_annotation","supports1d":true,"supportsTable":true,"colorPolicyId":"rmdb_reactivity_low_mid_high_v1"},{"profileId":"data-rna-structures/data-rna-structures/RFMREP_2A3_0000.rdat#30689","trackRouteId":"annojoin:track:RMDB2PDB:pairseg_6ZU5_sequence_000622","trackDataPath":"ANNOCONFIDENCE/assay_numeric_usability_annotation.tsv","trackSchemaId":"assay_numeric_usability_annotation","supports1d":true,"supportsTable":true,"colorPolicyId":"rmdb_reactivity_low_mid_high_v1"},{"profileId":"data-rna-structures/data-rna-structures/RFM100_DMS_0000.rdat#7091","trackRouteId":"annojoin:track:RMDB2PDB:pairseg_6ZU5_sequence_000623","trackDataPath":"ANNOCONFIDENCE/assay_numeric_usability_annotation.tsv","trackSchemaId":"assay_numeric_usability_annotation","supports1d":true,"supportsTable":true,"colorPolicyId":"rmdb_reactivity_low_mid_high_v1"},{"profileId":"data-rna-structures/data-rna-structures/RFMREP_2A3_0000.rdat#30739","trackRouteId":"annojoin:track:RMDB2PDB:pairseg_6ZU5_sequence_000624","trackDataPath":"ANNOCONFIDENCE/assay_numeric_usability_annotation.tsv","trackSchemaId":"assay_numeric_usability_annotation","supports1d":true,"supportsTable":true,"colorPolicyId":"rmdb_reactivity_low_mid_high_v1"},{"profileId":"data-rna-structures/data-rna-structures/RFMREP_DMS_0000.rdat#30739","trackRouteId":"annojoin:track:RMDB2PDB:pairseg_6ZU5_sequence_000625","trackDataPath":"ANNOCONFIDENCE/assay_numeric_usability_annotation.tsv","trackSchemaId":"assay_numeric_usability_annotation","supports1d":true,"supportsTable":true,"colorPolicyId":"rmdb_reactivity_low_mid_high_v1"},{"profileId":"data-rna-structures/data-rna-structures/RFM100_2A3_0000.rdat#7091","trackRouteId":"annojoin:track:RMDB2PDB:pairseg_6ZU5_sequence_000626","trackDataPath":"ANNOCONFIDENCE/assay_numeric_usability_annotation.tsv","trackSchemaId":"assay_numeric_usability_annotation","supports1d":true,"supportsTable":true,"colorPolicyId":"rmdb_reactivity_low_mid_high_v1"},{"profileId":"data-rna-structures/data-rna-structures/RFMREP_2A3_0001.rdat#5002","trackRouteId":"annojoin:track:RMDB2PDB:pairseg_6ZU5_sequence_000627","trackDataPath":"ANNOCONFIDENCE/assay_numeric_usability_annotation.tsv","trackSchemaId":"assay_numeric_usability_annotation","supports1d":true,"supportsTable":true,"colorPolicyId":"rmdb_reactivity_low_mid_high_v1"},{"profileId":"data-rna-structures/data-rna-structures/RFMREP_DMS_0001.rdat#5002","trackRouteId":"annojoin:track:RMDB2PDB:pairseg_6ZU5_sequence_000628","trackDataPath":"ANNOCONFIDENCE/assay_numeric_usability_annotation.tsv","trackSchemaId":"assay_numeric_usability_annotation","supports1d":true,"supportsTable":true,"colorPolicyId":"rmdb_reactivity_low_mid_high_v1"},{"profileId":"data-rna-structures/data-rna-structures/RFMREP_2A3_0001.rdat#5004","trackRouteId":"annojoin:track:RMDB2PDB:pairseg_6ZU5_sequence_000629","trackDataPath":"ANNOCONFIDENCE/assay_numeric_usability_annotation.tsv","trackSchemaId":"assay_numeric_usability_annotation","supports1d":true,"supportsTable":true,"colorPolicyId":"rmdb_reactivity_low_mid_high_v1"},{"profileId":"data-rna-structures/data-rna-structures/RFMREP_DMS_0001.rdat#5004","trackRouteId":"annojoin:track:RMDB2PDB:pairseg_6ZU5_sequence_000630","trackDataPath":"ANNOCONFIDENCE/assay_numeric_usability_annotation.tsv","trackSchemaId":"assay_numeric_usability_annotation","supports1d":true,"supportsTable":true,"colorPolicyId":"rmdb_reactivity_low_mid_high_v1"},{"profileId":"data-rna-structures/data-rna-structures/RFMREP_DMS_0001.rdat#5001","trackRouteId":"annojoin:track:RMDB2PDB:pairseg_6ZU5_sequence_000631","trackDataPath":"ANNOCONFIDENCE/assay_numeric_usability_annotation.tsv","trackSchemaId":"assay_numeric_usability_annotation","supports1d":true,"supportsTable":true,"colorPolicyId":"rmdb_reactivity_low_mid_high_v1"},{"profileId":"data-rna-structures/data-rna-structures/RFMREP_2A3_0001.rdat#5001","trackRouteId":"annojoin:track:RMDB2PDB:pairseg_6ZU5_sequence_000632","trackDataPath":"ANNOCONFIDENCE/assay_numeric_usability_annotation.tsv","trackSchemaId":"assay_numeric_usability_annotation","supports1d":true,"supportsTable":true,"colorPolicyId":"rmdb_reactivity_low_mid_high_v1"},{"profileId":"data-rna-structures/data-rna-structures/RFMREP_2A3_0000.rdat#63399","trackRouteId":"annojoin:track:RMDB2PDB:pairseg_6ZU5_sequence_000633","trackDataPath":"ANNOCONFIDENCE/assay_numeric_usability_annotation.tsv","trackSchemaId":"assay_numeric_usability_annotation","supports1d":true,"supportsTable":true,"colorPolicyId":"rmdb_reactivity_low_mid_high_v1"},{"profileId":"data-rna-structures/data-rna-structures/RFMREP_DMS_0000.rdat#63399","trackRouteId":"annojoin:track:RMDB2PDB:pairseg_6ZU5_sequence_000634","trackDataPath":"ANNOCONFIDENCE/assay_numeric_usability_annotation.tsv","trackSchemaId":"assay_numeric_usability_annotation","supports1d":true,"supportsTable":true,"colorPolicyId":"rmdb_reactivity_low_mid_high_v1"},{"profileId":"data-rna-structures/data-rna-structures/RFMREP_2A3_0001.rdat#5003","trackRouteId":"annojoin:track:RMDB2PDB:pairseg_6ZU5_sequence_000635","trackDataPath":"ANNOCONFIDENCE/assay_numeric_usability_annotation.tsv","trackSchemaId":"assay_numeric_usability_annotation","supports1d":true,"supportsTable":true,"colorPolicyId":"rmdb_reactivity_low_mid_high_v1"},{"profileId":"data-rna-structures/data-rna-structures/RFMREP_DMS_0001.rdat#5003","trackRouteId":"annojoin:track:RMDB2PDB:pairseg_6ZU5_sequence_000636","trackDataPath":"ANNOCONFIDENCE/assay_numeric_usability_annotation.tsv","trackSchemaId":"assay_numeric_usability_annotation","supports1d":true,"supportsTable":true,"colorPolicyId":"rmdb_reactivity_low_mid_high_v1"},{"profileId":"data-rna-structures/data-rna-structures/RFMREP_DMS_0000.rdat#41461","trackRouteId":"annojoin:track:RMDB2PDB:pairseg_6ZU5_sequence_000637","trackDataPath":"ANNOCONFIDENCE/assay_numeric_usability_annotation.tsv","trackSchemaId":"assay_numeric_usability_annotation","supports1d":true,"supportsTable":true,"colorPolicyId":"rmdb_reactivity_low_mid_high_v1"},{"profileId":"data-rna-structures/data-rna-structures/RFMREP_2A3_0000.rdat#41461","trackRouteId":"annojoin:track:RMDB2PDB:pairseg_6ZU5_sequence_000638","trackDataPath":"ANNOCONFIDENCE/assay_numeric_usability_annotation.tsv","trackSchemaId":"assay_numeric_usability_annotation","supports1d":true,"supportsTable":true,"colorPolicyId":"rmdb_reactivity_low_mid_high_v1"},{"profileId":"data-rna-structures/data-rna-structures/RFMREP_2A3_0000.rdat#66536","trackRouteId":"annojoin:track:RMDB2PDB:pairseg_6ZU5_sequence_000639","trackDataPath":"ANNOCONFIDENCE/assay_numeric_usability_annotation.tsv","trackSchemaId":"assay_numeric_usability_annotation","supports1d":true,"supportsTable":true,"colorPolicyId":"rmdb_reactivity_low_mid_high_v1"},{"profileId":"data-rna-structures/data-rna-structures/RFMREP_DMS_0000.rdat#66536","trackRouteId":"annojoin:track:RMDB2PDB:pairseg_6ZU5_sequence_000640","trackDataPath":"ANNOCONFIDENCE/assay_numeric_usability_annotation.tsv","trackSchemaId":"assay_numeric_usability_annotation","supports1d":true,"supportsTable":true,"colorPolicyId":"rmdb_reactivity_low_mid_high_v1"},{"profileId":"data-rna-structures/data-rna-structures/RFM100_2A3_0000.rdat#13835","trackRouteId":"annojoin:track:RMDB2PDB:pairseg_6ZU5_sequence_000641","trackDataPath":"ANNOCONFIDENCE/assay_numeric_usability_annotation.tsv","trackSchemaId":"assay_numeric_usability_annotation","supports1d":true,"supportsTable":true,"colorPolicyId":"rmdb_reactivity_low_mid_high_v1"},{"profileId":"data-rna-structures/data-rna-structures/RFM100_DMS_0000.rdat#13835","trackRouteId":"annojoin:track:RMDB2PDB:pairseg_6ZU5_sequence_000642","trackDataPath":"ANNOCONFIDENCE/assay_numeric_usability_annotation.tsv","trackSchemaId":"assay_numeric_usability_annotation","supports1d":true,"supportsTable":true,"colorPolicyId":"rmdb_reactivity_low_mid_high_v1"},{"profileId":"data-rna-structures/data-rna-structures/RFMREP_2A3_0000.rdat#23976","trackRouteId":"annojoin:track:RMDB2PDB:pairseg_6ZU5_sequence_000643","trackDataPath":"ANNOCONFIDENCE/assay_numeric_usability_annotation.tsv","trackSchemaId":"assay_numeric_usability_annotation","supports1d":true,"supportsTable":true,"colorPolicyId":"rmdb_reactivity_low_mid_high_v1"},{"profileId":"data-rna-structures/data-rna-structures/RFMREP_DMS_0000.rdat#23976","trackRouteId":"annojoin:track:RMDB2PDB:pairseg_6ZU5_sequence_000644","trackDataPath":"ANNOCONFIDENCE/assay_numeric_usability_annotation.tsv","trackSchemaId":"assay_numeric_usability_annotation","supports1d":true,"supportsTable":true,"colorPolicyId":"rmdb_reactivity_low_mid_high_v1"},{"profileId":"data-rna-structures/data-rna-structures/RFMREP_DMS_0000.rdat#23996","trackRouteId":"annojoin:track:RMDB2PDB:pairseg_6ZU5_sequence_000645","trackDataPath":"ANNOCONFIDENCE/assay_numeric_usability_annotation.tsv","trackSchemaId":"assay_numeric_usability_annotation","supports1d":true,"supportsTable":true,"colorPolicyId":"rmdb_reactivity_low_mid_high_v1"},{"profileId":"data-rna-structures/data-rna-structures/RFM100_DMS_0000.rdat#13818","trackRouteId":"annojoin:track:RMDB2PDB:pairseg_6ZU5_sequence_000646","trackDataPath":"ANNOCONFIDENCE/assay_numeric_usability_annotation.tsv","trackSchemaId":"assay_numeric_usability_annotation","supports1d":true,"supportsTable":true,"colorPolicyId":"rmdb_reactivity_low_mid_high_v1"},{"profileId":"data-rna-structures/data-rna-structures/RFMREP_2A3_0000.rdat#23996","trackRouteId":"annojoin:track:RMDB2PDB:pairseg_6ZU5_sequence_000647","trackDataPath":"ANNOCONFIDENCE/assay_numeric_usability_annotation.tsv","trackSchemaId":"assay_numeric_usability_annotation","supports1d":true,"supportsTable":true,"colorPolicyId":"rmdb_reactivity_low_mid_high_v1"},{"profileId":"data-rna-structures/data-rna-structures/RFM100_2A3_0000.rdat#13818","trackRouteId":"annojoin:track:RMDB2PDB:pairseg_6ZU5_sequence_000648","trackDataPath":"ANNOCONFIDENCE/assay_numeric_usability_annotation.tsv","trackSchemaId":"assay_numeric_usability_annotation","supports1d":true,"supportsTable":true,"colorPolicyId":"rmdb_reactivity_low_mid_high_v1"},{"profileId":"data-rna-structures/data-rna-structures/RFMREP_2A3_0000.rdat#66516","trackRouteId":"annojoin:track:RMDB2PDB:pairseg_6ZU5_sequence_000649","trackDataPath":"ANNOCONFIDENCE/assay_numeric_usability_annotation.tsv","trackSchemaId":"assay_numeric_usability_annotation","supports1d":true,"supportsTable":true,"colorPolicyId":"rmdb_reactivity_low_mid_high_v1"},{"profileId":"data-rna-structures/data-rna-structures/RFMREP_DMS_0000.rdat#66516","trackRouteId":"annojoin:track:RMDB2PDB:pairseg_6ZU5_sequence_000650","trackDataPath":"ANNOCONFIDENCE/assay_numeric_usability_annotation.tsv","trackSchemaId":"assay_numeric_usability_annotation","supports1d":true,"supportsTable":true,"colorPolicyId":"rmdb_reactivity_low_mid_high_v1"},{"profileId":"data-rna-structures/data-rna-structures/RFMREP_DMS_0000.rdat#41517","trackRouteId":"annojoin:track:RMDB2PDB:pairseg_6ZU5_sequence_000651","trackDataPath":"ANNOCONFIDENCE/assay_numeric_usability_annotation.tsv","trackSchemaId":"assay_numeric_usability_annotation","supports1d":true,"supportsTable":true,"colorPolicyId":"rmdb_reactivity_low_mid_high_v1"},{"profileId":"data-rna-structures/data-rna-structures/RFMREP_2A3_0000.rdat#41517","trackRouteId":"annojoin:track:RMDB2PDB:pairseg_6ZU5_sequence_000652","trackDataPath":"ANNOCONFIDENCE/assay_numeric_usability_annotation.tsv","trackSchemaId":"assay_numeric_usability_annotation","supports1d":true,"supportsTable":true,"colorPolicyId":"rmdb_reactivity_low_mid_high_v1"},{"profileId":"data-rna-structures/data-rna-structures/RFM100_DMS_0000.rdat#2983","trackRouteId":"annojoin:track:RMDB2PDB:pairseg_6ZU5_sequence_000653","trackDataPath":"ANNOCONFIDENCE/assay_numeric_usability_annotation.tsv","trackSchemaId":"assay_numeric_usability_annotation","supports1d":true,"supportsTable":true,"colorPolicyId":"rmdb_reactivity_low_mid_high_v1"},{"profileId":"data-rna-structures/data-rna-structures/RFM100_2A3_0000.rdat#2983","trackRouteId":"annojoin:track:RMDB2PDB:pairseg_6ZU5_sequence_000654","trackDataPath":"ANNOCONFIDENCE/assay_numeric_usability_annotation.tsv","trackSchemaId":"assay_numeric_usability_annotation","supports1d":true,"supportsTable":true,"colorPolicyId":"rmdb_reactivity_low_mid_high_v1"},{"profileId":"data-rna-structures/data-rna-structures/RFMREP_2A3_0000.rdat#34849","trackRouteId":"annojoin:track:RMDB2PDB:pairseg_6ZU5_sequence_000655","trackDataPath":"ANNOCONFIDENCE/assay_numeric_usability_annotation.tsv","trackSchemaId":"assay_numeric_usability_annotation","supports1d":true,"supportsTable":true,"colorPolicyId":"rmdb_reactivity_low_mid_high_v1"},{"profileId":"data-rna-structures/data-rna-structures/RFMREP_DMS_0000.rdat#34849","trackRouteId":"annojoin:track:RMDB2PDB:pairseg_6ZU5_sequence_000656","trackDataPath":"ANNOCONFIDENCE/assay_numeric_usability_annotation.tsv","trackSchemaId":"assay_numeric_usability_annotation","supports1d":true,"supportsTable":true,"colorPolicyId":"rmdb_reactivity_low_mid_high_v1"}]}
